mesh dimension:       3
macro file name:      Macro/periodic.amc
global refinements:   2
polynomial degree:    4

online graphics:      1 % graphical output desired?

problem number: 0 % 0: topological torus, 1: topological Klein's bottle

% graphic windows: solution, estimate, mesh, and error if size > 0
graphic windows:     400 400 400 400
% for gltools graphics you can specify the range for the values of
% discrete solution for displaying:  min max
% automatical scaling by display routine if min >= max
gltools range:  0.0 -1.0

solver:                2 % 1: BICGSTAB 2: CG 3: GMRES 4: ODIR 5: ORES
solver max iteration:  1000
solver restart:        10  %  only used for GMRES
solver tolerance:      1.e-8
solver info:           2   
solver precon:         2   % 0: no precon
                           % 1: diag precon
                           % 2: HB precon
                           % 3: BPX precon
                           % 4: SSOR, omega = 1.0, #iter = 3
                           % 5: SSOR, with control over omega and #iter
                           % 6: ILU(k)
precon ssor omega:    1.0  % for precon == 5
precon ssor iter:     1    % for precon == 5
precon ilu(k):        8    % for precon == 6
                         
error norm:           1   % 1: H1_NORM, 2: L2_NORM
estimator C0:         0.1 % constant of element residual
estimator C1:         0.1 % constant of jump residual
estimator C2:         0.0 % constant of coarsening estimate

adapt->strategy:          3   % 0: no adaption 1: GR 2: MS 3: ES 4:GERS
adapt->tolerance:         1e-2 1e-12 1.e-4
adapt->MS_gamma:          0.5
adapt->MS_gamma_c:        0.1
adapt->ES_theta:          1.9
adapt->ES_theta_c:        0.2
adapt->GERS_theta_star:   0.6
adapt->GERS_nu:           0.1
adapt->GERS_theta_c:      0.1
adapt->coarsen_allowed:   1
adapt->max_iteration:     20
adapt->info:              8

WAIT: 1

