%!PS-Adobe-2.0 EPSF-2.0
%%BoundingBox: 49 319 311 563
%%Title: /tmp_mnt/hosts/xtreme/mnt2/ALBERTA/DOC/EPS/cubic_orient.eps
%%CreationDate: 11:29 AM September  6, 1999
%%Pages: 1
%%EndComments
%%BeginProlog
%%BeginResource ShowcaseResource
1 setlinejoin
/M  { moveto } bind def /S { show  } bind def
/R { rmoveto } bind def /L { lineto } bind def
/B { newpath 0 0 M 0 1 L 1 1 L 1 0 L closepath } bind def
/CS { closepath stroke } bind def
/S {
    /fixwidth exch def
    dup length /nchars exch def
    dup stringwidth pop
    fixwidth exch sub nchars div
    exch 0 exch ashow
} def
/bwproc {
	rgbproc
	dup length 3 idiv string 0 3 0
	5 -1 roll {
	add 2 1 roll 1 sub dup 0 eq
	{ pop 3 idiv 3 -1 roll dup 4 -1 roll dup
	  3 1 roll 5 -1 roll put 1 add 3 0 }
	{ 2 1 roll } ifelse
	} forall
	pop pop pop
} def
systemdict /colorimage known not {
	/colorimage {
		pop
		pop
		/rgbproc exch def
		{ bwproc } image
	} def
} if
1 1 scale
0 setlinewidth
/drawtri {
/y3 exch def
/x3 exch def
/y2 exch def
/x2 exch def
/y1 exch def
/x1 exch def
0 setgray
newpath
x1 y1 moveto
x2 y2 lineto
x3 y3 lineto
closepath
stroke
} bind def
/filltri {
/y3 exch def
/x3 exch def
/y2 exch def
/x2 exch def
/y1 exch def
/x1 exch def
newpath
x1 y1 moveto
x2 y2 lineto
x3 y3 lineto
closepath
fill
} bind def
/cliptri {
/y3 exch def
/x3 exch def
/y2 exch def
/x2 exch def
/y1 exch def
/x1 exch def
0 setgray
newpath
x1 y1 moveto
x2 y2 lineto
x3 y3 lineto
closepath
clip
} bind def
/imgscanrgb {
gsave
translate
/scandy exch def
/scandx exch def
/istr scandx 3 mul string def
scandx scandy scale
scandx scandy 8
[scandx 0 0 scandy neg 0 scandy]
{currentfile istr readhexstring pop}
false 3
colorimage
grestore
} bind def
/imgscanbw {
gsave
translate
/scandy exch def
/scandx exch def
/istr scandx string def
scandx scandy scale
scandx scandy 8
[scandx 0 0 scandy neg 0 scandy]
{currentfile istr readhexstring pop}
image
grestore
} bind def
/showcaseisoencoding [
/.notdef /.notdef /.notdef /.notdef
/.notdef /.notdef /.notdef /.notdef
/.notdef /.notdef /.notdef /.notdef
/.notdef /.notdef /.notdef /.notdef
/.notdef /.notdef /.notdef /.notdef
/.notdef /.notdef /.notdef /.notdef
/.notdef /.notdef /.notdef /.notdef
/.notdef /.notdef /.notdef /.notdef
/space /exclam /quotedbl /numbersign
/dollar /percent /ampersand /quoteright
/parenleft /parenright /asterisk /plus
/comma /minus /period /slash
/zero /one /two /three /four /five /six /seven
/eight /nine /colon /semicolon
/less /equal /greater /question
/at /A /B /C /D /E /F /G
/H /I /J /K /L /M /N /O
/P /Q /R /S /T /U /V /W
/X /Y /Z /bracketleft
/backslash /bracketright /asciicircum /underscore
/quoteleft /a /b /c /d /e /f /g
/h /i /j /k /l /m /n /o
/p /q /r /s /t /u /v /w
/x /y /z /braceleft
/bar /braceright /asciitilde /guilsinglright
/fraction /florin /quotesingle /quotedblleft
/guilsinglleft /fi /fl /endash
/dagger /daggerdbl /bullet /quotesinglbase
/quotedblbase /quotedblright /ellipsis /trademark
/dotlessi /grave /acute /circumflex
/tilde /macron /breve /dotaccent
/dieresis /perthousand /ring /cedilla
/Ydieresis /hungarumlaut /ogonek /caron
/emdash /exclamdown /cent /sterling
/currency /yen /brokenbar /section
/dieresis /copyright /ordfeminine /guillemotleft
/logicalnot /hyphen /registered /macron
/degree /plusminus /twosuperior /threesuperior
/acute /mu /paragraph /periodcentered
/cedilla /onesuperior /ordmasculine /guillemotright
/onequarter /onehalf /threequarters /questiondown
/Agrave /Aacute /Acircumflex /Atilde
/Adieresis /Aring /AE /Ccedilla
/Egrave /Eacute /Ecircumflex /Edieresis
/Igrave /Iacute /Icircumflex /Idieresis
/Eth /Ntilde /Ograve /Oacute
/Ocircumflex /Otilde /Odieresis /multiply
/Oslash /Ugrave /Uacute /Ucircumflex
/Udieresis /Yacute /Thorn /germandbls
/agrave /aacute /acircumflex /atilde
/adieresis /aring /ae /ccedilla
/egrave /eacute /ecircumflex /edieresis
/igrave /iacute /icircumflex /idieresis
/eth /ntilde /ograve /oacute
/ocircumflex /otilde /odieresis /divide
/oslash /ugrave /uacute /ucircumflex
/udieresis /yacute /thorn /ydieresis ] def
/showcasedingbatencoding [
/.notdef /.notdef /.notdef /.notdef
/.notdef /.notdef /.notdef /.notdef
/.notdef /.notdef /.notdef /.notdef
/.notdef /.notdef /.notdef /.notdef
/.notdef /.notdef /.notdef /.notdef
/.notdef /.notdef /.notdef /.notdef
/.notdef /.notdef /.notdef /.notdef
/.notdef /.notdef /.notdef /.notdef
/.notdef /a1 /a2 /a202 /a3 /a4 /a5 /a119 /a118 /a117
/a11 /a12 /a13 /a14 /a15 /a16 /a105 /a17 /a18 /a19
/a20 /a21 /a22 /a23 /a24 /a25 /a26 /a27 /a28 /a6 /a7
/a8 /a9 /a10 /a29
/a30 /a31 /a32 /a33 /a34 /a35 /a36 /a37 /a38 /a39
/a40 /a41 /a42 /a43 /a44 /a45 /a46 /a47 /a48 /a49
/a50 /a51 /a52 /a53 /a54 /a55 /a56 /a57 /a58 /a59
/a60 /a61 /a62 /a63 /a64 /a65 /a66 /a67 /a68 /a69
/a70 /a71 /a72 /a73 /a74 /a203 /a75 /a204 /a76 /a77 /a78
/a79 /a81 /a82 /a83 /a84 /a97 /a98 /a99 /a100 /.notdef
/a205 /a85 /a206 /a86 /a87 /a88 /a89 /a90 /a91 /a92 /a93
/a94 /a95 /a96
/.notdef /.notdef /.notdef /.notdef /.notdef /.notdef
/.notdef /.notdef /.notdef /.notdef /.notdef /.notdef
/.notdef /.notdef /.notdef /.notdef /.notdef /.notdef
/.notdef /a101 /a102 /a103 /a104 /a106 /a107 /a108
/a112 /a111 /a110 /a109
/a120 /a121 /a122 /a123 /a124 /a125 /a126 /a127 /a128 /a129
/a130 /a131 /a132 /a133 /a134 /a135 /a136 /a137 /a138 /a139
/a140 /a141 /a142 /a143 /a144 /a145 /a146 /a147 /a148 /a149
/a150 /a151 /a152 /a153 /a154 /a155 /a156 /a157 /a158 /a159
/a160 /a161 /a163 /a164 /a196 /a165 /a192 /a166 /a167 /a168
/a169 /a170 /a171 /a172 /a173 /a162 /a174 /a175 /a176 /a177
/a178 /a179 /a193 /a180 /a199 /a181 /a200 /a182 /.notdef
/a201 /a183 /a184 /a197 /a185 /a194 /a198 /a186 /a195 /a187
/a188 /a189 /a190 /a191 /.notdef
] def
/Times-Roman findfont
dup length dict begin
  {1 index /FID ne {def} {pop pop} ifelse} forall
  /Encoding showcaseisoencoding def
  currentdict
end
/Times-Roman-SHOWISO exch definefont pop
/newfont 10 dict def
newfont begin

 /FontType 3 def
 /FontMatrix [1 0 0 1 0 0] def
 /FontBBox [0 0 1 1] def
 /Encoding 256 array def
 0 1 255 {Encoding exch /.notdef put} for

 /CharProcs 1 dict def
 CharProcs begin
 /.notdef {} def

end

 /BuildChar {
  1 0
  0 0 1 1
  setcachedevice
  exch begin
  Encoding exch get
  CharProcs exch get
  end
  exec
 } def
end
/PatternFont newfont definefont pop

%%EndResource
%%EndProlog
%%BeginSetup
%%EndSetup
%%Page: label 1
gsave
/saveit save def
gsave
gsave
0 0 0 setrgbcolor
1.000000 setlinewidth
newpath
162 558 M
54 414 L
180 324 L
closepath
stroke
grestore
gsave
0 0 0 setrgbcolor
1.000000 setlinewidth
newpath
162 558 M
306 450 L
180 324 L
stroke
grestore
gsave
matrix currentmatrix
[4.5 0 0 4.5 180 324] concat
newpath
0 0 1 0 360 arc
setmatrix
0 0 0 setrgbcolor
closepath fill
grestore
gsave
matrix currentmatrix
[4.5 0 0 4.5 162 558] concat
newpath
0 0 1 0 360 arc
setmatrix
0 0 0 setrgbcolor
closepath fill
grestore
gsave
matrix currentmatrix
[4.5 0 0 4.5 306 450] concat
newpath
0 0 1 0 360 arc
setmatrix
0 0 0 setrgbcolor
closepath fill
grestore
gsave
matrix currentmatrix
[4.5 0 0 4.5 54 414] concat
newpath
0 0 1 0 360 arc
setmatrix
0 0 0 setrgbcolor
closepath fill
grestore
gsave
matrix currentmatrix
[4.5 0 0 4.5 174.5 403.5] concat
newpath
0 0 1 0 360 arc
setmatrix
0 0 0 setrgbcolor
closepath fill
grestore
gsave
matrix currentmatrix
[4.5 0 0 4.5 169.5 478.5] concat
newpath
0 0 1 0 360 arc
setmatrix
0 0 0 setrgbcolor
closepath fill
grestore
gsave
matrix currentmatrix
[4.5 0 0 4.5 125.5 508.5] concat
newpath
0 0 1 0 360 arc
setmatrix
0 0 0 setrgbcolor
closepath fill
grestore
gsave
matrix currentmatrix
[4.5 0 0 4.5 92.5 463.5] concat
newpath
0 0 1 0 360 arc
setmatrix
0 0 0 setrgbcolor
closepath fill
grestore
gsave
matrix currentmatrix
[4.5 0 0 4.5 95.5 384.5] concat
newpath
0 0 1 0 360 arc
setmatrix
0 0 0 setrgbcolor
closepath fill
grestore
gsave
matrix currentmatrix
[4.5 0 0 4.5 142.5 351.5] concat
newpath
0 0 1 0 360 arc
setmatrix
0 0 0 setrgbcolor
closepath fill
grestore
gsave
matrix currentmatrix
[4.5 0 0 4.5 264.5 408.5] concat
newpath
0 0 1 0 360 arc
setmatrix
0 0 0 setrgbcolor
closepath fill
grestore
gsave
matrix currentmatrix
[4.5 0 0 4.5 223.5 367.5] concat
newpath
0 0 1 0 360 arc
setmatrix
0 0 0 setrgbcolor
closepath fill
grestore
gsave
matrix currentmatrix
[4.5 0 0 4.5 251.5 490.5] concat
newpath
0 0 1 0 360 arc
setmatrix
0 0 0 setrgbcolor
closepath fill
grestore
gsave
matrix currentmatrix
[4.5 0 0 4.5 208.5 524.5] concat
newpath
0 0 1 0 360 arc
setmatrix
0 0 0 setrgbcolor
closepath fill
grestore
gsave
matrix currentmatrix
[4.5 0 0 4.5 223.5 444.5] concat
newpath
0 0 1 0 360 arc
setmatrix
0 0 0 setrgbcolor
closepath fill
grestore
gsave
matrix currentmatrix
[4.5 0 0 4.5 132.5 433.5] concat
newpath
0 0 1 0 360 arc
setmatrix
0 0 0 setrgbcolor
closepath fill
grestore
gsave
gsave
matrix currentmatrix
[1 0 0 1 67 409] concat
newpath
0 0 M 0 14 L 9 14 L 9 0 L
closepath setmatrix
0 0 0 setrgbcolor
grestore
newpath
65 407 M 65 425.471 L 78 425.471 L 78 407 L
closepath clip newpath
0 0 0 setrgbcolor
matrix currentmatrix
[1 0 0 1 67 409] concat
/Times-Roman-SHOWISO findfont 14 scalefont setfont
0 0 0 setrgbcolor
0 2.47059 M (0) 7 S
setmatrix
grestore
gsave
gsave
matrix currentmatrix
[1 0 0 1 165 339] concat
newpath
0 0 M 0 14 L 9 14 L 9 0 L
closepath setmatrix
0 0 0 setrgbcolor
grestore
newpath
163 337 M 163 355.471 L 176 355.471 L 176 337 L
closepath clip newpath
0 0 0 setrgbcolor
matrix currentmatrix
[1 0 0 1 165 339] concat
/Times-Roman-SHOWISO findfont 14 scalefont setfont
0 0 0 setrgbcolor
0 2.47059 M (1) 7 S
setmatrix
grestore
gsave
gsave
matrix currentmatrix
[1 0 0 1 152 528] concat
newpath
0 0 M 0 14 L 9 14 L 9 0 L
closepath setmatrix
0 0 0 setrgbcolor
grestore
newpath
150 526 M 150 544.471 L 163 544.471 L 163 526 L
closepath clip newpath
0 0 0 setrgbcolor
matrix currentmatrix
[1 0 0 1 152 528] concat
/Times-Roman-SHOWISO findfont 14 scalefont setfont
0 0 0 setrgbcolor
0 2.47059 M (2) 7 S
setmatrix
grestore
gsave
gsave
matrix currentmatrix
[1 0 0 1 132 491] concat
newpath
0 0 M 0 14 L 9 14 L 9 0 L
closepath setmatrix
0 0 0 setrgbcolor
grestore
newpath
130 489 M 130 507.471 L 143 507.471 L 143 489 L
closepath clip newpath
0 0 0 setrgbcolor
matrix currentmatrix
[1 0 0 1 132 491] concat
/Times-Roman-SHOWISO findfont 14 scalefont setfont
0 0 0 setrgbcolor
0 2.47059 M (5) 7 S
setmatrix
grestore
gsave
gsave
matrix currentmatrix
[1 0 0 1 99 446] concat
newpath
0 0 M 0 14 L 9 14 L 9 0 L
closepath setmatrix
0 0 0 setrgbcolor
grestore
newpath
97 444 M 97 462.471 L 110 462.471 L 110 444 L
closepath clip newpath
0 0 0 setrgbcolor
matrix currentmatrix
[1 0 0 1 99 446] concat
/Times-Roman-SHOWISO findfont 14 scalefont setfont
0 0 0 setrgbcolor
0 2.47059 M (6) 7 S
setmatrix
grestore
gsave
gsave
matrix currentmatrix
[1 0 0 1 140 417] concat
newpath
0 0 M 0 14 L 9 14 L 9 0 L
closepath setmatrix
0 0 0 setrgbcolor
grestore
newpath
138 415 M 138 433.471 L 151 433.471 L 151 415 L
closepath clip newpath
0 0 0 setrgbcolor
matrix currentmatrix
[1 0 0 1 140 417] concat
/Times-Roman-SHOWISO findfont 14 scalefont setfont
0 0 0 setrgbcolor
0 2.47059 M (9) 7 S
setmatrix
grestore
gsave
gsave
matrix currentmatrix
[1 0 0 1 154 470] concat
newpath
0 0 M 0 14 L 9 14 L 9 0 L
closepath setmatrix
0 0 0 setrgbcolor
grestore
newpath
152 468 M 152 486.471 L 165 486.471 L 165 468 L
closepath clip newpath
0 0 0 setrgbcolor
matrix currentmatrix
[1 0 0 1 154 470] concat
/Times-Roman-SHOWISO findfont 14 scalefont setfont
0 0 0 setrgbcolor
0 2.47059 M (4) 7 S
setmatrix
grestore
gsave
gsave
matrix currentmatrix
[1 0 0 1 158 397] concat
newpath
0 0 M 0 14 L 9 14 L 9 0 L
closepath setmatrix
0 0 0 setrgbcolor
grestore
newpath
156 395 M 156 413.471 L 169 413.471 L 169 395 L
closepath clip newpath
0 0 0 setrgbcolor
matrix currentmatrix
[1 0 0 1 158 397] concat
/Times-Roman-SHOWISO findfont 14 scalefont setfont
0 0 0 setrgbcolor
0 2.47059 M (3) 7 S
setmatrix
grestore
gsave
gsave
matrix currentmatrix
[1 0 0 1 105 383] concat
newpath
0 0 M 0 14 L 9 14 L 9 0 L
closepath setmatrix
0 0 0 setrgbcolor
grestore
newpath
103 381 M 103 399.471 L 116 399.471 L 116 381 L
closepath clip newpath
0 0 0 setrgbcolor
matrix currentmatrix
[1 0 0 1 105 383] concat
/Times-Roman-SHOWISO findfont 14 scalefont setfont
0 0 0 setrgbcolor
0 2.47059 M (7) 7 S
setmatrix
grestore
gsave
gsave
matrix currentmatrix
[1 0 0 1 148 357] concat
newpath
0 0 M 0 14 L 9 14 L 9 0 L
closepath setmatrix
0 0 0 setrgbcolor
grestore
newpath
146 355 M 146 373.471 L 159 373.471 L 159 355 L
closepath clip newpath
0 0 0 setrgbcolor
matrix currentmatrix
[1 0 0 1 148 357] concat
/Times-Roman-SHOWISO findfont 14 scalefont setfont
0 0 0 setrgbcolor
0 2.47059 M (8) 7 S
setmatrix
grestore
gsave
gsave
matrix currentmatrix
[1 0 0 1 182 337] concat
newpath
0 0 M 0 14 L 9 14 L 9 0 L
closepath setmatrix
0 0 0 setrgbcolor
grestore
newpath
180 335 M 180 353.471 L 193 353.471 L 193 335 L
closepath clip newpath
0 0 0 setrgbcolor
matrix currentmatrix
[1 0 0 1 182 337] concat
/Times-Roman-SHOWISO findfont 14 scalefont setfont
0 0 0 setrgbcolor
0 2.47059 M (2) 7 S
setmatrix
grestore
gsave
gsave
matrix currentmatrix
[1 0 0 1 208 369] concat
newpath
0 0 M 0 14 L 9 14 L 9 0 L
closepath setmatrix
0 0 0 setrgbcolor
grestore
newpath
206 367 M 206 385.471 L 219 385.471 L 219 367 L
closepath clip newpath
0 0 0 setrgbcolor
matrix currentmatrix
[1 0 0 1 208 369] concat
/Times-Roman-SHOWISO findfont 14 scalefont setfont
0 0 0 setrgbcolor
0 2.47059 M (5) 7 S
setmatrix
grestore
gsave
gsave
matrix currentmatrix
[1 0 0 1 247 411] concat
newpath
0 0 M 0 14 L 9 14 L 9 0 L
closepath setmatrix
0 0 0 setrgbcolor
grestore
newpath
245 409 M 245 427.471 L 258 427.471 L 258 409 L
closepath clip newpath
0 0 0 setrgbcolor
matrix currentmatrix
[1 0 0 1 247 411] concat
/Times-Roman-SHOWISO findfont 14 scalefont setfont
0 0 0 setrgbcolor
0 2.47059 M (6) 7 S
setmatrix
grestore
gsave
gsave
matrix currentmatrix
[1 0 0 1 286 442] concat
newpath
0 0 M 0 14 L 9 14 L 9 0 L
closepath setmatrix
0 0 0 setrgbcolor
grestore
newpath
284 440 M 284 458.471 L 297 458.471 L 297 440 L
closepath clip newpath
0 0 0 setrgbcolor
matrix currentmatrix
[1 0 0 1 286 442] concat
/Times-Roman-SHOWISO findfont 14 scalefont setfont
0 0 0 setrgbcolor
0 2.47059 M (0) 7 S
setmatrix
grestore
gsave
gsave
matrix currentmatrix
[1 0 0 1 241 470] concat
newpath
0 0 M 0 14 L 9 14 L 9 0 L
closepath setmatrix
0 0 0 setrgbcolor
grestore
newpath
239 468 M 239 486.471 L 252 486.471 L 252 468 L
closepath clip newpath
0 0 0 setrgbcolor
matrix currentmatrix
[1 0 0 1 241 470] concat
/Times-Roman-SHOWISO findfont 14 scalefont setfont
0 0 0 setrgbcolor
0 2.47059 M (7) 7 S
setmatrix
grestore
gsave
gsave
matrix currentmatrix
[1 0 0 1 196 505] concat
newpath
0 0 M 0 14 L 9 14 L 9 0 L
closepath setmatrix
0 0 0 setrgbcolor
grestore
newpath
194 503 M 194 521.471 L 207 521.471 L 207 503 L
closepath clip newpath
0 0 0 setrgbcolor
matrix currentmatrix
[1 0 0 1 196 505] concat
/Times-Roman-SHOWISO findfont 14 scalefont setfont
0 0 0 setrgbcolor
0 2.47059 M (8) 7 S
setmatrix
grestore
gsave
gsave
matrix currentmatrix
[1 0 0 1 179 468] concat
newpath
0 0 M 0 14 L 9 14 L 9 0 L
closepath setmatrix
0 0 0 setrgbcolor
grestore
newpath
177 466 M 177 484.471 L 190 484.471 L 190 466 L
closepath clip newpath
0 0 0 setrgbcolor
matrix currentmatrix
[1 0 0 1 179 468] concat
/Times-Roman-SHOWISO findfont 14 scalefont setfont
0 0 0 setrgbcolor
0 2.47059 M (3) 7 S
setmatrix
grestore
gsave
gsave
matrix currentmatrix
[1 0 0 1 207 436] concat
newpath
0 0 M 0 14 L 9 14 L 9 0 L
closepath setmatrix
0 0 0 setrgbcolor
grestore
newpath
205 434 M 205 452.471 L 218 452.471 L 218 434 L
closepath clip newpath
0 0 0 setrgbcolor
matrix currentmatrix
[1 0 0 1 207 436] concat
/Times-Roman-SHOWISO findfont 14 scalefont setfont
0 0 0 setrgbcolor
0 2.47059 M (9) 7 S
setmatrix
grestore
gsave
gsave
matrix currentmatrix
[1 0 0 1 182 397] concat
newpath
0 0 M 0 14 L 9 14 L 9 0 L
closepath setmatrix
0 0 0 setrgbcolor
grestore
newpath
180 395 M 180 413.471 L 193 413.471 L 193 395 L
closepath clip newpath
0 0 0 setrgbcolor
matrix currentmatrix
[1 0 0 1 182 397] concat
/Times-Roman-SHOWISO findfont 14 scalefont setfont
0 0 0 setrgbcolor
0 2.47059 M (4) 7 S
setmatrix
grestore
gsave
gsave
matrix currentmatrix
[1 0 0 1 171 527] concat
newpath
0 0 M 0 14 L 9 14 L 9 0 L
closepath setmatrix
0 0 0 setrgbcolor
grestore
newpath
169 525 M 169 543.471 L 182 543.471 L 182 525 L
closepath clip newpath
0 0 0 setrgbcolor
matrix currentmatrix
[1 0 0 1 171 527] concat
/Times-Roman-SHOWISO findfont 14 scalefont setfont
0 0 0 setrgbcolor
0 2.47059 M (1) 7 S
setmatrix
grestore
grestore
showpage
saveit restore
grestore
%%EOF
