%!PS-Adobe-2.0 EPSF-2.0
%%Title: curved_simplex.fig
%%Creator: fig2dev Version 3.2 Patchlevel 4
%%CreationDate: Tue Dec  5 11:03:12 2006
%%For: dani@sputnik (Daniel Koester)
%%BoundingBox: 0 0 369 135
%%Magnification: 1.0000
%%EndComments
/$F2psDict 200 dict def
$F2psDict begin
$F2psDict /mtrx matrix put
/col-1 {0 setgray} bind def
/col0 {0.000 0.000 0.000 srgb} bind def
/col1 {0.000 0.000 1.000 srgb} bind def
/col2 {0.000 1.000 0.000 srgb} bind def
/col3 {0.000 1.000 1.000 srgb} bind def
/col4 {1.000 0.000 0.000 srgb} bind def
/col5 {1.000 0.000 1.000 srgb} bind def
/col6 {1.000 1.000 0.000 srgb} bind def
/col7 {1.000 1.000 1.000 srgb} bind def
/col8 {0.000 0.000 0.560 srgb} bind def
/col9 {0.000 0.000 0.690 srgb} bind def
/col10 {0.000 0.000 0.820 srgb} bind def
/col11 {0.530 0.810 1.000 srgb} bind def
/col12 {0.000 0.560 0.000 srgb} bind def
/col13 {0.000 0.690 0.000 srgb} bind def
/col14 {0.000 0.820 0.000 srgb} bind def
/col15 {0.000 0.560 0.560 srgb} bind def
/col16 {0.000 0.690 0.690 srgb} bind def
/col17 {0.000 0.820 0.820 srgb} bind def
/col18 {0.560 0.000 0.000 srgb} bind def
/col19 {0.690 0.000 0.000 srgb} bind def
/col20 {0.820 0.000 0.000 srgb} bind def
/col21 {0.560 0.000 0.560 srgb} bind def
/col22 {0.690 0.000 0.690 srgb} bind def
/col23 {0.820 0.000 0.820 srgb} bind def
/col24 {0.500 0.190 0.000 srgb} bind def
/col25 {0.630 0.250 0.000 srgb} bind def
/col26 {0.750 0.380 0.000 srgb} bind def
/col27 {1.000 0.500 0.500 srgb} bind def
/col28 {1.000 0.630 0.630 srgb} bind def
/col29 {1.000 0.750 0.750 srgb} bind def
/col30 {1.000 0.880 0.880 srgb} bind def
/col31 {1.000 0.840 0.000 srgb} bind def

end
save
newpath 0 135 moveto 0 0 lineto 369 0 lineto 369 135 lineto closepath clip newpath
-15.4 144.3 translate
1 -1 scale

/cp {closepath} bind def
/ef {eofill} bind def
/gr {grestore} bind def
/gs {gsave} bind def
/sa {save} bind def
/rs {restore} bind def
/l {lineto} bind def
/m {moveto} bind def
/rm {rmoveto} bind def
/n {newpath} bind def
/s {stroke} bind def
/sh {show} bind def
/slc {setlinecap} bind def
/slj {setlinejoin} bind def
/slw {setlinewidth} bind def
/srgb {setrgbcolor} bind def
/rot {rotate} bind def
/sc {scale} bind def
/sd {setdash} bind def
/ff {findfont} bind def
/sf {setfont} bind def
/scf {scalefont} bind def
/sw {stringwidth} bind def
/tr {translate} bind def
/tnt {dup dup currentrgbcolor
  4 -2 roll dup 1 exch sub 3 -1 roll mul add
  4 -2 roll dup 1 exch sub 3 -1 roll mul add
  4 -2 roll dup 1 exch sub 3 -1 roll mul add srgb}
  bind def
/shd {dup dup currentrgbcolor 4 -2 roll mul 4 -2 roll mul
  4 -2 roll mul srgb} bind def
 /DrawEllipse {
	/endangle exch def
	/startangle exch def
	/yrad exch def
	/xrad exch def
	/y exch def
	/x exch def
	/savematrix mtrx currentmatrix def
	x y tr xrad yrad sc 0 0 1 startangle endangle arc
	closepath
	savematrix setmatrix
	} def

/$F2psBegin {$F2psDict begin /$F2psEnteredState save def} def
/$F2psEnd {$F2psEnteredState restore end} def

$F2psBegin
10 setmiterlimit
0 slj 0 slc
 0.06299 0.06299 sc
%
% Fig objects follow
%
% 
% here starts figure with depth 50
% Ellipse
7.500 slw
 [60] 0 sd
n 450 1800 45 45 0 360 DrawEllipse gs 0.00 setgray ef gr gs col0 s gr
 [] 0 sd
% Ellipse
 [60] 0 sd
n 1800 1800 45 45 0 360 DrawEllipse gs 0.00 setgray ef gr gs col0 s gr
 [] 0 sd
% Ellipse
 [60] 0 sd
n 450 450 45 45 0 360 DrawEllipse gs 0.00 setgray ef gr gs col0 s gr
 [] 0 sd
% Ellipse
n 1125 1125 45 45 0 360 DrawEllipse gs col0 s gr

% Ellipse
n 1125 1800 45 45 0 360 DrawEllipse gs col0 s gr

% Ellipse
n 450 1125 45 45 0 360 DrawEllipse gs col0 s gr

% Ellipse
 [60] 0 sd
n 4050 675 45 45 0 360 DrawEllipse gs 0.00 setgray ef gr gs col0 s gr
 [] 0 sd
% Ellipse
 [60] 0 sd
n 5850 450 45 45 0 360 DrawEllipse gs 0.00 setgray ef gr gs col0 s gr
 [] 0 sd
% Ellipse
 [60] 0 sd
n 4725 2025 45 45 0 360 DrawEllipse gs 0.00 setgray ef gr gs col0 s gr
 [] 0 sd
% Ellipse
n 4500 1350 45 45 0 360 DrawEllipse gs col0 s gr

% Ellipse
n 4950 450 45 45 0 360 DrawEllipse gs col0 s gr

% Ellipse
n 5625 1350 45 45 0 360 DrawEllipse gs col0 s gr

% Polyline
n 450 450 m 450 1800 l 1800 1800 l
 450 450 l  cp gs col0 s gr 
% Polyline
 [60] 0 sd
n 450 1800 m
 1125 1125 l gs col0 s gr  [] 0 sd
% Polyline
30.000 slw
gs  clippath
3615 1215 m 3615 1035 l 3175 1035 l 3535 1125 l 3175 1215 l cp
eoclip
n 2025 1125 m
 3600 1125 l gs 0.00 setgray ef gr gs col0 s gr gr

% arrowhead
n 3175 1215 m 3535 1125 l 3175 1035 l 3175 1215 l  cp gs col7 1.00 shd ef gr  col0 s
% Polyline
2 slj
7.500 slw
n 4050 675 m 4051 676 l 4052 678 l 4056 682 l 4060 688 l 4067 696 l
 4076 706 l 4086 720 l 4099 735 l 4113 753 l 4129 773 l
 4146 795 l 4165 819 l 4184 844 l 4203 870 l 4224 897 l
 4244 926 l 4265 956 l 4287 987 l 4309 1019 l 4331 1053 l
 4354 1089 l 4377 1127 l 4401 1168 l 4426 1210 l 4450 1255 l
 4475 1302 l 4500 1350 l 4525 1402 l 4548 1452 l 4570 1500 l
 4589 1545 l 4606 1588 l 4621 1628 l 4634 1665 l 4646 1701 l
 4657 1735 l 4666 1767 l 4675 1798 l 4683 1828 l 4690 1856 l
 4696 1883 l 4702 1908 l 4707 1931 l 4711 1952 l 4715 1971 l
 4718 1987 l 4720 2000 l 4722 2010 l 4724 2017 l 4724 2021 l
 4725 2024 l
 4725 2025 l gs col0 s gr 
% Polyline
n 5850 450 m 5850 451 l 5850 454 l 5851 458 l 5851 465 l 5852 476 l
 5853 489 l 5854 505 l 5856 525 l 5857 548 l 5858 573 l
 5858 601 l 5858 631 l 5858 663 l 5857 696 l 5855 731 l
 5852 767 l 5848 803 l 5843 841 l 5836 880 l 5827 920 l
 5816 962 l 5803 1005 l 5787 1049 l 5769 1095 l 5747 1143 l
 5722 1193 l 5693 1245 l 5661 1297 l 5625 1350 l 5589 1399 l
 5551 1446 l 5512 1490 l 5472 1532 l 5433 1572 l 5393 1609 l
 5354 1643 l 5315 1675 l 5277 1706 l 5238 1734 l 5200 1761 l
 5162 1787 l 5124 1811 l 5087 1834 l 5050 1856 l 5013 1877 l
 4978 1897 l 4943 1916 l 4911 1933 l 4880 1949 l 4851 1964 l
 4825 1977 l 4801 1989 l 4781 1998 l 4764 2006 l 4751 2013 l
 4741 2018 l 4733 2021 l 4729 2023 l 4726 2024 l
 4725 2025 l gs col0 s gr 
% Polyline
n 4050 675 m 4051 675 l 4053 674 l 4057 672 l 4064 670 l 4073 667 l
 4085 662 l 4100 657 l 4118 651 l 4138 643 l 4161 635 l
 4187 627 l 4214 617 l 4244 608 l 4275 598 l 4308 587 l
 4342 577 l 4377 567 l 4413 556 l 4452 546 l 4491 536 l
 4533 525 l 4576 515 l 4622 505 l 4671 495 l 4722 485 l
 4775 476 l 4832 467 l 4890 458 l 4950 450 l 5010 443 l
 5068 437 l 5125 432 l 5178 428 l 5229 425 l 5278 423 l
 5324 422 l 5367 421 l 5409 421 l 5448 421 l 5487 422 l
 5523 423 l 5558 425 l 5592 427 l 5625 429 l 5656 431 l
 5686 433 l 5713 436 l 5739 438 l 5762 440 l 5782 443 l
 5800 444 l 5815 446 l 5827 447 l 5836 448 l 5843 449 l
 5847 450 l 5849 450 l
 5850 450 l gs col0 s gr 
% Polyline
 [60] 0 sd
n 4050 675 m 4051 675 l 4054 675 l 4058 676 l 4065 677 l 4076 678 l
 4089 680 l 4105 682 l 4125 684 l 4148 687 l 4173 691 l
 4201 695 l 4231 700 l 4263 705 l 4296 710 l 4331 716 l
 4367 723 l 4403 730 l 4441 738 l 4480 747 l 4520 756 l
 4562 767 l 4605 778 l 4649 791 l 4695 805 l 4743 821 l
 4793 839 l 4845 858 l 4897 878 l 4950 900 l 5005 925 l
 5058 950 l 5108 974 l 5155 999 l 5198 1023 l 5238 1046 l
 5275 1069 l 5310 1091 l 5342 1113 l 5372 1135 l 5401 1156 l
 5428 1176 l 5453 1197 l 5477 1216 l 5500 1235 l 5521 1254 l
 5540 1271 l 5558 1287 l 5573 1301 l 5587 1314 l 5598 1324 l
 5607 1333 l 5614 1340 l 5619 1344 l 5623 1348 l 5624 1349 l

 5625 1350 l gs col0 s gr  [] 0 sd
% here ends figure;
$F2psEnd
rs
showpage
