%!PS-Adobe-2.0 EPSF-1.2
%%Creator: GRAPE PostScript Driver
%%Title: Grape Output
%%Pages: 1
%%DocumentFonts: Times-Roman
%%BoundingBox: 101 224 495 619
%%EndComments
/GRAPEdict 100 dict def GRAPEdict begin
%****** Numerical options: *******************************
% edge-gray
0
% halftone-frequency-factor
1
% linewidth
0.4
% fontsize
11
%****** Boolean options: (true OR false) *****************
% anti white spot
false
% suppress edges
false
% suppress patches
false
% suppress lines
false
% outline-mode
false
% redefine spot function (and alter halftone-freqency)
false
% print boundingbox
false
% use edge-color-function and ignore edge-gray
false
%****** Functional options: ******************************
% edge-color-function (choose one of the 4 examples)
{currentgray 2 div setgray}
%{currentgray 1 exch sub setgray}
%{currentgray .5 lt {1} {0} ifelse setgray}
%{currentgray 180 mul cos setgray}
%****** End of options ***********************************
/b{bind def}bind def/c{exch def}b/sqr{dup mul}b
/max{dup 2 index gt{exch}if pop}b/min{dup 2 index lt{exch}if pop}b
/cd{str n get 8 bitshift str n 1 add get add/n n 2 add def}b
/bt{str n get/n n 1 add def}b
/val{str n get/n n 1 add def 255 div}b
/sI{/str exch def/n 0 def}b
/edgegrayfunc exch b/autogray c
/print_boundingbox c/newhalftoneproc c
/outlinemode c/nolines c/nopatches c/noedges c
/extraline c
/fontsize c/linewidth c/halftonefreq c/edgegray c
extraline{/fill{gsave 0 setlinewidth closepath stroke grestore fill}b}if
nopatches{/fill{newpath}b}if
outlinemode{/pc{pop 1 setgray}b}{/pc{setgray}b}ifelse
/l{sI lG setgray
cd cd moveto cd cd lineto stroke}b
/L{sI val dup/lG c setgray
cd cd moveto cd cd lineto stroke}b
/t{sI tG pc
cd cd moveto cd cd lineto cd cd lineto closepath fill}b
/T{sI val dup/tG c pc
cd cd moveto cd cd lineto cd cd lineto closepath fill}b
/fT{dup 1 and 0 ne
{cd cd moveto cd cd lineto stroke/n n 4 sub def}
{/n n 4 add def}ifelse -1 bitshift}b
/FT {1 and 0 ne
{cd cd moveto/n n 12 sub def cd cd lineto stroke}if}b
autogray
{/p{t bt/n 0 def edgegrayfunc fT fT FT}b
/P{T bt/n 1 def edgegrayfunc fT fT FT}b}
{/p{t bt/n 0 def eG setgray fT fT FT}b
/P{T bt/n 1 def eG setgray fT fT FT}b}ifelse
/S{sI val setgray cd cd moveto show}b
noedges{/P/T load b/p/t load b}if
/tG 0 def
/lG 0 def
nolines{/L{pop}b/l{pop}b}if
edgegray/eG c
/box{/y1 c/x1 c/y0 c/x0 c x0 y0 moveto x1 y0 lineto
x1 y1 lineto x0 y1 lineto closepath stroke}b
/pt{PT mul}b
newhalftoneproc{40 halftonefreq mul 45
{dup mul exch dup mul add 1 exch sub}bind setscreen}
{halftonefreq 1 ne{currentscreen 3 2 roll
halftonefreq mul 3 1 roll setscreen}if}
ifelse
end
%%EndProlog

%%Page: 1 1
GRAPEdict begin
print_boundingbox
{gsave 5 setlinewidth 101 225 495 618 box grestore}if
 72.000000 195.500000 translate
452.000000 16#ffff div dup scale
/PT 1 1 matrix currentmatrix matrix invertmatrix matrix defaultmatrix
matrix concatmatrix dtransform pop abs def
linewidth pt setlinewidth 1 setlinecap
/Times-Roman findfont fontsize pt scalefont setfont

<beac2576c5a31e7f>l
<c5a31e7fb7b61e7f>l
<b7b61e7fbeac2576>l
<beac3364b7b63a5b>l
<b7b63a5bc5a33a5b>l
<c5a33a5bbeac3364>l
<b7b62c6dbeac2576>l
<b7b61e7fc5a31e7f>l
<c5a31e7fbeac1789>l
<beac1789b7b61092>l
<b7b61092b7b61e7f>l
<b7b61e7fbeac1789>l
<beac2576b7b61e7f>l
<b7b61e7fb7b62c6d>l
<beac3364b7b62c6d>l
<cc9a3364c5a32c6d>l
<c5a32c6dc5a33a5b>l
<c5a33a5bcc9a3364>l
<cc9a3364d3912c6d>l
<d3912c6dc5a32c6d>l
<c5a32c6dcc9a3364>l
<b7b63a5bbeac4152>l
<b7b62c6db7b63a5b>l
<b7b63a5bbeac3364>l
<beac4152b7b63a5b>l
<b7b63a5bb7b64848>l
<b7b64848beac4152>l
<beac4152c5a33a5b>l
<c5a33a5bb7b63a5b>l
<beac1789b7b61e7f>l
<94e34f3f9bda5636>l
<9bda56369bda4848>l
<9bda484894e34f3f>l
<94e3563694e34f3f>l
<94e34f3f8ded5636>l
<8ded563694e35636>l
<94e35d2d9bda5d2d>l
<8ded563694e35d2d>l
<94e35d2d94e35636>l
<9bda5d2d94e35d2d>l
<94e35d2d9bda6424>l
<9bda64249bda5d2d>l
<9bda5d2d9bda5636>l
<9bda563694e35d2d>l
<94e356369bda5636>l
<cc9a2576c5a32c6d>l
<c5a32c6dd3912c6d>l
<d3912c6dcc9a2576>l
<cc9a2576c5a31e7f>l
<c5a31e7fc5a32c6d>l
<c5a32c6dcc9a2576>l
<c5a32c6dbeac2576>l
<9bda563694e34f3f>l
<94e34f3f94e35636>l
<beac2576c5a32c6d>l
<c5a32c6dc5a31e7f>l
<c5a31e7fbeac2576>l
<beac2576b7b62c6d>l
<b7b62c6dc5a32c6d>l
<beac3364c5a32c6d>l
<9bda1e7fa9c81e7f>l
<a9c81e7fa2d11789>l
<a2d117899bda1092>l
<9bda10929bda1e7f>l
<9bda1e7fa2d11789>l
<a2d125769bda1e7f>l
<a2d117899bda1e7f>l
<d3911e7fcc9a2576>l
<cc9a1789d3911e7f>l
<d3911e7fd3911092>l
<d3911092cc9a1789>l
<cc9a1789c5a31e7f>l
<c5a31e7fd3911e7f>l
<d3911e7fcc9a1789>l
<9bda1e7f9bda2c6d>l
<b7b61092a9c81092>l
<a9c81092b0bf1789>l
<a2d11789a9c81092>l
<a9c810929bda1092>l
<9bda1092a2d11789>l
<a2d11789a9c81e7f>l
<b0bf1789b7b61092>l
<9bda2c6da2d12576>l
<a2d12576a9c81e7f>l
<a9c81e7f9bda1e7f>l
<9bda1e7fa2d12576>l
<b0bf1789a9c81092>l
<a9c81092a9c81e7f>l
<a9c81e7fb0bf1789>l
<d3912c6dd3911e7f>l
<d3911e7fd3912c6d>l
<d3912c6de17f1e7f>l
<e17f1e7fd3911e7f>l
<e17f1e7fef6c1092>l
<ef6c1092d3911092>l
<d3911092e17f1e7f>l
<d3911092d3911e7f>l
<c5a32c6db7b62c6d>l
<b7b62c6dbeac3364>l
<beac3364c5a33a5b>l
<c5a33a5bc5a32c6d>l
<c5a32c6dbeac3364>l
<d3911e7fe17f1e7f>l
<e17f1e7fd3911092>l
<cc9a1789c5a31092>l
<beac1789c5a31e7f>l
<c5a31e7fc5a31092>l
<c5a31092beac1789>l
<cc9a2576d3911e7f>l
<d3911e7fc5a31e7f>l
<c5a31e7fcc9a2576>l
<cc9a2576d3912c6d>l
<b7b61092beac1789>l
<c5a31092c5a31e7f>l
<c5a31e7fcc9a1789>l
<cc9a1789d3911092>l
<d3911092c5a31092>l
<c5a31092cc9a1789>l
<beac1789c5a31092>l
<c5a31092b7b61092>l
<94e356368ded5636>l
<86f679087fff7908>l
<86f6721186f67908>l
<86f679088ded7211>l
<8ded721186f67211>l
<86f672117fff7211>l
<7fff721186f67908>l
<7fff7fff86f67908>l
<7fff6b1b7fff7211>l
<7fff721186f66b1b>l
<86f66b1b7fff6b1b>l
<7fff790886f67908>l
<86f679087fff7211>l
<7fff72117fff7908>l
<7fff79087fff7fff>l
<86f6790886f67211>l
<9bda642494e36424>l
<94e364248ded6424>l
<8ded642494e36b1b>l
<94e36b1b94e36424>l
<86f6642486f66b1b>l
<86f66b1b8ded6424>l
<94e36b1b9bda6424>l
<8ded6b1b94e36b1b>l
<94e36b1b8ded6424>l
<8ded64248ded6b1b>l
<8ded6b1b8ded7211>l
<8ded721194e36b1b>l
<94e36b1b8ded6b1b>l
<94e3642494e36b1b>l
<7fff64247fff6b1b>l
<7fff563686f64f3f>l
<86f64f3f7fff4f3f>l
<7fff5d2d86f65d2d>l
<86f65d2d7fff5636>l
<7fff56367fff5d2d>l
<7fff5d2d7fff6424>l
<7fff4f3f7fff5636>l
<7fff563686f65636>l
<86f656368ded5636>l
<8ded563686f64f3f>l
<86f64f3f86f65636>l
<7fff4f3f86f64f3f>l
<86f64f3f7fff4848>l
<7fff48487fff4f3f>l
<7fff642486f65d2d>l
<86f66b1b7fff7211>l
<7fff721186f67211>l
<86f672118ded7211>l
<8ded721186f66b1b>l
<86f66b1b86f67211>l
<7fff6b1b86f66b1b>l
<86f66b1b7fff6424>l
<86f6721186f66b1b>l
<86f65d2d7fff5d2d>l
<86f6563686f65d2d>l
<86f65d2d8ded5636>l
<8ded563686f65636>l
<86f656367fff5636>l
<7fff563686f65d2d>l
<86f65d2d86f65636>l
<8ded642486f66424>l
<8ded4f3f8ded5636>l
<8ded563694e34f3f>l
<94e34f3f8ded4f3f>l
<94e34f3f9bda4848>l
<9bda48488ded4848>l
<8ded484894e34f3f>l
<8ded48488ded4f3f>l
<a9c848489bda4848>l
<9bda4848a2d14f3f>l
<a2d14f3fa9c85636>l
<a9c85636a9c84848>l
<a9c84848a2d14f3f>l
<8ded4f3f94e34f3f>l
<94e34f3f8ded4848>l
<86f6484886f64f3f>l
<8ded4f3f8ded4848>l
<8ded484886f64f3f>l
<86f64f3f8ded4f3f>l
<94e3563694e35d2d>l
<94e35d2d9bda5636>l
<9bda563694e35636>l
<8ded56368ded4f3f>l
<86f64f3f8ded4848>l
<8ded484886f64848>l
<86f648487fff4848>l
<7fff484886f64f3f>l
<86f64f3f86f64848>l
<8ded4f3f86f64f3f>l
<86f64f3f8ded5636>l
<a2d14f3fa9c84848>l
<86f66b1b8ded6b1b>l
<a2d14f3f9bda5636>l
<9bda5636a9c85636>l
<a9c85636a2d14f3f>l
<a2d14f3f9bda4848>l
<9bda48489bda5636>l
<8ded642486f66b1b>l
<86f664247fff6424>l
<7fff642486f66b1b>l
<86f66b1b86f66424>l
<8ded6b1b86f66b1b>l
<86f66b1b8ded7211>l
<8ded72118ded6b1b>l
<8ded6b1b8ded6424>l
<9bda5636a2d14f3f>l
<9bda5636a2d15d2d>l
<b0bf4f3fa9c84848>l
<a9c84848a9c85636>l
<a9c85636b0bf4f3f>l
<b0bf4f3fb7b64848>l
<b7b64848a9c84848>l
<a9c84848b0bf4f3f>l
<a9c856369bda5636>l
<9bda5d2da2d15d2d>l
<a2d15d2d9bda5636>l
<9bda56369bda5d2d>l
<9bda5d2d9bda6424>l
<9bda6424a2d15d2d>l
<a2d15d2d9bda5d2d>l
<a2d15d2da9c85636>l
<a9c81e7fa9c81092>l
<52bb21fb56361e7f>l
<56361e7f4f3f1e7f>l
<4f3f1e7f52bb21fb>l
<4bc421fb4f3f1e7f>l
<4f3f1e7f48481e7f>l
<48481e7f4bc421fb>l
<4f3f257652bb21fb>l
<4848257648482c6d>l
<48482c6d4bc428f2>l
<4bc428f24f3f2576>l
<4f3f257648482576>l
<484825764bc428f2>l
<52bb21fb4f3f1e7f>l
<4f3f1e7f4f3f2576>l
<4bc421fb4f3f2576>l
<484833644f3f3364>l
<4f3f336448482c6d>l
<48482c6d48483364>l
<4848336448483a5b>l
<48483a5b4f3f3364>l
<4f3f336448483364>l
<4f3f33644f3f3a5b>l
<4f3f25764f3f1e7f>l
<4f3f1e7f4bc421fb>l
<4f3f3a5b4f3f3364>l
<4f3f336448483a5b>l
<48483a5b4f3f3a5b>l
<4f3f3a5b56363a5b>l
<56363a5b4f3f3364>l
<4bc428f248482576>l
<52bb1b044f3f1789>l
<4f3f17894f3f1e7f>l
<4f3f1e7f52bb1b04>l
<4bc4140d48481789>l
<484817894f3f1789>l
<4f3f17894bc4140d>l
<56361e7f52bb1b04>l
<4f3f1e7f4f3f1789>l
<4f3f17894bc41b04>l
<4bc41b0448481e7f>l
<48481e7f4f3f1e7f>l
<4f3f1e7f4bc41b04>l
<52bb1b044f3f1e7f>l
<4f3f1e7f56361e7f>l
<4bc4140d48481092>l
<4bc421fb48482576>l
<484825764f3f2576>l
<4f3f25764bc421fb>l
<4bc421fb48481e7f>l
<48481e7f48482576>l
<484825764bc421fb>l
<484817894bc41b04>l
<4848109248481789>l
<484817894bc4140d>l
<4bc41b0448481789>l
<4848178948481e7f>l
<48481e7f4bc41b04>l
<4bc41b044f3f1789>l
<4f3f178948481789>l
<484841524f3f4152>l
<5d2d33645d2d2c6d>l
<5d2d2c6d59b12fe8>l
<4f3f2c6d4f3f3364>l
<4f3f336456362c6d>l
<56362c6d4f3f2c6d>l
<4f3f2c6d48482c6d>l
<59b12fe85d2d3364>l
<5d2d336460a82fe8>l
<60a82fe864242c6d>l
<64242c6d5d2d2c6d>l
<5d2d2c6d60a82fe8>l
<59b12fe85d2d2c6d>l
<5d2d2c6d56362c6d>l
<56362c6d59b12fe8>l
<48482c6d4f3f3364>l
<6b1b1e7f6b1b1789>l
<6b1b1789679f1b04>l
<679f1b0464241e7f>l
<64241e7f6b1b1e7f>l
<6b1b1e7f679f1b04>l
<6e961b046b1b1e7f>l
<679f1b046b1b1e7f>l
<4f3f33644f3f2c6d>l
<563633644f3f3364>l
<4f3f336456363a5b>l
<56363a5b56363364>l
<5636336456362c6d>l
<56362c6d4f3f3364>l
<4f3f336456363364>l
<5d2d2c6d5d2d3364>l
<52bb3dd64f3f3a5b>l
<4f3f3a5b4f3f4152>l
<4f3f415252bb3dd6>l
<52bb3dd656363a5b>l
<56363a5b4f3f3a5b>l
<4f3f3a5b52bb3dd6>l
<484841524bc444cd>l
<4f3f415248483a5b>l
<48483a5b48484152>l
<4bc444cd48484152>l
<4848415248484848>l
<484848484bc444cd>l
<4bc444cd4f3f4152>l
<4f3f415248484152>l
<4f3f3a5b48483a5b>l
<59b136df56363364>l
<5636336456363a5b>l
<56363a5b59b136df>l
<59b136df5d2d3364>l
<5d2d336456363364>l
<5636336459b136df>l
<60a82fe85d2d2c6d>l
<5636336459b12fe8>l
<48483a5b4f3f4152>l
<4f3f41524f3f3a5b>l
<59b12fe856363364>l
<563633645d2d3364>l
<5d2d336459b12fe8>l
<59b12fe856362c6d>l
<56362c6d56363364>l
<4bc41b044f3f1e7f>l
<a9c83a5bb0bf4152>l
<b0bf4152b7b64848>l
<b7b64848b7b63a5b>l
<b7b63a5bb0bf4152>l
<b0bf3364b7b63a5b>l
<b7b63a5bb7b62c6d>l
<b7b63a5ba9c83a5b>l
<a2d13364a9c82c6d>l
<a9c82c6d9bda2c6d>l
<9bda2c6da2d13364>l
<a2d13364a9c83a5b>l
<a9c83a5ba9c82c6d>l
<a9c82c6da2d13364>l
<b0bf4152b7b63a5b>l
<b7b62c6db0bf3364>l
<b7b61e7fb0bf2576>l
<b0bf1789b7b61e7f>l
<b7b61e7fb7b61092>l
<b7b61092b0bf1789>l
<b0bf1789a9c81e7f>l
<a9c81e7fb7b61e7f>l
<b7b62c6db7b61e7f>l
<b0bf3364a9c83a5b>l
<a9c83a5bb7b63a5b>l
<b7b63a5bb0bf3364>l
<b0bf2576b7b61e7f>l
<b7b61e7fa9c81e7f>l
<a9c81e7fb0bf2576>l
<b0bf2576b7b62c6d>l
<a9c82c6db0bf3364>l
<8ded10927fff1092>l
<7fff109286f61789>l
<86f617898ded1e7f>l
<8ded1e7f8ded1092>l
<8ded109286f61789>l
<94e325769bda1e7f>l
<86f617898ded1092>l
<a9c81092a2d11789>l
<94e317898ded1092>l
<8ded10928ded1e7f>l
<8ded1e7f94e31789>l
<94e317899bda1092>l
<9bda10928ded1092>l
<8ded109294e31789>l
<9bda1e7f8ded1e7f>l
<8ded1e7f9bda1e7f>l
<9bda1e7f94e31789>l
<b0bf3364a9c82c6d>l
<a9c82c6da9c83a5b>l
<a9c83a5bb0bf3364>l
<b0bf3364b7b62c6d>l
<b7b62c6da9c82c6d>l
<94e317898ded1e7f>l
<8ded1e7f94e32576>l
<94e325769bda2c6d>l
<9bda2c6d9bda1e7f>l
<9bda1e7f94e32576>l
<94e317899bda1e7f>l
<9bda1e7f9bda1092>l
<9bda109294e31789>l
<b7b61e7fb0bf1789>l
<59b128f256362c6d>l
<56362c6d5d2d2c6d>l
<5d2d2c6d59b128f2>l
<60a828f25d2d2c6d>l
<5d2d2c6d64242c6d>l
<64242c6d60a828f2>l
<5d2d257659b128f2>l
<4f3f2c6d56362c6d>l
<56362c6d52bb28f2>l
<52bb28f24f3f2576>l
<4f3f25764f3f2c6d>l
<4f3f2c6d52bb28f2>l
<59b128f25d2d2c6d>l
<5d2d2c6d5d2d2576>l
<60a828f25d2d2576>l
<59b128f256362576>l
<5636257656362c6d>l
<56362c6d59b128f2>l
<59b128f25d2d2576>l
<5d2d257656362576>l
<5636257659b128f2>l
<5636257659b121fb>l
<5d2d25765d2d2c6d>l
<5d2d2c6d60a828f2>l
<59b121fb56362576>l
<563625765d2d2576>l
<5d2d257659b121fb>l
<59b121fb56361e7f>l
<56361e7f56362576>l
<52bb28f24f3f2c6d>l
<b7b62c6db0bf2576>l
<b0bf2576a9c81e7f>l
<a9c81e7fa9c82c6d>l
<a9c82c6db0bf2576>l
<52bb28f256362576>l
<563625764f3f2576>l
<a9c82c6db7b62c6d>l
<a2d12576a9c82c6d>l
<a9c82c6da9c81e7f>l
<a9c81e7fa2d12576>l
<a2d125769bda2c6d>l
<9bda2c6da9c82c6d>l
<a9c82c6da2d12576>l
<b0bf2576a9c82c6d>l
<4f3f257652bb28f2>l
<5636257652bb21fb>l
<4bc428f24f3f2c6d>l
<4f3f2c6d4f3f2576>l
<4f3f25764bc428f2>l
<4bc428f248482c6d>l
<48482c6d4f3f2c6d>l
<4f3f2c6d4bc428f2>l
<4f3f257656362576>l
<52bb28f256362c6d>l
<56362c6d56362576>l
<5636257652bb28f2>l
<52bb21fb56362576>l
<5636257656361e7f>l
<56361e7f52bb21fb>l
<52bb21fb4f3f2576>l
<86f64f3f7fff5636>l
<c5a33a5bcc9a4152>l
<cc9a4152d3914848>l
<d3914848d3913a5b>l
<d3913a5bcc9a4152>l
<cc9a3364d3913a5b>l
<d3913a5bd3912c6d>l
<d3913a5bc5a33a5b>l
<e17f1e7fef6c2c6d>l
<ef6c2c6def6c1092>l
<ef6c1092e17f1e7f>l
<e17f1e7fd3912c6d>l
<d3912c6def6c2c6d>l
<ef6c2c6de17f1e7f>l
<cc9a4152d3913a5b>l
<d3912c6dcc9a3364>l
<c5a34848beac4152>l
<cc9a4152c5a34848>l
<c5a34848d3914848>l
<d3914848cc9a4152>l
<cc9a4152c5a33a5b>l
<c5a33a5bc5a34848>l
<b7b64848c5a34848>l
<cc9a3364c5a33a5b>l
<c5a33a5bd3913a5b>l
<d3913a5bcc9a3364>l
<beac4152c5a34848>l
<c5a34848c5a33a5b>l
<c5a33a5bbeac4152>l
<beac4152b7b64848>l
<ef6c2c6de17f3a5b>l
<d3916424d3915636>l
<cc9a4f3fd3915636>l
<d3915636d3914848>l
<d3914848cc9a4f3f>l
<cc9a4f3fc5a35636>l
<c5a35636d3915636>l
<c5a35636d3916424>l
<beac4f3fc5a34848>l
<c5a34848b7b64848>l
<b7b64848beac4f3f>l
<beac4f3fc5a35636>l
<c5a35636c5a34848>l
<c5a34848beac4f3f>l
<d3915636c5a35636>l
<d3915636cc9a4f3f>l
<ef6c6424e17f5636>l
<e17f3a5bef6c2c6d>l
<ef6c2c6dd3912c6d>l
<d3912c6de17f3a5b>l
<e17f3a5bef6c4848>l
<ef6c4848ef6c2c6d>l
<d3916424ef6c6424>l
<ef6c6424d3916424>l
<d3916424ef6c7fff>l
<ef6c7fffef6c6424>l
<e17f5636ef6c6424>l
<ef6c6424ef6c4848>l
<ef6c4848e17f5636>l
<e17f5636d3916424>l
<c5a34848cc9a4152>l
<b0bf4f3fb7b65636>l
<b7b65636b7b64848>l
<b7b64848b0bf4f3f>l
<b0bf4f3fa9c85636>l
<a9c85636b7b65636>l
<b7b65636b0bf4f3f>l
<b7b65636b0bf5d2d>l
<a9c87211b7b67211>l
<b7b67211b0bf6b1b>l
<b0bf5d2db7b65636>l
<b7b65636a9c85636>l
<a9c85636b0bf5d2d>l
<b0bf5d2db7b66424>l
<b7b66424b7b65636>l
<a2d15d2da9c86424>l
<b0bf5d2da9c85636>l
<a9c85636a9c86424>l
<a9c86424b0bf5d2d>l
<9bda72118ded7211>l
<8ded72119bda7fff>l
<9bda7fff9bda7211>l
<b7b66424b0bf5d2d>l
<a9c86424a9c85636>l
<a9c85636a2d15d2d>l
<a2d15d2d9bda6424>l
<9bda6424a9c86424>l
<a9c86424a2d15d2d>l
<b0bf5d2da9c86424>l
<a9c86424b7b66424>l
<b0bf6b1ba9c87211>l
<e17f3a5bd3913a5b>l
<b0bf6b1ba9c86424>l
<a9c86424a9c87211>l
<a9c87211b0bf6b1b>l
<b0bf6b1bb7b66424>l
<b7b66424a9c86424>l
<d3914848e17f3a5b>l
<e17f3a5bd3914848>l
<d3914848ef6c4848>l
<ef6c4848e17f3a5b>l
<d3913a5be17f3a5b>l
<e17f3a5bd3912c6d>l
<d3912c6dd3913a5b>l
<d3913a5bd3914848>l
<a9c86424b0bf6b1b>l
<a9c87211b0bf7908>l
<b0bf7908b7b67fff>l
<b7b67fffb7b67211>l
<b7b67211b0bf7908>l
<b0bf6b1bb7b67211>l
<b7b67211b7b66424>l
<b7b66424b0bf6b1b>l
<b7b67211a9c87211>l
<a2d16b1ba9c86424>l
<a9c864249bda6424>l
<9bda6424a2d16b1b>l
<a2d16b1ba9c87211>l
<a9c87211a9c86424>l
<a9c86424a2d16b1b>l
<b0bf7908b7b67211>l
<c5a34848cc9a4f3f>l
<b7b67fffa9c87fff>l
<a9c87fffb0bf86f6>l
<a2d186f6a9c87fff>l
<a9c87fff9bda7fff>l
<9bda7fffa2d186f6>l
<a2d186f6a9c88ded>l
<b0bf86f6b7b67fff>l
<9bda8deda2d186f6>l
<9bda8ded9bda9bda>l
<9bda9bdaa9c88ded>l
<a9c88ded9bda8ded>l
<b0bf86f6a9c87fff>l
<a9c87fffa9c88ded>l
<a9c88dedb0bf86f6>l
<a9c88deda9c87fff>l
<8ded8ded9bda9bda>l
<9bda9bda9bda8ded>l
<9bda8ded9bda7fff>l
<9bda7fff8ded8ded>l
<8ded8ded9bda8ded>l
<a9c89bdaa9c8a9c8>l
<9bda8ded8ded8ded>l
<a9c87fffa2d186f6>l
<8ded7fff8ded8ded>l
<8ded8ded9bda7fff>l
<9bda7fff8ded7fff>l
<8ded7fff7fff7fff>l
<7fff7fff8ded8ded>l
<8ded8ded8ded7fff>l
<9bda7fff9bda8ded>l
<b7b6a9c8c5a3a9c8>l
<c5a3a9c8b7b69bda>l
<b7b69bdab7b6a9c8>l
<b7b6a9c8b7b6b7b6>l
<b7b6b7b6c5a3a9c8>l
<c5a3a9c8b7b6a9c8>l
<c5a38dedb7b68ded>l
<b7b69bdad3919bda>l
<d3919bdac5a38ded>l
<b7b68dedc5a38ded>l
<c5a38dedb7b67fff>l
<b7b67fffb7b68ded>l
<b7b68dedb7b69bda>l
<b7b69bdac5a38ded>l
<c5a3a9c8d3919bda>l
<c5a38dedd3919bda>l
<d3919bdad3917fff>l
<d3917fffc5a38ded>l
<a2d186f69bda8ded>l
<9bda8deda9c88ded>l
<a9c88deda2d186f6>l
<a2d186f69bda7fff>l
<b7b67fffc5a38ded>l
<d3919bdab7b69bda>l
<b7b69bdac5a3a9c8>l
<d3917fffd3919bda>l
<d3919bdaef6c7fff>l
<ef6c7fffd3917fff>l
<c5a38dedd3917fff>l
<d3917fffb7b67fff>l
<a9c8a9c8b7b69bda>l
<d3919bdac5a3a9c8>l
<c5a3a9c8b7b6b7b6>l
<b7b6b7b6d391b7b6>l
<d391b7b6c5a3a9c8>l
<d391b7b6ef6cb7b6>l
<ef6cb7b6d3919bda>l
<d391b7b6d3919bda>l
<d391d391ef6cef6c>l
<ef6cef6cef6cb7b6>l
<ef6cb7b6d391d391>l
<d3919bdaef6cb7b6>l
<ef6cb7b6ef6c7fff>l
<ef6c7fffd3919bda>l
<c5a3a9c8d391b7b6>l
<d3919bdad391b7b6>l
<d3914848e17f5636>l
<cc9a4f3fc5a34848>l
<c5a34848c5a35636>l
<c5a35636cc9a4f3f>l
<cc9a4f3fd3914848>l
<d3914848c5a34848>l
<ef6c4848d3914848>l
<d3915636e17f5636>l
<e17f5636d3914848>l
<d3914848d3915636>l
<d3915636d3916424>l
<d3916424e17f5636>l
<e17f5636d3915636>l
<e17f5636ef6c4848>l
<d391d391d391b7b6>l
<b7b69bdaa9c8a9c8>l
<a9c8a9c8b7b6a9c8>l
<b7b68deda9c88ded>l
<a9c88dedb7b69bda>l
<b7b69bdab7b68ded>l
<b0bf86f6b7b68ded>l
<b7b6a9c8b7b69bda>l
<b7b69bdaa9c89bda>l
<a9c89bda9bda9bda>l
<9bda9bdaa9c8a9c8>l
<a9c8a9c8a9c89bda>l
<b7b6a9c8a9c8a9c8>l
<a9c8a9c8b7b6b7b6>l
<b7b6b7b6b7b6a9c8>l
<b7b68dedb7b67fff>l
<b7b69bdaa9c88ded>l
<a9c88deda9c89bda>l
<d391b7b6d391d391>l
<d391d391ef6cb7b6>l
<ef6cb7b6d391b7b6>l
<d391b7b6b7b6b7b6>l
<b7b6b7b6d391d391>l
<a9c89bdab7b69bda>l
<b7b67fffb0bf86f6>l
<b0bf86f6a9c88ded>l
<a9c88dedb7b68ded>l
<b7b68dedb0bf86f6>l
<a9c89bdaa9c88ded>l
<a9c88ded9bda9bda>l
<9bda9bdaa9c89bda>l
<94e36b1b9bda7211>l
<7fff257686f62576>l
<86f625767fff1e7f>l
<7fff1e7f7fff2576>l
<7fff25767fff2c6d>l
<7fff2c6d86f62576>l
<86f625767fff2576>l
<7fff1e7f86f61789>l
<86f617897fff1e7f>l
<7fff1e7f86f61e7f>l
<86f61e7f8ded1e7f>l
<8ded1e7f86f61789>l
<86f6178986f61e7f>l
<86f617897fff1092>l
<7fff10927fff1e7f>l
<86f61e7f86f62576>l
<86f63a5b8ded3a5b>l
<8ded3a5b86f63364>l
<86f6336486f63a5b>l
<7fff336486f63364>l
<86f633647fff2c6d>l
<7fff2c6d7fff3364>l
<7fff3a5b86f63a5b>l
<86f625768ded1e7f>l
<8ded1e7f86f61e7f>l
<86f61e7f7fff1e7f>l
<7fff1e7f86f62576>l
<86f6257686f61e7f>l
<86f63a5b86f63364>l
<86f633647fff3a5b>l
<86f61e7f86f61789>l
<9bda3a5ba2d14152>l
<8ded257686f62576>l
<86f625768ded2c6d>l
<8ded2c6d8ded2576>l
<8ded25768ded1e7f>l
<8ded1e7f86f62576>l
<a9c83a5b9bda3a5b>l
<a2d133649bda2c6d>l
<9bda2c6d9bda3a5b>l
<9bda3a5ba2d13364>l
<a2d141529bda3a5b>l
<9bda3a5b9bda4848>l
<9bda4848a2d14152>l
<a2d14152a9c83a5b>l
<86f625768ded2576>l
<9bda2c6d94e32576>l
<8ded257694e32576>l
<94e325768ded1e7f>l
<8ded1e7f8ded2576>l
<8ded25768ded2c6d>l
<8ded2c6d94e32576>l
<94e325768ded2576>l
<8ded2c6d9bda2c6d>l
<86f62c6d86f62576>l
<86f625767fff2c6d>l
<7fff2c6d86f62c6d>l
<86f62c6d8ded2c6d>l
<8ded2c6d86f62576>l
<86f6257686f62c6d>l
<94e325768ded2c6d>l
<7fff33647fff3a5b>l
<8ded563686f65d2d>l
<86f65d2d8ded5d2d>l
<86f6642486f65d2d>l
<86f65d2d7fff6424>l
<7fff642486f66424>l
<86f664248ded6424>l
<8ded5d2d8ded5636>l
<8ded3a5b8ded3364>l
<8ded33648ded2c6d>l
<8ded2c6d86f63364>l
<86f633648ded3364>l
<8ded5d2d86f65d2d>l
<86f65d2d8ded6424>l
<8ded64248ded5d2d>l
<8ded642486f65d2d>l
<94e35d2d8ded5636>l
<8ded56368ded5d2d>l
<8ded5d2d8ded6424>l
<8ded642494e35d2d>l
<94e35d2d8ded5d2d>l
<86f6563686f64f3f>l
<8ded5d2d94e35d2d>l
<86f65d2d86f66424>l
<94e3642494e35d2d>l
<94e35d2d8ded6424>l
<8ded642494e36424>l
<94e364249bda6424>l
<9bda642494e35d2d>l
<94e35d2d94e36424>l
<86f633648ded3a5b>l
<86f63a5b86f64152>l
<86f641528ded3a5b>l
<8ded3a5b86f63a5b>l
<86f63a5b7fff3a5b>l
<7fff3a5b86f64152>l
<86f6415286f63a5b>l
<86f641527fff4152>l
<7fff3a5b86f63364>l
<86f633647fff3364>l
<7fff415286f64152>l
<86f641527fff3a5b>l
<7fff3a5b7fff4152>l
<7fff41527fff4848>l
<7fff484886f64152>l
<8ded336494e33364>l
<86f62c6d86f63364>l
<86f633648ded2c6d>l
<8ded2c6d86f62c6d>l
<86f62c6d7fff2c6d>l
<7fff2c6d86f63364>l
<86f6336486f62c6d>l
<8ded336486f63364>l
<8ded2c6d94e33364>l
<94e333648ded2c6d>l
<8ded2c6d8ded3364>l
<8ded33648ded3a5b>l
<8ded3a5b94e33364>l
<94e333648ded3364>l
<94e333649bda2c6d>l
<9bda2c6d8ded2c6d>l
<a9c83a5ba2d13364>l
<d3917fffd3916424>l
<d3916424c5a37211>l
<c5a37211b7b67fff>l
<b7b67fffd3917fff>l
<d3917fffc5a37211>l
<d3917fffef6c7fff>l
<c5a37211d3917fff>l
<9bda7211a2d16b1b>l
<a2d179089bda7211>l
<9bda72119bda7fff>l
<9bda7fffa2d17908>l
<a2d17908a9c87211>l
<a9c872119bda7211>l
<9bda7211a2d17908>l
<ef6c7fffd3916424>l
<b7b65636c5a35636>l
<c5a35636beac4f3f>l
<beac4f3fb7b64848>l
<b7b64848b7b65636>l
<b7b65636beac4f3f>l
<b7b65636b7b66424>l
<beac4f3fb7b65636>l
<d3916424d3917fff>l
<c5a36424c5a35636>l
<c5a35636b7b66424>l
<b7b66424c5a36424>l
<c5a36424d3916424>l
<d3916424c5a35636>l
<c5a35636c5a36424>l
<9bda64249bda7211>l
<86f679087fff7fff>l
<7fff7fff8ded7fff>l
<8ded7fff86f67908>l
<8ded7fff9bda7fff>l
<9bda7fff8ded7211>l
<8ded72118ded7fff>l
<8ded721186f67908>l
<9bda72119bda6424>l
<9bda642494e36b1b>l
<94e36b1b8ded7211>l
<8ded72119bda7211>l
<9bda721194e36b1b>l
<86f679088ded7fff>l
<8ded7fff8ded7211>l
<a2d17908a9c87fff>l
<b0bf7908a9c87211>l
<a9c87211a9c87fff>l
<a9c87fffb0bf7908>l
<a2d16b1b9bda7211>l
<9bda7211a9c87211>l
<a9c87211a2d16b1b>l
<a2d16b1b9bda6424>l
<b7b67fffb0bf7908>l
<a9c87fffa9c87211>l
<a9c87211a2d17908>l
<a2d179089bda7fff>l
<9bda7fffa9c87fff>l
<a9c87fffa2d17908>l
<b0bf7908a9c87fff>l
<a9c87fffb7b67fff>l
<b7b66424c5a35636>l
<9bda484894e34152>l
<8ded415294e34152>l
<94e341528ded3a5b>l
<8ded3a5b8ded4152>l
<8ded41528ded4848>l
<8ded484894e34152>l
<8ded48489bda4848>l
<86f6484886f64152>l
<86f641527fff4848>l
<7fff484886f64848>l
<86f648488ded4848>l
<8ded484886f64152>l
<86f6415286f64848>l
<94e341528ded4848>l
<94e341528ded4152>l
<b7b64848b0bf4152>l
<b0bf4152a9c83a5b>l
<a9c83a5ba9c84848>l
<a9c84848b0bf4152>l
<a2d133649bda3a5b>l
<9bda3a5ba9c83a5b>l
<a9c84848b7b64848>l
<a2d14152a9c84848>l
<a9c84848a9c83a5b>l
<a9c83a5ba2d14152>l
<a2d141529bda4848>l
<9bda4848a9c84848>l
<a9c84848a2d14152>l
<b0bf4152a9c84848>l
<86f641528ded4152>l
<c5a37211d3916424>l
<d3916424c5a36424>l
<c5a36424b7b66424>l
<b7b66424c5a37211>l
<c5a37211c5a36424>l
<94e341529bda3a5b>l
<c5a36424c5a37211>l
<c5a35636b7b65636>l
<b7b67211c5a37211>l
<c5a37211b7b66424>l
<b7b66424b7b67211>l
<b7b67211b7b67fff>l
<b7b67fffc5a37211>l
<c5a37211b7b67211>l
<9bda3a5b8ded3a5b>l
<8ded3a5b9bda3a5b>l
<9bda3a5b94e33364>l
<8ded415286f64152>l
<86f641528ded4848>l
<8ded48488ded4152>l
<8ded41528ded3a5b>l
<8ded3a5b86f64152>l
<94e333648ded3a5b>l
<8ded3a5b94e34152>l
<94e341529bda4848>l
<9bda48489bda3a5b>l
<9bda3a5b94e34152>l
<94e333649bda3a5b>l
<9bda3a5b9bda2c6d>l
<9bda2c6d94e33364>l
<6b1b1e7f72111e7f>l
<79086b1b7fff7211>l
<7fff72117fff6b1b>l
<7fff6b1b7fff6424>l
<7fff642479086b1b>l
<79086b1b7fff6b1b>l
<7908721179086b1b>l
<7fff6b1b79086b1b>l
<7908790879087211>l
<7fff790879087908>l
<790879087fff7fff>l
<7fff7fff7fff7908>l
<7fff79087fff7211>l
<7fff721179087908>l
<790879087fff7908>l
<79086b1b72117211>l
<7211563679085d2d>l
<79085d2d79085636>l
<7fff5d2d79085d2d>l
<79085d2d7fff6424>l
<7fff64247fff5d2d>l
<7fff5d2d7fff5636>l
<7908563672115636>l
<7211721179087211>l
<790872117fff7211>l
<7fff721179086b1b>l
<79086b1b79087211>l
<7908563679085d2d>l
<79085d2d7fff5636>l
<7fff563679085636>l
<7211721179087908>l
<79086b1b7fff6424>l
<7fff642479086424>l
<7908642472116424>l
<7211642479086b1b>l
<79086b1b79086424>l
<6b1b64246b1b6b1b>l
<7908642479086b1b>l
<5d2d4f3f5d2d5636>l
<72116b1b79086b1b>l
<79086b1b72116424>l
<7211642472116b1b>l
<72116b1b72117211>l
<7211721179086b1b>l
<79086b1b72116b1b>l
<6b1b6b1b72116424>l
<721164246b1b6b1b>l
<6b1b6b1b72116b1b>l
<7908721179087908>l
<790879087fff7211>l
<7fff721179087211>l
<7908721172117211>l
<72116b1b72116424>l
<721164246b1b6424>l
<6b1b642464246424>l
<642464246b1b6b1b>l
<6b1b6b1b6b1b6424>l
<72116b1b6b1b6b1b>l
<6b1b6b1b72117211>l
<7211721172116b1b>l
<7fff563679085d2d>l
<72112c6d72113364>l
<7211336472113a5b>l
<72113a5b79083364>l
<7908336472113364>l
<790833647fff2c6d>l
<7fff2c6d72112c6d>l
<7908336472112c6d>l
<72115d2d79085d2d>l
<79085d2d72115636>l
<7211563672115d2d>l
<72115d2d72116424>l
<7211642479085d2d>l
<79085d2d72115d2d>l
<7211336479083364>l
<72112c6d79083364>l
<64242c6d679f2fe8>l
<679f2fe86b1b3364>l
<6b1b33646b1b2c6d>l
<6b1b2c6d679f2fe8>l
<721133646b1b3364>l
<6b1b336472113a5b>l
<6b1b2c6d64242c6d>l
<6e962fe86b1b2c6d>l
<6b1b2c6d6b1b3364>l
<6b1b33646e962fe8>l
<6e962fe872112c6d>l
<72112c6d6b1b2c6d>l
<6b1b2c6d6e962fe8>l
<679f2fe86b1b2c6d>l
<79085d2d79086424>l
<79084f3f72115636>l
<7211563679085636>l
<790856367fff5636>l
<7fff563679084f3f>l
<79084f3f79085636>l
<72115d2d6b1b5d2d>l
<7908563679084f3f>l
<79085d2d7fff5d2d>l
<7fff4f3f79084f3f>l
<79084f3f7fff5636>l
<7fff56367fff4f3f>l
<7fff4f3f7fff4848>l
<7fff484879084f3f>l
<79084f3f7fff4f3f>l
<6b1b5d2d72116424>l
<721164246b1b5d2d>l
<6b1b5d2d6b1b6424>l
<7908642479085d2d>l
<79085d2d72116424>l
<7211642479086424>l
<790864247fff6424>l
<7fff642479085d2d>l
<6b1b642472116424>l
<7211642472115d2d>l
<72115d2d72115636>l
<721156366b1b5d2d>l
<6b1b5d2d72115d2d>l
<6b1b64246b1b5d2d>l
<6b1b5d2d64246424>l
<642464246b1b6424>l
<642456365d2d4f3f>l
<6b1b5d2d72115636>l
<7211563664245636>l
<642456366b1b5d2d>l
<72114f3f79084f3f>l
<79084f3f72114848>l
<7211484872114f3f>l
<6b1b5d2d64245d2d>l
<6424484864245636>l
<642456366b1b4f3f>l
<64245d2d6b1b5d2d>l
<6b1b5d2d64245636>l
<6424563664245d2d>l
<64245d2d64246424>l
<642464246b1b5d2d>l
<72114f3f72115636>l
<6b1b48486b1b4f3f>l
<6b1b4f3f72114848>l
<721148486b1b4848>l
<6b1b484864244848>l
<642448486b1b4f3f>l
<6b1b4f3f6b1b4848>l
<79084f3f79084848>l
<7211563679084f3f>l
<79084f3f72114f3f>l
<7908484879084f3f>l
<79084f3f7fff4848>l
<7fff484879084848>l
<7908484872114848>l
<7211484879084f3f>l
<6b1b4f3f64244848>l
<41522c6d3dd628f2>l
<44cd28f241522c6d>l
<41522c6d48482c6d>l
<48482c6d44cd28f2>l
<44cd28f241522576>l
<4152257641522c6d>l
<3a5b2c6d41522c6d>l
<36df28f233642576>l
<3364257633642c6d>l
<33642c6d36df28f2>l
<3dd628f241522c6d>l
<41522c6d41522576>l
<415225763dd628f2>l
<3dd628f23a5b2c6d>l
<41522c6d44cd28f2>l
<3a5b2c6d3dd628f2>l
<3dd628f241522576>l
<415225763a5b2576>l
<3a5b25763dd628f2>l
<6b1b4f3f64245636>l
<6424563672115636>l
<721156366b1b4f3f>l
<3a5b25763a5b2c6d>l
<3dd621fb3a5b2576>l
<3a5b257641522576>l
<415225763dd621fb>l
<3dd621fb3a5b1e7f>l
<3a5b1e7f3a5b2576>l
<3a5b25763dd621fb>l
<3dd628f23a5b2576>l
<72114f3f6b1b4f3f>l
<4f3f4f3f56364f3f>l
<56364f3f52bb4bc4>l
<5d2d56365d2d5d2d>l
<5d2d5d2d64245636>l
<642456365d2d5636>l
<5d2d563656365636>l
<52bb4bc44f3f4f3f>l
<4f3f4f3f52bb52bb>l
<52bb52bb56365636>l
<5636563656364f3f>l
<56364f3f52bb52bb>l
<52bb4bc456364f3f>l
<56364f3f56364848>l
<5636484852bb4bc4>l
<563656365d2d5d2d>l
<6424563664244848>l
<642448485d2d4f3f>l
<5d2d56365d2d4f3f>l
<5d2d4f3f56365636>l
<563656365d2d5636>l
<5d2d563664245636>l
<5d2d4f3f64245636>l
<5d2d5d2d5d2d5636>l
<64245d2d5d2d5d2d>l
<5d2d5d2d64246424>l
<6424642464245d2d>l
<64245d2d64245636>l
<642456365d2d5d2d>l
<5d2d5d2d64245d2d>l
<56364f3f4f3f4f3f>l
<56364f3f56365636>l
<563656365d2d4f3f>l
<5d2d4f3f56364f3f>l
<5d2d48485d2d4f3f>l
<5d2d4f3f64244848>l
<642448485d2d4848>l
<5636484856364f3f>l
<6b1b4f3f72115636>l
<7211563672114f3f>l
<72114f3f72114848>l
<721148486b1b4f3f>l
<6b1b4f3f72114f3f>l
<56364f3f5d2d4f3f>l
<5d2d4f3f56364848>l
<5d2d484856364848>l
<4bc44bc44f3f4848>l
<4f3f484848484848>l
<484848484bc44bc4>l
<4bc44bc44f3f4f3f>l
<4f3f4f3f4f3f4848>l
<4f3f48484bc44bc4>l
<52bb52bb56364f3f>l
<4f3f484852bb4bc4>l
<563648485d2d4f3f>l
<5d2d4f3f5d2d4848>l
<52bb4bc44f3f4848>l
<4f3f48484f3f4f3f>l
<4f3f4f3f52bb4bc4>l
<52bb4bc456364848>l
<563648484f3f4848>l
<72113a5b72113364>l
<5d2d484860a844cd>l
<59b13dd656364152>l
<563641525d2d4152>l
<5d2d415259b13dd6>l
<59b13dd656363a5b>l
<56363a5b56364152>l
<5d2d41525d2d4848>l
<59b144cd56364848>l
<563648485d2d4848>l
<5d2d484859b144cd>l
<60a844cd5d2d4848>l
<5d2d484864244848>l
<6424484860a844cd>l
<60a844cd5d2d4152>l
<5636415259b13dd6>l
<6b1b41526e9644cd>l
<6e9644cd72114848>l
<7211484872114152>l
<721141526e9644cd>l
<6e963dd672114152>l
<7211415272113a5b>l
<721141526b1b4152>l
<59b144cd56364152>l
<5636415256364848>l
<5636484859b144cd>l
<59b144cd5d2d4152>l
<5d2d415256364152>l
<5636415259b144cd>l
<6e9644cd72114152>l
<5d2d415259b144cd>l
<5636484856364152>l
<5636415252bb44cd>l
<52bb3dd656364152>l
<5636415256363a5b>l
<56363a5b52bb3dd6>l
<52bb3dd64f3f4152>l
<52bb44cd56364848>l
<64243a5b60a836df>l
<60a836df5d2d3364>l
<5d2d33645d2d3a5b>l
<5d2d3a5b60a836df>l
<52bb44cd56364152>l
<563641524f3f4152>l
<4f3f415252bb44cd>l
<4f3f415256364152>l
<4f3f484856364848>l
<5636484852bb44cd>l
<52bb44cd4f3f4152>l
<4f3f41524f3f4848>l
<4f3f484852bb44cd>l
<59b144cd5d2d4848>l
<5d2d48485d2d4152>l
<52bb44cd4f3f4848>l
<5636415252bb3dd6>l
<4bc444cd4f3f4848>l
<4f3f48484f3f4152>l
<4f3f41524bc444cd>l
<4bc444cd48484848>l
<484848484f3f4848>l
<4f3f48484bc444cd>l
<72113a5b6e963dd6>l
<679f36df64243364>l
<6424336464243a5b>l
<64243a5b679f36df>l
<679f36df6b1b3364>l
<6b1b336464243364>l
<64243364679f36df>l
<64243364679f2fe8>l
<72113a5b6b1b3364>l
<6b1b33646b1b3a5b>l
<679f2fe864243364>l
<642433646b1b3364>l
<6b1b3364679f2fe8>l
<679f2fe864242c6d>l
<64242c6d64243364>l
<642441526b1b4152>l
<6e963dd672113a5b>l
<72113a5b6b1b3a5b>l
<6b1b3a5b6e963dd6>l
<6b1b3a5b64243a5b>l
<64243a5b6b1b4152>l
<6b1b41526b1b3a5b>l
<6b1b41526e963dd6>l
<6b1b415264243a5b>l
<64243a5b64244152>l
<6424415264244848>l
<642448486b1b4152>l
<6b1b415264244152>l
<6e963dd66b1b3a5b>l
<6b1b3a5b6b1b4152>l
<6b1b3a5b72113a5b>l
<721148486e9644cd>l
<6e9644cd6b1b4152>l
<6b1b41526b1b4848>l
<6b1b48486e9644cd>l
<7908484879084152>l
<7908415272114848>l
<6b1b484872114848>l
<6e963dd66b1b4152>l
<6b1b415272114152>l
<721141526e963dd6>l
<6b1b48486b1b4152>l
<6b1b415264244848>l
<642448486b1b4848>l
<6e9644cd6b1b4848>l
<7211484879084848>l
<7908415272114152>l
<679f36df6b1b3a5b>l
<6b1b3a5b6b1b3364>l
<6b1b3364679f36df>l
<679f36df64243a5b>l
<64243a5b6b1b3a5b>l
<6b1b3a5b679f36df>l
<7211484879084152>l
<790848487fff4848>l
<7fff484879084152>l
<7908415279084848>l
<7211415279084152>l
<7908415272113a5b>l
<72113a5b72114152>l
<7211415272114848>l
<5d2d3a5b64243a5b>l
<790817897fff1e7f>l
<7fff1e7f7fff1092>l
<7fff109279081789>l
<7908178972111e7f>l
<72111e7f7fff1e7f>l
<7fff1e7f79081789>l
<790825767fff2576>l
<7fff1e7f72111e7f>l
<72111e7f79082576>l
<7fff257679082576>l
<790825767fff2c6d>l
<7fff2c6d7fff2576>l
<7fff25767fff1e7f>l
<7fff1e7f79082576>l
<6e9628f272112576>l
<6e9621fb6b1b2576>l
<6b1b257672112576>l
<721125766e9621fb>l
<679f28f26b1b2c6d>l
<6b1b2c6d6b1b2576>l
<6b1b2576679f28f2>l
<72111e7f6e9621fb>l
<721125766b1b2576>l
<6b1b25766e9628f2>l
<6e9628f272112c6d>l
<72112c6d72112576>l
<721125766e9628f2>l
<6e9621fb72112576>l
<7211257672111e7f>l
<790825767fff1e7f>l
<7fff3a5b79083a5b>l
<79083a5b72113a5b>l
<72113a5b79084152>l
<7908415279083a5b>l
<7fff415279084152>l
<790841527fff4848>l
<790841527fff3a5b>l
<6e962fe872113364>l
<7211336472112c6d>l
<72112c6d6e962fe8>l
<6e962fe86b1b3364>l
<6b1b336472113364>l
<721133646e962fe8>l
<79083a5b79084152>l
<7fff48487fff4152>l
<790833647fff3364>l
<79083a5b79083364>l
<7908336472113a5b>l
<72113a5b79083a5b>l
<79083a5b7fff3a5b>l
<7fff3a5b79083364>l
<7908336479083a5b>l
<7fff2c6d79083364>l
<7fff41527fff3a5b>l
<7fff3a5b79084152>l
<790841527fff4152>l
<7fff336479083364>l
<790833647fff3a5b>l
<7fff3a5b7fff3364>l
<7fff33647fff2c6d>l
<679f28f264242c6d>l
<5d2d415264244152>l
<6424415260a83dd6>l
<60a836df64243364>l
<642433645d2d3364>l
<5d2d336460a836df>l
<60a836df64243a5b>l
<60a83dd65d2d4152>l
<5d2d415260a844cd>l
<60a844cd64244848>l
<6424484864244152>l
<6424415260a844cd>l
<60a83dd664244152>l
<6424415264243a5b>l
<64243a5b60a83dd6>l
<64243a5b64243364>l
<5d2d3a5b5d2d3364>l
<5d2d336459b136df>l
<59b136df56363a5b>l
<56363a5b5d2d3a5b>l
<5d2d3a5b59b136df>l
<60a836df5d2d3a5b>l
<59b136df5d2d3a5b>l
<6424336460a836df>l
<60a82fe864243364>l
<6424336464242c6d>l
<64242c6d60a82fe8>l
<60a82fe85d2d3364>l
<5d2d336464243364>l
<6424336460a82fe8>l
<642441525d2d4152>l
<7908257672112c6d>l
<72112c6d7fff2c6d>l
<7fff2c6d79082576>l
<7211257679082576>l
<7908257672111e7f>l
<72111e7f72112576>l
<6b1b2c6d6e9628f2>l
<64242c6d6b1b2c6d>l
<6b1b2c6d679f28f2>l
<6e9628f26b1b2c6d>l
<6b1b2c6d72112c6d>l
<72112c6d6e9628f2>l
<6e9628f26b1b2576>l
<6b1b25766b1b2c6d>l
<7211257672112c6d>l
<59b13dd65d2d3a5b>l
<5d2d3a5b56363a5b>l
<56363a5b59b13dd6>l
<59b13dd65d2d4152>l
<5d2d41525d2d3a5b>l
<5d2d3a5b59b13dd6>l
<60a844cd64244152>l
<5d2d3a5b60a83dd6>l
<72112c6d79082576>l
<7908257672112576>l
<60a83dd65d2d3a5b>l
<5d2d3a5b5d2d4152>l
<5d2d415260a83dd6>l
<60a83dd664243a5b>l
<64243a5b5d2d3a5b>l
<3a5b2c6d36df28f2>l
<59b11b0456361e7f>l
<56361e7f5d2d1e7f>l
<5d2d1e7f59b11b04>l
<60a81b045d2d1e7f>l
<5d2d1e7f64241e7f>l
<64241e7f60a81b04>l
<5d2d178959b11b04>l
<6424178964241092>l
<6424109260a8140d>l
<60a8140d5d2d1789>l
<5d2d178964241789>l
<6424178960a8140d>l
<59b11b045d2d1e7f>l
<5d2d1e7f5d2d1789>l
<60a81b045d2d1789>l
<36df1b0433641789>l
<3364178933641e7f>l
<33641e7f36df1b04>l
<2c6d178933641789>l
<336417892c6d1092>l
<2c6d10922c6d1789>l
<3a5b1e7f36df1b04>l
<5d2d17895d2d1e7f>l
<5d2d1e7f60a81b04>l
<33641e7f33641789>l
<336417892c6d1e7f>l
<2c6d1e7f33641e7f>l
<36df1b0433641e7f>l
<33641e7f3a5b1e7f>l
<60a8140d64241789>l
<59b121fb5d2d2576>l
<5d2d25765d2d1e7f>l
<5d2d1e7f59b121fb>l
<60a828f264242576>l
<642425765d2d2576>l
<5d2d257660a828f2>l
<56361e7f59b121fb>l
<5d2d1e7f5d2d2576>l
<5d2d257660a821fb>l
<60a821fb64241e7f>l
<64241e7f5d2d1e7f>l
<5d2d1e7f60a821fb>l
<59b121fb5d2d1e7f>l
<5d2d1e7f56361e7f>l
<60a828f264242c6d>l
<60a81b0464241789>l
<642417895d2d1789>l
<5d2d178960a81b04>l
<60a81b0464241e7f>l
<64241e7f64241789>l
<6424178960a81b04>l
<6424257660a821fb>l
<64242c6d64242576>l
<6424257660a828f2>l
<60a821fb64242576>l
<6424257664241e7f>l
<64241e7f60a821fb>l
<60a821fb5d2d2576>l
<5d2d257664242576>l
<2c6d17892c6d1e7f>l
<415210923a5b1092>l
<3a5b10923dd6140d>l
<3dd6140d41521789>l
<4152178941521092>l
<415210923dd6140d>l
<36df140d33641092>l
<3dd6140d41521092>l
<3a5b17893dd61b04>l
<44cd140d41521092>l
<4152109241521789>l
<4152178944cd140d>l
<44cd140d48481092>l
<4848109241521092>l
<4152109244cd140d>l
<3364109233641789>l
<3a5b178933641789>l
<3364178936df1b04>l
<36df1b043a5b1e7f>l
<3a5b1e7f3a5b1789>l
<3a5b178936df1b04>l
<36df140d3a5b1789>l
<36df1b043a5b1789>l
<3364178936df140d>l
<36df140d3a5b1092>l
<3a5b109233641092>l
<3364109236df140d>l
<336410922c6d1092>l
<2c6d109233641789>l
<3364178933641092>l
<415217893a5b1789>l
<2fe828f233642576>l
<336425762c6d2576>l
<2c6d25762fe828f2>l
<36df21fb33641e7f>l
<33641e7f33642576>l
<3364257636df21fb>l
<2c6d2c6d2fe828f2>l
<2c6d1e7f33641789>l
<336417892c6d1789>l
<2c6d257633642576>l
<336425762c6d1e7f>l
<2c6d1e7f2c6d2576>l
<2fe828f22c6d2576>l
<2c6d25762c6d2c6d>l
<36df21fb3a5b1e7f>l
<3dd6140d3a5b1092>l
<3a5b10923a5b1789>l
<3a5b17893dd6140d>l
<3dd61b043a5b1789>l
<3a5b17893a5b1e7f>l
<3a5b1e7f3dd61b04>l
<3dd61b0441521789>l
<415217893dd6140d>l
<3a5b1e7f33641e7f>l
<33641e7f36df21fb>l
<33641e7f2c6d1e7f>l
<2c6d1e7f33642576>l
<3364257633641e7f>l
<3dd6140d3a5b1789>l
<3a5b178941521789>l
<60a821fb5d2d1e7f>l
<6b1b1e7f679f21fb>l
<7211178979081789>l
<7908178972111092>l
<7211109272111789>l
<7211178972111e7f>l
<72111e7f79081789>l
<6b1b25766b1b1e7f>l
<6e9621fb72111e7f>l
<72111e7f6b1b1e7f>l
<6b1b1e7f6e9621fb>l
<679f21fb6b1b1e7f>l
<6b1b1e7f64241e7f>l
<64241e7f679f21fb>l
<679f21fb6b1b2576>l
<7908178972111789>l
<6b1b10926e96140d>l
<679f140d6b1b1092>l
<6b1b109264241092>l
<64241092679f140d>l
<679f140d6b1b1789>l
<6b1b17896b1b1092>l
<721110926b1b1092>l
<790817897fff1092>l
<7fff109272111092>l
<7211109279081789>l
<6e96140d6b1b1092>l
<6b1b10926b1b1789>l
<6b1b17896e96140d>l
<6e96140d72111092>l
<6b1b25766e9621fb>l
<6424109264241789>l
<64241789679f140d>l
<679f1b0464241789>l
<6424178964241e7f>l
<64241e7f679f1b04>l
<679f1b046b1b1789>l
<679f140d64241092>l
<72111e7f6e961b04>l
<6e961b046b1b1789>l
<6b1b17896b1b1e7f>l
<6b1b1e7f6e961b04>l
<679f140d64241789>l
<642417896b1b1789>l
<6b1b1789679f140d>l
<6b1b178964241789>l
<6424257664242c6d>l
<64242c6d679f28f2>l
<679f28f26b1b2576>l
<6b1b257664242576>l
<64242576679f28f2>l
<6e9621fb6b1b1e7f>l
<6b1b1e7f6b1b2576>l
<679f28f264242576>l
<64241789679f1b04>l
<679f21fb64242576>l
<642425766b1b2576>l
<6b1b2576679f21fb>l
<679f21fb64241e7f>l
<64241e7f64242576>l
<64242576679f21fb>l
<6b1b1092679f140d>l
<52bb140d56361092>l
<563610924f3f1092>l
<4f3f109252bb140d>l
<4bc4140d4f3f1092>l
<4f3f109248481092>l
<484810924bc4140d>l
<4f3f178952bb140d>l
<5d2d109256361092>l
<5636109259b1140d>l
<59b1140d5d2d1789>l
<5d2d17895d2d1092>l
<5d2d109259b1140d>l
<52bb140d4f3f1092>l
<4f3f10924f3f1789>l
<4bc4140d4f3f1789>l
<52bb140d56361789>l
<5636178956361092>l
<5636109252bb140d>l
<52bb140d4f3f1789>l
<4f3f178956361789>l
<5636178952bb140d>l
<5636178952bb1b04>l
<4f3f17894f3f1092>l
<4f3f10924bc4140d>l
<52bb1b0456361789>l
<563617894f3f1789>l
<4f3f178952bb1b04>l
<52bb1b0456361e7f>l
<56361e7f56361789>l
<59b1140d5d2d1092>l
<721110926e96140d>l
<6e96140d6b1b1789>l
<6b1b178972111789>l
<721117896e96140d>l
<59b1140d56361789>l
<563617895d2d1789>l
<7211178972111092>l
<6e961b0472111789>l
<721117896b1b1789>l
<6b1b17896e961b04>l
<6e961b0472111e7f>l
<72111e7f72111789>l
<721117896e961b04>l
<6e96140d72111789>l
<5d2d178959b1140d>l
<5636178959b11b04>l
<60a8140d5d2d1092>l
<5d2d10925d2d1789>l
<5d2d178960a8140d>l
<60a8140d64241092>l
<642410925d2d1092>l
<5d2d109260a8140d>l
<5d2d178956361789>l
<59b1140d56361092>l
<5636109256361789>l
<5636178959b1140d>l
<59b11b0456361789>l
<5636178956361e7f>l
<56361e7f59b11b04>l
<59b11b045d2d1789>l
<3a5b17893a5b1092>l
<4848336448482c6d>l
<48482c6d44cd2fe8>l
<44cd2fe841523364>l
<4152336448483364>l
<4848336444cd2fe8>l
<3dd636df41523a5b>l
<44cd2fe848483364>l
<4848484848484152>l
<4848415248483a5b>l
<48483a5b41524152>l
<4152415248484152>l
<4848336441523364>l
<4152336448483a5b>l
<48483a5b48483364>l
<41523a5b41523364>l
<41521e7f41522576>l
<4152257644cd21fb>l
<44cd21fb48481e7f>l
<48481e7f41521e7f>l
<41521e7f44cd21fb>l
<3dd621fb41521e7f>l
<44cd21fb41521e7f>l
<415233643dd636df>l
<3dd636df3a5b3a5b>l
<3a5b3a5b41523a5b>l
<41523a5b3dd636df>l
<41523a5b48483a5b>l
<48483a5b41523364>l
<4152336441523a5b>l
<4152415248484848>l
<2fe82fe833643364>l
<3364336433642c6d>l
<33642c6d2fe82fe8>l
<36df36df3a5b3364>l
<3a5b336433643364>l
<3364336436df36df>l
<2c6d2c6d2fe82fe8>l
<33642c6d33643364>l
<3364336436df2fe8>l
<36df2fe83a5b2c6d>l
<3a5b2c6d33642c6d>l
<33642c6d36df2fe8>l
<2fe82fe833642c6d>l
<33642c6d2c6d2c6d>l
<36df36df3a5b3a5b>l
<41523a5b41524152>l
<4152415248483a5b>l
<48483a5b41523a5b>l
<41523a5b3a5b3a5b>l
<3a5b3a5b41524152>l
<4152415241523a5b>l
<4848415241524152>l
<3a5b336436df2fe8>l
<3a5b3a5b3a5b3364>l
<3a5b336436df36df>l
<36df2fe83a5b3364>l
<3a5b33643a5b2c6d>l
<3a5b2c6d36df2fe8>l
<36df2fe833643364>l
<336433643a5b3364>l
<41521e7f3a5b1e7f>l
<41521e7f44cd1b04>l
<36df28f23a5b2576>l
<3a5b257633642576>l
<3364257636df28f2>l
<36df28f23a5b2c6d>l
<3a5b2c6d3a5b2576>l
<4152178941521e7f>l
<3dd61b043a5b1e7f>l
<3a5b1e7f41521e7f>l
<41521e7f3dd61b04>l
<44cd1b0441521e7f>l
<41521e7f48481e7f>l
<48481e7f44cd1b04>l
<44cd1b0441521789>l
<3a5b257636df28f2>l
<336425762fe828f2>l
<2fe828f22c6d2c6d>l
<2c6d2c6d33642c6d>l
<33642c6d2fe828f2>l
<36df28f233642c6d>l
<33642c6d3a5b2c6d>l
<33642c6d33642576>l
<36df21fb3a5b2576>l
<3a5b25763a5b1e7f>l
<3a5b1e7f36df21fb>l
<36df21fb33642576>l
<336425763a5b2576>l
<3a5b257636df21fb>l
<2fe828f233642c6d>l
<415217893dd61b04>l
<48482c6d48482576>l
<4848257644cd28f2>l
<44cd21fb48482576>l
<4848257648481e7f>l
<48481e7f44cd21fb>l
<44cd21fb41522576>l
<44cd28f248482c6d>l
<3a5b1e7f3dd621fb>l
<3dd621fb41522576>l
<4152257641521e7f>l
<41521e7f3dd621fb>l
<44cd28f248482576>l
<4848257641522576>l
<4152257644cd28f2>l
<4152257648482576>l
<4848178948481092>l
<4848109244cd140d>l
<44cd140d41521789>l
<4152178948481789>l
<4848178944cd140d>l
<3dd61b0441521e7f>l
<41521e7f41521789>l
<44cd140d48481789>l
<4848257644cd21fb>l
<44cd1b0448481789>l
<4848178941521789>l
<4152178944cd1b04>l
<44cd1b0448481e7f>l
<48481e7f48481789>l
<4848178944cd1b04>l
<36df2fe833642c6d>l
<17891092140d140d>l
<1b041b041e7f1789>l
<1e7f178917891789>l
<178917891b041b04>l
<1b041b041e7f1e7f>l
<1e7f1e7f1e7f1789>l
<1789178917891092>l
<1b04140d1e7f1092>l
<1e7f109217891092>l
<178910921b04140d>l
<140d140d17891092>l
<1789109210921092>l
<10921092140d140d>l
<140d140d17891789>l
<1e7f17891b041b04>l
<2576257628f221fb>l
<28f221fb2c6d1e7f>l
<2c6d1e7f25761e7f>l
<25761e7f28f221fb>l
<21fb21fb25761e7f>l
<25761e7f1e7f1e7f>l
<25761e7f25762576>l
<1b04140d1e7f1789>l
<1e7f17891e7f1092>l
<1e7f10921b04140d>l
<1b04140d17891789>l
<178917891e7f1789>l
<1e7f17891b04140d>l
<28f221fb25761e7f>l
<178917891b04140d>l
<1e7f10921e7f1789>l
<1e7f178921fb140d>l
<21fb1b041e7f1789>l
<1e7f17891e7f1e7f>l
<1e7f1e7f21fb1b04>l
<21fb1b0425761789>l
<21fb140d1e7f1092>l
<3a5b109236df140d>l
<36df140d33641789>l
<336417893a5b1789>l
<3a5b178936df140d>l
<21fb140d1e7f1789>l
<1e7f178925761789>l
<2576178921fb140d>l
<257617891e7f1789>l
<257610921e7f1092>l
<1e7f109221fb140d>l
<21fb140d25761789>l
<2576178925761092>l
<2576109221fb140d>l
<1b04140d17891092>l
<1789109217891789>l
<21fb140d25761092>l
<1e7f178921fb1b04>l
<28f2140d25761092>l
<2576109225761789>l
<2576178928f2140d>l
<28f2140d2c6d1092>l
<2c6d109225761092>l
<2576109228f2140d>l
<1e7f1e7f21fb21fb>l
<3dd62fe83a5b2c6d>l
<3a5b2c6d3a5b3364>l
<3a5b33643dd62fe8>l
<3dd636df3a5b3364>l
<3a5b33643a5b3a5b>l
<3a5b3a5b3dd636df>l
<415233643dd62fe8>l
<25761e7f2c6d1e7f>l
<2c6d1e7f28f21b04>l
<28f21b0425761789>l
<2576178925761e7f>l
<25761e7f28f21b04>l
<3dd62fe83a5b3364>l
<3a5b336441523364>l
<3dd636df41523364>l
<3dd62fe841522c6d>l
<41522c6d3a5b2c6d>l
<3a5b2c6d3dd62fe8>l
<3dd62fe841523364>l
<4152336441522c6d>l
<41522c6d3dd62fe8>l
<41522c6d44cd2fe8>l
<415233643a5b3364>l
<3a5b33643dd636df>l
<44cd2fe841522c6d>l
<41522c6d41523364>l
<4152336444cd2fe8>l
<44cd2fe848482c6d>l
<48482c6d41522c6d>l
<28f21b0425761e7f>l
<2c6d1e7f28f221fb>l
<28f221fb25762576>l
<257625762c6d2576>l
<2c6d257628f221fb>l
<28f21b042c6d1789>l
<2c6d178925761789>l
<2c6d25762c6d1e7f>l
<21fb21fb25762576>l
<2576257625761e7f>l
<25761e7f21fb21fb>l
<2c6d257625762576>l
<257625762c6d2c6d>l
<2c6d2c6d2c6d2576>l
<28f221fb2c6d2576>l
<2576178928f21b04>l
<2c6d178928f2140d>l
<21fb1b0425761e7f>l
<25761e7f25761789>l
<2576178921fb1b04>l
<21fb1b041e7f1e7f>l
<1e7f1e7f25761e7f>l
<25761e7f21fb1b04>l
<257617892c6d1789>l
<28f21b042c6d1e7f>l
<2c6d1e7f2c6d1789>l
<2c6d178928f21b04>l
<28f2140d2c6d1789>l
<2c6d17892c6d1092>l
<2c6d109228f2140d>l
<28f2140d25761789>l
<c5a38dedb7b69bda>l
<17892576140d28f2>l
<140d28f210922c6d>l
<10922c6d17892c6d>l
<17892c6d140d28f2>l
<1b0428f217892c6d>l
<17892c6d1e7f2c6d>l
<17892c6d17892576>l
<1b0421fb1e7f2576>l
<1e7f25761e7f1e7f>l
<1e7f1e7f1b0421fb>l
<1b0421fb17892576>l
<178925761e7f2576>l
<1e7f25761b0421fb>l
<140d28f217892c6d>l
<1e7f2c6d1b0428f2>l
<25762c6d21fb28f2>l
<25762c6d2c6d2c6d>l
<2c6d2c6d25762576>l
<2576257625762c6d>l
<21fb21fb1e7f2576>l
<1e7f257625762576>l
<1e7f2c6d25762c6d>l
<1b0428f217892576>l
<1789257617892c6d>l
<17892c6d1b0428f2>l
<21fb28f225762c6d>l
<25762c6d25762576>l
<2576257621fb28f2>l
<21fb28f21e7f2c6d>l
<1e7f25761b0428f2>l
<2c6d48482fe844cd>l
<2fe844cd33644152>l
<336441522c6d4152>l
<2c6d41522fe844cd>l
<36df3dd633643a5b>l
<33643a5b33644152>l
<2c6d41522c6d4848>l
<2fe83dd62c6d4152>l
<2c6d415233644152>l
<336441522fe83dd6>l
<2fe83dd62c6d3a5b>l
<2c6d3a5b2c6d4152>l
<2c6d41522fe83dd6>l
<2fe844cd2c6d4152>l
<3364415236df3dd6>l
<33643a5b2fe83dd6>l
<1b0428f21e7f2576>l
<1e7f257617892576>l
<178925761b0428f2>l
<1b0428f21e7f2c6d>l
<1e7f2c6d1e7f2576>l
<3364415233643a5b>l
<36df3dd63a5b3a5b>l
<3a5b3a5b33643a5b>l
<33643a5b36df3dd6>l
<2fe83dd633643a5b>l
<33643a5b2c6d3a5b>l
<2c6d3a5b2fe83dd6>l
<2fe83dd633644152>l
<2576257621fb21fb>l
<140d28f210922576>l
<1092257610922c6d>l
<10922c6d140d28f2>l
<140d28f217892576>l
<1789257610922576>l
<10922576140d28f2>l
<10922576140d21fb>l
<1789178910921789>l
<10921789140d1b04>l
<140d21fb10922576>l
<1092257617892576>l
<17892576140d21fb>l
<140d21fb10921e7f>l
<10921e7f10922576>l
<1b0421fb17891e7f>l
<140d21fb17892576>l
<1789257617891e7f>l
<17891e7f140d21fb>l
<140d36df17893a5b>l
<17893a5b17893364>l
<17893364140d36df>l
<10921e7f140d21fb>l
<17891e7f17892576>l
<178925761b0421fb>l
<1b0421fb1e7f1e7f>l
<1e7f1e7f17891e7f>l
<17891e7f1b0421fb>l
<140d21fb17891e7f>l
<17891e7f10921e7f>l
<140d1b0417891789>l
<1e7f257621fb28f2>l
<140d1b0417891e7f>l
<17891e7f17891789>l
<17891789140d1b04>l
<140d1b0410921e7f>l
<10921e7f17891e7f>l
<257625761e7f2576>l
<21fb21fb1e7f1e7f>l
<1e7f1e7f1e7f2576>l
<1e7f257621fb21fb>l
<21fb28f21e7f2576>l
<1e7f25761e7f2c6d>l
<1e7f2c6d21fb28f2>l
<21fb28f225762576>l
<17891e7f140d1b04>l
<17891789140d140d>l
<140d140d10921092>l
<1092109210921789>l
<10921789140d140d>l
<140d1b0410921789>l
<1092178910921e7f>l
<10921e7f140d1b04>l
<1092178917891789>l
<1b041b0417891e7f>l
<17891e7f1e7f1e7f>l
<1e7f1e7f1b041b04>l
<1b041b0417891789>l
<1789178917891e7f>l
<17891e7f1b041b04>l
<140d140d10921789>l
<2c6d33642fe836df>l
<178948481e7f4848>l
<1e7f48481b0444cd>l
<1b0444cd17894152>l
<1789415217894848>l
<178948481b0444cd>l
<21fb44cd25764848>l
<1b0444cd17894848>l
<1e7f41521b043dd6>l
<140d44cd17894848>l
<1789484817894152>l
<17894152140d44cd>l
<140d44cd10924848>l
<1092484817894848>l
<17894848140d44cd>l
<2576484825764152>l
<2576415225764848>l
<2576484828f244cd>l
<21fb3dd61e7f4152>l
<1e7f415225764152>l
<2576415221fb3dd6>l
<21fb3dd61e7f3a5b>l
<28f244cd25764152>l
<2576415221fb44cd>l
<21fb44cd1e7f4848>l
<1e7f484825764848>l
<2576484821fb44cd>l
<28f244cd25764848>l
<257648482c6d4848>l
<2c6d484828f244cd>l
<178941521e7f4152>l
<21fb36df25763a5b>l
<25763a5b25763364>l
<2576336421fb36df>l
<21fb36df1e7f3a5b>l
<1e7f3a5b25763a5b>l
<25763a5b21fb36df>l
<2c6d336428f22fe8>l
<2c6d3a5b2c6d3364>l
<2c6d336428f236df>l
<28f22fe82c6d3364>l
<2c6d33642c6d2c6d>l
<2c6d2c6d28f22fe8>l
<28f22fe825763364>l
<257633642c6d3364>l
<28f236df25763a5b>l
<1b0444cd1e7f4848>l
<1e7f48481e7f4152>l
<1e7f41521b0444cd>l
<1b043dd61e7f4152>l
<1e7f41521e7f3a5b>l
<1e7f3a5b1b043dd6>l
<1b043dd617894152>l
<178941521b0444cd>l
<25763a5b2c6d3a5b>l
<2c6d3a5b28f236df>l
<28f236df25763364>l
<2576336425763a5b>l
<25763a5b28f236df>l
<1b0444cd1e7f4152>l
<1e7f415217894152>l
<1e7f3a5b1e7f4152>l
<336433642fe836df>l
<2fe836df2c6d3a5b>l
<2c6d3a5b33643a5b>l
<33643a5b2fe836df>l
<36df36df33643a5b>l
<33643a5b3a5b3a5b>l
<33643a5b33643364>l
<3a5b415241524152>l
<415241523a5b3a5b>l
<3a5b3a5b3a5b4152>l
<3a5b41523a5b4848>l
<3a5b484841524152>l
<415241523a5b4152>l
<2fe836df33643a5b>l
<3a5b3a5b36df36df>l
<2c6d33642fe82fe8>l
<2fe836df2c6d3364>l
<2c6d33642c6d3a5b>l
<2c6d3a5b2fe836df>l
<2fe836df33643364>l
<336433642c6d3364>l
<2c6d2c6d2c6d3364>l
<36df36df33643364>l
<3364336433643a5b>l
<33643a5b36df36df>l
<2fe82fe82c6d3364>l
<2c6d336433643364>l
<336433642fe82fe8>l
<2fe82fe82c6d2c6d>l
<4152415241524848>l
<336441523a5b4848>l
<3a5b48483a5b4152>l
<36df3dd63a5b4152>l
<3a5b41523a5b3a5b>l
<3a5b3a5b36df3dd6>l
<36df3dd633644152>l
<3a5b415233644152>l
<1e7f415221fb3dd6>l
<21fb44cd1e7f4152>l
<1e7f41521e7f4848>l
<1e7f484821fb44cd>l
<21fb44cd25764152>l
<257641521e7f4152>l
<1e7f415221fb44cd>l
<336441523a5b4152>l
<3a5b484833644152>l
<3364415233644848>l
<4152484841524152>l
<415241523a5b4848>l
<3a5b484841524848>l
<4152484848484848>l
<4848484841524152>l
<336448483a5b4848>l
<3a5b415236df3dd6>l
<2fe844cd33644848>l
<3364484833644152>l
<336441522fe844cd>l
<2fe844cd2c6d4848>l
<2c6d484833644848>l
<336448482fe844cd>l
<140d36df10923a5b>l
<1b0459b11e7f5636>l
<1e7f563617895636>l
<178956361b0459b1>l
<140d59b117895636>l
<1789563610925636>l
<10925636140d59b1>l
<17895d2d1b0459b1>l
<10925d2d10926424>l
<10926424140d60a8>l
<140d60a817895d2d>l
<17895d2d10925d2d>l
<10925d2d140d60a8>l
<1b0459b117895636>l
<1789563617895d2d>l
<140d59b117895d2d>l
<1b046e9617897211>l
<178972111e7f7211>l
<1e7f72111b046e96>l
<1b046e9617896b1b>l
<17896b1b17897211>l
<178972111b046e96>l
<17897211140d6e96>l
<17895d2d17895636>l
<17895636140d59b1>l
<140d6e9617897211>l
<1789721117896b1b>l
<17896b1b140d6e96>l
<140d6e9610927211>l
<1092721117897211>l
<140d60a810925d2d>l
<1e7f56361b0452bb>l
<1b0452bb17894f3f>l
<17894f3f17895636>l
<178956361b0452bb>l
<140d4bc410924f3f>l
<10924f3f17894f3f>l
<178956361e7f5636>l
<140d52bb17895636>l
<1789563617894f3f>l
<17894f3f140d52bb>l
<140d52bb10925636>l
<1092563617895636>l
<17895636140d52bb>l
<1b0452bb17895636>l
<17894f3f140d4bc4>l
<10924f3f140d52bb>l
<140d59b110925d2d>l
<10925d2d17895d2d>l
<17895d2d140d59b1>l
<140d59b110925636>l
<1092563610925d2d>l
<10925d2d140d59b1>l
<17894f3f10924f3f>l
<140d4bc410924848>l
<1092484810924f3f>l
<10924f3f140d4bc4>l
<140d52bb10924f3f>l
<10924f3f10925636>l
<10925636140d52bb>l
<140d52bb17894f3f>l
<140d679f10926b1b>l
<257664241e7f6424>l
<1e7f642421fb679f>l
<21fb679f25766b1b>l
<25766b1b25766424>l
<2576642421fb679f>l
<1b04679f17896424>l
<21fb679f25766424>l
<1e7f6b1b21fb6e96>l
<28f2679f25766424>l
<2576642425766b1b>l
<25766b1b28f2679f>l
<28f2679f2c6d6424>l
<2c6d642425766424>l
<2576642428f2679f>l
<1789642417896b1b>l
<17896b1b17896424>l
<17896424140d679f>l
<1b046e961e7f6b1b>l
<1e7f6b1b17896b1b>l
<17896b1b1b046e96>l
<1b046e961e7f7211>l
<140d679f17896b1b>l
<17896b1b1b04679f>l
<1b04679f1e7f6424>l
<1e7f642417896424>l
<178964241b04679f>l
<140d679f17896424>l
<1789642410926424>l
<10926424140d679f>l
<25766b1b1e7f6b1b>l
<140d6e9617896b1b>l
<17896b1b10926b1b>l
<10926b1b140d6e96>l
<1789790810927211>l
<1092721110927fff>l
<10927fff17897908>l
<10927211140d6e96>l
<10926b1b17896b1b>l
<17896b1b140d679f>l
<140d679f10926424>l
<1092642410926b1b>l
<10926b1b140d679f>l
<140d6e9610926b1b>l
<10926b1b10927211>l
<1789721117897908>l
<21fb679f1e7f6424>l
<1e7f64241e7f6b1b>l
<1e7f6b1b21fb679f>l
<21fb6e961e7f6b1b>l
<1e7f6b1b1e7f7211>l
<1e7f721121fb6e96>l
<21fb6e9625766b1b>l
<25766b1b21fb679f>l
<178979081e7f7211>l
<1e7f721117897211>l
<1789721110927211>l
<1092721117897908>l
<1789790817897211>l
<21fb679f1e7f6b1b>l
<1e7f6b1b25766b1b>l
<1e7f5d2d21fb60a8>l
<1789415217893a5b>l
<17893a5b140d3dd6>l
<1e7f336425763364>l
<257633641e7f2c6d>l
<1e7f2c6d1e7f3364>l
<21fb36df1e7f3364>l
<140d3dd617894152>l
<178941521b043dd6>l
<1b043dd61e7f3a5b>l
<1e7f3a5b17893a5b>l
<17893a5b1b043dd6>l
<140d3dd617893a5b>l
<17893a5b10923a5b>l
<10923a5b140d3dd6>l
<1e7f33641e7f3a5b>l
<2c6d2c6d25762c6d>l
<25762c6d28f22fe8>l
<25762c6d1e7f2c6d>l
<1e7f2c6d25763364>l
<2576336425762c6d>l
<17892c6d17893364>l
<28f22fe82c6d2c6d>l
<1e7f3a5b21fb36df>l
<21fb36df25763364>l
<257633641e7f3364>l
<1e7f336421fb36df>l
<28f22fe825762c6d>l
<25762c6d25763364>l
<2576336428f22fe8>l
<17893a5b17894152>l
<1092336417893364>l
<1789336410922c6d>l
<10922c6d10923364>l
<140d36df10923364>l
<1092336410923a5b>l
<10923a5b140d36df>l
<17893a5b1b0436df>l
<10923a5b17893a5b>l
<17893a5b140d36df>l
<1b0436df17893a5b>l
<17893a5b1e7f3a5b>l
<1e7f3a5b1b0436df>l
<1b0436df17893364>l
<1789336417893a5b>l
<140d36df17893364>l
<140d44cd10924152>l
<1092415210924848>l
<10924848140d44cd>l
<140d44cd17894152>l
<1789415210924152>l
<10924152140d44cd>l
<1b043dd617893a5b>l
<10924152140d3dd6>l
<1789336410923364>l
<10923364140d36df>l
<140d3dd610924152>l
<1092415217894152>l
<17894152140d3dd6>l
<140d3dd610923a5b>l
<10923a5b10924152>l
<178933641e7f2c6d>l
<25765d2d21fb60a8>l
<21fb60a81e7f6424>l
<1e7f642425766424>l
<2576642421fb60a8>l
<28f260a825766424>l
<257664242c6d6424>l
<2576642425765d2d>l
<1b0460a817896424>l
<178964241e7f6424>l
<1e7f64241b0460a8>l
<1b0460a817895d2d>l
<17895d2d17896424>l
<178964241b0460a8>l
<21fb60a825766424>l
<2c6d642428f260a8>l
<1e7f5d2d21fb59b1>l
<21fb60a81e7f5d2d>l
<1e7f5d2d1e7f6424>l
<1e7f642421fb60a8>l
<21fb60a825765d2d>l
<25765d2d1e7f5d2d>l
<1e7f56361e7f5d2d>l
<28f260a825765d2d>l
<25765d2d25766424>l
<2576642428f260a8>l
<21fb59b11e7f5d2d>l
<1e7f5d2d25765d2d>l
<25765d2d21fb59b1>l
<21fb59b11e7f5636>l
<17896424140d60a8>l
<1e7f3a5b1e7f3364>l
<1e7f33641b0436df>l
<1e7f33641e7f2c6d>l
<1e7f2c6d17893364>l
<178933641e7f3364>l
<1b0460a81e7f5d2d>l
<1b0436df1e7f3a5b>l
<1e7f2c6d17892c6d>l
<17892c6d10922c6d>l
<10922c6d17893364>l
<1789336417892c6d>l
<1b0436df1e7f3364>l
<1e7f336417893364>l
<178933641b0436df>l
<1e7f5d2d17895d2d>l
<17895d2d1e7f5d2d>l
<1e7f5d2d1b0459b1>l
<140d60a817896424>l
<1789642417895d2d>l
<17895d2d140d60a8>l
<140d60a810926424>l
<1092642417896424>l
<1b0459b117895d2d>l
<17895d2d1b0460a8>l
<1b0460a81e7f6424>l
<1e7f64241e7f5d2d>l
<1e7f5d2d1b0460a8>l
<1b0459b11e7f5d2d>l
<1e7f5d2d1e7f5636>l
<1e7f56361b0459b1>l
<28f236df2c6d3a5b>l
<3a5b5d2d3a5b6424>l
<3a5b64243dd660a8>l
<3dd660a841525d2d>l
<41525d2d3a5b5d2d>l
<3a5b5d2d3dd660a8>l
<2576721125767908>l
<3dd660a83a5b5d2d>l
<4152642444cd60a8>l
<3dd659b13a5b5d2d>l
<3a5b5d2d41525d2d>l
<41525d2d3dd659b1>l
<3dd659b13a5b5636>l
<3a5b56363a5b5d2d>l
<3a5b5d2d3dd659b1>l
<257679082c6d7211>l
<2c6d6b1b25766b1b>l
<25766b1b28f26e96>l
<28f26e962c6d7211>l
<2c6d72112c6d6b1b>l
<2c6d6b1b28f26e96>l
<28f2679f2c6d6b1b>l
<28f26e962c6d6b1b>l
<2c6d721125767211>l
<257672111e7f7211>l
<1e7f721125767908>l
<2576790825767211>l
<257679082c6d7fff>l
<2c6d7fff2c6d7211>l
<2c6d721125767908>l
<41525d2d41526424>l
<3364642433645d2d>l
<33645d2d2fe860a8>l
<2fe860a82c6d6424>l
<2c6d642433646424>l
<336464242fe860a8>l
<36df60a833646424>l
<2fe860a833646424>l
<3a5b5d2d36df60a8>l
<36df59b13a5b5d2d>l
<3a5b5d2d3a5b5636>l
<3a5b563636df59b1>l
<36df59b133645d2d>l
<33645d2d3a5b5d2d>l
<3a5b5d2d36df59b1>l
<336464243a5b6424>l
<3a5b642441526424>l
<415264243dd660a8>l
<44cd60a841526424>l
<4152642448486424>l
<4848642444cd60a8>l
<44cd60a841525d2d>l
<3dd660a83a5b6424>l
<3a5b642436df60a8>l
<36df60a833645d2d>l
<33645d2d33646424>l
<3364642436df60a8>l
<3dd660a841526424>l
<4152642441525d2d>l
<41525d2d3dd660a8>l
<2c6d6b1b2c6d6424>l
<2c6d7fff33647fff>l
<33647fff3a5b7fff>l
<3a5b7fff33647908>l
<3364790833647fff>l
<41527fff41527908>l
<415279083a5b7fff>l
<336479082c6d7fff>l
<3a5b790833647908>l
<336479083a5b7fff>l
<3a5b7fff3a5b7908>l
<3a5b79083a5b7211>l
<3a5b721133647908>l
<336479083a5b7908>l
<33647fff33647908>l
<3a5b7fff41527fff>l
<415279083a5b7908>l
<2fe86e9633647211>l
<3364721133646b1b>l
<33646b1b2fe86e96>l
<2fe86e962c6d7211>l
<2c6d721133647211>l
<3a5b7fff41527908>l
<41527fff48487fff>l
<48487fff41527908>l
<4152790841527fff>l
<3a5b790841527908>l
<415279083a5b7211>l
<3a5b72113a5b7908>l
<3a5b79083a5b7fff>l
<1e7f7fff25767908>l
<1e7f721125767211>l
<2576721121fb6e96>l
<28f26e9625767211>l
<257672112c6d7211>l
<2c6d721128f26e96>l
<28f26e9625766b1b>l
<21fb6e961e7f7211>l
<2c6d642428f2679f>l
<28f2679f25766b1b>l
<25766b1b2c6d6b1b>l
<2c6d6b1b28f2679f>l
<21fb6e9625767211>l
<2576721125766b1b>l
<25766b1b21fb6e96>l
<25766b1b25767211>l
<257679081e7f7fff>l
<1e7f7fff25767fff>l
<25767fff2c6d7fff>l
<2c6d7fff25767908>l
<2576790825767fff>l
<257679081e7f7211>l
<1e7f72111e7f7fff>l
<25767fff25767908>l
<2576721128f26e96>l
<178979081e7f7fff>l
<1e7f7fff1e7f7211>l
<1e7f721117897908>l
<1789790810927fff>l
<10927fff1e7f7fff>l
<1e7f7fff17897908>l
<3a5b64243a5b5d2d>l
<415272113a5b7211>l
<3a5b721141527908>l
<4152790841527211>l
<4848790841527908>l
<4152790848487fff>l
<48487fff48487908>l
<4848721141527211>l
<3a5b6b1b3a5b6424>l
<3a5b642436df679f>l
<36df679f33646b1b>l
<33646b1b3a5b6b1b>l
<3a5b6b1b36df679f>l
<4152721141527908>l
<4152790848487211>l
<4848790848487211>l
<48486b1b48486424>l
<4848642441526b1b>l
<41526b1b48486b1b>l
<3dd66e9641527211>l
<4152721141526b1b>l
<41526b1b3dd66e96>l
<48486b1b44cd6e96>l
<4848721141527908>l
<4152790848487908>l
<44cd6e9648486b1b>l
<48486b1b41526b1b>l
<41526b1b44cd6e96>l
<44cd6e9648487211>l
<4848721148486b1b>l
<36df679f3a5b6b1b>l
<3a5b6b1b3dd66e96>l
<4152642441526b1b>l
<41526b1b48486424>l
<4848642441526424>l
<415264243a5b6424>l
<3a5b642441526b1b>l
<41526b1b3a5b6b1b>l
<3a5b6b1b41526b1b>l
<41526b1b3a5b6424>l
<3a5b64243a5b6b1b>l
<3dd66e963a5b6b1b>l
<3a5b6b1b3a5b7211>l
<3a5b72113dd66e96>l
<3dd66e9641526b1b>l
<41526b1b41526424>l
<2c6d64242fe8679f>l
<2fe8679f33646b1b>l
<33646b1b33646424>l
<336464242fe8679f>l
<3a5b6b1b33646b1b>l
<33646b1b3a5b7211>l
<3a5b72113a5b6b1b>l
<336464242c6d6424>l
<36df679f33646424>l
<3364642433646b1b>l
<33646b1b36df679f>l
<36df679f3a5b6424>l
<3a5b642433646424>l
<3364642436df679f>l
<2fe8679f33646424>l
<3dd66e963a5b7211>l
<48484f3f48484848>l
<4848484844cd4bc4>l
<44cd4bc441524f3f>l
<41524f3f48484f3f>l
<48484f3f44cd4bc4>l
<3dd652bb41525636>l
<44cd4bc448484f3f>l
<48485d2d44cd59b1>l
<44cd52bb48484f3f>l
<48484f3f41524f3f>l
<41524f3f44cd52bb>l
<44cd52bb48485636>l
<4848563648484f3f>l
<48484f3f44cd52bb>l
<4152563641524f3f>l
<41524f3f41525636>l
<4152563644cd52bb>l
<36df60a83a5b5d2d>l
<3a5b5d2d33645d2d>l
<33645d2d36df60a8>l
<36df60a83a5b6424>l
<44cd52bb41524f3f>l
<41524f3f3dd652bb>l
<3dd652bb3a5b5636>l
<3a5b563641525636>l
<415256363dd652bb>l
<44cd52bb41525636>l
<4152563648485636>l
<4848563644cd52bb>l
<41525d2d48485d2d>l
<44cd59b141525636>l
<4152563641525d2d>l
<41525d2d44cd59b1>l
<44cd59b148485636>l
<4848563641525636>l
<4152563644cd59b1>l
<4152721144cd6e96>l
<3a5b721141527211>l
<415272113dd66e96>l
<44cd6e9641527211>l
<4152721148487211>l
<4848721144cd6e96>l
<44cd6e9641526b1b>l
<41526b1b41527211>l
<3dd659b141525636>l
<44cd60a848486424>l
<4848642448485d2d>l
<48485d2d44cd60a8>l
<44cd59b148485d2d>l
<48485d2d48485636>l
<4848563644cd59b1>l
<44cd59b141525d2d>l
<41525d2d44cd60a8>l
<415256363a5b5636>l
<3a5b56363dd659b1>l
<3dd659b141525d2d>l
<41525d2d41525636>l
<415256363dd659b1>l
<44cd60a848485d2d>l
<48485d2d41525d2d>l
<336472112fe86e96>l
<484856364bc452bb>l
<4bc452bb4f3f4f3f>l
<4f3f4f3f48484f3f>l
<48484f3f4bc452bb>l
<48485d2d4f3f5d2d>l
<4f3f5d2d48485636>l
<48484f3f48485636>l
<4bc44bc448484f3f>l
<48484f3f4f3f4f3f>l
<4f3f4f3f4bc44bc4>l
<4bc44bc448484848>l
<4848484848484f3f>l
<48484f3f4bc44bc4>l
<4bc452bb48484f3f>l
<4848563648485d2d>l
<4f3f5d2d4f3f5636>l
<4f3f72114f3f6b1b>l
<4f3f6b1b48487211>l
<484872114f3f7211>l
<4f3f721156367211>l
<563672114f3f6b1b>l
<484856364f3f5d2d>l
<48485d2d48486424>l
<484864244f3f5d2d>l
<4f3f5d2d48485d2d>l
<4f3f56364f3f5d2d>l
<4f3f5d2d56365636>l
<563656364f3f5636>l
<4f3f563648485636>l
<4f3f563652bb52bb>l
<5d2d5d2d56366424>l
<563664245d2d6424>l
<5d2d642464246424>l
<642464245d2d5d2d>l
<5d2d5d2d5d2d6424>l
<56365d2d5d2d5d2d>l
<5d2d64245d2d5d2d>l
<5636642456365d2d>l
<56365d2d56365636>l
<563656364f3f5d2d>l
<4f3f5d2d56365d2d>l
<4f3f5d2d48486424>l
<4848642456366424>l
<563664244f3f5d2d>l
<5d2d5d2d56365636>l
<484856364f3f5636>l
<4f3f56364bc452bb>l
<52bb52bb4f3f5636>l
<4f3f563656365636>l
<5636563652bb52bb>l
<52bb52bb4f3f4f3f>l
<4f3f4f3f4f3f5636>l
<4bc452bb48485636>l
<5636563656365d2d>l
<56365d2d56366424>l
<563664245d2d5d2d>l
<5d2d5d2d56365d2d>l
<4bc452bb4f3f5636>l
<4f3f56364f3f4f3f>l
<4f3f4f3f4bc452bb>l
<4f3f6b1b4f3f7211>l
<21fb3dd625763a5b>l
<25763a5b1e7f3a5b>l
<1e7f3a5b21fb3dd6>l
<21fb3dd625764152>l
<2576415225763a5b>l
<25763a5b21fb3dd6>l
<25763a5b28f23dd6>l
<5636721156366424>l
<563664244f3f6b1b>l
<28f23dd625763a5b>l
<25763a5b25764152>l
<2576415228f23dd6>l
<28f23dd62c6d3a5b>l
<2c6d3a5b25763a5b>l
<28f244cd2c6d4152>l
<28f23dd625764152>l
<257641522c6d4152>l
<2c6d415228f23dd6>l
<28f236df2c6d3364>l
<2c6d336425763364>l
<2576336428f236df>l
<2c6d3a5b28f23dd6>l
<2c6d415225764152>l
<2576415228f244cd>l
<28f244cd2c6d4848>l
<2c6d48482c6d4152>l
<2c6d415228f244cd>l
<28f23dd62c6d4152>l
<2c6d41522c6d3a5b>l
<4f3f6b1b56367211>l
<4848721148487908>l
<4848790848487fff>l
<48487fff4f3f7908>l
<4f3f790848487908>l
<4f3f72114f3f7908>l
<4f3f790856367211>l
<4f3f790848487211>l
<48486b1b4f3f6b1b>l
<4f3f6b1b48486424>l
<4848642448486b1b>l
<48486b1b48487211>l
<484872114f3f6b1b>l
<4f3f6b1b48486b1b>l
<484879084f3f7908>l
<563672114f3f7211>l
<642464245d2d6424>l
<5d2d642456366424>l
<563664245d2d6b1b>l
<5d2d6b1b5d2d6424>l
<4f3f6b1b56366424>l
<5636642448486424>l
<484864244f3f6b1b>l
<5d2d6b1b64246424>l
<4f3f721148487211>l
<484872114f3f7908>l
<4f3f79084f3f7211>l
<5d2d6b1b56366424>l
<5636642456367211>l
<563672115d2d6b1b>l
<5d2d64245d2d6b1b>l
<4f3f5d2d56366424>l
<64246b1b64246424>l
<642464245d2d6b1b>l
<5d2d6b1b64246b1b>l
<5d2d72115d2d6b1b>l
<5d2d6b1b56367211>l
<563672115d2d7211>l
<6424721164246b1b>l
<5d2d790864247fff>l
<64247fff64247908>l
<6424790864247211>l
<642472115d2d7908>l
<5d2d790864247908>l
<64246b1b5d2d6b1b>l
<5d2d6b1b64247211>l
<5d2d721164247211>l
<4f3f7fff4f3f7908>l
<4f3f790848487fff>l
<48487fff4f3f7fff>l
<4f3f7fff56367fff>l
<56367fff4f3f7908>l
<4f3f79084f3f7fff>l
<4f3f790856367908>l
<642472115d2d6b1b>l
<5d2d6b1b5d2d7211>l
<563679084f3f7908>l
<4f3f790856367fff>l
<56367fff56367908>l
<5636790856367211>l
<563672114f3f7908>l
<642479085d2d7908>l
<2c6d6b1b2fe8679f>l
<2fe86e962c6d6b1b>l
<2c6d6b1b2c6d7211>l
<2c6d72112fe86e96>l
<2fe86e9633646b1b>l
<33646b1b2c6d6b1b>l
<2c6d64242c6d6b1b>l
<336472113a5b7211>l
<3a5b721133646b1b>l
<33646b1b33647211>l
<2fe8679f2c6d6b1b>l
<2c6d6b1b33646b1b>l
<33646b1b2fe8679f>l
<2fe8679f2c6d6424>l
<2c6d6b1b2fe86e96>l
<3364790833647211>l
<5d2d72115d2d7908>l
<5d2d790864247211>l
<642472115d2d7211>l
<5d2d721156367211>l
<563672115d2d7908>l
<5d2d79085d2d7211>l
<2c6d721133647908>l
<336479082c6d7211>l
<2c6d72112c6d7fff>l
<2c6d7fff33647908>l
<3364721133647908>l
<336479083a5b7211>l
<3a5b721133647211>l
<336472112c6d7211>l
<5d2d7fff5d2d7908>l
<721172116b1b6b1b>l
<6b1b6b1b6b1b7211>l
<64246b1b6b1b6b1b>l
<6b1b6b1b64246424>l
<6424642464246b1b>l
<64246b1b64247211>l
<6b1b721172117211>l
<7211721172117908>l
<7211790872117fff>l
<72117fff79087908>l
<7908790872117908>l
<6b1b72116b1b6b1b>l
<6b1b6b1b64247211>l
<642472116b1b7211>l
<642472116b1b6b1b>l
<6b1b790872117211>l
<721172116b1b7211>l
<6b1b721164247211>l
<642472116b1b7908>l
<6b1b79086b1b7211>l
<56365d2d4f3f5d2d>l
<6b1b72116b1b7908>l
<6b1b6b1b64246b1b>l
<642479086b1b7908>l
<6b1b790864247211>l
<6424721164247908>l
<6424790864247fff>l
<64247fff6b1b7908>l
<6b1b790864247908>l
<7908790872117211>l
<5636790856367fff>l
<56367fff5d2d7908>l
<5d2d790856367908>l
<721179086b1b7908>l
<6b1b790872117fff>l
<72117fff72117908>l
<5636721156367908>l
<5d2d790856367fff>l
<56367fff5d2d7fff>l
<5d2d7fff64247fff>l
<64247fff5d2d7908>l
<5d2d79085d2d7fff>l
<563679085d2d7908>l
<5d2d790856367211>l
<7211790872117211>l
<79087fff79087908>l
<7908790872117fff>l
<72117fff79087fff>l
<79087fff7fff7fff>l
<7fff7fff79087908>l
<7908790879087fff>l
<7211790879087908>l
<6b1b79086b1b7fff>l
<721172116b1b7908>l
<6b1b790872117908>l
<6b1b7fff6b1b7908>l
<6b1b790864247fff>l
<64247fff6b1b7fff>l
<6b1b7fff72117fff>l
<72117fff6b1b7908>l
<1e7f72111e7f6b1b>l
<2c6d9bda3a5b9bda>l
<3a5b9bda336494e3>l
<415294e33a5b9bda>l
<3a5b9bda48489bda>l
<48489bda415294e3>l
<415294e33a5b8ded>l
<336494e32c6d9bda>l
<3a5b8ded41528ded>l
<41528ded48488ded>l
<48488ded415286f6>l
<415286f641528ded>l
<336494e33a5b9bda>l
<3a5b9bda3a5b8ded>l
<3a5b8ded336494e3>l
<3a5b8ded3a5b9bda>l
<7211c5a37fffb7b6>l
<7fffb7b67211b7b6>l
<7211b7b66424b7b6>l
<6424b7b67211c5a3>l
<7211c5a37211b7b6>l
<5636b7b65636c5a3>l
<7211b7b67211c5a3>l
<3a5b9bda415294e3>l
<6424c5a37211c5a3>l
<7211c5a36424b7b6>l
<6424b7b66424c5a3>l
<6424c5a36424d391>l
<6424d3917211c5a3>l
<7211c5a36424c5a3>l
<415286f63a5b8ded>l
<4848a9c848489bda>l
<48489bda4152a2d1>l
<4152a2d13a5ba9c8>l
<3a5ba9c84848a9c8>l
<4848a9c84152a2d1>l
<41528ded415294e3>l
<4152a2d14848a9c8>l
<3a5b9bda3364a2d1>l
<4152b0bf4848a9c8>l
<4848a9c83a5ba9c8>l
<3a5ba9c84152b0bf>l
<4152b0bf4848b7b6>l
<4848b7b64848a9c8>l
<4848a9c84152b0bf>l
<415294e348488ded>l
<415286f648488ded>l
<48488ded484886f6>l
<484886f648487fff>l
<48487fff415286f6>l
<415286f6484886f6>l
<41528ded415286f6>l
<484886f6415286f6>l
<48488ded41528ded>l
<41528ded3a5b8ded>l
<3a5b8ded415294e3>l
<415294e341528ded>l
<415294e348489bda>l
<48489bda48488ded>l
<48488ded415294e3>l
<5636c5a36424b7b6>l
<7fffa9c87908b0bf>l
<7908a2d17fffa9c8>l
<7fffa9c87fff9bda>l
<7fff9bda7908a2d1>l
<7908a2d17211a9c8>l
<7211a9c87fffa9c8>l
<7fffb7b67fffa9c8>l
<6b1ba2d17211a9c8>l
<7211a9c872119bda>l
<72119bda6b1ba2d1>l
<7908b0bf7fffa9c8>l
<7fffa9c87211a9c8>l
<7211a9c87908b0bf>l
<7908b0bf7fffb7b6>l
<7fffa9c87908a2d1>l
<7fff8ded790886f6>l
<6b1b94e372119bda>l
<72119bda72118ded>l
<72118ded6b1b94e3>l
<6b1b94e364249bda>l
<64249bda72119bda>l
<72118ded7fff8ded>l
<7fff8ded72118ded>l
<72118ded7fff9bda>l
<7fff9bda7fff8ded>l
<790886f67fff8ded>l
<7fff8ded7fff7fff>l
<7fff7fff790886f6>l
<790886f672118ded>l
<64249bda6b1ba2d1>l
<5636c5a36424d391>l
<6424d3916424c5a3>l
<6424c5a36424b7b6>l
<6424b7b65636c5a3>l
<5636c5a36424c5a3>l
<7fffd3916424d391>l
<6424c5a35636c5a3>l
<6424b7b65636b7b6>l
<4f3fbeac5636b7b6>l
<5636b7b64848b7b6>l
<4848b7b64f3fbeac>l
<4f3fbeac5636c5a3>l
<5636c5a35636b7b6>l
<5636b7b64f3fbeac>l
<6424d3917fffef6c>l
<72119bda7211a9c8>l
<7211a9c87908a2d1>l
<7908a2d17fff9bda>l
<7fff9bda72119bda>l
<72119bda7908a2d1>l
<6b1ba2d172119bda>l
<72119bda64249bda>l
<7908a2d172119bda>l
<7fffef6c7fffd391>l
<7211c5a37fffd391>l
<7fffd3917fffb7b6>l
<7fffb7b67211c5a3>l
<7211c5a36424d391>l
<6424d3917fffd391>l
<7fffd3917211c5a3>l
<3a5ba9c83a5b9bda>l
<33648ded336494e3>l
<336494e33a5b8ded>l
<3a5b8ded33648ded>l
<33648ded2c6d8ded>l
<2c6d8ded336494e3>l
<336494e333648ded>l
<2c6d9bda336494e3>l
<336486f62c6d7fff>l
<2c6d7fff2c6d86f6>l
<2c6d86f62c6d8ded>l
<2c6d8ded336486f6>l
<336486f62c6d86f6>l
<336494e32c6d8ded>l
<2c6d8ded2c6d9bda>l
<3a5b86f6415286f6>l
<41527fff3a5b7fff>l
<3a5b7fff415286f6>l
<415286f641527fff>l
<33647fff336486f6>l
<336486f63a5b7fff>l
<3a5b7fff33647fff>l
<48487fff41527fff>l
<415286f63a5b7fff>l
<3a5b7fff3a5b86f6>l
<3a5b86f63a5b8ded>l
<3a5b8ded415286f6>l
<415286f63a5b86f6>l
<41527fff415286f6>l
<415286f648487fff>l
<2c6d86f6336486f6>l
<64249bda642494e3>l
<642494e364248ded>l
<64248ded5d2d94e3>l
<5d2d94e3642494e3>l
<642486f65d2d86f6>l
<5d2d86f664248ded>l
<5d2d94e364249bda>l
<5d2d8ded5d2d94e3>l
<5d2d94e364248ded>l
<64248ded5d2d8ded>l
<5d2d8ded56368ded>l
<56368ded5d2d94e3>l
<5d2d94e35d2d8ded>l
<642494e35d2d94e3>l
<64248ded642486f6>l
<5d2d86f65d2d8ded>l
<33648ded336486f6>l
<336486f62c6d8ded>l
<2c6d8ded33648ded>l
<33648ded3a5b8ded>l
<3a5b8ded336486f6>l
<336486f633648ded>l
<64248ded5d2d86f6>l
<642486f664247fff>l
<64247fff5d2d86f6>l
<5d2d86f6642486f6>l
<5d2d8ded5d2d86f6>l
<5d2d86f656368ded>l
<56368ded5d2d8ded>l
<5d2d8ded64248ded>l
<33647fff2c6d7fff>l
<257686f62c6d8ded>l
<2c6d8ded2c6d86f6>l
<2c6d86f62c6d7fff>l
<2c6d7fff257686f6>l
<257686f62c6d86f6>l
<25768ded257686f6>l
<2c6d86f6257686f6>l
<2c6d8ded25768ded>l
<25768ded1e7f8ded>l
<1e7f8ded257694e3>l
<257694e325768ded>l
<257694e32c6d9bda>l
<2c6d9bda2c6d8ded>l
<2c6d8ded257694e3>l
<257686f61e7f8ded>l
<48489bda3a5b9bda>l
<3a5b9bda4152a2d1>l
<3364a2d13a5b9bda>l
<3a5b9bda2c6d9bda>l
<2c6d9bda3364a2d1>l
<3364a2d13a5ba9c8>l
<4152a2d148489bda>l
<1e7f8ded25768ded>l
<25768ded2c6d8ded>l
<2c6d8ded257686f6>l
<257686f625768ded>l
<4152a2d13a5b9bda>l
<3a5b9bda3a5ba9c8>l
<3a5ba9c84152a2d1>l
<257694e32c6d8ded>l
<1e7f86f6257686f6>l
<257686f61e7f7fff>l
<1e7f7fff1e7f86f6>l
<1e7f86f61e7f8ded>l
<1e7f8ded257686f6>l
<257686f61e7f86f6>l
<336486f63a5b86f6>l
<2c6d7fff336486f6>l
<336486f633647fff>l
<3a5b86f6336486f6>l
<336486f63a5b8ded>l
<3a5b8ded3a5b86f6>l
<3a5b86f63a5b7fff>l
<3a5b7fff336486f6>l
<25767fff257686f6>l
<1e7f86f6178986f6>l
<178986f61e7f8ded>l
<1e7f8ded1e7f86f6>l
<1e7f86f61e7f7fff>l
<1e7f7fff178986f6>l
<178986f61e7f86f6>l
<25768ded257694e3>l
<10927fff178986f6>l
<257686f62c6d7fff>l
<2c6d7fff25767fff>l
<25767fff1e7f7fff>l
<1e7f7fff257686f6>l
<257686f625767fff>l
<178986f61e7f7fff>l
<1e7f7fff10927fff>l
<72119bda6b1b94e3>l
<8deda9c89bdaa9c8>l
<86f6b0bf8dedb7b6>l
<8dedb7b68deda9c8>l
<8deda9c886f6b0bf>l
<86f6b0bf7fffb7b6>l
<7fffb7b68dedb7b6>l
<9bda9bda8deda9c8>l
<b7b6d391b7b6ef6c>l
<b7b6ef6cd391d391>l
<d391d391b7b6d391>l
<9bdaa9c88deda9c8>l
<8deda9c89bdab7b6>l
<9bdab7b69bdaa9c8>l
<9bdaa9c89bda9bda>l
<8dedb7b686f6b0bf>l
<a9c8a9c8a9c8b7b6>l
<9bdaa9c8a9c8a9c8>l
<a9c8a9c89bda9bda>l
<9bda9bda9bdaa9c8>l
<9bdaa9c89bdab7b6>l
<9bdab7b6a9c8a9c8>l
<b7b6b7b6a9c8a9c8>l
<8dedb7b69bdab7b6>l
<9bdab7b68deda9c8>l
<8deda9c88dedb7b6>l
<a9c8b7b6a9c8a9c8>l
<a9c8a9c89bdab7b6>l
<9bdab7b6a9c8b7b6>l
<a9c8b7b6b7b6b7b6>l
<b7b6b7b6b7b6d391>l
<5636e17f6424d391>l
<6424d3915636d391>l
<5636d3914848d391>l
<4848d3915636e17f>l
<5636e17f5636d391>l
<b7b6d3919bdad391>l
<5636d3915636e17f>l
<4848d3914f3fcc9a>l
<4f3fcc9a5636c5a3>l
<5636c5a34848c5a3>l
<4848c5a34f3fcc9a>l
<5636e17f4848d391>l
<4848d3914848ef6c>l
<4848ef6c5636e17f>l
<9bdad391b7b6ef6c>l
<7fffef6cb7b6ef6c>l
<b7b6ef6c9bdad391>l
<d391d391b7b6ef6c>l
<b7b6ef6cef6cef6c>l
<ef6cef6cd391d391>l
<b7b6d391d391d391>l
<d391d391b7b6b7b6>l
<9bdad3917fffef6c>l
<b7b6ef6cb7b6d391>l
<a9c8c5a3b7b6d391>l
<b7b6d391b7b6b7b6>l
<b7b6b7b6a9c8c5a3>l
<a9c8c5a39bdad391>l
<9bdad391b7b6d391>l
<b7b6d391a9c8c5a3>l
<a9c8a9c89bdaa9c8>l
<7fffd3917fffef6c>l
<7fffef6c9bdad391>l
<9bdad3917fffd391>l
<a9c8c5a39bdab7b6>l
<9bdab7b69bdad391>l
<9bdad391a9c8c5a3>l
<7fffd3918dedc5a3>l
<8deda9c88ded9bda>l
<8ded9bda86f6a2d1>l
<8dedc5a37fffd391>l
<7fffd3919bdad391>l
<9bdad3918dedc5a3>l
<8dedc5a37fffb7b6>l
<7fffb7b67fffd391>l
<a9c8b7b6a9c8c5a3>l
<8dedb7b67fffb7b6>l
<7fffb7b68dedc5a3>l
<8dedc5a38dedb7b6>l
<8dedc5a39bdad391>l
<9bdad3919bdab7b6>l
<9bdab7b68dedc5a3>l
<9bdab7b68dedb7b6>l
<a9c8c5a3b7b6b7b6>l
<b7b6b7b6a9c8b7b6>l
<a9c8b7b69bdab7b6>l
<9bdab7b6a9c8c5a3>l
<a9c8c5a3a9c8b7b6>l
<8dedb7b68dedc5a3>l
<8dedc5a39bdab7b6>l
<86f6a2d18deda9c8>l
<7fff7fff7fff8ded>l
<7fff8ded7fff9bda>l
<7fff9bda8ded8ded>l
<8ded8ded7fff8ded>l
<86f6a2d17fffa9c8>l
<7fffa9c88deda9c8>l
<8ded8ded7fff7fff>l
<8ded9bda8ded8ded>l
<8ded8ded7fff9bda>l
<7fff9bda8ded9bda>l
<8ded9bda9bda9bda>l
<9bda9bda8ded8ded>l
<8ded8ded8ded9bda>l
<7fff8ded8ded8ded>l
<8deda9c886f6a2d1>l
<7fffa9c886f6b0bf>l
<8ded9bda8deda9c8>l
<8deda9c89bda9bda>l
<9bda9bda8ded9bda>l
<86f6a2d18ded9bda>l
<8ded9bda7fff9bda>l
<7fff9bda86f6a2d1>l
<8deda9c87fffa9c8>l
<86f6a2d17fff9bda>l
<7fff9bda7fffa9c8>l
<7fffa9c886f6a2d1>l
<86f6b0bf7fffa9c8>l
<7fffa9c87fffb7b6>l
<7fffb7b686f6b0bf>l
<86f6b0bf8deda9c8>l
<4848c5a34848d391>l
<6b1ba2d16424a9c8>l
<6424a9c87211a9c8>l
<7211a9c86b1ba2d1>l
<6b1ba2d164249bda>l
<64249bda6424a9c8>l
<6424a9c86b1ba2d1>l
<7211b7b67908b0bf>l
<6424b7b67211b7b6>l
<7211b7b66b1bb0bf>l
<7908b0bf7211b7b6>l
<7211b7b67fffb7b6>l
<7fffb7b67908b0bf>l
<7908b0bf7211a9c8>l
<7211a9c87211b7b6>l
<6b1bb0bf6424a9c8>l
<3a5bd3912c6dd391>l
<2c6dd3913a5be17f>l
<3a5be17f3a5bd391>l
<3a5be17f4848ef6c>l
<4848ef6c4848d391>l
<4848d3913a5be17f>l
<4848d3913a5bd391>l
<6424a9c86424b7b6>l
<6424b7b66b1bb0bf>l
<6b1bb0bf7211a9c8>l
<7211a9c86424a9c8>l
<6424a9c86b1bb0bf>l
<3a5bd3913a5be17f>l
<3a5be17f4848d391>l
<6b1bb0bf6424b7b6>l
<6424a9c85d2db0bf>l
<5d2da2d16424a9c8>l
<6424a9c864249bda>l
<64249bda5d2da2d1>l
<5d2da2d15636a9c8>l
<5636a9c86424a9c8>l
<6424b7b66424a9c8>l
<72119bda7fff9bda>l
<7fff9bda72118ded>l
<72118ded72119bda>l
<5d2db0bf6424a9c8>l
<6424a9c85636a9c8>l
<5636a9c85d2db0bf>l
<5d2db0bf6424b7b6>l
<6424a9c85d2da2d1>l
<6424b7b65d2db0bf>l
<5d2db0bf5636a9c8>l
<5636a9c85636b7b6>l
<5636b7b65d2db0bf>l
<6b1bb0bf7211b7b6>l
<7211b7b67211a9c8>l
<7211a9c86b1bb0bf>l
<5636b7b66424b7b6>l
<4f3fb0bf5636b7b6>l
<5636b7b65636a9c8>l
<5636a9c84f3fb0bf>l
<4f3fb0bf4848b7b6>l
<4848b7b65636b7b6>l
<5636b7b64f3fb0bf>l
<5d2db0bf5636b7b6>l
<4152cc9a4848c5a3>l
<4848ef6c6424ef6c>l
<6424ef6c5636e17f>l
<6424ef6c7fffef6c>l
<7fffef6c6424d391>l
<6424d3916424ef6c>l
<4f3fcc9a5636d391>l
<5636e17f4848ef6c>l
<4848ef6c3a5be17f>l
<3a5be17f2c6dd391>l
<2c6dd3912c6def6c>l
<2c6def6c3a5be17f>l
<5636e17f6424ef6c>l
<6424ef6c6424d391>l
<6424d3915636e17f>l
<5636d3915636c5a3>l
<4848c5a35636c5a3>l
<5636c5a34f3fbeac>l
<4f3fbeac4848b7b6>l
<4848b7b64848c5a3>l
<4848c5a34f3fbeac>l
<4f3fcc9a4848c5a3>l
<4f3fbeac4848c5a3>l
<5636c5a34f3fcc9a>l
<4f3fcc9a4848d391>l
<4848d3915636d391>l
<5636d3914f3fcc9a>l
<5636d3916424d391>l
<6424d3915636c5a3>l
<5636c5a35636d391>l
<2c6def6c4848ef6c>l
<4152beac3a5bc5a3>l
<3a5bc5a34848c5a3>l
<4848c5a34152beac>l
<3364cc9a3a5bd391>l
<3a5bd3913a5bc5a3>l
<3a5bc5a33364cc9a>l
<4848b7b64152beac>l
<4848c5a33a5bc5a3>l
<3a5bc5a34152cc9a>l
<4152cc9a4848d391>l
<4848d3914848c5a3>l
<4848c5a34152cc9a>l
<4152beac4848c5a3>l
<4848c5a34848b7b6>l
<3364cc9a2c6dd391>l
<1e7fe17f2c6def6c>l
<2c6def6c2c6dd391>l
<2c6dd3911e7fe17f>l
<1e7fe17f1092ef6c>l
<1092ef6c2c6def6c>l
<2c6def6c1e7fe17f>l
<3a5be17f2c6def6c>l
<3a5bd3914152cc9a>l
<2c6dd3913a5bd391>l
<3a5bd3913364cc9a>l
<4152cc9a3a5bd391>l
<3a5bd3914848d391>l
<4848d3914152cc9a>l
<4152cc9a3a5bc5a3>l
<3a5bc5a33a5bd391>l
<4f3f86f6563686f6>l
<21fb52bb1e7f5636>l
<1e7f563625765636>l
<2576563621fb52bb>l
<28f252bb25765636>l
<257656362c6d5636>l
<2c6d563628f252bb>l
<25764f3f21fb52bb>l
<2c6d4f3f2c6d4848>l
<2c6d484828f24bc4>l
<28f24bc425764f3f>l
<25764f3f2c6d4f3f>l
<2c6d4f3f28f24bc4>l
<21fb52bb25765636>l
<2576563625764f3f>l
<28f252bb25764f3f>l
<2576a2d12c6da9c8>l
<2c6da9c82c6d9bda>l
<2c6d9bda2576a2d1>l
<2576a2d11e7fa9c8>l
<1e7fa9c82c6da9c8>l
<2c6da9c82576a2d1>l
<2c6da9c82576b0bf>l
<25764f3f25765636>l
<2576563628f252bb>l
<2576b0bf2c6da9c8>l
<2c6da9c81e7fa9c8>l
<1e7fa9c82576b0bf>l
<2576b0bf2c6db7b6>l
<2c6db7b62c6da9c8>l
<28f24bc42c6d4f3f>l
<21fb59b125765d2d>l
<25765d2d25765636>l
<2576563621fb59b1>l
<28f260a82c6d5d2d>l
<2c6d5d2d25765d2d>l
<25765d2d28f260a8>l
<1e7f563621fb59b1>l
<2576563625765d2d>l
<25765d2d28f259b1>l
<28f259b12c6d5636>l
<2c6d563625765636>l
<2576563628f259b1>l
<21fb59b125765636>l
<257656361e7f5636>l
<28f260a82c6d6424>l
<28f252bb2c6d4f3f>l
<2c6d4f3f25764f3f>l
<25764f3f28f252bb>l
<28f252bb2c6d5636>l
<2c6d56362c6d4f3f>l
<2c6d4f3f28f252bb>l
<2c6d5d2d28f259b1>l
<2c6d64242c6d5d2d>l
<2c6d5d2d28f260a8>l
<28f259b12c6d5d2d>l
<2c6d5d2d2c6d5636>l
<2c6d563628f259b1>l
<28f259b125765d2d>l
<25765d2d2c6d5d2d>l
<1789b0bf1e7fb7b6>l
<10929bda1e7f9bda>l
<1e7f9bda178994e3>l
<257694e31e7f9bda>l
<1e7f9bda2c6d9bda>l
<2c6d9bda257694e3>l
<257694e31e7f8ded>l
<178994e310929bda>l
<2c6db7b63364b0bf>l
<3364b0bf3a5ba9c8>l
<3a5ba9c82c6da9c8>l
<2c6da9c83364b0bf>l
<178994e31e7f9bda>l
<1e7f9bda1e7f8ded>l
<1e7f8ded178994e3>l
<1e7f8ded1e7f9bda>l
<10928ded10929bda>l
<10929bda178994e3>l
<178994e31e7f8ded>l
<1e7f8ded10928ded>l
<10928ded178994e3>l
<1789a2d11092a9c8>l
<178994e310928ded>l
<1e7f9bda257694e3>l
<178986f610928ded>l
<10928ded1e7f8ded>l
<1e7f8ded178986f6>l
<178986f610927fff>l
<10927fff10928ded>l
<10928ded178986f6>l
<2c6da9c82c6db7b6>l
<2576b0bf1e7fa9c8>l
<1e7fa9c81e7fb7b6>l
<1e7fb7b62576b0bf>l
<3364b0bf3a5bb7b6>l
<3a5bb7b63a5ba9c8>l
<3a5ba9c83364b0bf>l
<2c6db7b62576b0bf>l
<1e7fb7b61e7fa9c8>l
<1e7fa9c81789b0bf>l
<1789b0bf1092b7b6>l
<1092b7b61e7fb7b6>l
<1e7fb7b61789b0bf>l
<2576b0bf1e7fb7b6>l
<1e7fb7b62c6db7b6>l
<3364b0bf2c6db7b6>l
<3364a2d12c6da9c8>l
<2c6da9c83a5ba9c8>l
<3a5ba9c83364a2d1>l
<3364a2d12c6d9bda>l
<2c6d9bda2c6da9c8>l
<2c6da9c83364a2d1>l
<3364b0bf2c6da9c8>l
<3a5bb7b64152b0bf>l
<2c6db7b63a5bb7b6>l
<3a5bb7b63364b0bf>l
<4152b0bf3a5bb7b6>l
<3a5bb7b64848b7b6>l
<4848b7b64152b0bf>l
<4152b0bf3a5ba9c8>l
<3a5ba9c83a5bb7b6>l
<28f259b125765636>l
<2c6d56362fe859b1>l
<2fe859b133645d2d>l
<33645d2d33645636>l
<336456362fe859b1>l
<3a5b4f3f41524f3f>l
<41524f3f3a5b4848>l
<336456362c6d5636>l
<36df59b133645636>l
<3364563633645d2d>l
<33645d2d36df59b1>l
<36df59b13a5b5636>l
<3a5b563633645636>l
<3364563636df59b1>l
<2fe859b133645636>l
<3a5b48483a5b4f3f>l
<41524f3f44cd4bc4>l
<44cd4bc448484848>l
<4848484841524848>l
<4152484844cd4bc4>l
<415248483a5b4848>l
<3a5b484841524f3f>l
<4152484841524f3f>l
<3dd652bb3a5b4f3f>l
<3a5b4f3f3a5b5636>l
<3a5b56363dd652bb>l
<3dd652bb41524f3f>l
<41524f3f3a5b4f3f>l
<3a5b4f3f3dd652bb>l
<44cd4bc441524848>l
<2c6d5d2d2fe860a8>l
<33644f3f2c6d5636>l
<2c6d563633645636>l
<336456363a5b5636>l
<3a5b563633644f3f>l
<33644f3f33645636>l
<2c6d4f3f33644f3f>l
<3364563633644f3f>l
<1e7f6b1b1b046e96>l
<1b04679f1e7f6b1b>l
<1e7f6b1b1e7f6424>l
<1e7f64241b04679f>l
<1b04679f17896b1b>l
<17896b1b1e7f6b1b>l
<1e7f6b1b1b04679f>l
<33644f3f2c6d4848>l
<2c6d56362c6d5d2d>l
<2c6d5d2d2fe859b1>l
<2fe860a82c6d5d2d>l
<2c6d5d2d2c6d6424>l
<2c6d64242fe860a8>l
<2fe860a833645d2d>l
<33645d2d2c6d5d2d>l
<2fe859b12c6d5636>l
<2c6d48482c6d4f3f>l
<2c6d4f3f2c6d5636>l
<2c6d563633644f3f>l
<33644f3f2c6d4f3f>l
<2fe859b12c6d5d2d>l
<2c6d5d2d33645d2d>l
<33645d2d2fe859b1>l
<41524f3f41524848>l
<1b044bc41e7f4848>l
<1e7f484817894848>l
<178948481b044bc4>l
<140d4bc417894848>l
<1789484810924848>l
<10924848140d4bc4>l
<17894f3f1b044bc4>l
<257648481e7f4848>l
<1e7f484821fb4bc4>l
<21fb4bc425764f3f>l
<25764f3f25764848>l
<2576484821fb4bc4>l
<1b044bc417894848>l
<1789484817894f3f>l
<140d4bc417894f3f>l
<1b044bc41e7f4f3f>l
<1e7f4f3f1e7f4848>l
<1e7f48481b044bc4>l
<1b044bc417894f3f>l
<17894f3f1e7f4f3f>l
<1e7f4f3f1b044bc4>l
<1e7f4f3f1b0452bb>l
<17894f3f17894848>l
<17894848140d4bc4>l
<1b0452bb1e7f4f3f>l
<1e7f4f3f17894f3f>l
<17894f3f1b0452bb>l
<1b0452bb1e7f5636>l
<1e7f56361e7f4f3f>l
<21fb4bc425764848>l
<3a5b56363a5b4f3f>l
<3a5b4f3f3a5b4848>l
<3a5b484833644f3f>l
<33644f3f3a5b4f3f>l
<21fb4bc41e7f4f3f>l
<1e7f4f3f25764f3f>l
<33644f3f3a5b5636>l
<3364484833644f3f>l
<33644f3f3a5b4848>l
<3a5b484833644848>l
<336448482c6d4848>l
<2c6d484833644f3f>l
<33644f3f33644848>l
<3a5b4f3f33644f3f>l
<25764f3f21fb4bc4>l
<1e7f4f3f21fb52bb>l
<28f24bc425764848>l
<2576484825764f3f>l
<25764f3f28f24bc4>l
<28f24bc42c6d4848>l
<2c6d484825764848>l
<2576484828f24bc4>l
<25764f3f1e7f4f3f>l
<21fb4bc41e7f4848>l
<1e7f48481e7f4f3f>l
<1e7f4f3f21fb4bc4>l
<21fb52bb1e7f4f3f>l
<1e7f4f3f1e7f5636>l
<1e7f563621fb52bb>l
<21fb52bb25764f3f>l
<1092a9c81e7fa9c8>l
<5d2da2d164249bda>l
<64249bda5d2d9bda>l
<5d2d9bda56369bda>l
<56369bda5d2da2d1>l
<5d2da2d15d2d9bda>l
<4f3fa2d156369bda>l
<5d2d9bda5d2da2d1>l
<4848b7b64f3fb0bf>l
<4f3fb0bf5636a9c8>l
<5636a9c84848a9c8>l
<4848a9c84f3fb0bf>l
<5d2da2d156369bda>l
<56369bda5636a9c8>l
<5636a9c85d2da2d1>l
<56369bda48489bda>l
<72118ded6b1b86f6>l
<6b1b86f66b1b8ded>l
<642486f66b1b86f6>l
<6b1b86f664247fff>l
<64247fff642486f6>l
<642486f664248ded>l
<6b1b8ded72118ded>l
<48489bda4f3fa2d1>l
<4f3fa2d15636a9c8>l
<5636a9c856369bda>l
<56369bda4f3fa2d1>l
<6b1b8ded6b1b86f6>l
<6b1b86f664248ded>l
<64248ded6b1b8ded>l
<4848a9c84848b7b6>l
<484886f64f3f86f6>l
<4f3f86f648487fff>l
<48487fff484886f6>l
<484886f648488ded>l
<48488ded4f3f86f6>l
<4f3f86f6484886f6>l
<4f3f86f64f3f8ded>l
<56369bda5d2d94e3>l
<5d2d94e3563694e3>l
<4f3f8ded4f3f86f6>l
<4f3f86f648488ded>l
<48488ded4f3f8ded>l
<4f3f8ded56368ded>l
<56368ded4f3f86f6>l
<4f3f94e348488ded>l
<4f3fa2d14848a9c8>l
<4848a9c85636a9c8>l
<5636a9c84f3fa2d1>l
<4f3fa2d148489bda>l
<48489bda4848a9c8>l
<4848a9c84f3fa2d1>l
<4f3fb0bf4848a9c8>l
<4f3f94e34f3f8ded>l
<48488ded48489bda>l
<48489bda4f3f94e3>l
<4f3f8ded4f3f94e3>l
<4f3f94e356368ded>l
<56368ded4f3f8ded>l
<4f3f8ded48488ded>l
<48488ded4f3f94e3>l
<64248ded6b1b86f6>l
<56367fff563686f6>l
<563686f656368ded>l
<56368ded5d2d86f6>l
<5d2d86f6563686f6>l
<5d2d7fff5d2d86f6>l
<5d2d86f664247fff>l
<5d2d86f656367fff>l
<721186f66b1b86f6>l
<6b1b86f672118ded>l
<72118ded721186f6>l
<721186f672117fff>l
<72117fff6b1b86f6>l
<6b1b86f6721186f6>l
<563686f65d2d86f6>l
<64247fff5d2d7fff>l
<4f3f86f64f3f7fff>l
<563686f64f3f86f6>l
<4f3f86f656368ded>l
<56368ded563686f6>l
<563686f656367fff>l
<56367fff4f3f86f6>l
<48487fff4f3f86f6>l
<5d2d7fff56367fff>l
<56367fff5d2d86f6>l
<5d2d86f65d2d7fff>l
<4f3f7fff4f3f86f6>l
<4f3f86f656367fff>l
<56367fff4f3f7fff>l
<4f3f7fff48487fff>l
<6b1b86f66b1b7fff>l
<6b1b94e372118ded>l
<72118ded6b1b8ded>l
<6b1b8ded64248ded>l
<64248ded6b1b94e3>l
<6b1b94e36b1b8ded>l
<721186f6790886f6>l
<6b1b8ded6b1b94e3>l
<6b1b86f6642486f6>l
<642494e36b1b94e3>l
<6b1b94e364248ded>l
<64248ded642494e3>l
<642494e364249bda>l
<64249bda6b1b94e3>l
<6b1b94e3642494e3>l
<790886f672117fff>l
<72117fff790886f6>l
<790886f679087fff>l
<6b1b7fff6b1b86f6>l
<6b1b86f672117fff>l
<72117fff6b1b7fff>l
<6b1b7fff64247fff>l
<64247fff6b1b86f6>l
<79087fff72117fff>l
<72117fff721186f6>l
<721186f672118ded>l
<72118ded790886f6>l
<790886f6721186f6>l
<79087fff790886f6>l
<790886f67fff7fff>l
<7fff7fff79087fff>l
<563694e356369bda>l
<1092c5a31789beac>l
<1789cc9a1092c5a3>l
<1092c5a31092d391>l
<1092d3911789cc9a>l
<1789cc9a1e7fc5a3>l
<1e7fc5a31092c5a3>l
<1092b7b61092c5a3>l
<2576cc9a1e7fc5a3>l
<1e7fc5a31e7fd391>l
<1e7fd3912576cc9a>l
<1789beac1092c5a3>l
<1092c5a31e7fc5a3>l
<1e7fc5a31789beac>l
<1789beac1092b7b6>l
<1092c5a31789cc9a>l
<1e7fe17f1e7fd391>l
<3364beac2c6dc5a3>l
<2c6dc5a33a5bc5a3>l
<3a5bc5a33364beac>l
<3364beac2c6db7b6>l
<2c6db7b62c6dc5a3>l
<1092d3911e7fe17f>l
<1e7fe17f1092d391>l
<1092d3911092ef6c>l
<1092ef6c1e7fe17f>l
<1e7fd3911e7fe17f>l
<1e7fe17f2c6dd391>l
<2c6dd3911e7fd391>l
<1e7fd3911092d391>l
<2c6dd3912576cc9a>l
<1e7fa9c81092a9c8>l
<1092a9c81789b0bf>l
<2576a2d11e7f9bda>l
<1e7f9bda1e7fa9c8>l
<1e7fa9c82576a2d1>l
<2576a2d12c6d9bda>l
<1789b0bf1e7fa9c8>l
<1e7fa9c81789a2d1>l
<1789a2d110929bda>l
<10929bda1092a9c8>l
<1092a9c81789a2d1>l
<1789b0bf1092a9c8>l
<1092a9c81092b7b6>l
<1092b7b61789b0bf>l
<2c6d9bda1e7f9bda>l
<1e7fd3911e7fc5a3>l
<1e7fc5a31789cc9a>l
<1789cc9a1092d391>l
<1092d3911e7fd391>l
<1e7fd3911789cc9a>l
<2576cc9a1e7fd391>l
<1e7fd3912c6dd391>l
<1789cc9a1e7fd391>l
<1e7f9bda2576a2d1>l
<1789a2d11e7f9bda>l
<1e7f9bda10929bda>l
<10929bda1789a2d1>l
<1789a2d11e7fa9c8>l
<1e7fa9c81e7f9bda>l
<1e7f9bda1789a2d1>l
<2c6dc5a33364beac>l
<2576beac1e7fc5a3>l
<1e7fc5a32c6dc5a3>l
<2c6dc5a32576beac>l
<563694e34f3f94e3>l
<4f3f94e356369bda>l
<56369bda563694e3>l
<2c6db7b62576beac>l
<2c6dc5a31e7fc5a3>l
<1e7fc5a32576cc9a>l
<2576cc9a2c6dd391>l
<2c6dd3912c6dc5a3>l
<2c6dc5a32576cc9a>l
<2576beac2c6dc5a3>l
<2c6dc5a32c6db7b6>l
<563694e356368ded>l
<5d2d9bda64249bda>l
<64249bda5d2d94e3>l
<5d2d94e35d2d9bda>l
<563694e35d2d94e3>l
<5d2d94e356368ded>l
<56368ded563694e3>l
<56369bda5d2d9bda>l
<56368ded4f3f94e3>l
<4f3f94e3563694e3>l
<4f3f94e348489bda>l
<48489bda56369bda>l
<56369bda4f3f94e3>l
<5d2d9bda5d2d94e3>l
<5d2d94e356369bda>l
<2576cc9a2c6dc5a3>l
<3a5bc5a34152beac>l
<4152beac4848b7b6>l
<4848b7b63a5bb7b6>l
<3a5bb7b64152beac>l
<3364beac3a5bb7b6>l
<3a5bb7b62c6db7b6>l
<3a5bb7b63a5bc5a3>l
<3364cc9a2c6dc5a3>l
<2c6dc5a32c6dd391>l
<2c6dd3913364cc9a>l
<3364cc9a3a5bc5a3>l
<3a5bc5a32c6dc5a3>l
<2c6dc5a33364cc9a>l
<4152beac3a5bb7b6>l
<2c6db7b63364beac>l
<1e7fb7b62576beac>l
<1789beac1e7fb7b6>l
<1e7fb7b61092b7b6>l
<1092b7b61789beac>l
<1789beac1e7fc5a3>l
<1e7fc5a31e7fb7b6>l
<1e7fb7b61789beac>l
<2c6db7b61e7fb7b6>l
<3364beac3a5bc5a3>l
<3a5bc5a33a5bb7b6>l
<3a5bb7b63364beac>l
<2576beac1e7fb7b6>l
<1e7fb7b61e7fc5a3>l
<1e7fc5a32576beac>l
<2576beac2c6db7b6>l

showpage end
