%!PS-Adobe-2.0 EPSF-2.0
%%BoundingBox: 22 445 322 761
%%Title: /hosts/sauron/graid/ALBERTA_DOC/DOC/EPS/macro2d.eps
%%CreationDate: 11:01 AM February 22, 2000
%%Pages: 1
%%EndComments
%%BeginProlog
%%BeginResource ShowcaseResource
1 setlinejoin
/M  { moveto } bind def /S { show  } bind def
/R { rmoveto } bind def /L { lineto } bind def
/B { newpath 0 0 M 0 1 L 1 1 L 1 0 L closepath } bind def
/CS { closepath stroke } bind def
/S {
    /fixwidth exch def
    dup length /nchars exch def
    dup stringwidth pop
    fixwidth exch sub nchars div
    exch 0 exch ashow
} def
/bwproc {
	rgbproc
	dup length 3 idiv string 0 3 0
	5 -1 roll {
	add 2 1 roll 1 sub dup 0 eq
	{ pop 3 idiv 3 -1 roll dup 4 -1 roll dup
	  3 1 roll 5 -1 roll put 1 add 3 0 }
	{ 2 1 roll } ifelse
	} forall
	pop pop pop
} def
systemdict /colorimage known not {
	/colorimage {
		pop
		pop
		/rgbproc exch def
		{ bwproc } image
	} def
} if
1 1 scale
0 setlinewidth
/drawtri {
/y3 exch def
/x3 exch def
/y2 exch def
/x2 exch def
/y1 exch def
/x1 exch def
0 setgray
newpath
x1 y1 moveto
x2 y2 lineto
x3 y3 lineto
closepath
stroke
} bind def
/filltri {
/y3 exch def
/x3 exch def
/y2 exch def
/x2 exch def
/y1 exch def
/x1 exch def
newpath
x1 y1 moveto
x2 y2 lineto
x3 y3 lineto
closepath
fill
} bind def
/cliptri {
/y3 exch def
/x3 exch def
/y2 exch def
/x2 exch def
/y1 exch def
/x1 exch def
0 setgray
newpath
x1 y1 moveto
x2 y2 lineto
x3 y3 lineto
closepath
clip
} bind def
/imgscanrgb {
gsave
translate
/scandy exch def
/scandx exch def
/istr scandx 3 mul string def
scandx scandy scale
scandx scandy 8
[scandx 0 0 scandy neg 0 scandy]
{currentfile istr readhexstring pop}
false 3
colorimage
grestore
} bind def
/imgscanbw {
gsave
translate
/scandy exch def
/scandx exch def
/istr scandx string def
scandx scandy scale
scandx scandy 8
[scandx 0 0 scandy neg 0 scandy]
{currentfile istr readhexstring pop}
image
grestore
} bind def
/showcaseisoencoding [
/.notdef /.notdef /.notdef /.notdef
/.notdef /.notdef /.notdef /.notdef
/.notdef /.notdef /.notdef /.notdef
/.notdef /.notdef /.notdef /.notdef
/.notdef /.notdef /.notdef /.notdef
/.notdef /.notdef /.notdef /.notdef
/.notdef /.notdef /.notdef /.notdef
/.notdef /.notdef /.notdef /.notdef
/space /exclam /quotedbl /numbersign
/dollar /percent /ampersand /quoteright
/parenleft /parenright /asterisk /plus
/comma /minus /period /slash
/zero /one /two /three /four /five /six /seven
/eight /nine /colon /semicolon
/less /equal /greater /question
/at /A /B /C /D /E /F /G
/H /I /J /K /L /M /N /O
/P /Q /R /S /T /U /V /W
/X /Y /Z /bracketleft
/backslash /bracketright /asciicircum /underscore
/quoteleft /a /b /c /d /e /f /g
/h /i /j /k /l /m /n /o
/p /q /r /s /t /u /v /w
/x /y /z /braceleft
/bar /braceright /asciitilde /guilsinglright
/fraction /florin /quotesingle /quotedblleft
/guilsinglleft /fi /fl /endash
/dagger /daggerdbl /bullet /quotesinglbase
/quotedblbase /quotedblright /ellipsis /trademark
/dotlessi /grave /acute /circumflex
/tilde /macron /breve /dotaccent
/dieresis /perthousand /ring /cedilla
/Ydieresis /hungarumlaut /ogonek /caron
/emdash /exclamdown /cent /sterling
/currency /yen /brokenbar /section
/dieresis /copyright /ordfeminine /guillemotleft
/logicalnot /hyphen /registered /macron
/degree /plusminus /twosuperior /threesuperior
/acute /mu /paragraph /periodcentered
/cedilla /onesuperior /ordmasculine /guillemotright
/onequarter /onehalf /threequarters /questiondown
/Agrave /Aacute /Acircumflex /Atilde
/Adieresis /Aring /AE /Ccedilla
/Egrave /Eacute /Ecircumflex /Edieresis
/Igrave /Iacute /Icircumflex /Idieresis
/Eth /Ntilde /Ograve /Oacute
/Ocircumflex /Otilde /Odieresis /multiply
/Oslash /Ugrave /Uacute /Ucircumflex
/Udieresis /Yacute /Thorn /germandbls
/agrave /aacute /acircumflex /atilde
/adieresis /aring /ae /ccedilla
/egrave /eacute /ecircumflex /edieresis
/igrave /iacute /icircumflex /idieresis
/eth /ntilde /ograve /oacute
/ocircumflex /otilde /odieresis /divide
/oslash /ugrave /uacute /ucircumflex
/udieresis /yacute /thorn /ydieresis ] def
/showcasedingbatencoding [
/.notdef /.notdef /.notdef /.notdef
/.notdef /.notdef /.notdef /.notdef
/.notdef /.notdef /.notdef /.notdef
/.notdef /.notdef /.notdef /.notdef
/.notdef /.notdef /.notdef /.notdef
/.notdef /.notdef /.notdef /.notdef
/.notdef /.notdef /.notdef /.notdef
/.notdef /.notdef /.notdef /.notdef
/.notdef /a1 /a2 /a202 /a3 /a4 /a5 /a119 /a118 /a117
/a11 /a12 /a13 /a14 /a15 /a16 /a105 /a17 /a18 /a19
/a20 /a21 /a22 /a23 /a24 /a25 /a26 /a27 /a28 /a6 /a7
/a8 /a9 /a10 /a29
/a30 /a31 /a32 /a33 /a34 /a35 /a36 /a37 /a38 /a39
/a40 /a41 /a42 /a43 /a44 /a45 /a46 /a47 /a48 /a49
/a50 /a51 /a52 /a53 /a54 /a55 /a56 /a57 /a58 /a59
/a60 /a61 /a62 /a63 /a64 /a65 /a66 /a67 /a68 /a69
/a70 /a71 /a72 /a73 /a74 /a203 /a75 /a204 /a76 /a77 /a78
/a79 /a81 /a82 /a83 /a84 /a97 /a98 /a99 /a100 /.notdef
/a205 /a85 /a206 /a86 /a87 /a88 /a89 /a90 /a91 /a92 /a93
/a94 /a95 /a96
/.notdef /.notdef /.notdef /.notdef /.notdef /.notdef
/.notdef /.notdef /.notdef /.notdef /.notdef /.notdef
/.notdef /.notdef /.notdef /.notdef /.notdef /.notdef
/.notdef /a101 /a102 /a103 /a104 /a106 /a107 /a108
/a112 /a111 /a110 /a109
/a120 /a121 /a122 /a123 /a124 /a125 /a126 /a127 /a128 /a129
/a130 /a131 /a132 /a133 /a134 /a135 /a136 /a137 /a138 /a139
/a140 /a141 /a142 /a143 /a144 /a145 /a146 /a147 /a148 /a149
/a150 /a151 /a152 /a153 /a154 /a155 /a156 /a157 /a158 /a159
/a160 /a161 /a163 /a164 /a196 /a165 /a192 /a166 /a167 /a168
/a169 /a170 /a171 /a172 /a173 /a162 /a174 /a175 /a176 /a177
/a178 /a179 /a193 /a180 /a199 /a181 /a200 /a182 /.notdef
/a201 /a183 /a184 /a197 /a185 /a194 /a198 /a186 /a195 /a187
/a188 /a189 /a190 /a191 /.notdef
] def
/Times-Roman findfont
dup length dict begin
  {1 index /FID ne {def} {pop pop} ifelse} forall
  /Encoding showcaseisoencoding def
  currentdict
end
/Times-Roman-SHOWISO exch definefont pop
/newfont 10 dict def
newfont begin

 /FontType 3 def
 /FontMatrix [1 0 0 1 0 0] def
 /FontBBox [0 0 1 1] def
 /Encoding 256 array def
 0 1 255 {Encoding exch /.notdef put} for

 /CharProcs 1 dict def
 CharProcs begin
 /.notdef {} def

end

 /BuildChar {
  1 0
  0 0 1 1
  setcachedevice
  exch begin
  Encoding exch get
  CharProcs exch get
  end
  exec
 } def
end
/PatternFont newfont definefont pop

%%EndResource
%%EndProlog
%%BeginSetup
%%EndSetup
%%Page: label 1
gsave
/saveit save def
gsave
gsave
matrix currentmatrix
[270 0 0 -270 36 738] concat
B
setmatrix
0 0 0 setrgbcolor
1.000000 setlinewidth
gsave stroke grestore
grestore
gsave
0 0 0 setrgbcolor
1.000000 setlinewidth
newpath
36 468 M
306 738 L
stroke
grestore
gsave
gsave
matrix currentmatrix
[1 0 0 1 63 472.5] concat
newpath
0 0 M 0 18 L 11 18 L 11 0 L
closepath setmatrix
0 0 0 setrgbcolor
grestore
newpath
61 470.5 M 61 492.929 L 76 492.929 L 76 470.5 L
closepath clip newpath
0 0 0 setrgbcolor
matrix currentmatrix
[1 0 0 1 63 472.5] concat
/Times-Roman-SHOWISO findfont 18 scalefont setfont
0 0 0 setrgbcolor
0 3.42857 M (1) 9 S
setmatrix
grestore
gsave
gsave
matrix currentmatrix
[1 0 0 1 270 715.5] concat
newpath
0 0 M 0 18 L 11 18 L 11 0 L
closepath setmatrix
0 0 0 setrgbcolor
grestore
newpath
268 713.5 M 268 735.929 L 283 735.929 L 283 713.5 L
closepath clip newpath
0 0 0 setrgbcolor
matrix currentmatrix
[1 0 0 1 270 715.5] concat
/Times-Roman-SHOWISO findfont 18 scalefont setfont
0 0 0 setrgbcolor
0 3.42857 M (1) 9 S
setmatrix
grestore
gsave
gsave
matrix currentmatrix
[1 0 0 1 22.5 603] concat
newpath
0 0 M 0 18 L 11 18 L 11 0 L
closepath setmatrix
0 0 0 setrgbcolor
grestore
newpath
20.5 601 M 20.5 623.429 L 35.5 623.429 L 35.5 601 L
closepath clip newpath
0 0 0 setrgbcolor
matrix currentmatrix
[1 0 0 1 22.5 603] concat
/Times-Roman-SHOWISO findfont 18 scalefont setfont
0 0 0 setrgbcolor
0 3.42857 M (1) 9 S
setmatrix
grestore
gsave
gsave
matrix currentmatrix
[1 0 0 1 310.5 603] concat
newpath
0 0 M 0 18 L 11 18 L 11 0 L
closepath setmatrix
0 0 0 setrgbcolor
grestore
newpath
308.5 601 M 308.5 623.429 L 323.5 623.429 L 323.5 601 L
closepath clip newpath
0 0 0 setrgbcolor
matrix currentmatrix
[1 0 0 1 310.5 603] concat
/Times-Roman-SHOWISO findfont 18 scalefont setfont
0 0 0 setrgbcolor
0 3.42857 M (1) 9 S
setmatrix
grestore
gsave
gsave
matrix currentmatrix
[1 0 0 1 166.5 445.5] concat
newpath
0 0 M 0 18 L 11 18 L 11 0 L
closepath setmatrix
0 0 0 setrgbcolor
grestore
newpath
164.5 443.5 M 164.5 465.929 L 179.5 465.929 L 179.5 443.5 L
closepath clip newpath
0 0 0 setrgbcolor
matrix currentmatrix
[1 0 0 1 166.5 445.5] concat
/Times-Roman-SHOWISO findfont 18 scalefont setfont
0 0 0 setrgbcolor
0 3.42857 M (1) 9 S
setmatrix
grestore
gsave
gsave
matrix currentmatrix
[1 0 0 1 165.5 743] concat
newpath
0 0 M 0 18 L 11 18 L 11 0 L
closepath setmatrix
0 0 0 setrgbcolor
grestore
newpath
163.5 741 M 163.5 763.429 L 178.5 763.429 L 178.5 741 L
closepath clip newpath
0 0 0 setrgbcolor
matrix currentmatrix
[1 0 0 1 165.5 743] concat
/Times-Roman-SHOWISO findfont 18 scalefont setfont
0 0 0 setrgbcolor
0 3.42857 M (1) 9 S
setmatrix
grestore
gsave
gsave
matrix currentmatrix
[1 0 0 1 46.5 713.5] concat
newpath
0 0 M 0 18 L 11 18 L 11 0 L
closepath setmatrix
0 0 0 setrgbcolor
grestore
newpath
44.5 711.5 M 44.5 733.929 L 59.5 733.929 L 59.5 711.5 L
closepath clip newpath
0 0 0 setrgbcolor
matrix currentmatrix
[1 0 0 1 46.5 713.5] concat
/Times-Roman-SHOWISO findfont 18 scalefont setfont
0 0 0 setrgbcolor
0 3.42857 M (2) 9 S
setmatrix
grestore
gsave
gsave
matrix currentmatrix
[1 0 0 1 288 472.5] concat
newpath
0 0 M 0 18 L 11 18 L 11 0 L
closepath setmatrix
0 0 0 setrgbcolor
grestore
newpath
286 470.5 M 286 492.929 L 301 492.929 L 301 470.5 L
closepath clip newpath
0 0 0 setrgbcolor
matrix currentmatrix
[1 0 0 1 288 472.5] concat
/Times-Roman-SHOWISO findfont 18 scalefont setfont
0 0 0 setrgbcolor
0 3.42857 M (2) 9 S
setmatrix
grestore
gsave
gsave
matrix currentmatrix
[1 0 0 1 288 697.5] concat
newpath
0 0 M 0 18 L 11 18 L 11 0 L
closepath setmatrix
0 0 0 setrgbcolor
grestore
newpath
286 695.5 M 286 717.929 L 301 717.929 L 301 695.5 L
closepath clip newpath
0 0 0 setrgbcolor
matrix currentmatrix
[1 0 0 1 288 697.5] concat
/Times-Roman-SHOWISO findfont 18 scalefont setfont
0 0 0 setrgbcolor
0 3.42857 M (0) 9 S
setmatrix
grestore
gsave
gsave
matrix currentmatrix
[1 0 0 1 45 490.5] concat
newpath
0 0 M 0 18 L 11 18 L 11 0 L
closepath setmatrix
0 0 0 setrgbcolor
grestore
newpath
43 488.5 M 43 510.929 L 58 510.929 L 58 488.5 L
closepath clip newpath
0 0 0 setrgbcolor
matrix currentmatrix
[1 0 0 1 45 490.5] concat
/Times-Roman-SHOWISO findfont 18 scalefont setfont
0 0 0 setrgbcolor
0 3.42857 M (0) 9 S
setmatrix
grestore
gsave
gsave
matrix currentmatrix
[1 0 0 1 171 598.5] concat
newpath
0 0 M 0 18 L 11 18 L 11 0 L
closepath setmatrix
0 0 0 setrgbcolor
grestore
newpath
169 596.5 M 169 618.929 L 184 618.929 L 184 596.5 L
closepath clip newpath
0 0 0 setrgbcolor
matrix currentmatrix
[1 0 0 1 171 598.5] concat
/Times-Roman-SHOWISO findfont 18 scalefont setfont
0 0 0 setrgbcolor
0 3.42857 M (0) 9 S
setmatrix
grestore
grestore
showpage
saveit restore
grestore
%%EOF
