%!PS-Adobe-2.0 EPSF-2.0
% %BoundingBox: 40.0 405.0 527.0 725.0
%%BoundingBox: 20.0 202.5 263.5 362.5
%%Title: /hosts/xtreme/mnt2/ALBERTA/DOC/EPS/mesh+tree2.eps
%%CreationDate: 4:07 PM March  5, 1999
%%Pages: 1
%%EndComments
%%BeginProlog
%%BeginResource ShowcaseResource
1 setlinejoin
/M  { moveto } bind def /S { show  } bind def
/R { rmoveto } bind def /L { lineto } bind def
/B { newpath 0 0 M 0 1 L 1 1 L 1 0 L closepath } bind def
/CS { closepath stroke } bind def
/S {
    /fixwidth exch def
    dup length /nchars exch def
    dup stringwidth pop
    fixwidth exch sub nchars div
    exch 0 exch ashow
} def
/bwproc {
	rgbproc
	dup length 3 idiv string 0 3 0
	5 -1 roll {
	add 2 1 roll 1 sub dup 0 eq
	{ pop 3 idiv 3 -1 roll dup 4 -1 roll dup
	  3 1 roll 5 -1 roll put 1 add 3 0 }
	{ 2 1 roll } ifelse
	} forall
	pop pop pop
} def
systemdict /colorimage known not {
	/colorimage {
		pop
		pop
		/rgbproc exch def
		{ bwproc } image
	} def
} if
0.500000 0.500000 scale
0 setlinewidth
/drawtri {
/y3 exch def
/x3 exch def
/y2 exch def
/x2 exch def
/y1 exch def
/x1 exch def
0 setgray
newpath
x1 y1 moveto
x2 y2 lineto
x3 y3 lineto
closepath
stroke
} bind def
/filltri {
/y3 exch def
/x3 exch def
/y2 exch def
/x2 exch def
/y1 exch def
/x1 exch def
newpath
x1 y1 moveto
x2 y2 lineto
x3 y3 lineto
closepath
fill
} bind def
/cliptri {
/y3 exch def
/x3 exch def
/y2 exch def
/x2 exch def
/y1 exch def
/x1 exch def
0 setgray
newpath
x1 y1 moveto
x2 y2 lineto
x3 y3 lineto
closepath
clip
} bind def
/imgscanrgb {
gsave
translate
/scandy exch def
/scandx exch def
/istr scandx 3 mul string def
scandx scandy scale
0.500000 0.500000 scale
scandx scandy 8
[scandx 0 0 scandy neg 0 scandy]
{currentfile istr readhexstring pop}
false 3
colorimage
grestore
} bind def
/imgscanbw {
gsave
translate
/scandy exch def
/scandx exch def
/istr scandx string def
scandx scandy scale
0.500000 0.500000 scale
scandx scandy 8
[scandx 0 0 scandy neg 0 scandy]
{currentfile istr readhexstring pop}
image
grestore
} bind def
/showcaseisoencoding [
/.notdef /.notdef /.notdef /.notdef
/.notdef /.notdef /.notdef /.notdef
/.notdef /.notdef /.notdef /.notdef
/.notdef /.notdef /.notdef /.notdef
/.notdef /.notdef /.notdef /.notdef
/.notdef /.notdef /.notdef /.notdef
/.notdef /.notdef /.notdef /.notdef
/.notdef /.notdef /.notdef /.notdef
/space /exclam /quotedbl /numbersign
/dollar /percent /ampersand /quoteright
/parenleft /parenright /asterisk /plus
/comma /minus /period /slash
/zero /one /two /three /four /five /six /seven
/eight /nine /colon /semicolon
/less /equal /greater /question
/at /A /B /C /D /E /F /G
/H /I /J /K /L /M /N /O
/P /Q /R /S /T /U /V /W
/X /Y /Z /bracketleft
/backslash /bracketright /asciicircum /underscore
/quoteleft /a /b /c /d /e /f /g
/h /i /j /k /l /m /n /o
/p /q /r /s /t /u /v /w
/x /y /z /braceleft
/bar /braceright /asciitilde /guilsinglright
/fraction /florin /quotesingle /quotedblleft
/guilsinglleft /fi /fl /endash
/dagger /daggerdbl /bullet /quotesinglbase
/quotedblbase /quotedblright /ellipsis /trademark
/dotlessi /grave /acute /circumflex
/tilde /macron /breve /dotaccent
/dieresis /perthousand /ring /cedilla
/Ydieresis /hungarumlaut /ogonek /caron
/emdash /exclamdown /cent /sterling
/currency /yen /brokenbar /section
/dieresis /copyright /ordfeminine /guillemotleft
/logicalnot /hyphen /registered /macron
/degree /plusminus /twosuperior /threesuperior
/acute /mu /paragraph /periodcentered
/cedilla /onesuperior /ordmasculine /guillemotright
/onequarter /onehalf /threequarters /questiondown
/Agrave /Aacute /Acircumflex /Atilde
/Adieresis /Aring /AE /Ccedilla
/Egrave /Eacute /Ecircumflex /Edieresis
/Igrave /Iacute /Icircumflex /Idieresis
/Eth /Ntilde /Ograve /Oacute
/Ocircumflex /Otilde /Odieresis /multiply
/Oslash /Ugrave /Uacute /Ucircumflex
/Udieresis /Yacute /Thorn /germandbls
/agrave /aacute /acircumflex /atilde
/adieresis /aring /ae /ccedilla
/egrave /eacute /ecircumflex /edieresis
/igrave /iacute /icircumflex /idieresis
/eth /ntilde /ograve /oacute
/ocircumflex /otilde /odieresis /divide
/oslash /ugrave /uacute /ucircumflex
/udieresis /yacute /thorn /ydieresis ] def
/showcasedingbatencoding [
/.notdef /.notdef /.notdef /.notdef
/.notdef /.notdef /.notdef /.notdef
/.notdef /.notdef /.notdef /.notdef
/.notdef /.notdef /.notdef /.notdef
/.notdef /.notdef /.notdef /.notdef
/.notdef /.notdef /.notdef /.notdef
/.notdef /.notdef /.notdef /.notdef
/.notdef /.notdef /.notdef /.notdef
/.notdef /a1 /a2 /a202 /a3 /a4 /a5 /a119 /a118 /a117
/a11 /a12 /a13 /a14 /a15 /a16 /a105 /a17 /a18 /a19
/a20 /a21 /a22 /a23 /a24 /a25 /a26 /a27 /a28 /a6 /a7
/a8 /a9 /a10 /a29
/a30 /a31 /a32 /a33 /a34 /a35 /a36 /a37 /a38 /a39
/a40 /a41 /a42 /a43 /a44 /a45 /a46 /a47 /a48 /a49
/a50 /a51 /a52 /a53 /a54 /a55 /a56 /a57 /a58 /a59
/a60 /a61 /a62 /a63 /a64 /a65 /a66 /a67 /a68 /a69
/a70 /a71 /a72 /a73 /a74 /a203 /a75 /a204 /a76 /a77 /a78
/a79 /a81 /a82 /a83 /a84 /a97 /a98 /a99 /a100 /.notdef
/a205 /a85 /a206 /a86 /a87 /a88 /a89 /a90 /a91 /a92 /a93
/a94 /a95 /a96
/.notdef /.notdef /.notdef /.notdef /.notdef /.notdef
/.notdef /.notdef /.notdef /.notdef /.notdef /.notdef
/.notdef /.notdef /.notdef /.notdef /.notdef /.notdef
/.notdef /a101 /a102 /a103 /a104 /a106 /a107 /a108
/a112 /a111 /a110 /a109
/a120 /a121 /a122 /a123 /a124 /a125 /a126 /a127 /a128 /a129
/a130 /a131 /a132 /a133 /a134 /a135 /a136 /a137 /a138 /a139
/a140 /a141 /a142 /a143 /a144 /a145 /a146 /a147 /a148 /a149
/a150 /a151 /a152 /a153 /a154 /a155 /a156 /a157 /a158 /a159
/a160 /a161 /a163 /a164 /a196 /a165 /a192 /a166 /a167 /a168
/a169 /a170 /a171 /a172 /a173 /a162 /a174 /a175 /a176 /a177
/a178 /a179 /a193 /a180 /a199 /a181 /a200 /a182 /.notdef
/a201 /a183 /a184 /a197 /a185 /a194 /a198 /a186 /a195 /a187
/a188 /a189 /a190 /a191 /.notdef
] def
/Courier-Bold findfont
dup length dict begin
  {1 index /FID ne {def} {pop pop} ifelse} forall
  /Encoding showcaseisoencoding def
  currentdict
end
/Courier-Bold-SHOWISO exch definefont pop
/Courier findfont
dup length dict begin
  {1 index /FID ne {def} {pop pop} ifelse} forall
  /Encoding showcaseisoencoding def
  currentdict
end
/Courier-SHOWISO exch definefont pop
/newfont 10 dict def
newfont begin

 /FontType 3 def
 /FontMatrix [1 0 0 1 0 0] def
 /FontBBox [0 0 1 1] def
 /Encoding 256 array def
 0 1 255 {Encoding exch /.notdef put} for

 /CharProcs 1 dict def
 CharProcs begin
 /.notdef {} def

end

 /BuildChar {
  1 0
  0 0 1 1
  setcachedevice
  exch begin
  Encoding exch get
  CharProcs exch get
  end
  exec
 } def
end
/PatternFont newfont definefont pop

%%EndResource
%%EndProlog
%%BeginSetup
%%EndSetup
%%Page: label 1
gsave
/saveit save def
gsave
gsave
matrix currentmatrix
[130.5 0 0 -45 40.5 724.5] concat
B
setmatrix
0 0 0 setrgbcolor
1.000000 setlinewidth
gsave stroke grestore
grestore
gsave
gsave
matrix currentmatrix
[1 0 0 1 48.5 707.5] concat
newpath
0 0 M 0 14 L 35.6 14 L 35.6 0 L
closepath setmatrix
0 0 0 setrgbcolor
grestore
newpath
46.5 705.5 M 46.5 723.5 L 86.1 723.5 L 86.1 705.5 L
closepath clip newpath
0 0 0 setrgbcolor
matrix currentmatrix
[1 0 0 1 48.5 707.5] concat
/Courier-Bold-SHOWISO findfont 14 scalefont setfont
0 0 0 setrgbcolor
0 3.5 M (mesh) 33.6 S
setmatrix
grestore
gsave
gsave
matrix currentmatrix
[1 0 0 1 48.5 685.703] concat
newpath
0 0 M 0 14 L 119.6 14 L 119.6 0 L
closepath setmatrix
0 0 0 setrgbcolor
grestore
newpath
46.5 683.703 M 46.5 701.703 L 170.1 701.703 L 170.1 683.703 L
closepath clip newpath
0 0 0 setrgbcolor
matrix currentmatrix
[1 0 0 1 48.5 685.703] concat
/Courier-SHOWISO findfont 14 scalefont setfont
0 0 0 setrgbcolor
0 2.8 M (first_macro_el) 117.6 S
setmatrix
grestore
gsave
0 0 0 setrgbcolor
1.000000 setlinewidth
newpath
40.5 630 M
117 630 L
117 585 L
40.5 585 L
closepath
stroke
grestore
gsave
gsave
matrix currentmatrix
[1 0 0 1 45 612] concat
newpath
0 0 M 0 14 L 69.2 14 L 69.2 0 L
closepath setmatrix
0 0 0 setrgbcolor
grestore
newpath
43 610 M 43 628 L 116.2 628 L 116.2 610 L
closepath clip newpath
0 0 0 setrgbcolor
matrix currentmatrix
[1 0 0 1 45 612] concat
/Courier-Bold-SHOWISO findfont 14 scalefont setfont
0 0 0 setrgbcolor
0 3.5 M (macro_el) 67.2 S
setmatrix
grestore
gsave
gsave
matrix currentmatrix
[1 0 0 1 45 589.5] concat
newpath
0 0 M 0 14 L 35.6 14 L 35.6 0 L
closepath setmatrix
0 0 0 setrgbcolor
grestore
newpath
43 587.5 M 43 605.5 L 82.6 605.5 L 82.6 587.5 L
closepath clip newpath
0 0 0 setrgbcolor
matrix currentmatrix
[1 0 0 1 45 589.5] concat
/Courier-SHOWISO findfont 14 scalefont setfont
0 0 0 setrgbcolor
0 2.8 M (next) 33.6 S
setmatrix
grestore
gsave
gsave
matrix currentmatrix
[1 0 0 1 94.5 589.5] concat
newpath
0 0 M 0 14 L 18.8 14 L 18.8 0 L
closepath setmatrix
0 0 0 setrgbcolor
grestore
newpath
92.5 587.5 M 92.5 605.5 L 115.3 605.5 L 115.3 587.5 L
closepath clip newpath
0 0 0 setrgbcolor
matrix currentmatrix
[1 0 0 1 94.5 589.5] concat
/Courier-SHOWISO findfont 14 scalefont setfont
0 0 0 setrgbcolor
0 2.8 M (el) 16.8 S
setmatrix
grestore
gsave
0 0 0 setrgbcolor
1.000000 setlinewidth
newpath
40.5 504 M
117 504 L
117 459 L
40.5 459 L
closepath
stroke
grestore
gsave
gsave
matrix currentmatrix
[1 0 0 1 45 486] concat
newpath
0 0 M 0 14 L 69.2 14 L 69.2 0 L
closepath setmatrix
0 0 0 setrgbcolor
grestore
newpath
43 484 M 43 502 L 116.2 502 L 116.2 484 L
closepath clip newpath
0 0 0 setrgbcolor
matrix currentmatrix
[1 0 0 1 45 486] concat
/Courier-Bold-SHOWISO findfont 14 scalefont setfont
0 0 0 setrgbcolor
0 3.5 M (macro_el) 67.2 S
setmatrix
grestore
gsave
gsave
matrix currentmatrix
[1 0 0 1 45 463.5] concat
newpath
0 0 M 0 14 L 35.6 14 L 35.6 0 L
closepath setmatrix
0 0 0 setrgbcolor
grestore
newpath
43 461.5 M 43 479.5 L 82.6 479.5 L 82.6 461.5 L
closepath clip newpath
0 0 0 setrgbcolor
matrix currentmatrix
[1 0 0 1 45 463.5] concat
/Courier-SHOWISO findfont 14 scalefont setfont
0 0 0 setrgbcolor
0 2.8 M (next) 33.6 S
setmatrix
grestore
gsave
gsave
matrix currentmatrix
[1 0 0 1 94.5 463.5] concat
newpath
0 0 M 0 14 L 18.8 14 L 18.8 0 L
closepath setmatrix
0 0 0 setrgbcolor
grestore
newpath
92.5 461.5 M 92.5 479.5 L 115.3 479.5 L 115.3 461.5 L
closepath clip newpath
0 0 0 setrgbcolor
matrix currentmatrix
[1 0 0 1 94.5 463.5] concat
/Courier-SHOWISO findfont 14 scalefont setfont
0 0 0 setrgbcolor
0 2.8 M (el) 16.8 S
setmatrix
grestore
gsave
0 0 0 setrgbcolor
1.000000 setlinewidth
newpath
153 630 M
252 630 L
252 585 L
153 585 L
closepath
stroke
grestore
gsave
gsave
matrix currentmatrix
[1 0 0 1 157.5 612] concat
newpath
0 0 M 0 14 L 18.8 14 L 18.8 0 L
closepath setmatrix
0 0 0 setrgbcolor
grestore
newpath
155.5 610 M 155.5 628 L 178.3 628 L 178.3 610 L
closepath clip newpath
0 0 0 setrgbcolor
matrix currentmatrix
[1 0 0 1 157.5 612] concat
/Courier-Bold-SHOWISO findfont 14 scalefont setfont
0 0 0 setrgbcolor
0 3.5 M (el) 16.8 S
setmatrix
grestore
gsave
gsave
matrix currentmatrix
[1 0 0 1 184.5 612] concat
newpath
0 0 M 0 14 L 69.2 14 L 69.2 0 L
closepath setmatrix
0 0 0 setrgbcolor
grestore
newpath
182.5 610 M 182.5 628 L 255.7 628 L 255.7 610 L
closepath clip newpath
0 0 0 setrgbcolor
matrix currentmatrix
[1 0 0 1 184.5 612] concat
/Courier-SHOWISO findfont 14 scalefont setfont
0 0 0 setrgbcolor
0 2.8 M (child[0]) 67.2 S
setmatrix
grestore
gsave
gsave
matrix currentmatrix
[1 0 0 1 184.5 589.5] concat
newpath
0 0 M 0 14 L 69.2 14 L 69.2 0 L
closepath setmatrix
0 0 0 setrgbcolor
grestore
newpath
182.5 587.5 M 182.5 605.5 L 255.7 605.5 L 255.7 587.5 L
closepath clip newpath
0 0 0 setrgbcolor
matrix currentmatrix
[1 0 0 1 184.5 589.5] concat
/Courier-SHOWISO findfont 14 scalefont setfont
0 0 0 setrgbcolor
0 2.8 M (child[1) 58.8 S
58.8 2.8 M (]) 8.4 S
setmatrix
grestore
gsave
0 0 0 setrgbcolor
1.000000 setlinewidth
newpath
288 657 M
346.5 657 L
346.5 612 L
288 612 L
closepath
stroke
grestore
gsave
gsave
matrix currentmatrix
[1 0 0 1 292.5 639] concat
newpath
0 0 M 0 14 L 18.8 14 L 18.8 0 L
closepath setmatrix
0 0 0 setrgbcolor
grestore
newpath
290.5 637 M 290.5 655 L 313.3 655 L 313.3 637 L
closepath clip newpath
0 0 0 setrgbcolor
matrix currentmatrix
[1 0 0 1 292.5 639] concat
/Courier-Bold-SHOWISO findfont 14 scalefont setfont
0 0 0 setrgbcolor
0 3.5 M (el) 16.8 S
setmatrix
grestore
gsave
gsave
matrix currentmatrix
[1 0 0 1 319.5 639] concat
newpath
0 0 M 0 14 L 27.2 14 L 27.2 0 L
closepath setmatrix
0 0 0 setrgbcolor
grestore
newpath
317.5 637 M 317.5 655 L 348.7 655 L 348.7 637 L
closepath clip newpath
0 0 0 setrgbcolor
matrix currentmatrix
[1 0 0 1 319.5 639] concat
/Courier-SHOWISO findfont 14 scalefont setfont
0 0 0 setrgbcolor
0 2.8 M ([0]) 25.2 S
setmatrix
grestore
gsave
gsave
matrix currentmatrix
[1 0 0 1 319.5 616.5] concat
newpath
0 0 M 0 14 L 27.2 14 L 27.2 0 L
closepath setmatrix
0 0 0 setrgbcolor
grestore
newpath
317.5 614.5 M 317.5 632.5 L 348.7 632.5 L 348.7 614.5 L
closepath clip newpath
0 0 0 setrgbcolor
matrix currentmatrix
[1 0 0 1 319.5 616.5] concat
/Courier-SHOWISO findfont 14 scalefont setfont
0 0 0 setrgbcolor
0 2.8 M ([1]) 25.2 S
setmatrix
grestore
gsave
gsave
matrix currentmatrix
[1 0 0 1 157.5 589.5] concat
newpath
0 0 M 0 14 L 10.4 14 L 10.4 0 L
closepath setmatrix
0 0 0 setrgbcolor
grestore
newpath
155.5 587.5 M 155.5 605.5 L 169.9 605.5 L 169.9 587.5 L
closepath clip newpath
0 0 0 setrgbcolor
matrix currentmatrix
[1 0 0 1 157.5 589.5] concat
/Courier-Bold-SHOWISO findfont 14 scalefont setfont
0 0 0 setrgbcolor
0 3.5 M (0) 8.4 S
setmatrix
grestore
gsave
gsave
matrix currentmatrix
[1 0 0 1 292.5 616.5] concat
newpath
0 0 M 0 14 L 10.4 14 L 10.4 0 L
closepath setmatrix
0 0 0 setrgbcolor
grestore
newpath
290.5 614.5 M 290.5 632.5 L 304.9 632.5 L 304.9 614.5 L
closepath clip newpath
0 0 0 setrgbcolor
matrix currentmatrix
[1 0 0 1 292.5 616.5] concat
/Courier-Bold-SHOWISO findfont 14 scalefont setfont
0 0 0 setrgbcolor
0 3.5 M (2) 8.4 S
setmatrix
grestore
gsave
0 0 0 setrgbcolor
1.000000 setlinewidth
newpath
288 603 M
346.5 603 L
346.5 558 L
288 558 L
closepath
stroke
grestore
gsave
gsave
matrix currentmatrix
[1 0 0 1 292.5 585] concat
newpath
0 0 M 0 14 L 18.8 14 L 18.8 0 L
closepath setmatrix
0 0 0 setrgbcolor
grestore
newpath
290.5 583 M 290.5 601 L 313.3 601 L 313.3 583 L
closepath clip newpath
0 0 0 setrgbcolor
matrix currentmatrix
[1 0 0 1 292.5 585] concat
/Courier-Bold-SHOWISO findfont 14 scalefont setfont
0 0 0 setrgbcolor
0 3.5 M (el) 16.8 S
setmatrix
grestore
gsave
gsave
matrix currentmatrix
[1 0 0 1 319.5 585] concat
newpath
0 0 M 0 14 L 27.2 14 L 27.2 0 L
closepath setmatrix
0 0 0 setrgbcolor
grestore
newpath
317.5 583 M 317.5 601 L 348.7 601 L 348.7 583 L
closepath clip newpath
0 0 0 setrgbcolor
matrix currentmatrix
[1 0 0 1 319.5 585] concat
/Courier-SHOWISO findfont 14 scalefont setfont
0 0 0 setrgbcolor
0 2.8 M ([0]) 25.2 S
setmatrix
grestore
gsave
gsave
matrix currentmatrix
[1 0 0 1 319.5 562.5] concat
newpath
0 0 M 0 14 L 27.2 14 L 27.2 0 L
closepath setmatrix
0 0 0 setrgbcolor
grestore
newpath
317.5 560.5 M 317.5 578.5 L 348.7 578.5 L 348.7 560.5 L
closepath clip newpath
0 0 0 setrgbcolor
matrix currentmatrix
[1 0 0 1 319.5 562.5] concat
/Courier-SHOWISO findfont 14 scalefont setfont
0 0 0 setrgbcolor
0 2.8 M ([1]) 25.2 S
setmatrix
grestore
gsave
gsave
matrix currentmatrix
[1 0 0 1 292.5 562.5] concat
newpath
0 0 M 0 14 L 10.4 14 L 10.4 0 L
closepath setmatrix
0 0 0 setrgbcolor
grestore
newpath
290.5 560.5 M 290.5 578.5 L 304.9 578.5 L 304.9 560.5 L
closepath clip newpath
0 0 0 setrgbcolor
matrix currentmatrix
[1 0 0 1 292.5 562.5] concat
/Courier-Bold-SHOWISO findfont 14 scalefont setfont
0 0 0 setrgbcolor
0 3.5 M (3) 8.4 S
setmatrix
grestore
gsave
0 0 0 setrgbcolor
1.000000 setlinewidth
newpath
378 684 M
436.5 684 L
436.5 639 L
378 639 L
closepath
stroke
grestore
gsave
gsave
matrix currentmatrix
[1 0 0 1 382.5 666] concat
newpath
0 0 M 0 14 L 18.8 14 L 18.8 0 L
closepath setmatrix
0 0 0 setrgbcolor
grestore
newpath
380.5 664 M 380.5 682 L 403.3 682 L 403.3 664 L
closepath clip newpath
0 0 0 setrgbcolor
matrix currentmatrix
[1 0 0 1 382.5 666] concat
/Courier-Bold-SHOWISO findfont 14 scalefont setfont
0 0 0 setrgbcolor
0 3.5 M (el) 16.8 S
setmatrix
grestore
gsave
gsave
matrix currentmatrix
[1 0 0 1 409.5 666] concat
newpath
0 0 M 0 14 L 27.2 14 L 27.2 0 L
closepath setmatrix
0 0 0 setrgbcolor
grestore
newpath
407.5 664 M 407.5 682 L 438.7 682 L 438.7 664 L
closepath clip newpath
0 0 0 setrgbcolor
matrix currentmatrix
[1 0 0 1 409.5 666] concat
/Courier-SHOWISO findfont 14 scalefont setfont
0 0 0 setrgbcolor
0 2.8 M ([0]) 25.2 S
setmatrix
grestore
gsave
gsave
matrix currentmatrix
[1 0 0 1 409.5 643.5] concat
newpath
0 0 M 0 14 L 27.2 14 L 27.2 0 L
closepath setmatrix
0 0 0 setrgbcolor
grestore
newpath
407.5 641.5 M 407.5 659.5 L 438.7 659.5 L 438.7 641.5 L
closepath clip newpath
0 0 0 setrgbcolor
matrix currentmatrix
[1 0 0 1 409.5 643.5] concat
/Courier-SHOWISO findfont 14 scalefont setfont
0 0 0 setrgbcolor
0 2.8 M ([1]) 25.2 S
setmatrix
grestore
gsave
gsave
matrix currentmatrix
[1 0 0 1 382.5 643.5] concat
newpath
0 0 M 0 14 L 10.4 14 L 10.4 0 L
closepath setmatrix
0 0 0 setrgbcolor
grestore
newpath
380.5 641.5 M 380.5 659.5 L 394.9 659.5 L 394.9 641.5 L
closepath clip newpath
0 0 0 setrgbcolor
matrix currentmatrix
[1 0 0 1 382.5 643.5] concat
/Courier-Bold-SHOWISO findfont 14 scalefont setfont
0 0 0 setrgbcolor
0 3.5 M (6) 8.4 S
setmatrix
grestore
gsave
0 0 0 setrgbcolor
1.000000 setlinewidth
newpath
378 630 M
436.5 630 L
436.5 585 L
378 585 L
closepath
stroke
grestore
gsave
gsave
matrix currentmatrix
[1 0 0 1 382.5 612] concat
newpath
0 0 M 0 14 L 18.8 14 L 18.8 0 L
closepath setmatrix
0 0 0 setrgbcolor
grestore
newpath
380.5 610 M 380.5 628 L 403.3 628 L 403.3 610 L
closepath clip newpath
0 0 0 setrgbcolor
matrix currentmatrix
[1 0 0 1 382.5 612] concat
/Courier-Bold-SHOWISO findfont 14 scalefont setfont
0 0 0 setrgbcolor
0 3.5 M (el) 16.8 S
setmatrix
grestore
gsave
gsave
matrix currentmatrix
[1 0 0 1 409.5 612] concat
newpath
0 0 M 0 14 L 27.2 14 L 27.2 0 L
closepath setmatrix
0 0 0 setrgbcolor
grestore
newpath
407.5 610 M 407.5 628 L 438.7 628 L 438.7 610 L
closepath clip newpath
0 0 0 setrgbcolor
matrix currentmatrix
[1 0 0 1 409.5 612] concat
/Courier-SHOWISO findfont 14 scalefont setfont
0 0 0 setrgbcolor
0 2.8 M ([0]) 25.2 S
setmatrix
grestore
gsave
gsave
matrix currentmatrix
[1 0 0 1 409.5 589.5] concat
newpath
0 0 M 0 14 L 27.2 14 L 27.2 0 L
closepath setmatrix
0 0 0 setrgbcolor
grestore
newpath
407.5 587.5 M 407.5 605.5 L 438.7 605.5 L 438.7 587.5 L
closepath clip newpath
0 0 0 setrgbcolor
matrix currentmatrix
[1 0 0 1 409.5 589.5] concat
/Courier-SHOWISO findfont 14 scalefont setfont
0 0 0 setrgbcolor
0 2.8 M ([1]) 25.2 S
setmatrix
grestore
gsave
gsave
matrix currentmatrix
[1 0 0 1 382.5 589.5] concat
newpath
0 0 M 0 14 L 10.4 14 L 10.4 0 L
closepath setmatrix
0 0 0 setrgbcolor
grestore
newpath
380.5 587.5 M 380.5 605.5 L 394.9 605.5 L 394.9 587.5 L
closepath clip newpath
0 0 0 setrgbcolor
matrix currentmatrix
[1 0 0 1 382.5 589.5] concat
/Courier-Bold-SHOWISO findfont 14 scalefont setfont
0 0 0 setrgbcolor
0 3.5 M (7) 8.4 S
setmatrix
grestore
gsave
0 0 0 setrgbcolor
1.000000 setlinewidth
newpath
468 657 M
526.5 657 L
526.5 612 L
468 612 L
closepath
stroke
grestore
gsave
gsave
matrix currentmatrix
[1 0 0 1 472.5 639] concat
newpath
0 0 M 0 14 L 18.8 14 L 18.8 0 L
closepath setmatrix
0 0 0 setrgbcolor
grestore
newpath
470.5 637 M 470.5 655 L 493.3 655 L 493.3 637 L
closepath clip newpath
0 0 0 setrgbcolor
matrix currentmatrix
[1 0 0 1 472.5 639] concat
/Courier-Bold-SHOWISO findfont 14 scalefont setfont
0 0 0 setrgbcolor
0 3.5 M (el) 16.8 S
setmatrix
grestore
gsave
gsave
matrix currentmatrix
[1 0 0 1 499.5 639] concat
newpath
0 0 M 0 14 L 27.2 14 L 27.2 0 L
closepath setmatrix
0 0 0 setrgbcolor
grestore
newpath
497.5 637 M 497.5 655 L 528.7 655 L 528.7 637 L
closepath clip newpath
0 0 0 setrgbcolor
matrix currentmatrix
[1 0 0 1 499.5 639] concat
/Courier-SHOWISO findfont 14 scalefont setfont
0 0 0 setrgbcolor
0 2.8 M ([0]) 25.2 S
setmatrix
grestore
gsave
gsave
matrix currentmatrix
[1 0 0 1 499.5 616.5] concat
newpath
0 0 M 0 14 L 27.2 14 L 27.2 0 L
closepath setmatrix
0 0 0 setrgbcolor
grestore
newpath
497.5 614.5 M 497.5 632.5 L 528.7 632.5 L 528.7 614.5 L
closepath clip newpath
0 0 0 setrgbcolor
matrix currentmatrix
[1 0 0 1 499.5 616.5] concat
/Courier-SHOWISO findfont 14 scalefont setfont
0 0 0 setrgbcolor
0 2.8 M ([1]) 25.2 S
setmatrix
grestore
gsave
gsave
matrix currentmatrix
[1 0 0 1 472.5 616.5] concat
newpath
0 0 M 0 14 L 18.8 14 L 18.8 0 L
closepath setmatrix
0 0 0 setrgbcolor
grestore
newpath
470.5 614.5 M 470.5 632.5 L 493.3 632.5 L 493.3 614.5 L
closepath clip newpath
0 0 0 setrgbcolor
matrix currentmatrix
[1 0 0 1 472.5 616.5] concat
/Courier-Bold-SHOWISO findfont 14 scalefont setfont
0 0 0 setrgbcolor
0 3.5 M (10) 16.8 S
setmatrix
grestore
gsave
0 0 0 setrgbcolor
1.000000 setlinewidth
newpath
468 603 M
526.5 603 L
526.5 558 L
468 558 L
closepath
stroke
grestore
gsave
gsave
matrix currentmatrix
[1 0 0 1 472.5 585] concat
newpath
0 0 M 0 14 L 18.8 14 L 18.8 0 L
closepath setmatrix
0 0 0 setrgbcolor
grestore
newpath
470.5 583 M 470.5 601 L 493.3 601 L 493.3 583 L
closepath clip newpath
0 0 0 setrgbcolor
matrix currentmatrix
[1 0 0 1 472.5 585] concat
/Courier-Bold-SHOWISO findfont 14 scalefont setfont
0 0 0 setrgbcolor
0 3.5 M (el) 16.8 S
setmatrix
grestore
gsave
gsave
matrix currentmatrix
[1 0 0 1 499.5 585] concat
newpath
0 0 M 0 14 L 27.2 14 L 27.2 0 L
closepath setmatrix
0 0 0 setrgbcolor
grestore
newpath
497.5 583 M 497.5 601 L 528.7 601 L 528.7 583 L
closepath clip newpath
0 0 0 setrgbcolor
matrix currentmatrix
[1 0 0 1 499.5 585] concat
/Courier-SHOWISO findfont 14 scalefont setfont
0 0 0 setrgbcolor
0 2.8 M ([0]) 25.2 S
setmatrix
grestore
gsave
gsave
matrix currentmatrix
[1 0 0 1 499.5 562.5] concat
newpath
0 0 M 0 14 L 27.2 14 L 27.2 0 L
closepath setmatrix
0 0 0 setrgbcolor
grestore
newpath
497.5 560.5 M 497.5 578.5 L 528.7 578.5 L 528.7 560.5 L
closepath clip newpath
0 0 0 setrgbcolor
matrix currentmatrix
[1 0 0 1 499.5 562.5] concat
/Courier-SHOWISO findfont 14 scalefont setfont
0 0 0 setrgbcolor
0 2.8 M ([1]) 25.2 S
setmatrix
grestore
gsave
gsave
matrix currentmatrix
[1 0 0 1 472.5 562.5] concat
newpath
0 0 M 0 14 L 18.8 14 L 18.8 0 L
closepath setmatrix
0 0 0 setrgbcolor
grestore
newpath
470.5 560.5 M 470.5 578.5 L 493.3 578.5 L 493.3 560.5 L
closepath clip newpath
0 0 0 setrgbcolor
matrix currentmatrix
[1 0 0 1 472.5 562.5] concat
/Courier-Bold-SHOWISO findfont 14 scalefont setfont
0 0 0 setrgbcolor
0 3.5 M (11) 16.8 S
setmatrix
grestore
gsave
0 0 0 setrgbcolor
1.000000 setlinewidth
newpath
153 504 M
252 504 L
252 459 L
153 459 L
closepath
stroke
grestore
gsave
gsave
matrix currentmatrix
[1 0 0 1 157.5 486] concat
newpath
0 0 M 0 14 L 18.8 14 L 18.8 0 L
closepath setmatrix
0 0 0 setrgbcolor
grestore
newpath
155.5 484 M 155.5 502 L 178.3 502 L 178.3 484 L
closepath clip newpath
0 0 0 setrgbcolor
matrix currentmatrix
[1 0 0 1 157.5 486] concat
/Courier-Bold-SHOWISO findfont 14 scalefont setfont
0 0 0 setrgbcolor
0 3.5 M (el) 16.8 S
setmatrix
grestore
gsave
gsave
matrix currentmatrix
[1 0 0 1 184.5 486] concat
newpath
0 0 M 0 14 L 69.2 14 L 69.2 0 L
closepath setmatrix
0 0 0 setrgbcolor
grestore
newpath
182.5 484 M 182.5 502 L 255.7 502 L 255.7 484 L
closepath clip newpath
0 0 0 setrgbcolor
matrix currentmatrix
[1 0 0 1 184.5 486] concat
/Courier-SHOWISO findfont 14 scalefont setfont
0 0 0 setrgbcolor
0 2.8 M (child[0]) 67.2 S
setmatrix
grestore
gsave
gsave
matrix currentmatrix
[1 0 0 1 184.5 463.5] concat
newpath
0 0 M 0 14 L 69.2 14 L 69.2 0 L
closepath setmatrix
0 0 0 setrgbcolor
grestore
newpath
182.5 461.5 M 182.5 479.5 L 255.7 479.5 L 255.7 461.5 L
closepath clip newpath
0 0 0 setrgbcolor
matrix currentmatrix
[1 0 0 1 184.5 463.5] concat
/Courier-SHOWISO findfont 14 scalefont setfont
0 0 0 setrgbcolor
0 2.8 M (child[1]) 67.2 S
setmatrix
grestore
gsave
0 0 0 setrgbcolor
1.000000 setlinewidth
newpath
288 531 M
346.5 531 L
346.5 486 L
288 486 L
closepath
stroke
grestore
gsave
gsave
matrix currentmatrix
[1 0 0 1 292.5 513] concat
newpath
0 0 M 0 14 L 18.8 14 L 18.8 0 L
closepath setmatrix
0 0 0 setrgbcolor
grestore
newpath
290.5 511 M 290.5 529 L 313.3 529 L 313.3 511 L
closepath clip newpath
0 0 0 setrgbcolor
matrix currentmatrix
[1 0 0 1 292.5 513] concat
/Courier-Bold-SHOWISO findfont 14 scalefont setfont
0 0 0 setrgbcolor
0 3.5 M (el) 16.8 S
setmatrix
grestore
gsave
gsave
matrix currentmatrix
[1 0 0 1 319.5 513] concat
newpath
0 0 M 0 14 L 27.2 14 L 27.2 0 L
closepath setmatrix
0 0 0 setrgbcolor
grestore
newpath
317.5 511 M 317.5 529 L 348.7 529 L 348.7 511 L
closepath clip newpath
0 0 0 setrgbcolor
matrix currentmatrix
[1 0 0 1 319.5 513] concat
/Courier-SHOWISO findfont 14 scalefont setfont
0 0 0 setrgbcolor
0 2.8 M ([0]) 25.2 S
setmatrix
grestore
gsave
gsave
matrix currentmatrix
[1 0 0 1 319.5 490.5] concat
newpath
0 0 M 0 14 L 27.2 14 L 27.2 0 L
closepath setmatrix
0 0 0 setrgbcolor
grestore
newpath
317.5 488.5 M 317.5 506.5 L 348.7 506.5 L 348.7 488.5 L
closepath clip newpath
0 0 0 setrgbcolor
matrix currentmatrix
[1 0 0 1 319.5 490.5] concat
/Courier-SHOWISO findfont 14 scalefont setfont
0 0 0 setrgbcolor
0 2.8 M ([1]) 25.2 S
setmatrix
grestore
gsave
gsave
matrix currentmatrix
[1 0 0 1 157.5 463.5] concat
newpath
0 0 M 0 14 L 10.4 14 L 10.4 0 L
closepath setmatrix
0 0 0 setrgbcolor
grestore
newpath
155.5 461.5 M 155.5 479.5 L 169.9 479.5 L 169.9 461.5 L
closepath clip newpath
0 0 0 setrgbcolor
matrix currentmatrix
[1 0 0 1 157.5 463.5] concat
/Courier-Bold-SHOWISO findfont 14 scalefont setfont
0 0 0 setrgbcolor
0 3.5 M (1) 8.4 S
setmatrix
grestore
gsave
gsave
matrix currentmatrix
[1 0 0 1 292.5 490.5] concat
newpath
0 0 M 0 14 L 10.4 14 L 10.4 0 L
closepath setmatrix
0 0 0 setrgbcolor
grestore
newpath
290.5 488.5 M 290.5 506.5 L 304.9 506.5 L 304.9 488.5 L
closepath clip newpath
0 0 0 setrgbcolor
matrix currentmatrix
[1 0 0 1 292.5 490.5] concat
/Courier-Bold-SHOWISO findfont 14 scalefont setfont
0 0 0 setrgbcolor
0 3.5 M (4) 8.4 S
setmatrix
grestore
gsave
0 0 0 setrgbcolor
1.000000 setlinewidth
newpath
288 477 M
346.5 477 L
346.5 432 L
288 432 L
closepath
stroke
grestore
gsave
gsave
matrix currentmatrix
[1 0 0 1 292.5 459] concat
newpath
0 0 M 0 14 L 18.8 14 L 18.8 0 L
closepath setmatrix
0 0 0 setrgbcolor
grestore
newpath
290.5 457 M 290.5 475 L 313.3 475 L 313.3 457 L
closepath clip newpath
0 0 0 setrgbcolor
matrix currentmatrix
[1 0 0 1 292.5 459] concat
/Courier-Bold-SHOWISO findfont 14 scalefont setfont
0 0 0 setrgbcolor
0 3.5 M (el) 16.8 S
setmatrix
grestore
gsave
gsave
matrix currentmatrix
[1 0 0 1 319.5 459] concat
newpath
0 0 M 0 14 L 27.2 14 L 27.2 0 L
closepath setmatrix
0 0 0 setrgbcolor
grestore
newpath
317.5 457 M 317.5 475 L 348.7 475 L 348.7 457 L
closepath clip newpath
0 0 0 setrgbcolor
matrix currentmatrix
[1 0 0 1 319.5 459] concat
/Courier-SHOWISO findfont 14 scalefont setfont
0 0 0 setrgbcolor
0 2.8 M ([0]) 25.2 S
setmatrix
grestore
gsave
gsave
matrix currentmatrix
[1 0 0 1 319.5 436.5] concat
newpath
0 0 M 0 14 L 27.2 14 L 27.2 0 L
closepath setmatrix
0 0 0 setrgbcolor
grestore
newpath
317.5 434.5 M 317.5 452.5 L 348.7 452.5 L 348.7 434.5 L
closepath clip newpath
0 0 0 setrgbcolor
matrix currentmatrix
[1 0 0 1 319.5 436.5] concat
/Courier-SHOWISO findfont 14 scalefont setfont
0 0 0 setrgbcolor
0 2.8 M ([1]) 25.2 S
setmatrix
grestore
gsave
gsave
matrix currentmatrix
[1 0 0 1 292.5 436.5] concat
newpath
0 0 M 0 14 L 10.4 14 L 10.4 0 L
closepath setmatrix
0 0 0 setrgbcolor
grestore
newpath
290.5 434.5 M 290.5 452.5 L 304.9 452.5 L 304.9 434.5 L
closepath clip newpath
0 0 0 setrgbcolor
matrix currentmatrix
[1 0 0 1 292.5 436.5] concat
/Courier-Bold-SHOWISO findfont 14 scalefont setfont
0 0 0 setrgbcolor
0 3.5 M (5) 8.4 S
setmatrix
grestore
gsave
0 0 0 setrgbcolor
1.000000 setlinewidth
newpath
378 504 M
436.5 504 L
436.5 459 L
378 459 L
closepath
stroke
grestore
gsave
gsave
matrix currentmatrix
[1 0 0 1 382.5 486] concat
newpath
0 0 M 0 14 L 18.8 14 L 18.8 0 L
closepath setmatrix
0 0 0 setrgbcolor
grestore
newpath
380.5 484 M 380.5 502 L 403.3 502 L 403.3 484 L
closepath clip newpath
0 0 0 setrgbcolor
matrix currentmatrix
[1 0 0 1 382.5 486] concat
/Courier-Bold-SHOWISO findfont 14 scalefont setfont
0 0 0 setrgbcolor
0 3.5 M (el) 16.8 S
setmatrix
grestore
gsave
gsave
matrix currentmatrix
[1 0 0 1 409.5 486] concat
newpath
0 0 M 0 14 L 27.2 14 L 27.2 0 L
closepath setmatrix
0 0 0 setrgbcolor
grestore
newpath
407.5 484 M 407.5 502 L 438.7 502 L 438.7 484 L
closepath clip newpath
0 0 0 setrgbcolor
matrix currentmatrix
[1 0 0 1 409.5 486] concat
/Courier-SHOWISO findfont 14 scalefont setfont
0 0 0 setrgbcolor
0 2.8 M ([0]) 25.2 S
setmatrix
grestore
gsave
gsave
matrix currentmatrix
[1 0 0 1 409.5 463.5] concat
newpath
0 0 M 0 14 L 27.2 14 L 27.2 0 L
closepath setmatrix
0 0 0 setrgbcolor
grestore
newpath
407.5 461.5 M 407.5 479.5 L 438.7 479.5 L 438.7 461.5 L
closepath clip newpath
0 0 0 setrgbcolor
matrix currentmatrix
[1 0 0 1 409.5 463.5] concat
/Courier-SHOWISO findfont 14 scalefont setfont
0 0 0 setrgbcolor
0 2.8 M ([1]) 25.2 S
setmatrix
grestore
gsave
gsave
matrix currentmatrix
[1 0 0 1 382.5 463.5] concat
newpath
0 0 M 0 14 L 10.4 14 L 10.4 0 L
closepath setmatrix
0 0 0 setrgbcolor
grestore
newpath
380.5 461.5 M 380.5 479.5 L 394.9 479.5 L 394.9 461.5 L
closepath clip newpath
0 0 0 setrgbcolor
matrix currentmatrix
[1 0 0 1 382.5 463.5] concat
/Courier-Bold-SHOWISO findfont 14 scalefont setfont
0 0 0 setrgbcolor
0 3.5 M (8) 8.4 S
setmatrix
grestore
gsave
0 0 0 setrgbcolor
1.000000 setlinewidth
newpath
378 450 M
436.5 450 L
436.5 405 L
378 405 L
closepath
stroke
grestore
gsave
gsave
matrix currentmatrix
[1 0 0 1 382.5 432] concat
newpath
0 0 M 0 14 L 18.8 14 L 18.8 0 L
closepath setmatrix
0 0 0 setrgbcolor
grestore
newpath
380.5 430 M 380.5 448 L 403.3 448 L 403.3 430 L
closepath clip newpath
0 0 0 setrgbcolor
matrix currentmatrix
[1 0 0 1 382.5 432] concat
/Courier-Bold-SHOWISO findfont 14 scalefont setfont
0 0 0 setrgbcolor
0 3.5 M (el) 16.8 S
setmatrix
grestore
gsave
gsave
matrix currentmatrix
[1 0 0 1 409.5 432] concat
newpath
0 0 M 0 14 L 27.2 14 L 27.2 0 L
closepath setmatrix
0 0 0 setrgbcolor
grestore
newpath
407.5 430 M 407.5 448 L 438.7 448 L 438.7 430 L
closepath clip newpath
0 0 0 setrgbcolor
matrix currentmatrix
[1 0 0 1 409.5 432] concat
/Courier-SHOWISO findfont 14 scalefont setfont
0 0 0 setrgbcolor
0 2.8 M ([0]) 25.2 S
setmatrix
grestore
gsave
gsave
matrix currentmatrix
[1 0 0 1 409.5 409.5] concat
newpath
0 0 M 0 14 L 27.2 14 L 27.2 0 L
closepath setmatrix
0 0 0 setrgbcolor
grestore
newpath
407.5 407.5 M 407.5 425.5 L 438.7 425.5 L 438.7 407.5 L
closepath clip newpath
0 0 0 setrgbcolor
matrix currentmatrix
[1 0 0 1 409.5 409.5] concat
/Courier-SHOWISO findfont 14 scalefont setfont
0 0 0 setrgbcolor
0 2.8 M ([1]) 25.2 S
setmatrix
grestore
gsave
gsave
matrix currentmatrix
[1 0 0 1 382.5 409.5] concat
newpath
0 0 M 0 14 L 10.4 14 L 10.4 0 L
closepath setmatrix
0 0 0 setrgbcolor
grestore
newpath
380.5 407.5 M 380.5 425.5 L 394.9 425.5 L 394.9 407.5 L
closepath clip newpath
0 0 0 setrgbcolor
matrix currentmatrix
[1 0 0 1 382.5 409.5] concat
/Courier-Bold-SHOWISO findfont 14 scalefont setfont
0 0 0 setrgbcolor
0 3.5 M (9) 8.4 S
setmatrix
grestore
gsave
0 0 0 setrgbcolor
1.000000 setlinewidth
newpath
468 531 M
526.5 531 L
526.5 486 L
468 486 L
closepath
stroke
grestore
gsave
gsave
matrix currentmatrix
[1 0 0 1 472.5 513] concat
newpath
0 0 M 0 14 L 18.8 14 L 18.8 0 L
closepath setmatrix
0 0 0 setrgbcolor
grestore
newpath
470.5 511 M 470.5 529 L 493.3 529 L 493.3 511 L
closepath clip newpath
0 0 0 setrgbcolor
matrix currentmatrix
[1 0 0 1 472.5 513] concat
/Courier-Bold-SHOWISO findfont 14 scalefont setfont
0 0 0 setrgbcolor
0 3.5 M (el) 16.8 S
setmatrix
grestore
gsave
gsave
matrix currentmatrix
[1 0 0 1 499.5 513] concat
newpath
0 0 M 0 14 L 27.2 14 L 27.2 0 L
closepath setmatrix
0 0 0 setrgbcolor
grestore
newpath
497.5 511 M 497.5 529 L 528.7 529 L 528.7 511 L
closepath clip newpath
0 0 0 setrgbcolor
matrix currentmatrix
[1 0 0 1 499.5 513] concat
/Courier-SHOWISO findfont 14 scalefont setfont
0 0 0 setrgbcolor
0 2.8 M ([0]) 25.2 S
setmatrix
grestore
gsave
gsave
matrix currentmatrix
[1 0 0 1 499.5 490.5] concat
newpath
0 0 M 0 14 L 27.2 14 L 27.2 0 L
closepath setmatrix
0 0 0 setrgbcolor
grestore
newpath
497.5 488.5 M 497.5 506.5 L 528.7 506.5 L 528.7 488.5 L
closepath clip newpath
0 0 0 setrgbcolor
matrix currentmatrix
[1 0 0 1 499.5 490.5] concat
/Courier-SHOWISO findfont 14 scalefont setfont
0 0 0 setrgbcolor
0 2.8 M ([1]) 25.2 S
setmatrix
grestore
gsave
gsave
matrix currentmatrix
[1 0 0 1 472.5 490.5] concat
newpath
0 0 M 0 14 L 18.8 14 L 18.8 0 L
closepath setmatrix
0 0 0 setrgbcolor
grestore
newpath
470.5 488.5 M 470.5 506.5 L 493.3 506.5 L 493.3 488.5 L
closepath clip newpath
0 0 0 setrgbcolor
matrix currentmatrix
[1 0 0 1 472.5 490.5] concat
/Courier-Bold-SHOWISO findfont 14 scalefont setfont
0 0 0 setrgbcolor
0 3.5 M (12) 16.8 S
setmatrix
grestore
gsave
0 0 0 setrgbcolor
1.000000 setlinewidth
newpath
468 477 M
526.5 477 L
526.5 432 L
468 432 L
closepath
stroke
grestore
gsave
gsave
matrix currentmatrix
[1 0 0 1 472.5 459] concat
newpath
0 0 M 0 14 L 18.8 14 L 18.8 0 L
closepath setmatrix
0 0 0 setrgbcolor
grestore
newpath
470.5 457 M 470.5 475 L 493.3 475 L 493.3 457 L
closepath clip newpath
0 0 0 setrgbcolor
matrix currentmatrix
[1 0 0 1 472.5 459] concat
/Courier-Bold-SHOWISO findfont 14 scalefont setfont
0 0 0 setrgbcolor
0 3.5 M (el) 16.8 S
setmatrix
grestore
gsave
gsave
matrix currentmatrix
[1 0 0 1 499.5 459] concat
newpath
0 0 M 0 14 L 27.2 14 L 27.2 0 L
closepath setmatrix
0 0 0 setrgbcolor
grestore
newpath
497.5 457 M 497.5 475 L 528.7 475 L 528.7 457 L
closepath clip newpath
0 0 0 setrgbcolor
matrix currentmatrix
[1 0 0 1 499.5 459] concat
/Courier-SHOWISO findfont 14 scalefont setfont
0 0 0 setrgbcolor
0 2.8 M ([0]) 25.2 S
setmatrix
grestore
gsave
gsave
matrix currentmatrix
[1 0 0 1 499.5 436.5] concat
newpath
0 0 M 0 14 L 27.2 14 L 27.2 0 L
closepath setmatrix
0 0 0 setrgbcolor
grestore
newpath
497.5 434.5 M 497.5 452.5 L 528.7 452.5 L 528.7 434.5 L
closepath clip newpath
0 0 0 setrgbcolor
matrix currentmatrix
[1 0 0 1 499.5 436.5] concat
/Courier-SHOWISO findfont 14 scalefont setfont
0 0 0 setrgbcolor
0 2.8 M ([1]) 25.2 S
setmatrix
grestore
gsave
gsave
matrix currentmatrix
[1 0 0 1 472.5 436.5] concat
newpath
0 0 M 0 14 L 18.8 14 L 18.8 0 L
closepath setmatrix
0 0 0 setrgbcolor
grestore
newpath
470.5 434.5 M 470.5 452.5 L 493.3 452.5 L 493.3 434.5 L
closepath clip newpath
0 0 0 setrgbcolor
matrix currentmatrix
[1 0 0 1 472.5 436.5] concat
/Courier-Bold-SHOWISO findfont 14 scalefont setfont
0 0 0 setrgbcolor
0 3.5 M (13) 16.8 S
setmatrix
grestore
gsave
0 0 0 setrgbcolor
1.000000 setlinewidth
newpath
58.5 679.5 M
58.5 630 L
54 643.5 L
63 643.5 L
58.5 630 L
stroke
grestore
gsave
0 0 0 setrgbcolor
1.000000 setlinewidth
newpath
58.5 585 M
58.5 504 L
54 517.5 L
63 517.5 L
58.5 504 L
stroke
grestore
gsave
0 0 0 setrgbcolor
1.000000 setlinewidth
newpath
117 594 M
153 594 L
139.5 598.5 L
139.5 589.5 L
153 594 L
stroke
grestore
gsave
0 0 0 setrgbcolor
1.000000 setlinewidth
newpath
117 468 M
153 468 L
139.5 472.5 L
139.5 463.5 L
153 468 L
stroke
grestore
gsave
0 0 0 setrgbcolor
1.000000 setlinewidth
newpath
252 621 M
288 621 L
274.5 625.5 L
274.5 616.5 L
288 621 L
stroke
grestore
gsave
0 0 0 setrgbcolor
1.000000 setlinewidth
newpath
252 594 M
288 594 L
274.5 598.5 L
274.5 589.5 L
288 594 L
stroke
grestore
gsave
0 0 0 setrgbcolor
1.000000 setlinewidth
newpath
252 495 M
288 495 L
274.5 499.5 L
274.5 490.5 L
288 495 L
stroke
grestore
gsave
0 0 0 setrgbcolor
1.000000 setlinewidth
newpath
252 468 M
288 468 L
274.5 472.5 L
274.5 463.5 L
288 468 L
stroke
grestore
gsave
0 0 0 setrgbcolor
1.000000 setlinewidth
newpath
346.5 648 M
378 648 L
364.5 652.5 L
364.5 643.5 L
378 648 L
stroke
grestore
gsave
0 0 0 setrgbcolor
1.000000 setlinewidth
newpath
346.5 621 M
378 621 L
364.5 625.5 L
364.5 616.5 L
378 621 L
stroke
grestore
gsave
0 0 0 setrgbcolor
1.000000 setlinewidth
newpath
436.5 621 M
468 621 L
454.5 625.5 L
454.5 616.5 L
468 621 L
stroke
grestore
gsave
0 0 0 setrgbcolor
1.000000 setlinewidth
newpath
436.5 594 M
468 594 L
454.5 598.5 L
454.5 589.5 L
468 594 L
stroke
grestore
gsave
0 0 0 setrgbcolor
1.000000 setlinewidth
newpath
346.5 468 M
378 468 L
364.5 472.5 L
364.5 463.5 L
378 468 L
stroke
grestore
gsave
0 0 0 setrgbcolor
1.000000 setlinewidth
newpath
346.5 441 M
378 441 L
364.5 445.5 L
364.5 436.5 L
378 441 L
stroke
grestore
gsave
0 0 0 setrgbcolor
1.000000 setlinewidth
newpath
436.5 495 M
468 495 L
454.5 499.5 L
454.5 490.5 L
468 495 L
stroke
grestore
gsave
0 0 0 setrgbcolor
1.000000 setlinewidth
newpath
436.5 468 M
468 468 L
454.5 472.5 L
454.5 463.5 L
468 468 L
stroke
grestore
grestore
showpage
saveit restore
grestore
%%EOF
