%!PS-Adobe-2.0 EPSF-2.0
%%BoundingBox: 18 612 585 756
%%Title: /hosts/sauron/graid/ALBERTA_DOC/DOC/EPS/mesh+tree1.eps
%%CreationDate: 11:01 AM February 22, 2000
%%Pages: 1
%%EndComments
%%BeginProlog
%%BeginResource ShowcaseResource
1 setlinejoin
/M  { moveto } bind def /S { show  } bind def
/R { rmoveto } bind def /L { lineto } bind def
/B { newpath 0 0 M 0 1 L 1 1 L 1 0 L closepath } bind def
/CS { closepath stroke } bind def
/S {
    /fixwidth exch def
    dup length /nchars exch def
    dup stringwidth pop
    fixwidth exch sub nchars div
    exch 0 exch ashow
} def
/bwproc {
	rgbproc
	dup length 3 idiv string 0 3 0
	5 -1 roll {
	add 2 1 roll 1 sub dup 0 eq
	{ pop 3 idiv 3 -1 roll dup 4 -1 roll dup
	  3 1 roll 5 -1 roll put 1 add 3 0 }
	{ 2 1 roll } ifelse
	} forall
	pop pop pop
} def
systemdict /colorimage known not {
	/colorimage {
		pop
		pop
		/rgbproc exch def
		{ bwproc } image
	} def
} if
1 1 scale
0 setlinewidth
/drawtri {
/y3 exch def
/x3 exch def
/y2 exch def
/x2 exch def
/y1 exch def
/x1 exch def
0 setgray
newpath
x1 y1 moveto
x2 y2 lineto
x3 y3 lineto
closepath
stroke
} bind def
/filltri {
/y3 exch def
/x3 exch def
/y2 exch def
/x2 exch def
/y1 exch def
/x1 exch def
newpath
x1 y1 moveto
x2 y2 lineto
x3 y3 lineto
closepath
fill
} bind def
/cliptri {
/y3 exch def
/x3 exch def
/y2 exch def
/x2 exch def
/y1 exch def
/x1 exch def
0 setgray
newpath
x1 y1 moveto
x2 y2 lineto
x3 y3 lineto
closepath
clip
} bind def
/imgscanrgb {
gsave
translate
/scandy exch def
/scandx exch def
/istr scandx 3 mul string def
scandx scandy scale
scandx scandy 8
[scandx 0 0 scandy neg 0 scandy]
{currentfile istr readhexstring pop}
false 3
colorimage
grestore
} bind def
/imgscanbw {
gsave
translate
/scandy exch def
/scandx exch def
/istr scandx string def
scandx scandy scale
scandx scandy 8
[scandx 0 0 scandy neg 0 scandy]
{currentfile istr readhexstring pop}
image
grestore
} bind def
/showcaseisoencoding [
/.notdef /.notdef /.notdef /.notdef
/.notdef /.notdef /.notdef /.notdef
/.notdef /.notdef /.notdef /.notdef
/.notdef /.notdef /.notdef /.notdef
/.notdef /.notdef /.notdef /.notdef
/.notdef /.notdef /.notdef /.notdef
/.notdef /.notdef /.notdef /.notdef
/.notdef /.notdef /.notdef /.notdef
/space /exclam /quotedbl /numbersign
/dollar /percent /ampersand /quoteright
/parenleft /parenright /asterisk /plus
/comma /minus /period /slash
/zero /one /two /three /four /five /six /seven
/eight /nine /colon /semicolon
/less /equal /greater /question
/at /A /B /C /D /E /F /G
/H /I /J /K /L /M /N /O
/P /Q /R /S /T /U /V /W
/X /Y /Z /bracketleft
/backslash /bracketright /asciicircum /underscore
/quoteleft /a /b /c /d /e /f /g
/h /i /j /k /l /m /n /o
/p /q /r /s /t /u /v /w
/x /y /z /braceleft
/bar /braceright /asciitilde /guilsinglright
/fraction /florin /quotesingle /quotedblleft
/guilsinglleft /fi /fl /endash
/dagger /daggerdbl /bullet /quotesinglbase
/quotedblbase /quotedblright /ellipsis /trademark
/dotlessi /grave /acute /circumflex
/tilde /macron /breve /dotaccent
/dieresis /perthousand /ring /cedilla
/Ydieresis /hungarumlaut /ogonek /caron
/emdash /exclamdown /cent /sterling
/currency /yen /brokenbar /section
/dieresis /copyright /ordfeminine /guillemotleft
/logicalnot /hyphen /registered /macron
/degree /plusminus /twosuperior /threesuperior
/acute /mu /paragraph /periodcentered
/cedilla /onesuperior /ordmasculine /guillemotright
/onequarter /onehalf /threequarters /questiondown
/Agrave /Aacute /Acircumflex /Atilde
/Adieresis /Aring /AE /Ccedilla
/Egrave /Eacute /Ecircumflex /Edieresis
/Igrave /Iacute /Icircumflex /Idieresis
/Eth /Ntilde /Ograve /Oacute
/Ocircumflex /Otilde /Odieresis /multiply
/Oslash /Ugrave /Uacute /Ucircumflex
/Udieresis /Yacute /Thorn /germandbls
/agrave /aacute /acircumflex /atilde
/adieresis /aring /ae /ccedilla
/egrave /eacute /ecircumflex /edieresis
/igrave /iacute /icircumflex /idieresis
/eth /ntilde /ograve /oacute
/ocircumflex /otilde /odieresis /divide
/oslash /ugrave /uacute /ucircumflex
/udieresis /yacute /thorn /ydieresis ] def
/showcasedingbatencoding [
/.notdef /.notdef /.notdef /.notdef
/.notdef /.notdef /.notdef /.notdef
/.notdef /.notdef /.notdef /.notdef
/.notdef /.notdef /.notdef /.notdef
/.notdef /.notdef /.notdef /.notdef
/.notdef /.notdef /.notdef /.notdef
/.notdef /.notdef /.notdef /.notdef
/.notdef /.notdef /.notdef /.notdef
/.notdef /a1 /a2 /a202 /a3 /a4 /a5 /a119 /a118 /a117
/a11 /a12 /a13 /a14 /a15 /a16 /a105 /a17 /a18 /a19
/a20 /a21 /a22 /a23 /a24 /a25 /a26 /a27 /a28 /a6 /a7
/a8 /a9 /a10 /a29
/a30 /a31 /a32 /a33 /a34 /a35 /a36 /a37 /a38 /a39
/a40 /a41 /a42 /a43 /a44 /a45 /a46 /a47 /a48 /a49
/a50 /a51 /a52 /a53 /a54 /a55 /a56 /a57 /a58 /a59
/a60 /a61 /a62 /a63 /a64 /a65 /a66 /a67 /a68 /a69
/a70 /a71 /a72 /a73 /a74 /a203 /a75 /a204 /a76 /a77 /a78
/a79 /a81 /a82 /a83 /a84 /a97 /a98 /a99 /a100 /.notdef
/a205 /a85 /a206 /a86 /a87 /a88 /a89 /a90 /a91 /a92 /a93
/a94 /a95 /a96
/.notdef /.notdef /.notdef /.notdef /.notdef /.notdef
/.notdef /.notdef /.notdef /.notdef /.notdef /.notdef
/.notdef /.notdef /.notdef /.notdef /.notdef /.notdef
/.notdef /a101 /a102 /a103 /a104 /a106 /a107 /a108
/a112 /a111 /a110 /a109
/a120 /a121 /a122 /a123 /a124 /a125 /a126 /a127 /a128 /a129
/a130 /a131 /a132 /a133 /a134 /a135 /a136 /a137 /a138 /a139
/a140 /a141 /a142 /a143 /a144 /a145 /a146 /a147 /a148 /a149
/a150 /a151 /a152 /a153 /a154 /a155 /a156 /a157 /a158 /a159
/a160 /a161 /a163 /a164 /a196 /a165 /a192 /a166 /a167 /a168
/a169 /a170 /a171 /a172 /a173 /a162 /a174 /a175 /a176 /a177
/a178 /a179 /a193 /a180 /a199 /a181 /a200 /a182 /.notdef
/a201 /a183 /a184 /a197 /a185 /a194 /a198 /a186 /a195 /a187
/a188 /a189 /a190 /a191 /.notdef
] def
/Times-Roman findfont
dup length dict begin
  {1 index /FID ne {def} {pop pop} ifelse} forall
  /Encoding showcaseisoencoding def
  currentdict
end
/Times-Roman-SHOWISO exch definefont pop
/newfont 10 dict def
newfont begin

 /FontType 3 def
 /FontMatrix [1 0 0 1 0 0] def
 /FontBBox [0 0 1 1] def
 /Encoding 256 array def
 0 1 255 {Encoding exch /.notdef put} for

 /CharProcs 1 dict def
 CharProcs begin
 /.notdef {} def

end

 /BuildChar {
  1 0
  0 0 1 1
  setcachedevice
  exch begin
  Encoding exch get
  CharProcs exch get
  end
  exec
 } def
end
/PatternFont newfont definefont pop

%%EndResource
%%EndProlog
%%BeginSetup
%%EndSetup
%%Page: label 1
gsave
/saveit save def
gsave
gsave
0 0 0 setrgbcolor
1.000000 setlinewidth
newpath
81 756 M
81 612 L
18 657 L
closepath
81 612 M
153 684 L
81 756 L
stroke
grestore
gsave
0 0 0 setrgbcolor
1.000000 setlinewidth
newpath
225 756 M
225 612 L
162 657 L
closepath
225 612 M
297 684 L
225 756 L
stroke
grestore
gsave
0 0 0 setrgbcolor
1.000000 setlinewidth
newpath
162 657 M
225 684 L
297 684 L
stroke
grestore
gsave
0 0 0 setrgbcolor
1.000000 setlinewidth
newpath
369 756 M
369 612 L
306 657 L
closepath
369 612 M
441 684 L
369 756 L
stroke
grestore
gsave
0 0 0 setrgbcolor
1.000000 setlinewidth
newpath
306 657 M
369 684 L
441 684 L
stroke
grestore
gsave
0 0 0 setrgbcolor
1.000000 setlinewidth
newpath
337.5 634.5 M
369 684 L
405 648 L
stroke
grestore
gsave
0 0 0 setrgbcolor
1.000000 setlinewidth
newpath
513 756 M
513 612 L
450 657 L
closepath
513 612 M
585 684 L
513 756 L
stroke
grestore
gsave
0 0 0 setrgbcolor
1.000000 setlinewidth
newpath
450 657 M
513 684 L
585 684 L
stroke
grestore
gsave
0 0 0 setrgbcolor
1.000000 setlinewidth
newpath
481.5 634.5 M
513 684 L
549 648 L
stroke
grestore
gsave
0 0 0 setrgbcolor
1.000000 setlinewidth
newpath
481.5 634.5 M
513 648 L
549 648 L
stroke
grestore
gsave
gsave
matrix currentmatrix
[1 0 0 1 48.5 668.031] concat
newpath
0 0 M 0 14 L 9 14 L 9 0 L
closepath setmatrix
0 0 0 setrgbcolor
grestore
newpath
46.5 666.031 M 46.5 684.502 L 59.5 684.502 L 59.5 666.031 L
closepath clip newpath
0 0 0 setrgbcolor
matrix currentmatrix
[1 0 0 1 48.5 668.031] concat
/Times-Roman-SHOWISO findfont 14 scalefont setfont
0 0 0 setrgbcolor
0 2.47059 M (0) 7 S
setmatrix
grestore
gsave
gsave
matrix currentmatrix
[1 0 0 1 107 677.031] concat
newpath
0 0 M 0 14 L 9 14 L 9 0 L
closepath setmatrix
0 0 0 setrgbcolor
grestore
newpath
105 675.031 M 105 693.502 L 118 693.502 L 118 675.031 L
closepath clip newpath
0 0 0 setrgbcolor
matrix currentmatrix
[1 0 0 1 107 677.031] concat
/Times-Roman-SHOWISO findfont 14 scalefont setfont
0 0 0 setrgbcolor
0 2.47059 M (1) 7 S
setmatrix
grestore
gsave
gsave
matrix currentmatrix
[1 0 0 1 197 645.531] concat
newpath
0 0 M 0 14 L 9 14 L 9 0 L
closepath setmatrix
0 0 0 setrgbcolor
grestore
newpath
195 643.531 M 195 662.002 L 208 662.002 L 208 643.531 L
closepath clip newpath
0 0 0 setrgbcolor
matrix currentmatrix
[1 0 0 1 197 645.531] concat
/Times-Roman-SHOWISO findfont 14 scalefont setfont
0 0 0 setrgbcolor
0 2.47059 M (2) 7 S
setmatrix
grestore
gsave
gsave
matrix currentmatrix
[1 0 0 1 197 690.531] concat
newpath
0 0 M 0 14 L 9 14 L 9 0 L
closepath setmatrix
0 0 0 setrgbcolor
grestore
newpath
195 688.531 M 195 707.002 L 208 707.002 L 208 688.531 L
closepath clip newpath
0 0 0 setrgbcolor
matrix currentmatrix
[1 0 0 1 197 690.531] concat
/Times-Roman-SHOWISO findfont 14 scalefont setfont
0 0 0 setrgbcolor
0 2.47059 M (3) 7 S
setmatrix
grestore
gsave
gsave
matrix currentmatrix
[1 0 0 1 237.5 699.531] concat
newpath
0 0 M 0 14 L 9 14 L 9 0 L
closepath setmatrix
0 0 0 setrgbcolor
grestore
newpath
235.5 697.531 M 235.5 716.002 L 248.5 716.002 L 248.5 697.531 L
closepath clip newpath
0 0 0 setrgbcolor
matrix currentmatrix
[1 0 0 1 237.5 699.531] concat
/Times-Roman-SHOWISO findfont 14 scalefont setfont
0 0 0 setrgbcolor
0 2.47059 M (4) 7 S
setmatrix
grestore
gsave
gsave
matrix currentmatrix
[1 0 0 1 237.5 650.031] concat
newpath
0 0 M 0 14 L 9 14 L 9 0 L
closepath setmatrix
0 0 0 setrgbcolor
grestore
newpath
235.5 648.031 M 235.5 666.502 L 248.5 666.502 L 248.5 648.031 L
closepath clip newpath
0 0 0 setrgbcolor
matrix currentmatrix
[1 0 0 1 237.5 650.031] concat
/Times-Roman-SHOWISO findfont 14 scalefont setfont
0 0 0 setrgbcolor
0 2.47059 M (5) 7 S
setmatrix
grestore
gsave
gsave
matrix currentmatrix
[1 0 0 1 341 690.531] concat
newpath
0 0 M 0 14 L 9 14 L 9 0 L
closepath setmatrix
0 0 0 setrgbcolor
grestore
newpath
339 688.531 M 339 707.002 L 352 707.002 L 352 688.531 L
closepath clip newpath
0 0 0 setrgbcolor
matrix currentmatrix
[1 0 0 1 341 690.531] concat
/Times-Roman-SHOWISO findfont 14 scalefont setfont
0 0 0 setrgbcolor
0 2.47059 M (3) 7 S
setmatrix
grestore
gsave
gsave
matrix currentmatrix
[1 0 0 1 381.5 699.531] concat
newpath
0 0 M 0 14 L 9 14 L 9 0 L
closepath setmatrix
0 0 0 setrgbcolor
grestore
newpath
379.5 697.531 M 379.5 716.002 L 392.5 716.002 L 392.5 697.531 L
closepath clip newpath
0 0 0 setrgbcolor
matrix currentmatrix
[1 0 0 1 381.5 699.531] concat
/Times-Roman-SHOWISO findfont 14 scalefont setfont
0 0 0 setrgbcolor
0 2.47059 M (4) 7 S
setmatrix
grestore
gsave
gsave
matrix currentmatrix
[1 0 0 1 330.5 649.031] concat
newpath
0 0 M 0 14 L 9 14 L 9 0 L
closepath setmatrix
0 0 0 setrgbcolor
grestore
newpath
328.5 647.031 M 328.5 665.502 L 341.5 665.502 L 341.5 647.031 L
closepath clip newpath
0 0 0 setrgbcolor
matrix currentmatrix
[1 0 0 1 330.5 649.031] concat
/Times-Roman-SHOWISO findfont 14 scalefont setfont
0 0 0 setrgbcolor
0 2.47059 M (6) 7 S
setmatrix
grestore
gsave
gsave
matrix currentmatrix
[1 0 0 1 353 632.031] concat
newpath
0 0 M 0 14 L 9 14 L 9 0 L
closepath setmatrix
0 0 0 setrgbcolor
grestore
newpath
351 630.031 M 351 648.502 L 364 648.502 L 364 630.031 L
closepath clip newpath
0 0 0 setrgbcolor
matrix currentmatrix
[1 0 0 1 353 632.031] concat
/Times-Roman-SHOWISO findfont 14 scalefont setfont
0 0 0 setrgbcolor
0 2.47059 M (7) 7 S
setmatrix
grestore
gsave
gsave
matrix currentmatrix
[1 0 0 1 377 632.031] concat
newpath
0 0 M 0 14 L 9 14 L 9 0 L
closepath setmatrix
0 0 0 setrgbcolor
grestore
newpath
375 630.031 M 375 648.502 L 388 648.502 L 388 630.031 L
closepath clip newpath
0 0 0 setrgbcolor
matrix currentmatrix
[1 0 0 1 377 632.031] concat
/Times-Roman-SHOWISO findfont 14 scalefont setfont
0 0 0 setrgbcolor
0 2.47059 M (8) 7 S
setmatrix
grestore
gsave
gsave
matrix currentmatrix
[1 0 0 1 399.5 663.531] concat
newpath
0 0 M 0 14 L 9 14 L 9 0 L
closepath setmatrix
0 0 0 setrgbcolor
grestore
newpath
397.5 661.531 M 397.5 680.002 L 410.5 680.002 L 410.5 661.531 L
closepath clip newpath
0 0 0 setrgbcolor
matrix currentmatrix
[1 0 0 1 399.5 663.531] concat
/Times-Roman-SHOWISO findfont 14 scalefont setfont
0 0 0 setrgbcolor
0 2.47059 M (9) 7 S
setmatrix
grestore
gsave
gsave
matrix currentmatrix
[1 0 0 1 485 690.531] concat
newpath
0 0 M 0 14 L 9 14 L 9 0 L
closepath setmatrix
0 0 0 setrgbcolor
grestore
newpath
483 688.531 M 483 707.002 L 496 707.002 L 496 688.531 L
closepath clip newpath
0 0 0 setrgbcolor
matrix currentmatrix
[1 0 0 1 485 690.531] concat
/Times-Roman-SHOWISO findfont 14 scalefont setfont
0 0 0 setrgbcolor
0 2.47059 M (3) 7 S
setmatrix
grestore
gsave
gsave
matrix currentmatrix
[1 0 0 1 525.5 699.531] concat
newpath
0 0 M 0 14 L 9 14 L 9 0 L
closepath setmatrix
0 0 0 setrgbcolor
grestore
newpath
523.5 697.531 M 523.5 716.002 L 536.5 716.002 L 536.5 697.531 L
closepath clip newpath
0 0 0 setrgbcolor
matrix currentmatrix
[1 0 0 1 525.5 699.531] concat
/Times-Roman-SHOWISO findfont 14 scalefont setfont
0 0 0 setrgbcolor
0 2.47059 M (4) 7 S
setmatrix
grestore
gsave
gsave
matrix currentmatrix
[1 0 0 1 474.5 649.031] concat
newpath
0 0 M 0 14 L 9 14 L 9 0 L
closepath setmatrix
0 0 0 setrgbcolor
grestore
newpath
472.5 647.031 M 472.5 665.502 L 485.5 665.502 L 485.5 647.031 L
closepath clip newpath
0 0 0 setrgbcolor
matrix currentmatrix
[1 0 0 1 474.5 649.031] concat
/Times-Roman-SHOWISO findfont 14 scalefont setfont
0 0 0 setrgbcolor
0 2.47059 M (6) 7 S
setmatrix
grestore
gsave
gsave
matrix currentmatrix
[1 0 0 1 543.5 663.531] concat
newpath
0 0 M 0 14 L 9 14 L 9 0 L
closepath setmatrix
0 0 0 setrgbcolor
grestore
newpath
541.5 661.531 M 541.5 680.002 L 554.5 680.002 L 554.5 661.531 L
closepath clip newpath
0 0 0 setrgbcolor
matrix currentmatrix
[1 0 0 1 543.5 663.531] concat
/Times-Roman-SHOWISO findfont 14 scalefont setfont
0 0 0 setrgbcolor
0 2.47059 M (9) 7 S
setmatrix
grestore
gsave
gsave
matrix currentmatrix
[1 0 0 1 495.5 625.031] concat
newpath
0 0 M 0 14 L 16 14 L 16 0 L
closepath setmatrix
0 0 0 setrgbcolor
grestore
newpath
493.5 623.031 M 493.5 641.502 L 513.5 641.502 L 513.5 623.031 L
closepath clip newpath
0 0 0 setrgbcolor
matrix currentmatrix
[1 0 0 1 495.5 625.031] concat
/Times-Roman-SHOWISO findfont 14 scalefont setfont
0 0 0 setrgbcolor
0 2.47059 M (10) 14 S
setmatrix
grestore
gsave
gsave
matrix currentmatrix
[1 0 0 1 496.5 647.531] concat
newpath
0 0 M 0 14 L 16 14 L 16 0 L
closepath setmatrix
0 0 0 setrgbcolor
grestore
newpath
494.5 645.531 M 494.5 664.002 L 514.5 664.002 L 514.5 645.531 L
closepath clip newpath
0 0 0 setrgbcolor
matrix currentmatrix
[1 0 0 1 496.5 647.531] concat
/Times-Roman-SHOWISO findfont 14 scalefont setfont
0 0 0 setrgbcolor
0 2.47059 M (11) 14 S
setmatrix
grestore
gsave
gsave
matrix currentmatrix
[1 0 0 1 516.5 650.031] concat
newpath
0 0 M 0 14 L 16 14 L 16 0 L
closepath setmatrix
0 0 0 setrgbcolor
grestore
newpath
514.5 648.031 M 514.5 666.502 L 534.5 666.502 L 534.5 648.031 L
closepath clip newpath
0 0 0 setrgbcolor
matrix currentmatrix
[1 0 0 1 516.5 650.031] concat
/Times-Roman-SHOWISO findfont 14 scalefont setfont
0 0 0 setrgbcolor
0 2.47059 M (12) 14 S
setmatrix
grestore
gsave
gsave
matrix currentmatrix
[1 0 0 1 516.5 628.531] concat
newpath
0 0 M 0 14 L 16 14 L 16 0 L
closepath setmatrix
0 0 0 setrgbcolor
grestore
newpath
514.5 626.531 M 514.5 645.002 L 534.5 645.002 L 534.5 626.531 L
closepath clip newpath
0 0 0 setrgbcolor
matrix currentmatrix
[1 0 0 1 516.5 628.531] concat
/Times-Roman-SHOWISO findfont 14 scalefont setfont
0 0 0 setrgbcolor
0 2.47059 M (13) 14 S
setmatrix
grestore
grestore
showpage
saveit restore
grestore
%%EOF
