%!PS-Adobe-3.0 EPSF-3.0
%%BoundingBox: (atend)
%%LanguageLevel: 2
%%Creator: Grace-5.1.8
%%CreationDate: Wed Mar 26 11:10:27 2003
%%DocumentData: Clean8Bit
%%Orientation: Portrait
%%Title: /home/kgs/tmp/n_dof-3d.agr
%%For: kgs
%%DocumentNeededResources: (atend)
%%EndComments
%%BeginProlog
/m {moveto} def
/l {lineto} def
/s {stroke} def
/n {newpath} def
/c {closepath} def
/RL {rlineto} def
/SLW {setlinewidth} def
/GS {gsave} def
/GR {grestore} def
/SC {setcolor} def
/SGRY {setgray} def
/SRGB {setrgbcolor} def
/SD {setdash} def
/SLC {setlinecap} def
/SLJ {setlinejoin} def
/SCS {setcolorspace} def
/FFSF {findfont setfont} def
/CC {concat} def
/PXL {n m 0 0 RL s} def
/Color0 {1.0000 1.0000 1.0000} def
/Color1 {0.0000 0.0000 0.0000} def
/Color2 {1.0000 0.0000 0.0000} def
/Color3 {0.0000 1.0000 0.0000} def
/Color4 {0.0000 0.0000 1.0000} def
/Color5 {1.0000 1.0000 0.0000} def
/Color6 {0.7373 0.5608 0.5608} def
/Color7 {0.8627 0.8627 0.8627} def
/Color8 {0.5804 0.0000 0.8275} def
/Color9 {0.0000 1.0000 1.0000} def
/Color10 {1.0000 0.0000 1.0000} def
/Color11 {1.0000 0.6471 0.0000} def
/Color12 {0.4471 0.1294 0.7373} def
/Color13 {0.4039 0.0275 0.2824} def
/Color14 {0.2510 0.8784 0.8157} def
/Color15 {0.0000 0.5451 0.0000} def
/Color16 {0.7529 0.7529 0.7529} def
/Color17 {0.5059 0.5059 0.5059} def
/Color18 {0.2588 0.2588 0.2588} def
/PTRN {
 /pat_bits exch def 
 <<
  /PaintType 2
  /PatternType 1 /TilingType 1
  /BBox[0 0 16 16]
  /XStep 16 /YStep 16
  /PaintProc {
   pop
   16 16 true [-1 0 0 -1 16 16] pat_bits imagemask
  }
 >>
 [0.0017 0 0 0.0017 0 0]
 makepattern
} def
/Pattern0 {<0000000000000000000000000000000000000000000000000000000000000000> PTRN} bind def
/Pattern1 {<ffffffffffffffffffffffffffffffffffffffffffffffffffffffffffffffff> PTRN} bind def
/Pattern2 {<eeeeffffbbbbffffeeeeffffbbbbffffeeeeffffbbbbffffeeeeffffbbbbffff> PTRN} bind def
/Pattern3 {<eeeebbbbeeeebbbbeeeebbbbeeeebbbbeeeebbbbeeeebbbbeeeebbbbeeeebbbb> PTRN} bind def
/Pattern4 {<5555aaaa5555aaaa5555aaaa5555aaaa5555aaaa5555aaaa5555aaaa5555aaaa> PTRN} bind def
/Pattern5 {<1111444411114444111144441111444411114444111144441111444411114444> PTRN} bind def
/Pattern6 {<1111000044440000111100004444000011110000444400001111000044440000> PTRN} bind def
/Pattern7 {<1010000000000000010100000000000010100000000000000101000000000000> PTRN} bind def
/Pattern8 {<0000000000000000000000000000000000000000000000000000000000000000> PTRN} bind def
/Pattern9 {<1e1e0f0f8787c3c3e1e1f0f078783c3c1e1e0f0f8787c3c3e1e1f0f078783c3c> PTRN} bind def
/Pattern10 {<7878f0f0e1e1c3c387870f0f1e1e3c3c7878f0f0e1e1c3c387870f0f1e1e3c3c> PTRN} bind def
/Pattern11 {<3333333333333333333333333333333333333333333333333333333333333333> PTRN} bind def
/Pattern12 {<ffffffff00000000ffffffff00000000ffffffff00000000ffffffff00000000> PTRN} bind def
/Pattern13 {<8181424224241818181824244242818181814242242418181818242442428181> PTRN} bind def
/Pattern14 {<8080404020201010080804040202010180804040202010100808040402020101> PTRN} bind def
/Pattern15 {<0101020204040808101020204040808001010202040408081010202040408080> PTRN} bind def
/Pattern16 {<2222222222222222222222222222222222222222222222222222222222222222> PTRN} bind def
/Pattern17 {<0000ffff000000000000ffff000000000000ffff000000000000ffff00000000> PTRN} bind def
/Pattern18 {<2222ffff222222222222ffff222222222222ffff222222222222ffff22222222> PTRN} bind def
/Pattern19 {<ffffffff33333333ffffffff33333333ffffffff33333333ffffffff33333333> PTRN} bind def
/Pattern20 {<0f0f0f0f0f0f0f0ff0f0f0f0f0f0f0f00f0f0f0f0f0f0f0ff0f0f0f0f0f0f0f0> PTRN} bind def
/Pattern21 {<ff00ff00ff00ff00ff00ff00ff00ff0000ff00ff00ff00ff00ff00ff00ff00ff> PTRN} bind def
/Pattern22 {<8001800180018001800180018001ffffffff8001800180018001800180018001> PTRN} bind def
/Pattern23 {<c003c003c003c003c003c003ffffffffffffffffc003c003c003c003c003c003> PTRN} bind def
/Pattern24 {<040404040404ffff404040404040ffff040404040404ffff404040404040ffff> PTRN} bind def
/Pattern25 {<180018001800180018001800ffffffff001800180018001800180018ffffffff> PTRN} bind def
/Pattern26 {<1111b8b87c7c3a3a1111a3a3c7c78b8b1111b8b87c7c3a3a1111a3a3c7c78b8b> PTRN} bind def
/Pattern27 {<101010102828c7c70101010182827c7c101010102828c7c70101010182827c7c> PTRN} bind def
/Pattern28 {<1c1c121211112121c1c12121111112121c1c121211112121c1c1212111111212> PTRN} bind def
/Pattern29 {<3e3e414180808080e3e31414080808083e3e414180808080e3e3141408080808> PTRN} bind def
/Pattern30 {<4848888884848383848488884848383848488888848483838484888848483838> PTRN} bind def
/Pattern31 {<03030404080808080c0c12122121c0c003030404080808080c0c12122121c0c0> PTRN} bind def
/ellipsedict 8 dict def
ellipsedict /mtrx matrix put
/EARC {
 ellipsedict begin
  /endangle exch def
  /startangle exch def
  /yrad exch def
  /xrad exch def
  /y exch def
  /x exch def
  /savematrix mtrx currentmatrix def
  x y translate
  xrad yrad scale
  0 0 1 startangle endangle arc
  savematrix setmatrix
 end
} def
/TL {
  /kcomp exch def
  /linewidth exch def
  /offset exch def
  GS
  0 offset rmoveto
  linewidth SLW
  dup stringwidth exch kcomp add exch RL s
  GR
} def
/KINIT
{
 /kvector exch def
 /kid 0 def
} def
/KPROC
{
 pop pop
 kvector kid get
 0 rmoveto
 /kid 1 kid add def
} def
/DefEncoding [
 /.notdef
 /.notdef
 /.notdef
 /.notdef
 /.notdef
 /.notdef
 /.notdef
 /.notdef
 /.notdef
 /.notdef
 /.notdef
 /.notdef
 /.notdef
 /.notdef
 /.notdef
 /.notdef
 /.notdef
 /.notdef
 /.notdef
 /.notdef
 /.notdef
 /.notdef
 /.notdef
 /.notdef
 /.notdef
 /.notdef
 /.notdef
 /.notdef
 /.notdef
 /.notdef
 /.notdef
 /.notdef
 /space
 /exclam
 /quotedbl
 /numbersign
 /dollar
 /percent
 /ampersand
 /quoteright
 /parenleft
 /parenright
 /asterisk
 /plus
 /comma
 /hyphen
 /period
 /slash
 /zero
 /one
 /two
 /three
 /four
 /five
 /six
 /seven
 /eight
 /nine
 /colon
 /semicolon
 /less
 /equal
 /greater
 /question
 /at
 /A
 /B
 /C
 /D
 /E
 /F
 /G
 /H
 /I
 /J
 /K
 /L
 /M
 /N
 /O
 /P
 /Q
 /R
 /S
 /T
 /U
 /V
 /W
 /X
 /Y
 /Z
 /bracketleft
 /backslash
 /bracketright
 /asciicircum
 /underscore
 /grave
 /a
 /b
 /c
 /d
 /e
 /f
 /g
 /h
 /i
 /j
 /k
 /l
 /m
 /n
 /o
 /p
 /q
 /r
 /s
 /t
 /u
 /v
 /w
 /x
 /y
 /z
 /braceleft
 /bar
 /braceright
 /asciitilde
 /.notdef
 /.notdef
 /.notdef
 /.notdef
 /.notdef
 /.notdef
 /.notdef
 /.notdef
 /.notdef
 /.notdef
 /.notdef
 /.notdef
 /.notdef
 /.notdef
 /.notdef
 /.notdef
 /.notdef
 /dotlessi
 /grave
 /acute
 /circumflex
 /tilde
 /macron
 /breve
 /dotaccent
 /dieresis
 /.notdef
 /ring
 /cedilla
 /.notdef
 /hungarumlaut
 /ogonek
 /caron
 /space
 /exclamdown
 /cent
 /sterling
 /currency
 /yen
 /brokenbar
 /section
 /dieresis
 /copyright
 /ordfeminine
 /guillemotleft
 /logicalnot
 /hyphen
 /registered
 /macron
 /degree
 /plusminus
 /twosuperior
 /threesuperior
 /acute
 /mu
 /paragraph
 /periodcentered
 /cedilla
 /onesuperior
 /ordmasculine
 /guillemotright
 /onequarter
 /onehalf
 /threequarters
 /questiondown
 /Agrave
 /Aacute
 /Acircumflex
 /Atilde
 /Adieresis
 /Aring
 /AE
 /Ccedilla
 /Egrave
 /Eacute
 /Ecircumflex
 /Edieresis
 /Igrave
 /Iacute
 /Icircumflex
 /Idieresis
 /Eth
 /Ntilde
 /Ograve
 /Oacute
 /Ocircumflex
 /Otilde
 /Odieresis
 /multiply
 /Oslash
 /Ugrave
 /Uacute
 /Ucircumflex
 /Udieresis
 /Yacute
 /Thorn
 /germandbls
 /agrave
 /aacute
 /acircumflex
 /atilde
 /adieresis
 /aring
 /ae
 /ccedilla
 /egrave
 /eacute
 /ecircumflex
 /edieresis
 /igrave
 /iacute
 /icircumflex
 /idieresis
 /eth
 /ntilde
 /ograve
 /oacute
 /ocircumflex
 /otilde
 /odieresis
 /divide
 /oslash
 /ugrave
 /uacute
 /ucircumflex
 /udieresis
 /yacute
 /thorn
 /ydieresis
] def
%%EndProlog
%%BeginSetup
590.88 590.88 scale
%%EndSetup
[/DeviceRGB] SCS
Color1 SC
[] 0 SD
0.0023 SLW
0 SLC
0 SLJ
n
0.1500 0.1612 m
0.1511 0.1612 l
0.1515 0.2035 l
0.1519 0.2237 l
0.1523 0.2309 l
0.1527 0.2315 l
0.1531 0.2319 l
0.1535 0.2318 l
0.1539 0.2322 l
0.1543 0.2325 l
0.1547 0.2331 l
0.1551 0.2329 l
0.1555 0.2329 l
0.1559 0.2329 l
0.1563 0.2337 l
0.1567 0.2345 l
0.1571 0.2352 l
0.1575 0.2351 l
0.1579 0.2351 l
0.1583 0.2355 l
0.1587 0.2364 l
0.1591 0.2370 l
0.1595 0.2377 l
0.1599 0.2401 l
0.1603 0.2420 l
0.1607 0.2437 l
0.1611 0.2455 l
0.1615 0.2471 l
0.1619 0.2494 l
0.1623 0.2536 l
0.1627 0.2535 l
0.1631 0.2554 l
0.1635 0.2575 l
0.1639 0.2595 l
0.1643 0.2605 l
0.1647 0.2605 l
0.1651 0.2605 l
0.1655 0.2623 l
0.1659 0.2648 l
0.1663 0.2692 l
0.1667 0.2730 l
0.1671 0.2756 l
0.1675 0.2762 l
0.1679 0.2787 l
0.1683 0.2845 l
0.1687 0.2882 l
0.1691 0.2882 l
0.1695 0.2892 l
0.1699 0.2922 l
0.1703 0.2982 l
0.1707 0.3005 l
0.1711 0.3034 l
0.1715 0.3051 l
0.1719 0.3075 l
0.1723 0.3074 l
0.1727 0.3088 l
0.1731 0.3105 l
0.1735 0.3107 l
0.1739 0.3133 l
0.1743 0.3166 l
0.1747 0.3189 l
0.1751 0.3196 l
0.1755 0.3206 l
0.1759 0.3239 l
0.1763 0.3265 l
0.1767 0.3272 l
0.1771 0.3298 l
0.1775 0.3310 l
0.1779 0.3317 l
0.1783 0.3358 l
0.1787 0.3372 l
0.1791 0.3380 l
0.1795 0.3391 l
0.1799 0.3395 l
0.1803 0.3408 l
0.1807 0.3418 l
0.1811 0.3428 l
0.1815 0.3459 l
0.1819 0.3472 l
0.1823 0.3475 l
0.1827 0.3502 l
0.1831 0.3534 l
0.1835 0.3543 l
0.1839 0.3555 l
0.1843 0.3566 l
0.1847 0.3582 l
0.1851 0.3601 l
0.1855 0.3604 l
0.1859 0.3615 l
0.1863 0.3615 l
0.1867 0.3633 l
0.1871 0.3658 l
0.1875 0.3662 l
0.1879 0.3676 l
0.1883 0.3682 l
0.1887 0.3692 l
0.1891 0.3725 l
0.1895 0.3758 l
0.1899 0.3782 l
0.1903 0.3813 l
0.1907 0.3810 l
0.1911 0.3810 l
0.1915 0.3810 l
0.1919 0.3823 l
0.1923 0.3826 l
0.1927 0.3844 l
0.1931 0.3887 l
0.1935 0.3913 l
0.1939 0.3927 l
0.1943 0.3936 l
0.1947 0.3938 l
0.1951 0.3947 l
0.1955 0.3957 l
0.1959 0.3963 l
0.1963 0.3972 l
0.1967 0.3975 l
0.1971 0.3981 l
0.1975 0.3981 l
0.1979 0.3987 l
0.1983 0.3991 l
0.1987 0.3999 l
0.1991 0.4021 l
0.1995 0.4029 l
0.1999 0.4048 l
0.2003 0.4073 l
0.2007 0.4086 l
0.2011 0.4089 l
0.2015 0.4088 l
0.2019 0.4115 l
0.2023 0.4130 l
0.2027 0.4149 l
0.2031 0.4150 l
0.2035 0.4160 l
0.2039 0.4159 l
0.2043 0.4163 l
0.2047 0.4168 l
0.2051 0.4181 l
0.2055 0.4198 l
0.2059 0.4203 l
0.2063 0.4203 l
0.2067 0.4211 l
0.2071 0.4209 l
0.2075 0.4237 l
0.2079 0.4249 l
0.2083 0.4260 l
0.2087 0.4278 l
0.2091 0.4289 l
0.2095 0.4292 l
0.2099 0.4305 l
0.2103 0.4327 l
0.2107 0.4329 l
0.2111 0.4335 l
0.2115 0.4345 l
0.2119 0.4349 l
0.2123 0.4359 l
0.2127 0.4360 l
0.2131 0.4360 l
0.2135 0.4360 l
0.2139 0.4371 l
0.2143 0.4385 l
0.2147 0.4396 l
0.2151 0.4409 l
0.2155 0.4407 l
0.2159 0.4407 l
0.2163 0.4409 l
0.2167 0.4416 l
0.2171 0.4433 l
0.2175 0.4433 l
0.2179 0.4437 l
0.2183 0.4452 l
0.2187 0.4459 l
0.2191 0.4477 l
0.2195 0.4504 l
0.2199 0.4536 l
0.2203 0.4555 l
0.2207 0.4571 l
0.2211 0.4576 l
0.2215 0.4580 l
0.2219 0.4581 l
0.2223 0.4581 l
0.2227 0.4584 l
0.2231 0.4583 l
0.2235 0.4583 l
0.2239 0.4594 l
0.2243 0.4595 l
0.2247 0.4594 l
0.2251 0.4612 l
0.2255 0.4615 l
0.2259 0.4615 l
0.2263 0.4615 l
0.2267 0.4621 l
0.2271 0.4628 l
0.2275 0.4637 l
0.2279 0.4661 l
0.2283 0.4676 l
0.2287 0.4682 l
0.2291 0.4695 l
0.2296 0.4694 l
0.2302 0.4700 l
0.2308 0.4718 l
0.2313 0.4740 l
0.2319 0.4745 l
0.2325 0.4757 l
0.2330 0.4771 l
0.2336 0.4776 l
0.2342 0.4794 l
0.2347 0.4810 l
0.2353 0.4820 l
0.2359 0.4828 l
0.2364 0.4843 l
0.2370 0.4855 l
0.2376 0.4866 l
0.2381 0.4863 l
0.2387 0.4870 l
0.2393 0.4888 l
0.2398 0.4884 l
0.2404 0.4889 l
0.2412 0.4895 l
0.2420 0.4899 l
0.2428 0.4916 l
0.2436 0.4913 l
0.2444 0.4913 l
0.2452 0.4913 l
0.2460 0.4913 l
0.2468 0.4913 l
0.2476 0.4913 l
0.2484 0.4923 l
0.2495 0.4933 l
0.2506 0.4933 l
0.2518 0.4938 l
0.2529 0.4937 l
0.2540 0.4937 l
0.2556 0.4937 l
0.2572 0.4937 l
0.2588 0.4942 l
0.2611 0.4941 l
0.2643 0.4941 l
0.2688 0.4941 l
0.2752 0.4941 l
0.2784 0.4941 l
0.2816 0.4941 l
0.2839 0.4941 l
0.2861 0.4941 l
0.2884 0.4941 l
0.2900 0.4941 l
0.2916 0.4941 l
0.2932 0.4941 l
0.2948 0.4941 l
0.2964 0.4941 l
0.2975 0.4940 l
0.2986 0.4940 l
0.2998 0.4940 l
0.3009 0.4940 l
0.3020 0.4940 l
0.3032 0.4940 l
0.3043 0.4940 l
0.3054 0.4939 l
0.3066 0.4938 l
0.3077 0.4938 l
0.3088 0.4937 l
0.3099 0.4937 l
0.3107 0.4937 l
0.3115 0.4936 l
0.3123 0.4936 l
0.3131 0.4935 l
0.3139 0.4935 l
0.3147 0.4935 l
0.3155 0.4935 l
0.3163 0.4933 l
0.3171 0.4932 l
0.3179 0.4932 l
0.3187 0.4930 l
0.3195 0.4929 l
0.3203 0.4928 l
0.3211 0.4927 l
0.3219 0.4926 l
0.3227 0.4925 l
0.3235 0.4925 l
0.3243 0.4924 l
0.3251 0.4924 l
0.3259 0.4922 l
0.3267 0.4922 l
0.3275 0.4919 l
0.3283 0.4918 l
0.3291 0.4917 l
0.3299 0.4916 l
0.3307 0.4913 l
0.3315 0.4912 l
0.3321 0.4909 l
0.3327 0.4908 l
0.3332 0.4907 l
0.3338 0.4907 l
0.3344 0.4906 l
0.3349 0.4904 l
0.3355 0.4901 l
0.3360 0.4898 l
0.3366 0.4894 l
0.3372 0.4893 l
0.3377 0.4891 l
0.3383 0.4889 l
0.3389 0.4889 l
0.3394 0.4885 l
0.3400 0.4884 l
0.3406 0.4883 l
0.3411 0.4881 l
0.3417 0.4880 l
0.3423 0.4878 l
0.3428 0.4877 l
0.3434 0.4874 l
0.3440 0.4871 l
0.3445 0.4869 l
0.3451 0.4867 l
0.3457 0.4866 l
0.3462 0.4863 l
0.3468 0.4857 l
0.3474 0.4854 l
0.3479 0.4851 l
0.3485 0.4843 l
0.3490 0.4838 l
0.3496 0.4835 l
0.3502 0.4831 l
0.3507 0.4827 l
0.3513 0.4821 l
0.3519 0.4818 l
0.3524 0.4810 l
0.3530 0.4803 l
0.3536 0.4797 l
0.3541 0.4791 l
0.3547 0.4786 l
0.3553 0.4779 l
0.3558 0.4774 l
0.3564 0.4767 l
0.3570 0.4758 l
0.3575 0.4750 l
0.3581 0.4742 l
0.3587 0.4732 l
0.3592 0.4726 l
0.3598 0.4718 l
0.3604 0.4712 l
0.3609 0.4706 l
0.3615 0.4693 l
0.3620 0.4679 l
0.3626 0.4667 l
0.3632 0.4650 l
0.3637 0.4634 l
0.3643 0.4622 l
0.3649 0.4606 l
0.3654 0.4588 l
0.3660 0.4571 l
0.3666 0.4557 l
0.3671 0.4544 l
0.3677 0.4532 l
0.3683 0.4514 l
0.3688 0.4495 l
0.3694 0.4477 l
0.3700 0.4460 l
0.3705 0.4443 l
0.3711 0.4427 l
0.3717 0.4409 l
0.3722 0.4390 l
0.3728 0.4368 l
0.3734 0.4348 l
0.3739 0.4320 l
0.3745 0.4292 l
0.3749 0.4269 l
0.3753 0.4250 l
0.3757 0.4233 l
0.3761 0.4213 l
0.3765 0.4196 l
0.3769 0.4176 l
0.3773 0.4149 l
0.3777 0.4122 l
0.3781 0.4095 l
0.3785 0.4075 l
0.3789 0.4054 l
0.3793 0.4034 l
0.3797 0.4006 l
0.3801 0.3978 l
0.3805 0.3952 l
0.3809 0.3924 l
0.3813 0.3891 l
0.3817 0.3861 l
0.3821 0.3829 l
0.3825 0.3795 l
0.3829 0.3762 l
0.3833 0.3725 l
0.3837 0.3681 l
0.3841 0.3639 l
0.3845 0.3593 l
0.3849 0.3556 l
0.3853 0.3513 l
0.3857 0.3469 l
0.3861 0.3425 l
0.3865 0.3381 l
0.3869 0.3337 l
0.3873 0.3296 l
0.3877 0.3265 l
0.3881 0.3224 l
0.3885 0.3186 l
0.3889 0.3148 l
0.3893 0.3120 l
0.3897 0.3078 l
0.3901 0.3041 l
0.3905 0.3000 l
0.3909 0.2964 l
0.3913 0.2923 l
0.3917 0.2890 l
0.3921 0.2857 l
0.3925 0.2822 l
0.3929 0.2785 l
0.3933 0.2747 l
0.3937 0.2710 l
0.3941 0.2676 l
0.3945 0.2639 l
0.3949 0.2596 l
0.3953 0.2551 l
0.3957 0.2503 l
0.3961 0.2458 l
0.3965 0.2415 l
0.3969 0.2379 l
0.3973 0.2343 l
0.3977 0.2311 l
0.3981 0.2280 l
0.3985 0.2249 l
0.3989 0.2220 l
0.3993 0.2194 l
0.3997 0.2163 l
0.4001 0.2130 l
0.4005 0.2096 l
0.4009 0.2059 l
0.4013 0.2017 l
0.4017 0.1979 l
0.4021 0.1942 l
0.4025 0.1909 l
0.4029 0.1881 l
0.4033 0.1855 l
0.4037 0.1832 l
0.4041 0.1805 l
0.4045 0.1776 l
0.4049 0.1751 l
0.4053 0.1728 l
0.4057 0.1707 l
0.4061 0.1687 l
0.4065 0.1666 l
0.4069 0.1644 l
0.4073 0.1623 l
0.4077 0.1607 l
0.4081 0.1592 l
0.4085 0.1571 l
0.4089 0.1555 l
0.4093 0.1538 l
0.4097 0.1525 l
0.4101 0.1513 l
0.4105 0.1509 l
0.4109 0.1515 l
0.4113 0.1517 l
0.4117 0.1518 l
0.4121 0.1518 l
0.4125 0.1523 l
0.4129 0.1523 l
0.4133 0.1533 l
0.4137 0.1546 l
0.4140 0.1557 l
0.4144 0.1562 l
0.4148 0.1565 l
0.4152 0.1569 l
0.4156 0.1567 l
0.4160 0.1568 l
0.4164 0.1592 l
0.4168 0.1603 l
0.4172 0.1606 l
0.4176 0.1611 l
0.4180 0.1620 l
0.4184 0.1634 l
0.4188 0.1645 l
0.4192 0.1652 l
0.4196 0.1671 l
0.4200 0.1680 l
0.4204 0.1682 l
0.4208 0.1703 l
0.4212 0.1720 l
0.4216 0.1727 l
0.4220 0.1732 l
0.4224 0.1739 l
0.4228 0.1741 l
0.4232 0.1745 l
0.4236 0.1754 l
0.4240 0.1764 l
0.4244 0.1783 l
0.4248 0.1789 l
0.4252 0.1808 l
0.4256 0.1817 l
0.4260 0.1842 l
0.4264 0.1869 l
0.4268 0.1886 l
0.4272 0.1895 l
0.4276 0.1907 l
0.4280 0.1910 l
0.4284 0.1921 l
0.4288 0.1933 l
0.4292 0.1936 l
0.4296 0.1938 l
0.4300 0.1943 l
0.4304 0.1943 l
0.4308 0.1943 l
0.4312 0.1949 l
0.4316 0.1962 l
0.4320 0.1984 l
0.4324 0.1990 l
0.4328 0.1986 l
0.4332 0.1989 l
0.4336 0.1993 l
0.4340 0.1998 l
0.4344 0.2006 l
0.4348 0.2012 l
0.4352 0.2030 l
0.4356 0.2029 l
0.4360 0.2029 l
0.4364 0.2033 l
0.4368 0.2052 l
0.4372 0.2057 l
0.4376 0.2075 l
0.4380 0.2087 l
0.4384 0.2102 l
0.4388 0.2104 l
0.4392 0.2104 l
0.4396 0.2108 l
0.4400 0.2119 l
0.4404 0.2133 l
0.4408 0.2129 l
0.4412 0.2133 l
0.4416 0.2145 l
0.4420 0.2162 l
0.4424 0.2177 l
0.4428 0.2192 l
0.4432 0.2196 l
0.4436 0.2195 l
0.4440 0.2199 l
0.4444 0.2208 l
0.4448 0.2237 l
0.4452 0.2267 l
0.4456 0.2299 l
0.4460 0.2324 l
0.4464 0.2327 l
0.4468 0.2344 l
0.4472 0.2348 l
0.4476 0.2354 l
0.4480 0.2363 l
0.4484 0.2390 l
0.4488 0.2400 l
0.4492 0.2404 l
0.4496 0.2416 l
0.4500 0.2432 l
0.4504 0.2443 l
0.4508 0.2467 l
0.4512 0.2471 l
0.4516 0.2482 l
0.4520 0.2519 l
0.4524 0.2543 l
0.4528 0.2591 l
0.4532 0.2616 l
0.4536 0.2643 l
0.4540 0.2689 l
0.4544 0.2733 l
0.4548 0.2772 l
0.4552 0.2792 l
0.4556 0.2826 l
0.4560 0.2871 l
0.4564 0.2900 l
0.4568 0.2915 l
0.4572 0.2918 l
0.4576 0.2917 l
0.4580 0.2922 l
0.4584 0.2941 l
0.4588 0.2945 l
0.4592 0.2956 l
0.4596 0.2961 l
0.4600 0.2964 l
0.4604 0.2982 l
0.4608 0.3002 l
0.4612 0.3015 l
0.4616 0.3024 l
0.4620 0.3038 l
0.4624 0.3049 l
0.4628 0.3069 l
0.4632 0.3084 l
0.4636 0.3108 l
0.4640 0.3168 l
0.4644 0.3224 l
0.4648 0.3240 l
0.4652 0.3270 l
0.4656 0.3288 l
0.4660 0.3296 l
0.4664 0.3319 l
0.4668 0.3341 l
0.4672 0.3357 l
0.4676 0.3399 l
0.4680 0.3417 l
0.4684 0.3438 l
0.4688 0.3468 l
0.4692 0.3486 l
0.4696 0.3494 l
0.4700 0.3513 l
0.4704 0.3510 l
0.4708 0.3516 l
0.4712 0.3527 l
0.4716 0.3527 l
0.4720 0.3527 l
0.4724 0.3556 l
0.4728 0.3567 l
0.4732 0.3570 l
0.4736 0.3575 l
0.4740 0.3592 l
0.4744 0.3608 l
0.4748 0.3618 l
0.4752 0.3623 l
0.4756 0.3624 l
0.4760 0.3633 l
0.4764 0.3655 l
0.4768 0.3673 l
0.4772 0.3680 l
0.4776 0.3685 l
0.4780 0.3703 l
0.4784 0.3714 l
0.4788 0.3725 l
0.4792 0.3746 l
0.4796 0.3760 l
0.4800 0.3782 l
0.4804 0.3808 l
0.4808 0.3821 l
0.4812 0.3871 l
0.4816 0.3887 l
0.4820 0.3895 l
0.4824 0.3905 l
0.4828 0.3917 l
0.4832 0.3935 l
0.4836 0.3944 l
0.4840 0.3949 l
0.4844 0.3954 l
0.4848 0.3964 l
0.4852 0.3969 l
0.4856 0.3978 l
0.4860 0.3990 l
0.4864 0.4001 l
0.4868 0.4000 l
0.4872 0.4003 l
0.4876 0.4007 l
0.4880 0.4014 l
0.4884 0.4014 l
0.4888 0.4014 l
0.4892 0.4014 l
0.4896 0.4019 l
0.4900 0.4027 l
0.4904 0.4051 l
0.4908 0.4073 l
0.4912 0.4072 l
0.4916 0.4080 l
0.4920 0.4085 l
0.4924 0.4085 l
0.4928 0.4090 l
0.4932 0.4097 l
0.4936 0.4101 l
0.4940 0.4120 l
0.4944 0.4119 l
0.4948 0.4133 l
0.4952 0.4157 l
0.4956 0.4177 l
0.4960 0.4209 l
0.4964 0.4229 l
0.4968 0.4232 l
0.4972 0.4246 l
0.4976 0.4256 l
0.4980 0.4264 l
0.4984 0.4273 l
0.4988 0.4302 l
0.4992 0.4314 l
0.4996 0.4334 l
0.5000 0.4336 l
0.5004 0.4344 l
0.5008 0.4351 l
0.5012 0.4356 l
0.5016 0.4355 l
0.5020 0.4357 l
0.5024 0.4364 l
0.5028 0.4377 l
0.5032 0.4381 l
0.5036 0.4389 l
0.5040 0.4387 l
0.5044 0.4387 l
0.5048 0.4387 l
0.5052 0.4395 l
0.5056 0.4398 l
0.5060 0.4403 l
0.5064 0.4403 l
0.5068 0.4409 l
0.5072 0.4412 l
0.5076 0.4417 l
0.5080 0.4424 l
0.5084 0.4432 l
0.5088 0.4450 l
0.5092 0.4460 l
0.5096 0.4471 l
0.5100 0.4503 l
0.5104 0.4527 l
0.5108 0.4540 l
0.5112 0.4555 l
0.5116 0.4556 l
0.5120 0.4556 l
0.5124 0.4566 l
0.5128 0.4568 l
0.5132 0.4570 l
0.5136 0.4577 l
0.5140 0.4588 l
0.5144 0.4585 l
0.5148 0.4590 l
0.5152 0.4587 l
0.5156 0.4588 l
0.5160 0.4586 l
0.5164 0.4588 l
0.5168 0.4590 l
0.5172 0.4590 l
0.5176 0.4590 l
0.5180 0.4605 l
0.5184 0.4616 l
0.5189 0.4632 l
0.5195 0.4632 l
0.5201 0.4644 l
0.5206 0.4651 l
0.5212 0.4674 l
0.5218 0.4705 l
0.5223 0.4728 l
0.5229 0.4749 l
0.5235 0.4748 l
0.5240 0.4748 l
0.5246 0.4748 l
0.5251 0.4748 l
0.5257 0.4761 l
0.5263 0.4777 l
0.5268 0.4810 l
0.5274 0.4824 l
0.5280 0.4838 l
0.5285 0.4833 l
0.5291 0.4835 l
0.5297 0.4833 l
0.5305 0.4844 l
0.5313 0.4848 l
0.5321 0.4849 l
0.5329 0.4851 l
0.5337 0.4853 l
0.5345 0.4851 l
0.5353 0.4853 l
0.5361 0.4859 l
0.5369 0.4866 l
0.5377 0.4864 l
0.5388 0.4871 l
0.5399 0.4871 l
0.5411 0.4875 l
0.5422 0.4878 l
0.5433 0.4877 l
0.5449 0.4885 l
0.5465 0.4898 l
0.5481 0.4897 l
0.5504 0.4907 l
0.5536 0.4906 l
0.5581 0.4906 l
0.5645 0.4906 l
0.5677 0.4906 l
0.5709 0.4906 l
0.5731 0.4906 l
0.5754 0.4905 l
0.5777 0.4905 l
0.5793 0.4905 l
0.5809 0.4905 l
0.5825 0.4905 l
0.5841 0.4905 l
0.5857 0.4904 l
0.5868 0.4904 l
0.5879 0.4904 l
0.5890 0.4904 l
0.5902 0.4904 l
0.5913 0.4904 l
0.5924 0.4903 l
0.5936 0.4903 l
0.5947 0.4902 l
0.5958 0.4902 l
0.5970 0.4902 l
0.5981 0.4902 l
0.5992 0.4901 l
0.6000 0.4901 l
0.6008 0.4900 l
0.6016 0.4900 l
0.6024 0.4900 l
0.6032 0.4900 l
0.6040 0.4899 l
0.6048 0.4899 l
0.6056 0.4897 l
0.6064 0.4896 l
0.6072 0.4894 l
0.6080 0.4894 l
0.6088 0.4893 l
0.6096 0.4892 l
0.6104 0.4891 l
0.6112 0.4889 l
0.6120 0.4889 l
0.6128 0.4888 l
0.6136 0.4886 l
0.6144 0.4883 l
0.6152 0.4883 l
0.6160 0.4882 l
0.6168 0.4881 l
0.6176 0.4879 l
0.6184 0.4878 l
0.6192 0.4877 l
0.6200 0.4875 l
0.6208 0.4873 l
0.6214 0.4873 l
0.6219 0.4871 l
0.6225 0.4870 l
0.6231 0.4869 l
0.6236 0.4868 l
0.6242 0.4866 l
0.6248 0.4863 l
0.6253 0.4861 l
0.6259 0.4858 l
0.6264 0.4855 l
0.6270 0.4853 l
0.6276 0.4850 l
0.6281 0.4848 l
0.6287 0.4847 l
0.6293 0.4846 l
0.6298 0.4842 l
0.6304 0.4839 l
0.6310 0.4838 l
0.6315 0.4836 l
0.6321 0.4835 l
0.6327 0.4830 l
0.6332 0.4827 l
0.6338 0.4824 l
0.6344 0.4820 l
0.6349 0.4817 l
0.6355 0.4815 l
0.6361 0.4812 l
0.6366 0.4809 l
0.6372 0.4807 l
0.6377 0.4805 l
0.6383 0.4799 l
0.6389 0.4793 l
0.6394 0.4789 l
0.6400 0.4787 l
0.6406 0.4781 l
0.6411 0.4774 l
0.6417 0.4771 l
0.6423 0.4766 l
0.6428 0.4762 l
0.6434 0.4755 l
0.6440 0.4750 l
0.6445 0.4745 l
0.6451 0.4739 l
0.6457 0.4733 l
0.6462 0.4730 l
0.6468 0.4726 l
0.6474 0.4716 l
0.6479 0.4710 l
0.6485 0.4700 l
0.6491 0.4694 l
0.6496 0.4686 l
0.6502 0.4678 l
0.6507 0.4669 l
0.6513 0.4660 l
0.6519 0.4644 l
0.6524 0.4632 l
0.6530 0.4621 l
0.6536 0.4607 l
0.6541 0.4589 l
0.6547 0.4572 l
0.6553 0.4555 l
0.6558 0.4537 l
0.6564 0.4522 l
0.6570 0.4508 l
0.6575 0.4488 l
0.6581 0.4471 l
0.6587 0.4458 l
0.6592 0.4445 l
0.6598 0.4431 l
0.6604 0.4415 l
0.6609 0.4394 l
0.6615 0.4373 l
0.6620 0.4348 l
0.6626 0.4324 l
0.6632 0.4302 l
0.6637 0.4274 l
0.6641 0.4258 l
0.6645 0.4238 l
0.6649 0.4221 l
0.6653 0.4205 l
0.6657 0.4188 l
0.6661 0.4171 l
0.6665 0.4152 l
0.6669 0.4133 l
0.6673 0.4114 l
0.6677 0.4091 l
0.6681 0.4062 l
0.6685 0.4031 l
0.6689 0.4010 l
0.6693 0.3983 l
0.6697 0.3957 l
0.6701 0.3933 l
0.6705 0.3907 l
0.6709 0.3881 l
0.6713 0.3848 l
0.6717 0.3818 l
0.6721 0.3786 l
0.6725 0.3754 l
0.6729 0.3703 l
0.6733 0.3666 l
0.6737 0.3627 l
0.6741 0.3586 l
0.6745 0.3547 l
0.6749 0.3501 l
0.6753 0.3452 l
0.6757 0.3405 l
0.6761 0.3368 l
0.6765 0.3330 l
0.6769 0.3291 l
0.6773 0.3251 l
0.6777 0.3207 l
0.6781 0.3174 l
0.6785 0.3138 l
0.6789 0.3103 l
0.6793 0.3059 l
0.6797 0.3021 l
0.6801 0.2979 l
0.6805 0.2942 l
0.6809 0.2900 l
0.6813 0.2861 l
0.6817 0.2828 l
0.6821 0.2799 l
0.6825 0.2763 l
0.6829 0.2725 l
0.6833 0.2690 l
0.6837 0.2652 l
0.6841 0.2606 l
0.6845 0.2570 l
0.6849 0.2529 l
0.6853 0.2487 l
0.6857 0.2438 l
0.6861 0.2397 l
0.6865 0.2360 l
0.6869 0.2330 l
0.6873 0.2302 l
0.6877 0.2266 l
0.6881 0.2238 l
0.6885 0.2212 l
0.6889 0.2186 l
0.6893 0.2151 l
0.6897 0.2116 l
0.6901 0.2078 l
0.6905 0.2037 l
0.6909 0.2001 l
0.6913 0.1969 l
0.6917 0.1937 l
0.6921 0.1904 l
0.6925 0.1879 l
0.6929 0.1859 l
0.6933 0.1832 l
0.6937 0.1797 l
0.6941 0.1771 l
0.6945 0.1742 l
0.6949 0.1719 l
0.6953 0.1699 l
0.6957 0.1680 l
0.6961 0.1654 l
0.6965 0.1635 l
0.6969 0.1618 l
0.6973 0.1600 l
0.6977 0.1582 l
0.6981 0.1562 l
0.6985 0.1545 l
0.6989 0.1530 l
0.6993 0.1518 l
0.6997 0.1510 l
0.7001 0.1509 l
s
[0.0113 0.0068 ] 0 SD
0.0023 SLW
n
0.1500 0.1585 m
0.1506 0.1585 l
0.1510 0.1941 l
0.1514 0.2205 l
0.1518 0.2247 l
0.1522 0.2292 l
0.1526 0.2274 l
0.1530 0.2274 l
0.1534 0.2274 l
0.1538 0.2274 l
0.1542 0.2290 l
0.1546 0.2286 l
0.1550 0.2286 l
0.1554 0.2286 l
0.1558 0.2286 l
0.1562 0.2286 l
0.1566 0.2286 l
0.1570 0.2326 l
0.1574 0.2324 l
0.1578 0.2324 l
0.1582 0.2324 l
0.1586 0.2324 l
0.1590 0.2324 l
0.1594 0.2324 l
0.1598 0.2324 l
0.1602 0.2324 l
0.1606 0.2324 l
0.1610 0.2324 l
0.1614 0.2324 l
0.1618 0.2324 l
0.1622 0.2324 l
0.1626 0.2324 l
0.1630 0.2324 l
0.1634 0.2324 l
0.1638 0.2324 l
0.1642 0.2324 l
0.1646 0.2324 l
0.1650 0.2324 l
0.1654 0.2324 l
0.1658 0.2324 l
0.1662 0.2324 l
0.1666 0.2324 l
0.1670 0.2324 l
0.1674 0.2324 l
0.1678 0.2324 l
0.1682 0.2324 l
0.1686 0.2324 l
0.1690 0.2324 l
0.1694 0.2324 l
0.1698 0.2324 l
0.1702 0.2324 l
0.1706 0.2324 l
0.1710 0.2324 l
0.1714 0.2363 l
0.1718 0.2420 l
0.1722 0.2426 l
0.1726 0.2449 l
0.1730 0.2481 l
0.1734 0.2550 l
0.1738 0.2522 l
0.1742 0.2522 l
0.1745 0.2522 l
0.1749 0.2522 l
0.1753 0.2522 l
0.1757 0.2522 l
0.1761 0.2545 l
0.1765 0.2589 l
0.1769 0.2601 l
0.1773 0.2599 l
0.1777 0.2599 l
0.1781 0.2624 l
0.1785 0.2609 l
0.1789 0.2624 l
0.1793 0.2609 l
0.1797 0.2624 l
0.1801 0.2609 l
0.1805 0.2624 l
0.1809 0.2609 l
0.1813 0.2624 l
0.1817 0.2609 l
0.1821 0.2624 l
0.1825 0.2614 l
0.1829 0.2611 l
0.1833 0.2611 l
0.1837 0.2611 l
0.1841 0.2611 l
0.1845 0.2611 l
0.1849 0.2611 l
0.1853 0.2611 l
0.1857 0.2611 l
0.1861 0.2611 l
0.1865 0.2611 l
0.1869 0.2611 l
0.1873 0.2611 l
0.1877 0.2611 l
0.1881 0.2611 l
0.1885 0.2611 l
0.1889 0.2611 l
0.1893 0.2611 l
0.1897 0.2660 l
0.1901 0.2652 l
0.1905 0.2652 l
0.1909 0.2652 l
0.1913 0.2652 l
0.1917 0.2652 l
0.1921 0.2652 l
0.1925 0.2652 l
0.1929 0.2652 l
0.1933 0.2652 l
0.1937 0.2652 l
0.1941 0.2652 l
0.1945 0.2652 l
0.1949 0.2652 l
0.1953 0.2652 l
0.1957 0.2735 l
0.1961 0.2732 l
0.1965 0.2732 l
0.1969 0.2732 l
0.1973 0.2732 l
0.1977 0.2732 l
0.1981 0.2732 l
0.1985 0.2732 l
0.1989 0.2732 l
0.1993 0.2732 l
0.1997 0.2732 l
0.2001 0.2791 l
0.2005 0.2779 l
0.2009 0.2779 l
0.2013 0.2779 l
0.2017 0.2779 l
0.2021 0.2779 l
0.2025 0.2779 l
0.2029 0.2779 l
0.2033 0.2779 l
0.2037 0.2779 l
0.2041 0.2779 l
0.2045 0.2779 l
0.2049 0.2779 l
0.2053 0.2779 l
0.2057 0.2779 l
0.2061 0.2779 l
0.2065 0.2779 l
0.2069 0.2779 l
0.2073 0.2779 l
0.2077 0.2779 l
0.2081 0.2826 l
0.2085 0.2826 l
0.2089 0.2826 l
0.2093 0.2826 l
0.2097 0.2826 l
0.2101 0.2826 l
0.2105 0.2826 l
0.2109 0.2826 l
0.2113 0.2826 l
0.2117 0.2826 l
0.2121 0.2826 l
0.2125 0.2826 l
0.2129 0.2826 l
0.2133 0.2861 l
0.2137 0.2853 l
0.2141 0.2853 l
0.2145 0.2853 l
0.2149 0.2926 l
0.2153 0.2979 l
0.2157 0.2978 l
0.2161 0.2978 l
0.2165 0.2978 l
0.2169 0.3020 l
0.2173 0.3018 l
0.2177 0.3018 l
0.2181 0.3018 l
0.2185 0.3018 l
0.2189 0.3018 l
0.2193 0.3018 l
0.2197 0.3018 l
0.2201 0.3018 l
0.2205 0.3018 l
0.2209 0.3018 l
0.2213 0.3018 l
0.2217 0.3018 l
0.2221 0.3018 l
0.2225 0.3018 l
0.2229 0.3018 l
0.2233 0.3018 l
0.2237 0.3018 l
0.2241 0.3018 l
0.2245 0.3018 l
0.2249 0.3018 l
0.2253 0.3018 l
0.2257 0.3018 l
0.2261 0.3018 l
0.2265 0.3018 l
0.2269 0.3018 l
0.2273 0.3018 l
0.2277 0.3018 l
0.2281 0.3018 l
0.2285 0.3018 l
0.2289 0.3018 l
0.2295 0.3018 l
0.2300 0.3018 l
0.2306 0.3018 l
0.2312 0.3018 l
0.2317 0.3018 l
0.2323 0.3018 l
0.2329 0.3018 l
0.2334 0.3018 l
0.2340 0.3018 l
0.2346 0.3018 l
0.2351 0.3018 l
0.2357 0.3018 l
0.2363 0.3018 l
0.2368 0.3018 l
0.2374 0.3018 l
0.2380 0.3018 l
0.2385 0.3018 l
0.2391 0.3018 l
0.2397 0.3018 l
0.2402 0.3018 l
0.2410 0.3018 l
0.2418 0.3018 l
0.2426 0.3018 l
0.2434 0.3018 l
0.2442 0.3059 l
0.2450 0.3047 l
0.2458 0.3047 l
0.2466 0.3047 l
0.2474 0.3047 l
0.2482 0.3047 l
0.2493 0.3047 l
0.2505 0.3047 l
0.2516 0.3047 l
0.2527 0.3047 l
0.2539 0.3047 l
0.2555 0.3047 l
0.2571 0.3047 l
0.2587 0.3103 l
0.2609 0.3095 l
0.2641 0.3095 l
0.2686 0.3095 l
0.2750 0.3095 l
0.2782 0.3095 l
0.2814 0.3095 l
0.2837 0.3095 l
0.2860 0.3095 l
0.2882 0.3095 l
0.2898 0.3095 l
0.2914 0.3095 l
0.2930 0.3095 l
0.2946 0.3095 l
0.2962 0.3095 l
0.2973 0.3095 l
0.2985 0.3095 l
0.2996 0.3095 l
0.3007 0.3095 l
0.3019 0.3095 l
0.3030 0.3095 l
0.3041 0.3095 l
0.3053 0.3095 l
0.3064 0.3095 l
0.3075 0.3095 l
0.3086 0.3095 l
0.3098 0.3095 l
0.3106 0.3095 l
0.3114 0.3095 l
0.3122 0.3095 l
0.3130 0.3095 l
0.3138 0.3095 l
0.3146 0.3095 l
0.3154 0.3095 l
0.3162 0.3095 l
0.3170 0.3095 l
0.3178 0.3091 l
0.3186 0.3091 l
0.3194 0.3091 l
0.3202 0.3091 l
0.3210 0.3091 l
0.3218 0.3091 l
0.3226 0.3091 l
0.3234 0.3091 l
0.3242 0.3091 l
0.3250 0.3091 l
0.3258 0.3091 l
0.3266 0.3091 l
0.3274 0.3091 l
0.3282 0.3091 l
0.3290 0.3091 l
0.3298 0.3091 l
0.3306 0.3080 l
0.3314 0.3080 l
0.3319 0.3080 l
0.3325 0.3075 l
0.3331 0.3075 l
0.3336 0.3075 l
0.3342 0.3075 l
0.3348 0.3075 l
0.3353 0.3075 l
0.3359 0.3075 l
0.3365 0.3075 l
0.3370 0.3075 l
0.3376 0.3075 l
0.3381 0.3075 l
0.3387 0.3075 l
0.3393 0.3069 l
0.3398 0.3069 l
0.3404 0.3064 l
0.3410 0.3064 l
0.3415 0.3064 l
0.3421 0.3059 l
0.3427 0.3059 l
0.3432 0.3059 l
0.3438 0.3059 l
0.3444 0.3056 l
0.3449 0.3056 l
0.3455 0.3054 l
0.3461 0.3054 l
0.3466 0.3054 l
0.3472 0.3054 l
0.3478 0.3054 l
0.3483 0.3054 l
0.3489 0.3048 l
0.3495 0.3048 l
0.3500 0.3043 l
0.3506 0.3036 l
0.3511 0.3036 l
0.3517 0.3034 l
0.3523 0.3034 l
0.3528 0.3028 l
0.3534 0.3018 l
0.3540 0.3015 l
0.3545 0.3011 l
0.3551 0.3011 l
0.3557 0.3011 l
0.3562 0.3011 l
0.3568 0.3002 l
0.3574 0.3002 l
0.3579 0.3002 l
0.3585 0.3002 l
0.3591 0.3002 l
0.3596 0.3002 l
0.3602 0.2998 l
0.3608 0.2998 l
0.3613 0.2998 l
0.3619 0.2998 l
0.3625 0.2992 l
0.3630 0.2990 l
0.3636 0.2990 l
0.3641 0.2990 l
0.3647 0.2990 l
0.3653 0.2984 l
0.3658 0.2984 l
0.3664 0.2984 l
0.3670 0.2979 l
0.3675 0.2979 l
0.3681 0.2979 l
0.3687 0.2976 l
0.3692 0.2973 l
0.3698 0.2970 l
0.3704 0.2970 l
0.3709 0.2966 l
0.3715 0.2959 l
0.3721 0.2954 l
0.3726 0.2940 l
0.3732 0.2928 l
0.3738 0.2913 l
0.3743 0.2910 l
0.3747 0.2900 l
0.3751 0.2900 l
0.3755 0.2900 l
0.3759 0.2894 l
0.3763 0.2891 l
0.3767 0.2884 l
0.3771 0.2884 l
0.3775 0.2875 l
0.3779 0.2860 l
0.3783 0.2848 l
0.3787 0.2846 l
0.3791 0.2832 l
0.3795 0.2816 l
0.3799 0.2810 l
0.3803 0.2807 l
0.3807 0.2792 l
0.3811 0.2781 l
0.3815 0.2772 l
0.3819 0.2772 l
0.3823 0.2763 l
0.3827 0.2759 l
0.3831 0.2754 l
0.3835 0.2742 l
0.3839 0.2739 l
0.3843 0.2731 l
0.3847 0.2728 l
0.3851 0.2725 l
0.3855 0.2711 l
0.3859 0.2693 l
0.3863 0.2687 l
0.3867 0.2684 l
0.3871 0.2656 l
0.3875 0.2653 l
0.3879 0.2644 l
0.3883 0.2642 l
0.3887 0.2631 l
0.3891 0.2623 l
0.3895 0.2609 l
0.3899 0.2590 l
0.3903 0.2569 l
0.3907 0.2537 l
0.3911 0.2525 l
0.3915 0.2519 l
0.3919 0.2514 l
0.3923 0.2502 l
0.3927 0.2502 l
0.3931 0.2491 l
0.3935 0.2472 l
0.3939 0.2457 l
0.3943 0.2429 l
0.3947 0.2410 l
0.3951 0.2398 l
0.3955 0.2383 l
0.3959 0.2372 l
0.3963 0.2365 l
0.3967 0.2351 l
0.3971 0.2329 l
0.3975 0.2323 l
0.3979 0.2315 l
0.3983 0.2263 l
0.3987 0.2245 l
0.3991 0.2230 l
0.3995 0.2208 l
0.3999 0.2183 l
0.4003 0.2141 l
0.4007 0.2118 l
0.4011 0.2104 l
0.4015 0.2078 l
0.4019 0.2052 l
0.4023 0.2034 l
0.4027 0.2020 l
0.4031 0.2000 l
0.4035 0.1994 l
0.4039 0.1954 l
0.4043 0.1914 l
0.4047 0.1879 l
0.4051 0.1861 l
0.4055 0.1856 l
0.4059 0.1808 l
0.4063 0.1781 l
0.4067 0.1760 l
0.4071 0.1728 l
0.4075 0.1699 l
0.4079 0.1688 l
0.4083 0.1663 l
0.4087 0.1642 l
0.4091 0.1604 l
0.4095 0.1571 l
0.4099 0.1555 l
0.4103 0.1536 l
0.4107 0.1536 l
0.4111 0.1553 l
0.4115 0.1553 l
0.4119 0.1553 l
0.4123 0.1570 l
0.4127 0.1559 l
0.4131 0.1559 l
0.4135 0.1559 l
0.4139 0.1601 l
0.4143 0.1633 l
0.4147 0.1631 l
0.4151 0.1631 l
0.4155 0.1631 l
0.4159 0.1631 l
0.4163 0.1631 l
0.4167 0.1647 l
0.4171 0.1668 l
0.4175 0.1667 l
0.4179 0.1667 l
0.4183 0.1667 l
0.4187 0.1667 l
0.4191 0.1699 l
0.4195 0.1697 l
0.4199 0.1697 l
0.4203 0.1697 l
0.4207 0.1697 l
0.4211 0.1697 l
0.4215 0.1697 l
0.4219 0.1697 l
0.4223 0.1697 l
0.4227 0.1697 l
0.4231 0.1734 l
0.4235 0.1809 l
0.4239 0.1909 l
0.4243 0.1907 l
0.4247 0.1907 l
0.4251 0.1907 l
0.4255 0.1907 l
0.4259 0.1907 l
0.4263 0.1907 l
0.4267 0.1907 l
0.4271 0.1907 l
0.4275 0.1907 l
0.4279 0.1907 l
0.4283 0.1907 l
0.4287 0.1907 l
0.4291 0.1955 l
0.4295 0.1962 l
0.4299 0.1959 l
0.4303 0.1959 l
0.4307 0.1984 l
0.4311 0.2027 l
0.4315 0.2016 l
0.4319 0.2016 l
0.4323 0.2016 l
0.4327 0.2016 l
0.4331 0.2016 l
0.4335 0.2016 l
0.4339 0.2016 l
0.4343 0.2016 l
0.4347 0.2016 l
0.4351 0.2032 l
0.4355 0.2025 l
0.4359 0.2025 l
0.4363 0.2025 l
0.4367 0.2025 l
0.4371 0.2025 l
0.4375 0.2025 l
0.4379 0.2063 l
0.4383 0.2085 l
0.4387 0.2085 l
0.4391 0.2085 l
0.4395 0.2085 l
0.4399 0.2085 l
0.4403 0.2107 l
0.4407 0.2107 l
0.4411 0.2107 l
0.4415 0.2107 l
0.4419 0.2107 l
0.4423 0.2107 l
0.4427 0.2107 l
0.4431 0.2107 l
0.4435 0.2190 l
0.4439 0.2263 l
0.4443 0.2273 l
0.4447 0.2269 l
0.4451 0.2269 l
0.4455 0.2289 l
0.4459 0.2287 l
0.4463 0.2287 l
0.4467 0.2287 l
0.4471 0.2287 l
0.4475 0.2287 l
0.4479 0.2287 l
0.4483 0.2310 l
0.4487 0.2308 l
0.4491 0.2308 l
0.4495 0.2308 l
0.4499 0.2308 l
0.4503 0.2308 l
0.4507 0.2308 l
0.4511 0.2308 l
0.4515 0.2308 l
0.4519 0.2308 l
0.4523 0.2308 l
0.4527 0.2308 l
0.4531 0.2308 l
0.4535 0.2308 l
0.4539 0.2308 l
0.4543 0.2308 l
0.4547 0.2308 l
0.4551 0.2308 l
0.4555 0.2308 l
0.4559 0.2308 l
0.4563 0.2308 l
0.4567 0.2308 l
0.4571 0.2308 l
0.4575 0.2308 l
0.4579 0.2308 l
0.4583 0.2308 l
0.4587 0.2308 l
0.4591 0.2308 l
0.4595 0.2308 l
0.4599 0.2308 l
0.4603 0.2308 l
0.4607 0.2352 l
0.4611 0.2383 l
0.4615 0.2404 l
0.4619 0.2395 l
0.4623 0.2395 l
0.4627 0.2395 l
0.4630 0.2395 l
0.4634 0.2395 l
0.4638 0.2395 l
0.4642 0.2395 l
0.4646 0.2395 l
0.4650 0.2395 l
0.4654 0.2427 l
0.4658 0.2538 l
0.4662 0.2544 l
0.4666 0.2541 l
0.4670 0.2541 l
0.4674 0.2541 l
0.4678 0.2541 l
0.4682 0.2541 l
0.4686 0.2541 l
0.4690 0.2569 l
0.4694 0.2555 l
0.4698 0.2569 l
0.4702 0.2555 l
0.4706 0.2569 l
0.4710 0.2555 l
0.4714 0.2569 l
0.4718 0.2555 l
0.4722 0.2569 l
0.4726 0.2555 l
0.4730 0.2569 l
0.4734 0.2555 l
0.4738 0.2569 l
0.4742 0.2560 l
0.4746 0.2560 l
0.4750 0.2560 l
0.4754 0.2560 l
0.4758 0.2560 l
0.4762 0.2560 l
0.4766 0.2560 l
0.4770 0.2560 l
0.4774 0.2560 l
0.4778 0.2560 l
0.4782 0.2560 l
0.4786 0.2560 l
0.4790 0.2560 l
0.4794 0.2560 l
0.4798 0.2560 l
0.4802 0.2560 l
0.4806 0.2560 l
0.4810 0.2560 l
0.4814 0.2560 l
0.4818 0.2608 l
0.4822 0.2600 l
0.4826 0.2600 l
0.4830 0.2600 l
0.4834 0.2600 l
0.4838 0.2600 l
0.4842 0.2600 l
0.4846 0.2600 l
0.4850 0.2600 l
0.4854 0.2600 l
0.4858 0.2600 l
0.4862 0.2600 l
0.4866 0.2600 l
0.4870 0.2600 l
0.4874 0.2600 l
0.4878 0.2639 l
0.4882 0.2669 l
0.4886 0.2666 l
0.4890 0.2666 l
0.4894 0.2666 l
0.4898 0.2666 l
0.4902 0.2666 l
0.4906 0.2666 l
0.4910 0.2666 l
0.4914 0.2666 l
0.4918 0.2725 l
0.4922 0.2738 l
0.4926 0.2736 l
0.4930 0.2736 l
0.4934 0.2736 l
0.4938 0.2736 l
0.4942 0.2736 l
0.4946 0.2736 l
0.4950 0.2736 l
0.4954 0.2736 l
0.4958 0.2804 l
0.4962 0.2789 l
0.4966 0.2789 l
0.4970 0.2789 l
0.4974 0.2789 l
0.4978 0.2789 l
0.4982 0.2789 l
0.4986 0.2789 l
0.4990 0.2809 l
0.4994 0.2806 l
0.4998 0.2806 l
0.5002 0.2806 l
0.5006 0.2806 l
0.5010 0.2806 l
0.5014 0.2806 l
0.5018 0.2806 l
0.5022 0.2806 l
0.5026 0.2806 l
0.5030 0.2806 l
0.5034 0.2806 l
0.5038 0.2806 l
0.5042 0.2842 l
0.5046 0.2834 l
0.5050 0.2834 l
0.5054 0.2834 l
0.5058 0.2834 l
0.5062 0.2834 l
0.5066 0.2834 l
0.5070 0.2834 l
0.5074 0.2834 l
0.5078 0.2834 l
0.5082 0.2834 l
0.5086 0.2834 l
0.5090 0.2834 l
0.5094 0.2834 l
0.5098 0.2834 l
0.5102 0.2834 l
0.5106 0.2834 l
0.5110 0.2834 l
0.5114 0.2834 l
0.5118 0.2834 l
0.5122 0.2834 l
0.5126 0.2834 l
0.5130 0.2834 l
0.5134 0.2881 l
0.5138 0.2979 l
0.5142 0.3035 l
0.5146 0.3067 l
0.5150 0.3053 l
0.5154 0.3053 l
0.5158 0.3053 l
0.5162 0.3053 l
0.5166 0.3053 l
0.5170 0.3053 l
0.5174 0.3053 l
0.5178 0.3053 l
0.5182 0.3053 l
0.5186 0.3053 l
0.5192 0.3053 l
0.5197 0.3053 l
0.5203 0.3053 l
0.5209 0.3053 l
0.5214 0.3053 l
0.5220 0.3053 l
0.5226 0.3053 l
0.5231 0.3053 l
0.5237 0.3053 l
0.5243 0.3053 l
0.5248 0.3053 l
0.5254 0.3053 l
0.5260 0.3053 l
0.5265 0.3053 l
0.5271 0.3053 l
0.5276 0.3053 l
0.5282 0.3125 l
0.5288 0.3125 l
0.5293 0.3125 l
0.5299 0.3125 l
0.5307 0.3125 l
0.5315 0.3125 l
0.5323 0.3153 l
0.5331 0.3153 l
0.5339 0.3153 l
0.5347 0.3153 l
0.5355 0.3153 l
0.5363 0.3153 l
0.5371 0.3153 l
0.5379 0.3153 l
0.5390 0.3207 l
0.5402 0.3218 l
0.5413 0.3233 l
0.5424 0.3224 l
0.5436 0.3224 l
0.5452 0.3224 l
0.5468 0.3224 l
0.5484 0.3303 l
0.5506 0.3298 l
0.5538 0.3295 l
0.5583 0.3295 l
0.5647 0.3295 l
0.5679 0.3295 l
0.5711 0.3295 l
0.5734 0.3295 l
0.5756 0.3295 l
0.5779 0.3295 l
0.5795 0.3295 l
0.5811 0.3295 l
0.5827 0.3295 l
0.5843 0.3295 l
0.5859 0.3295 l
0.5870 0.3295 l
0.5882 0.3295 l
0.5893 0.3290 l
0.5904 0.3290 l
0.5915 0.3290 l
0.5927 0.3290 l
0.5938 0.3290 l
0.5949 0.3290 l
0.5961 0.3290 l
0.5972 0.3290 l
0.5983 0.3290 l
0.5995 0.3290 l
0.6003 0.3290 l
0.6011 0.3290 l
0.6019 0.3290 l
0.6027 0.3290 l
0.6035 0.3290 l
0.6043 0.3290 l
0.6051 0.3290 l
0.6059 0.3290 l
0.6067 0.3285 l
0.6075 0.3285 l
0.6082 0.3285 l
0.6090 0.3285 l
0.6098 0.3285 l
0.6106 0.3285 l
0.6114 0.3281 l
0.6122 0.3281 l
0.6130 0.3281 l
0.6138 0.3281 l
0.6146 0.3281 l
0.6154 0.3281 l
0.6162 0.3276 l
0.6170 0.3273 l
0.6178 0.3273 l
0.6186 0.3273 l
0.6194 0.3273 l
0.6202 0.3268 l
0.6210 0.3263 l
0.6216 0.3258 l
0.6222 0.3258 l
0.6227 0.3257 l
0.6233 0.3257 l
0.6239 0.3257 l
0.6244 0.3257 l
0.6250 0.3251 l
0.6256 0.3249 l
0.6261 0.3249 l
0.6267 0.3249 l
0.6273 0.3249 l
0.6278 0.3249 l
0.6284 0.3249 l
0.6290 0.3249 l
0.6295 0.3249 l
0.6301 0.3249 l
0.6306 0.3249 l
0.6312 0.3246 l
0.6318 0.3244 l
0.6323 0.3244 l
0.6329 0.3238 l
0.6335 0.3238 l
0.6340 0.3233 l
0.6346 0.3233 l
0.6352 0.3232 l
0.6357 0.3232 l
0.6363 0.3232 l
0.6369 0.3232 l
0.6374 0.3232 l
0.6380 0.3232 l
0.6386 0.3230 l
0.6391 0.3230 l
0.6397 0.3230 l
0.6403 0.3230 l
0.6408 0.3230 l
0.6414 0.3230 l
0.6419 0.3230 l
0.6425 0.3222 l
0.6431 0.3219 l
0.6436 0.3216 l
0.6442 0.3213 l
0.6448 0.3209 l
0.6453 0.3209 l
0.6459 0.3206 l
0.6465 0.3201 l
0.6470 0.3190 l
0.6476 0.3183 l
0.6482 0.3180 l
0.6487 0.3176 l
0.6493 0.3168 l
0.6499 0.3168 l
0.6504 0.3151 l
0.6510 0.3144 l
0.6516 0.3138 l
0.6521 0.3135 l
0.6527 0.3135 l
0.6533 0.3131 l
0.6538 0.3125 l
0.6544 0.3112 l
0.6549 0.3098 l
0.6555 0.3092 l
0.6561 0.3080 l
0.6566 0.3071 l
0.6572 0.3056 l
0.6578 0.3056 l
0.6583 0.3056 l
0.6589 0.3039 l
0.6595 0.3034 l
0.6600 0.3027 l
0.6606 0.3024 l
0.6612 0.3021 l
0.6617 0.3016 l
0.6623 0.3007 l
0.6629 0.2999 l
0.6634 0.2980 l
0.6640 0.2970 l
0.6644 0.2964 l
0.6648 0.2961 l
0.6652 0.2934 l
0.6656 0.2927 l
0.6660 0.2919 l
0.6664 0.2913 l
0.6668 0.2903 l
0.6672 0.2896 l
0.6676 0.2884 l
0.6680 0.2877 l
0.6684 0.2859 l
0.6688 0.2857 l
0.6692 0.2854 l
0.6696 0.2848 l
0.6700 0.2840 l
0.6704 0.2829 l
0.6708 0.2817 l
0.6712 0.2804 l
0.6716 0.2794 l
0.6720 0.2789 l
0.6724 0.2788 l
0.6728 0.2772 l
0.6732 0.2762 l
0.6736 0.2762 l
0.6740 0.2752 l
0.6744 0.2752 l
0.6748 0.2750 l
0.6752 0.2741 l
0.6756 0.2730 l
0.6760 0.2713 l
0.6764 0.2698 l
0.6768 0.2687 l
0.6772 0.2680 l
0.6776 0.2674 l
0.6780 0.2674 l
0.6784 0.2654 l
0.6788 0.2642 l
0.6792 0.2636 l
0.6796 0.2624 l
0.6800 0.2594 l
0.6804 0.2578 l
0.6808 0.2551 l
0.6812 0.2532 l
0.6816 0.2511 l
0.6820 0.2509 l
0.6824 0.2499 l
0.6828 0.2481 l
0.6832 0.2464 l
0.6836 0.2440 l
0.6840 0.2420 l
0.6844 0.2406 l
0.6848 0.2387 l
0.6852 0.2380 l
0.6856 0.2361 l
0.6860 0.2351 l
0.6864 0.2342 l
0.6868 0.2326 l
0.6872 0.2322 l
0.6876 0.2283 l
0.6880 0.2254 l
0.6884 0.2244 l
0.6888 0.2214 l
0.6892 0.2193 l
0.6896 0.2175 l
0.6900 0.2132 l
0.6904 0.2111 l
0.6908 0.2091 l
0.6912 0.2057 l
0.6916 0.2037 l
0.6920 0.2030 l
0.6924 0.2014 l
0.6928 0.2000 l
0.6932 0.1982 l
0.6936 0.1950 l
0.6940 0.1891 l
0.6944 0.1874 l
0.6948 0.1862 l
0.6952 0.1834 l
0.6956 0.1788 l
0.6960 0.1766 l
0.6964 0.1728 l
0.6968 0.1703 l
0.6972 0.1690 l
0.6976 0.1679 l
0.6980 0.1649 l
0.6984 0.1622 l
0.6988 0.1614 l
0.6992 0.1554 l
0.6996 0.1540 l
0.7000 0.1531 l
0.7001 0.1534 l
s
[0.0023 0.0068 0.0113 0.0068 ] 0 SD
0.0023 SLW
n
0.1500 0.1692 m
0.1504 0.2068 l
0.1508 0.2068 l
0.1512 0.2068 l
0.1516 0.2068 l
0.1520 0.2068 l
0.1524 0.2068 l
0.1528 0.2135 l
0.1532 0.2135 l
0.1536 0.2135 l
0.1540 0.2135 l
0.1544 0.2135 l
0.1548 0.2135 l
0.1552 0.2135 l
0.1556 0.2135 l
0.1560 0.2135 l
0.1564 0.2135 l
0.1568 0.2135 l
0.1572 0.2135 l
0.1576 0.2135 l
0.1580 0.2135 l
0.1584 0.2135 l
0.1588 0.2135 l
0.1592 0.2135 l
0.1596 0.2135 l
0.1600 0.2135 l
0.1604 0.2135 l
0.1608 0.2135 l
0.1612 0.2135 l
0.1616 0.2135 l
0.1620 0.2135 l
0.1624 0.2135 l
0.1628 0.2135 l
0.1632 0.2135 l
0.1636 0.2135 l
0.1640 0.2135 l
0.1644 0.2135 l
0.1648 0.2135 l
0.1652 0.2135 l
0.1656 0.2135 l
0.1660 0.2135 l
0.1664 0.2135 l
0.1668 0.2135 l
0.1672 0.2135 l
0.1676 0.2135 l
0.1680 0.2135 l
0.1684 0.2135 l
0.1688 0.2135 l
0.1692 0.2135 l
0.1696 0.2135 l
0.1700 0.2135 l
0.1704 0.2135 l
0.1708 0.2135 l
0.1712 0.2135 l
0.1716 0.2242 l
0.1720 0.2354 l
0.1724 0.2354 l
0.1728 0.2354 l
0.1732 0.2354 l
0.1736 0.2354 l
0.1740 0.2354 l
0.1744 0.2354 l
0.1748 0.2354 l
0.1752 0.2354 l
0.1756 0.2354 l
0.1760 0.2354 l
0.1764 0.2354 l
0.1768 0.2354 l
0.1772 0.2354 l
0.1776 0.2354 l
0.1780 0.2354 l
0.1784 0.2354 l
0.1788 0.2354 l
0.1792 0.2354 l
0.1796 0.2354 l
0.1800 0.2354 l
0.1804 0.2354 l
0.1808 0.2354 l
0.1812 0.2354 l
0.1816 0.2354 l
0.1820 0.2354 l
0.1824 0.2354 l
0.1828 0.2354 l
0.1832 0.2354 l
0.1836 0.2354 l
0.1840 0.2354 l
0.1844 0.2354 l
0.1848 0.2354 l
0.1852 0.2354 l
0.1856 0.2354 l
0.1860 0.2354 l
0.1864 0.2354 l
0.1868 0.2354 l
0.1872 0.2354 l
0.1876 0.2506 l
0.1880 0.2473 l
0.1884 0.2473 l
0.1888 0.2473 l
0.1892 0.2473 l
0.1896 0.2473 l
0.1900 0.2473 l
0.1904 0.2473 l
0.1908 0.2473 l
0.1912 0.2473 l
0.1916 0.2473 l
0.1920 0.2599 l
0.1924 0.2581 l
0.1928 0.2581 l
0.1932 0.2581 l
0.1936 0.2581 l
0.1940 0.2581 l
0.1944 0.2581 l
0.1948 0.2581 l
0.1952 0.2581 l
0.1956 0.2581 l
0.1960 0.2581 l
0.1964 0.2581 l
0.1968 0.2581 l
0.1972 0.2581 l
0.1976 0.2581 l
0.1980 0.2581 l
0.1984 0.2581 l
0.1988 0.2581 l
0.1992 0.2581 l
0.1996 0.2581 l
0.2000 0.2581 l
0.2004 0.2581 l
0.2008 0.2581 l
0.2012 0.2581 l
0.2016 0.2581 l
0.2020 0.2581 l
0.2024 0.2581 l
0.2028 0.2581 l
0.2032 0.2581 l
0.2036 0.2581 l
0.2040 0.2581 l
0.2044 0.2581 l
0.2048 0.2581 l
0.2052 0.2581 l
0.2056 0.2581 l
0.2060 0.2581 l
0.2064 0.2581 l
0.2068 0.2581 l
0.2072 0.2581 l
0.2076 0.2581 l
0.2080 0.2581 l
0.2084 0.2581 l
0.2088 0.2581 l
0.2092 0.2581 l
0.2096 0.2581 l
0.2100 0.2581 l
0.2104 0.2581 l
0.2108 0.2581 l
0.2112 0.2581 l
0.2116 0.2581 l
0.2120 0.2581 l
0.2124 0.2581 l
0.2128 0.2581 l
0.2132 0.2581 l
0.2136 0.2581 l
0.2140 0.2581 l
0.2144 0.2581 l
0.2148 0.2581 l
0.2152 0.2581 l
0.2156 0.2581 l
0.2160 0.2581 l
0.2164 0.2581 l
0.2168 0.2581 l
0.2172 0.2581 l
0.2176 0.2581 l
0.2180 0.2581 l
0.2184 0.2581 l
0.2188 0.2581 l
0.2192 0.2581 l
0.2196 0.2581 l
0.2200 0.2581 l
0.2204 0.2581 l
0.2208 0.2581 l
0.2212 0.2581 l
0.2216 0.2581 l
0.2220 0.2581 l
0.2224 0.2581 l
0.2228 0.2581 l
0.2232 0.2581 l
0.2236 0.2581 l
0.2240 0.2581 l
0.2244 0.2581 l
0.2248 0.2581 l
0.2252 0.2581 l
0.2256 0.2581 l
0.2260 0.2581 l
0.2264 0.2581 l
0.2268 0.2581 l
0.2272 0.2581 l
0.2276 0.2581 l
0.2280 0.2581 l
0.2284 0.2581 l
0.2288 0.2581 l
0.2292 0.2581 l
0.2297 0.2581 l
0.2303 0.2581 l
0.2308 0.2581 l
0.2314 0.2581 l
0.2320 0.2581 l
0.2325 0.2581 l
0.2331 0.2581 l
0.2337 0.2581 l
0.2342 0.2581 l
0.2348 0.2581 l
0.2354 0.2581 l
0.2359 0.2581 l
0.2365 0.2581 l
0.2371 0.2581 l
0.2376 0.2581 l
0.2382 0.2581 l
0.2388 0.2581 l
0.2393 0.2581 l
0.2399 0.2581 l
0.2405 0.2581 l
0.2413 0.2581 l
0.2421 0.2581 l
0.2429 0.2581 l
0.2437 0.2581 l
0.2445 0.2581 l
0.2453 0.2581 l
0.2461 0.2581 l
0.2469 0.2581 l
0.2477 0.2581 l
0.2485 0.2581 l
0.2496 0.2581 l
0.2507 0.2581 l
0.2518 0.2581 l
0.2530 0.2581 l
0.2541 0.2581 l
0.2557 0.2581 l
0.2573 0.2581 l
0.2589 0.2581 l
0.2612 0.2581 l
0.2644 0.2581 l
0.2689 0.2581 l
0.2753 0.2581 l
0.2785 0.2581 l
0.2817 0.2581 l
0.2839 0.2581 l
0.2862 0.2581 l
0.2878 0.2581 l
0.2894 0.2581 l
0.2910 0.2581 l
0.2926 0.2581 l
0.2942 0.2581 l
0.2958 0.2581 l
0.2969 0.2581 l
0.2980 0.2581 l
0.2992 0.2581 l
0.3003 0.2581 l
0.3014 0.2581 l
0.3026 0.2581 l
0.3037 0.2581 l
0.3048 0.2581 l
0.3060 0.2581 l
0.3071 0.2581 l
0.3082 0.2581 l
0.3094 0.2581 l
0.3105 0.2581 l
0.3113 0.2581 l
0.3121 0.2581 l
0.3129 0.2581 l
0.3137 0.2581 l
0.3145 0.2581 l
0.3153 0.2581 l
0.3161 0.2581 l
0.3169 0.2581 l
0.3177 0.2581 l
0.3185 0.2581 l
0.3193 0.2581 l
0.3201 0.2581 l
0.3209 0.2581 l
0.3217 0.2581 l
0.3225 0.2581 l
0.3233 0.2581 l
0.3241 0.2581 l
0.3249 0.2581 l
0.3257 0.2581 l
0.3265 0.2581 l
0.3273 0.2581 l
0.3281 0.2581 l
0.3289 0.2581 l
0.3297 0.2581 l
0.3305 0.2581 l
0.3313 0.2581 l
0.3318 0.2581 l
0.3324 0.2581 l
0.3330 0.2581 l
0.3335 0.2581 l
0.3341 0.2581 l
0.3347 0.2581 l
0.3352 0.2581 l
0.3358 0.2581 l
0.3364 0.2581 l
0.3369 0.2581 l
0.3375 0.2581 l
0.3381 0.2581 l
0.3386 0.2581 l
0.3392 0.2581 l
0.3397 0.2581 l
0.3403 0.2581 l
0.3409 0.2581 l
0.3414 0.2581 l
0.3420 0.2581 l
0.3426 0.2581 l
0.3431 0.2581 l
0.3437 0.2581 l
0.3443 0.2581 l
0.3448 0.2581 l
0.3454 0.2581 l
0.3460 0.2581 l
0.3465 0.2581 l
0.3471 0.2581 l
0.3477 0.2581 l
0.3482 0.2581 l
0.3488 0.2581 l
0.3494 0.2581 l
0.3499 0.2581 l
0.3505 0.2581 l
0.3511 0.2581 l
0.3516 0.2581 l
0.3522 0.2581 l
0.3527 0.2581 l
0.3533 0.2581 l
0.3539 0.2581 l
0.3544 0.2581 l
0.3550 0.2581 l
0.3556 0.2581 l
0.3561 0.2581 l
0.3567 0.2581 l
0.3573 0.2581 l
0.3578 0.2581 l
0.3584 0.2581 l
0.3590 0.2581 l
0.3595 0.2581 l
0.3601 0.2581 l
0.3607 0.2581 l
0.3612 0.2581 l
0.3618 0.2581 l
0.3624 0.2581 l
0.3629 0.2581 l
0.3635 0.2581 l
0.3641 0.2581 l
0.3646 0.2581 l
0.3652 0.2581 l
0.3657 0.2581 l
0.3663 0.2581 l
0.3669 0.2581 l
0.3674 0.2581 l
0.3680 0.2581 l
0.3686 0.2581 l
0.3691 0.2581 l
0.3697 0.2581 l
0.3703 0.2570 l
0.3708 0.2570 l
0.3714 0.2542 l
0.3720 0.2512 l
0.3725 0.2494 l
0.3731 0.2494 l
0.3737 0.2494 l
0.3742 0.2494 l
0.3746 0.2494 l
0.3750 0.2486 l
0.3754 0.2486 l
0.3758 0.2486 l
0.3762 0.2486 l
0.3766 0.2468 l
0.3770 0.2468 l
0.3774 0.2468 l
0.3778 0.2468 l
0.3782 0.2468 l
0.3786 0.2468 l
0.3790 0.2468 l
0.3794 0.2468 l
0.3798 0.2468 l
0.3802 0.2468 l
0.3806 0.2459 l
0.3810 0.2459 l
0.3814 0.2459 l
0.3818 0.2445 l
0.3822 0.2445 l
0.3826 0.2438 l
0.3830 0.2438 l
0.3834 0.2438 l
0.3838 0.2438 l
0.3842 0.2438 l
0.3846 0.2429 l
0.3850 0.2410 l
0.3854 0.2410 l
0.3858 0.2410 l
0.3862 0.2410 l
0.3866 0.2410 l
0.3870 0.2410 l
0.3874 0.2410 l
0.3878 0.2410 l
0.3882 0.2410 l
0.3886 0.2410 l
0.3890 0.2410 l
0.3894 0.2405 l
0.3898 0.2405 l
0.3902 0.2405 l
0.3906 0.2395 l
0.3910 0.2395 l
0.3914 0.2395 l
0.3918 0.2395 l
0.3922 0.2383 l
0.3926 0.2383 l
0.3930 0.2383 l
0.3934 0.2369 l
0.3938 0.2360 l
0.3942 0.2360 l
0.3946 0.2360 l
0.3950 0.2350 l
0.3954 0.2342 l
0.3958 0.2332 l
0.3962 0.2332 l
0.3966 0.2327 l
0.3970 0.2327 l
0.3974 0.2327 l
0.3978 0.2317 l
0.3982 0.2252 l
0.3986 0.2242 l
0.3990 0.2242 l
0.3994 0.2216 l
0.3998 0.2182 l
0.4002 0.2164 l
0.4006 0.2164 l
0.4010 0.2164 l
0.4014 0.2164 l
0.4018 0.2157 l
0.4022 0.2138 l
0.4026 0.2116 l
0.4030 0.2083 l
0.4034 0.2073 l
0.4038 0.2066 l
0.4042 0.2048 l
0.4046 0.2035 l
0.4050 0.2028 l
0.4054 0.2021 l
0.4058 0.1967 l
0.4062 0.1908 l
0.4066 0.1884 l
0.4070 0.1877 l
0.4074 0.1835 l
0.4078 0.1815 l
0.4082 0.1775 l
0.4086 0.1749 l
0.4090 0.1721 l
0.4094 0.1678 l
0.4098 0.1626 l
0.4102 0.1580 l
0.4106 0.1578 l
0.4110 0.1578 l
0.4114 0.1578 l
0.4118 0.1578 l
0.4122 0.1578 l
0.4126 0.1578 l
0.4130 0.1578 l
0.4134 0.1578 l
0.4138 0.1578 l
0.4142 0.1578 l
0.4146 0.1664 l
0.4150 0.1664 l
0.4154 0.1664 l
0.4158 0.1664 l
0.4162 0.1712 l
0.4166 0.1705 l
0.4170 0.1705 l
0.4174 0.1705 l
0.4178 0.1705 l
0.4182 0.1705 l
0.4186 0.1705 l
0.4190 0.1705 l
0.4194 0.1705 l
0.4198 0.1705 l
0.4202 0.1705 l
0.4206 0.1705 l
0.4210 0.1779 l
0.4214 0.1746 l
0.4218 0.1746 l
0.4222 0.1746 l
0.4226 0.1870 l
0.4230 0.1870 l
0.4234 0.1851 l
0.4238 0.1851 l
0.4242 0.1851 l
0.4246 0.1969 l
0.4250 0.1969 l
0.4254 0.1969 l
0.4258 0.1969 l
0.4262 0.1969 l
0.4266 0.1969 l
0.4270 0.1969 l
0.4274 0.1969 l
0.4278 0.1969 l
0.4282 0.1969 l
0.4286 0.1969 l
0.4290 0.1969 l
0.4294 0.1969 l
0.4298 0.1969 l
0.4302 0.1969 l
0.4306 0.1969 l
0.4310 0.1969 l
0.4314 0.1969 l
0.4318 0.1969 l
0.4322 0.1969 l
0.4326 0.1969 l
0.4330 0.1969 l
0.4334 0.1969 l
0.4338 0.1969 l
0.4342 0.1969 l
0.4346 0.1969 l
0.4350 0.1969 l
0.4354 0.1969 l
0.4358 0.1969 l
0.4362 0.1969 l
0.4366 0.1969 l
0.4370 0.1969 l
0.4374 0.1969 l
0.4378 0.1969 l
0.4382 0.1969 l
0.4386 0.1969 l
0.4390 0.1969 l
0.4394 0.1969 l
0.4398 0.1969 l
0.4402 0.1969 l
0.4406 0.1969 l
0.4410 0.1969 l
0.4414 0.1969 l
0.4418 0.1969 l
0.4422 0.1969 l
0.4426 0.1969 l
0.4430 0.2147 l
0.4434 0.2133 l
0.4438 0.2133 l
0.4442 0.2133 l
0.4446 0.2133 l
0.4450 0.2133 l
0.4454 0.2133 l
0.4458 0.2133 l
0.4462 0.2133 l
0.4466 0.2133 l
0.4470 0.2133 l
0.4474 0.2133 l
0.4478 0.2133 l
0.4482 0.2133 l
0.4486 0.2133 l
0.4490 0.2133 l
0.4494 0.2133 l
0.4498 0.2133 l
0.4502 0.2133 l
0.4506 0.2133 l
0.4510 0.2133 l
0.4514 0.2133 l
0.4518 0.2133 l
0.4522 0.2133 l
0.4526 0.2133 l
0.4530 0.2133 l
0.4534 0.2133 l
0.4538 0.2133 l
0.4542 0.2133 l
0.4546 0.2133 l
0.4550 0.2133 l
0.4554 0.2133 l
0.4558 0.2133 l
0.4562 0.2133 l
0.4566 0.2133 l
0.4570 0.2133 l
0.4574 0.2133 l
0.4578 0.2133 l
0.4582 0.2133 l
0.4586 0.2133 l
0.4590 0.2133 l
0.4594 0.2133 l
0.4598 0.2133 l
0.4602 0.2133 l
0.4606 0.2258 l
0.4610 0.2258 l
0.4614 0.2258 l
0.4618 0.2258 l
0.4622 0.2258 l
0.4626 0.2348 l
0.4630 0.2348 l
0.4634 0.2348 l
0.4638 0.2348 l
0.4642 0.2348 l
0.4646 0.2348 l
0.4650 0.2348 l
0.4654 0.2348 l
0.4658 0.2348 l
0.4662 0.2348 l
0.4666 0.2348 l
0.4670 0.2348 l
0.4674 0.2348 l
0.4678 0.2348 l
0.4682 0.2348 l
0.4686 0.2348 l
0.4690 0.2348 l
0.4694 0.2348 l
0.4698 0.2348 l
0.4702 0.2348 l
0.4706 0.2348 l
0.4710 0.2348 l
0.4714 0.2348 l
0.4718 0.2348 l
0.4722 0.2348 l
0.4726 0.2348 l
0.4730 0.2348 l
0.4734 0.2348 l
0.4738 0.2348 l
0.4742 0.2348 l
0.4745 0.2348 l
0.4749 0.2348 l
0.4753 0.2348 l
0.4757 0.2348 l
0.4761 0.2348 l
0.4765 0.2348 l
0.4769 0.2348 l
0.4773 0.2348 l
0.4777 0.2348 l
0.4781 0.2348 l
0.4785 0.2348 l
0.4789 0.2348 l
0.4793 0.2348 l
0.4797 0.2348 l
0.4801 0.2348 l
0.4805 0.2348 l
0.4809 0.2348 l
0.4813 0.2348 l
0.4817 0.2348 l
0.4821 0.2348 l
0.4825 0.2348 l
0.4829 0.2348 l
0.4833 0.2348 l
0.4837 0.2348 l
0.4841 0.2348 l
0.4845 0.2348 l
0.4849 0.2348 l
0.4853 0.2348 l
0.4857 0.2348 l
0.4861 0.2348 l
0.4865 0.2348 l
0.4869 0.2348 l
0.4873 0.2348 l
0.4877 0.2348 l
0.4881 0.2474 l
0.4885 0.2512 l
0.4889 0.2512 l
0.4893 0.2512 l
0.4897 0.2512 l
0.4901 0.2512 l
0.4905 0.2512 l
0.4909 0.2512 l
0.4913 0.2512 l
0.4917 0.2512 l
0.4921 0.2629 l
0.4925 0.2619 l
0.4929 0.2619 l
0.4933 0.2619 l
0.4937 0.2619 l
0.4941 0.2619 l
0.4945 0.2619 l
0.4949 0.2619 l
0.4953 0.2619 l
0.4957 0.2619 l
0.4961 0.2619 l
0.4965 0.2619 l
0.4969 0.2619 l
0.4973 0.2619 l
0.4977 0.2619 l
0.4981 0.2619 l
0.4985 0.2619 l
0.4989 0.2619 l
0.4993 0.2619 l
0.4997 0.2619 l
0.5001 0.2619 l
0.5005 0.2619 l
0.5009 0.2619 l
0.5013 0.2619 l
0.5017 0.2619 l
0.5021 0.2619 l
0.5025 0.2619 l
0.5029 0.2619 l
0.5033 0.2619 l
0.5037 0.2619 l
0.5041 0.2619 l
0.5045 0.2619 l
0.5049 0.2619 l
0.5053 0.2619 l
0.5057 0.2619 l
0.5061 0.2619 l
0.5065 0.2619 l
0.5069 0.2619 l
0.5073 0.2619 l
0.5077 0.2619 l
0.5081 0.2619 l
0.5085 0.2619 l
0.5089 0.2619 l
0.5093 0.2619 l
0.5097 0.2619 l
0.5101 0.2619 l
0.5105 0.2619 l
0.5109 0.2619 l
0.5113 0.2619 l
0.5117 0.2619 l
0.5121 0.2619 l
0.5125 0.2619 l
0.5129 0.2619 l
0.5133 0.2619 l
0.5137 0.2619 l
0.5141 0.2619 l
0.5145 0.2619 l
0.5149 0.2619 l
0.5153 0.2619 l
0.5157 0.2619 l
0.5161 0.2619 l
0.5165 0.2619 l
0.5169 0.2619 l
0.5173 0.2619 l
0.5177 0.2619 l
0.5181 0.2619 l
0.5185 0.2619 l
0.5191 0.2619 l
0.5196 0.2619 l
0.5202 0.2619 l
0.5208 0.2619 l
0.5213 0.2619 l
0.5219 0.2619 l
0.5225 0.2619 l
0.5230 0.2619 l
0.5236 0.2619 l
0.5242 0.2619 l
0.5247 0.2619 l
0.5253 0.2619 l
0.5259 0.2619 l
0.5264 0.2619 l
0.5270 0.2619 l
0.5276 0.2619 l
0.5281 0.2619 l
0.5287 0.2619 l
0.5293 0.2619 l
0.5298 0.2619 l
0.5306 0.2619 l
0.5314 0.2619 l
0.5322 0.2619 l
0.5330 0.2848 l
0.5338 0.2797 l
0.5346 0.2797 l
0.5354 0.2797 l
0.5362 0.2797 l
0.5370 0.2797 l
0.5378 0.2797 l
0.5389 0.2797 l
0.5401 0.2797 l
0.5412 0.2797 l
0.5423 0.2797 l
0.5435 0.2797 l
0.5451 0.2797 l
0.5467 0.2797 l
0.5483 0.2797 l
0.5505 0.2797 l
0.5537 0.2797 l
0.5582 0.2797 l
0.5646 0.2797 l
0.5678 0.2797 l
0.5710 0.2797 l
0.5733 0.2797 l
0.5756 0.2797 l
0.5778 0.2797 l
0.5794 0.2797 l
0.5810 0.2797 l
0.5826 0.2797 l
0.5842 0.2797 l
0.5858 0.2797 l
0.5869 0.2797 l
0.5881 0.2797 l
0.5892 0.2797 l
0.5903 0.2797 l
0.5915 0.2797 l
0.5926 0.2797 l
0.5937 0.2797 l
0.5948 0.2797 l
0.5960 0.2797 l
0.5971 0.2797 l
0.5982 0.2797 l
0.5994 0.2797 l
0.6002 0.2797 l
0.6010 0.2797 l
0.6018 0.2797 l
0.6026 0.2797 l
0.6034 0.2797 l
0.6042 0.2797 l
0.6050 0.2797 l
0.6058 0.2797 l
0.6066 0.2797 l
0.6074 0.2797 l
0.6082 0.2797 l
0.6090 0.2797 l
0.6098 0.2797 l
0.6106 0.2797 l
0.6114 0.2797 l
0.6122 0.2797 l
0.6130 0.2778 l
0.6138 0.2778 l
0.6146 0.2778 l
0.6154 0.2778 l
0.6162 0.2778 l
0.6170 0.2778 l
0.6178 0.2768 l
0.6186 0.2768 l
0.6194 0.2768 l
0.6202 0.2768 l
0.6209 0.2768 l
0.6215 0.2768 l
0.6221 0.2768 l
0.6226 0.2768 l
0.6232 0.2768 l
0.6238 0.2768 l
0.6243 0.2768 l
0.6249 0.2768 l
0.6255 0.2768 l
0.6260 0.2768 l
0.6266 0.2768 l
0.6272 0.2768 l
0.6277 0.2768 l
0.6283 0.2768 l
0.6289 0.2768 l
0.6294 0.2768 l
0.6300 0.2768 l
0.6306 0.2768 l
0.6311 0.2768 l
0.6317 0.2768 l
0.6323 0.2768 l
0.6328 0.2768 l
0.6334 0.2768 l
0.6339 0.2768 l
0.6345 0.2761 l
0.6351 0.2761 l
0.6356 0.2761 l
0.6362 0.2761 l
0.6368 0.2761 l
0.6373 0.2761 l
0.6379 0.2761 l
0.6385 0.2756 l
0.6390 0.2756 l
0.6396 0.2756 l
0.6402 0.2756 l
0.6407 0.2756 l
0.6413 0.2756 l
0.6419 0.2756 l
0.6424 0.2756 l
0.6430 0.2756 l
0.6436 0.2756 l
0.6441 0.2756 l
0.6447 0.2756 l
0.6453 0.2756 l
0.6458 0.2756 l
0.6464 0.2756 l
0.6469 0.2756 l
0.6475 0.2756 l
0.6481 0.2756 l
0.6486 0.2756 l
0.6492 0.2756 l
0.6498 0.2756 l
0.6503 0.2756 l
0.6509 0.2756 l
0.6515 0.2756 l
0.6520 0.2756 l
0.6526 0.2756 l
0.6532 0.2756 l
0.6537 0.2756 l
0.6543 0.2756 l
0.6549 0.2756 l
0.6554 0.2756 l
0.6560 0.2756 l
0.6566 0.2751 l
0.6571 0.2751 l
0.6577 0.2751 l
0.6583 0.2744 l
0.6588 0.2744 l
0.6594 0.2744 l
0.6599 0.2744 l
0.6605 0.2744 l
0.6611 0.2744 l
0.6616 0.2744 l
0.6622 0.2725 l
0.6628 0.2714 l
0.6633 0.2705 l
0.6639 0.2695 l
0.6643 0.2695 l
0.6647 0.2695 l
0.6651 0.2609 l
0.6655 0.2583 l
0.6659 0.2583 l
0.6663 0.2583 l
0.6667 0.2583 l
0.6671 0.2583 l
0.6675 0.2583 l
0.6679 0.2583 l
0.6683 0.2583 l
0.6687 0.2583 l
0.6691 0.2573 l
0.6695 0.2573 l
0.6699 0.2573 l
0.6703 0.2573 l
0.6707 0.2573 l
0.6711 0.2573 l
0.6715 0.2573 l
0.6719 0.2564 l
0.6723 0.2564 l
0.6727 0.2564 l
0.6731 0.2560 l
0.6735 0.2560 l
0.6739 0.2550 l
0.6743 0.2550 l
0.6747 0.2550 l
0.6751 0.2550 l
0.6755 0.2550 l
0.6759 0.2531 l
0.6763 0.2531 l
0.6767 0.2531 l
0.6771 0.2531 l
0.6775 0.2524 l
0.6779 0.2524 l
0.6783 0.2524 l
0.6787 0.2524 l
0.6791 0.2524 l
0.6795 0.2524 l
0.6799 0.2524 l
0.6803 0.2519 l
0.6807 0.2509 l
0.6811 0.2473 l
0.6815 0.2473 l
0.6819 0.2473 l
0.6823 0.2452 l
0.6827 0.2452 l
0.6831 0.2452 l
0.6835 0.2442 l
0.6839 0.2380 l
0.6843 0.2370 l
0.6847 0.2360 l
0.6851 0.2353 l
0.6855 0.2353 l
0.6859 0.2348 l
0.6863 0.2348 l
0.6867 0.2348 l
0.6871 0.2338 l
0.6875 0.2309 l
0.6879 0.2309 l
0.6883 0.2292 l
0.6887 0.2292 l
0.6891 0.2267 l
0.6895 0.2217 l
0.6899 0.2193 l
0.6903 0.2179 l
0.6907 0.2157 l
0.6911 0.2150 l
0.6915 0.2150 l
0.6919 0.2131 l
0.6923 0.2116 l
0.6927 0.2083 l
0.6931 0.2073 l
0.6935 0.2066 l
0.6939 0.2035 l
0.6943 0.2028 l
0.6947 0.2021 l
0.6951 0.1998 l
0.6955 0.1972 l
0.6959 0.1901 l
0.6963 0.1877 l
0.6967 0.1844 l
0.6971 0.1827 l
0.6975 0.1791 l
0.6979 0.1761 l
0.6983 0.1733 l
0.6987 0.1702 l
0.6991 0.1635 l
0.6995 0.1613 l
0.6999 0.1554 l
0.7001 0.1588 l
s
[0.0113 0.0068 0.0023 0.0068 0.0113 0.0068 ] 0 SD
0.0023 SLW
n
0.1500 0.1930 m
0.1504 0.2335 l
0.1508 0.2335 l
0.1512 0.2335 l
0.1516 0.2335 l
0.1520 0.2335 l
0.1524 0.2335 l
0.1528 0.2335 l
0.1532 0.2335 l
0.1536 0.2335 l
0.1540 0.2335 l
0.1544 0.2335 l
0.1548 0.2335 l
0.1552 0.2335 l
0.1556 0.2335 l
0.1560 0.2335 l
0.1564 0.2335 l
0.1568 0.2335 l
0.1572 0.2335 l
0.1576 0.2335 l
0.1580 0.2335 l
0.1584 0.2335 l
0.1588 0.2335 l
0.1592 0.2335 l
0.1596 0.2335 l
0.1600 0.2335 l
0.1604 0.2335 l
0.1608 0.2335 l
0.1612 0.2335 l
0.1616 0.2335 l
0.1620 0.2335 l
0.1624 0.2335 l
0.1628 0.2335 l
0.1632 0.2335 l
0.1636 0.2335 l
0.1640 0.2335 l
0.1644 0.2335 l
0.1648 0.2335 l
0.1652 0.2335 l
0.1656 0.2335 l
0.1660 0.2335 l
0.1664 0.2335 l
0.1668 0.2335 l
0.1672 0.2335 l
0.1676 0.2335 l
0.1680 0.2335 l
0.1684 0.2335 l
0.1688 0.2335 l
0.1692 0.2335 l
0.1696 0.2335 l
0.1700 0.2335 l
0.1704 0.2335 l
0.1708 0.2335 l
0.1712 0.2335 l
0.1716 0.2335 l
0.1720 0.2335 l
0.1724 0.2335 l
0.1728 0.2335 l
0.1732 0.2335 l
0.1736 0.2335 l
0.1740 0.2335 l
0.1744 0.2335 l
0.1748 0.2335 l
0.1752 0.2335 l
0.1756 0.2335 l
0.1760 0.2335 l
0.1764 0.2335 l
0.1768 0.2335 l
0.1772 0.2335 l
0.1776 0.2335 l
0.1780 0.2335 l
0.1784 0.2335 l
0.1788 0.2335 l
0.1792 0.2335 l
0.1796 0.2335 l
0.1800 0.2335 l
0.1804 0.2335 l
0.1808 0.2335 l
0.1812 0.2335 l
0.1816 0.2335 l
0.1820 0.2335 l
0.1824 0.2335 l
0.1828 0.2335 l
0.1832 0.2335 l
0.1836 0.2335 l
0.1840 0.2335 l
0.1844 0.2335 l
0.1848 0.2335 l
0.1852 0.2335 l
0.1856 0.2335 l
0.1860 0.2335 l
0.1864 0.2335 l
0.1868 0.2335 l
0.1872 0.2335 l
0.1876 0.2335 l
0.1880 0.2335 l
0.1884 0.2335 l
0.1888 0.2335 l
0.1892 0.2335 l
0.1896 0.2335 l
0.1900 0.2335 l
0.1904 0.2335 l
0.1908 0.2335 l
0.1912 0.2335 l
0.1916 0.2335 l
0.1920 0.2335 l
0.1924 0.2335 l
0.1928 0.2335 l
0.1932 0.2335 l
0.1936 0.2335 l
0.1940 0.2335 l
0.1944 0.2335 l
0.1948 0.2335 l
0.1952 0.2335 l
0.1956 0.2335 l
0.1960 0.2335 l
0.1964 0.2335 l
0.1968 0.2335 l
0.1972 0.2335 l
0.1976 0.2335 l
0.1980 0.2335 l
0.1984 0.2335 l
0.1988 0.2335 l
0.1992 0.2335 l
0.1996 0.2335 l
0.2000 0.2335 l
0.2004 0.2335 l
0.2008 0.2335 l
0.2012 0.2335 l
0.2016 0.2335 l
0.2020 0.2335 l
0.2024 0.2335 l
0.2028 0.2335 l
0.2032 0.2335 l
0.2036 0.2335 l
0.2040 0.2335 l
0.2044 0.2335 l
0.2048 0.2335 l
0.2052 0.2335 l
0.2056 0.2335 l
0.2060 0.2335 l
0.2064 0.2335 l
0.2068 0.2335 l
0.2072 0.2335 l
0.2076 0.2335 l
0.2080 0.2335 l
0.2084 0.2335 l
0.2088 0.2335 l
0.2092 0.2335 l
0.2096 0.2335 l
0.2100 0.2335 l
0.2104 0.2335 l
0.2108 0.2335 l
0.2112 0.2335 l
0.2116 0.2335 l
0.2120 0.2335 l
0.2124 0.2335 l
0.2128 0.2335 l
0.2132 0.2335 l
0.2136 0.2335 l
0.2140 0.2335 l
0.2144 0.2335 l
0.2148 0.2335 l
0.2152 0.2335 l
0.2156 0.2335 l
0.2160 0.2335 l
0.2164 0.2335 l
0.2168 0.2335 l
0.2172 0.2335 l
0.2176 0.2335 l
0.2180 0.2335 l
0.2184 0.2335 l
0.2188 0.2335 l
0.2192 0.2335 l
0.2196 0.2335 l
0.2200 0.2335 l
0.2204 0.2335 l
0.2208 0.2335 l
0.2212 0.2335 l
0.2216 0.2335 l
0.2220 0.2335 l
0.2224 0.2335 l
0.2228 0.2335 l
0.2232 0.2335 l
0.2236 0.2335 l
0.2240 0.2335 l
0.2244 0.2335 l
0.2248 0.2335 l
0.2252 0.2335 l
0.2256 0.2335 l
0.2260 0.2335 l
0.2264 0.2335 l
0.2268 0.2335 l
0.2272 0.2335 l
0.2276 0.2335 l
0.2280 0.2335 l
0.2284 0.2335 l
0.2288 0.2335 l
0.2292 0.2335 l
0.2297 0.2335 l
0.2303 0.2335 l
0.2308 0.2335 l
0.2314 0.2335 l
0.2320 0.2335 l
0.2325 0.2335 l
0.2331 0.2335 l
0.2337 0.2335 l
0.2342 0.2335 l
0.2348 0.2335 l
0.2354 0.2335 l
0.2359 0.2335 l
0.2365 0.2335 l
0.2371 0.2335 l
0.2376 0.2335 l
0.2382 0.2335 l
0.2388 0.2335 l
0.2393 0.2335 l
0.2399 0.2335 l
0.2405 0.2335 l
0.2413 0.2335 l
0.2421 0.2335 l
0.2429 0.2335 l
0.2437 0.2335 l
0.2445 0.2335 l
0.2453 0.2335 l
0.2461 0.2335 l
0.2469 0.2335 l
0.2477 0.2335 l
0.2485 0.2335 l
0.2496 0.2335 l
0.2507 0.2335 l
0.2518 0.2335 l
0.2530 0.2335 l
0.2541 0.2335 l
0.2557 0.2335 l
0.2573 0.2335 l
0.2589 0.2335 l
0.2612 0.2335 l
0.2644 0.2335 l
0.2689 0.2335 l
0.2753 0.2335 l
0.2785 0.2335 l
0.2817 0.2335 l
0.2839 0.2335 l
0.2862 0.2335 l
0.2878 0.2335 l
0.2894 0.2335 l
0.2910 0.2335 l
0.2926 0.2335 l
0.2942 0.2335 l
0.2958 0.2335 l
0.2969 0.2335 l
0.2981 0.2335 l
0.2992 0.2335 l
0.3003 0.2335 l
0.3014 0.2335 l
0.3026 0.2335 l
0.3037 0.2335 l
0.3048 0.2335 l
0.3060 0.2335 l
0.3071 0.2335 l
0.3082 0.2335 l
0.3094 0.2335 l
0.3105 0.2335 l
0.3113 0.2335 l
0.3121 0.2335 l
0.3129 0.2335 l
0.3137 0.2335 l
0.3145 0.2335 l
0.3153 0.2335 l
0.3161 0.2335 l
0.3169 0.2335 l
0.3177 0.2335 l
0.3185 0.2335 l
0.3193 0.2335 l
0.3201 0.2335 l
0.3209 0.2335 l
0.3217 0.2335 l
0.3225 0.2335 l
0.3233 0.2335 l
0.3241 0.2335 l
0.3249 0.2335 l
0.3257 0.2335 l
0.3265 0.2335 l
0.3273 0.2335 l
0.3281 0.2335 l
0.3289 0.2335 l
0.3297 0.2335 l
0.3305 0.2335 l
0.3313 0.2335 l
0.3318 0.2335 l
0.3324 0.2335 l
0.3330 0.2335 l
0.3335 0.2335 l
0.3341 0.2335 l
0.3347 0.2335 l
0.3352 0.2335 l
0.3358 0.2335 l
0.3364 0.2335 l
0.3369 0.2335 l
0.3375 0.2335 l
0.3381 0.2335 l
0.3386 0.2335 l
0.3392 0.2335 l
0.3398 0.2335 l
0.3403 0.2335 l
0.3409 0.2335 l
0.3414 0.2335 l
0.3420 0.2335 l
0.3426 0.2335 l
0.3431 0.2335 l
0.3437 0.2335 l
0.3443 0.2335 l
0.3448 0.2335 l
0.3454 0.2335 l
0.3460 0.2335 l
0.3465 0.2335 l
0.3471 0.2335 l
0.3477 0.2335 l
0.3482 0.2335 l
0.3488 0.2335 l
0.3494 0.2335 l
0.3499 0.2335 l
0.3505 0.2335 l
0.3511 0.2335 l
0.3516 0.2335 l
0.3522 0.2335 l
0.3528 0.2335 l
0.3533 0.2335 l
0.3539 0.2335 l
0.3544 0.2335 l
0.3550 0.2335 l
0.3556 0.2335 l
0.3561 0.2335 l
0.3567 0.2335 l
0.3573 0.2335 l
0.3578 0.2335 l
0.3584 0.2335 l
0.3590 0.2335 l
0.3595 0.2335 l
0.3601 0.2335 l
0.3607 0.2335 l
0.3612 0.2335 l
0.3618 0.2335 l
0.3624 0.2335 l
0.3629 0.2335 l
0.3635 0.2335 l
0.3641 0.2335 l
0.3646 0.2335 l
0.3652 0.2335 l
0.3658 0.2335 l
0.3663 0.2335 l
0.3669 0.2335 l
0.3674 0.2335 l
0.3680 0.2335 l
0.3686 0.2335 l
0.3691 0.2335 l
0.3697 0.2335 l
0.3703 0.2335 l
0.3708 0.2335 l
0.3714 0.2335 l
0.3720 0.2335 l
0.3725 0.2335 l
0.3731 0.2335 l
0.3737 0.2335 l
0.3742 0.2335 l
0.3746 0.2335 l
0.3750 0.2335 l
0.3754 0.2335 l
0.3758 0.2335 l
0.3762 0.2335 l
0.3766 0.2335 l
0.3770 0.2335 l
0.3774 0.2335 l
0.3778 0.2335 l
0.3782 0.2335 l
0.3786 0.2335 l
0.3790 0.2335 l
0.3794 0.2335 l
0.3798 0.2335 l
0.3802 0.2335 l
0.3806 0.2335 l
0.3810 0.2335 l
0.3814 0.2335 l
0.3818 0.2335 l
0.3822 0.2335 l
0.3826 0.2335 l
0.3830 0.2335 l
0.3834 0.2335 l
0.3838 0.2335 l
0.3842 0.2335 l
0.3846 0.2335 l
0.3850 0.2309 l
0.3854 0.2309 l
0.3858 0.2309 l
0.3862 0.2309 l
0.3866 0.2309 l
0.3870 0.2309 l
0.3874 0.2309 l
0.3878 0.2309 l
0.3882 0.2309 l
0.3886 0.2309 l
0.3890 0.2309 l
0.3894 0.2309 l
0.3898 0.2309 l
0.3902 0.2309 l
0.3906 0.2309 l
0.3910 0.2309 l
0.3914 0.2309 l
0.3918 0.2309 l
0.3922 0.2309 l
0.3926 0.2309 l
0.3930 0.2309 l
0.3934 0.2309 l
0.3938 0.2309 l
0.3942 0.2309 l
0.3946 0.2309 l
0.3950 0.2309 l
0.3954 0.2309 l
0.3958 0.2309 l
0.3962 0.2309 l
0.3966 0.2309 l
0.3970 0.2309 l
0.3974 0.2309 l
0.3978 0.2309 l
0.3982 0.2283 l
0.3986 0.2283 l
0.3990 0.2239 l
0.3994 0.2239 l
0.3998 0.2239 l
0.4002 0.2239 l
0.4006 0.2239 l
0.4010 0.2239 l
0.4014 0.2200 l
0.4018 0.2178 l
0.4022 0.2147 l
0.4026 0.2147 l
0.4030 0.2147 l
0.4034 0.2099 l
0.4038 0.2041 l
0.4042 0.1986 l
0.4046 0.1960 l
0.4050 0.1960 l
0.4054 0.1937 l
0.4058 0.1937 l
0.4062 0.1929 l
0.4066 0.1921 l
0.4070 0.1921 l
0.4074 0.1921 l
0.4078 0.1890 l
0.4082 0.1856 l
0.4086 0.1795 l
0.4090 0.1765 l
0.4094 0.1765 l
0.4098 0.1695 l
0.4102 0.1611 l
0.4106 0.1586 l
0.4110 0.1586 l
0.4114 0.1586 l
0.4118 0.1586 l
0.4122 0.1586 l
0.4126 0.1586 l
0.4130 0.1586 l
0.4134 0.1586 l
0.4138 0.1586 l
0.4142 0.1705 l
0.4146 0.1705 l
0.4150 0.1705 l
0.4154 0.1705 l
0.4158 0.1705 l
0.4162 0.1705 l
0.4166 0.1705 l
0.4170 0.1705 l
0.4174 0.1705 l
0.4178 0.1705 l
0.4182 0.1705 l
0.4186 0.1705 l
0.4190 0.1705 l
0.4194 0.1705 l
0.4198 0.1705 l
0.4202 0.1705 l
0.4206 0.1705 l
0.4210 0.1705 l
0.4214 0.1705 l
0.4218 0.1705 l
0.4222 0.1705 l
0.4226 0.1705 l
0.4230 0.1705 l
0.4234 0.1705 l
0.4238 0.1705 l
0.4242 0.1705 l
0.4246 0.1705 l
0.4250 0.1841 l
0.4254 0.1809 l
0.4258 0.1809 l
0.4262 0.1809 l
0.4266 0.1809 l
0.4270 0.1809 l
0.4274 0.1809 l
0.4278 0.1809 l
0.4282 0.1809 l
0.4286 0.1809 l
0.4290 0.1809 l
0.4294 0.1809 l
0.4298 0.1809 l
0.4302 0.1809 l
0.4306 0.1809 l
0.4310 0.1809 l
0.4314 0.1809 l
0.4318 0.1809 l
0.4322 0.1809 l
0.4326 0.1809 l
0.4330 0.2004 l
0.4334 0.2086 l
0.4338 0.2070 l
0.4342 0.2070 l
0.4346 0.2070 l
0.4350 0.2070 l
0.4354 0.2070 l
0.4358 0.2070 l
0.4362 0.2070 l
0.4366 0.2070 l
0.4370 0.2070 l
0.4374 0.2070 l
0.4378 0.2070 l
0.4382 0.2070 l
0.4386 0.2070 l
0.4390 0.2070 l
0.4394 0.2070 l
0.4398 0.2070 l
0.4402 0.2070 l
0.4406 0.2070 l
0.4410 0.2070 l
0.4414 0.2070 l
0.4418 0.2070 l
0.4422 0.2070 l
0.4426 0.2070 l
0.4430 0.2070 l
0.4434 0.2070 l
0.4438 0.2070 l
0.4442 0.2070 l
0.4446 0.2070 l
0.4450 0.2070 l
0.4454 0.2070 l
0.4458 0.2070 l
0.4462 0.2070 l
0.4466 0.2070 l
0.4470 0.2070 l
0.4474 0.2070 l
0.4478 0.2070 l
0.4482 0.2070 l
0.4486 0.2070 l
0.4490 0.2070 l
0.4494 0.2070 l
0.4498 0.2070 l
0.4502 0.2070 l
0.4506 0.2070 l
0.4510 0.2070 l
0.4514 0.2070 l
0.4518 0.2070 l
0.4522 0.2070 l
0.4526 0.2070 l
0.4530 0.2070 l
0.4534 0.2070 l
0.4538 0.2070 l
0.4542 0.2070 l
0.4546 0.2070 l
0.4550 0.2070 l
0.4554 0.2070 l
0.4558 0.2070 l
0.4562 0.2070 l
0.4566 0.2306 l
0.4570 0.2261 l
0.4574 0.2261 l
0.4578 0.2261 l
0.4582 0.2261 l
0.4586 0.2261 l
0.4590 0.2261 l
0.4594 0.2261 l
0.4598 0.2261 l
0.4602 0.2261 l
0.4606 0.2261 l
0.4610 0.2261 l
0.4614 0.2261 l
0.4618 0.2261 l
0.4622 0.2261 l
0.4626 0.2261 l
0.4630 0.2261 l
0.4634 0.2261 l
0.4638 0.2261 l
0.4642 0.2261 l
0.4646 0.2261 l
0.4650 0.2261 l
0.4654 0.2261 l
0.4658 0.2261 l
0.4662 0.2261 l
0.4666 0.2261 l
0.4670 0.2261 l
0.4674 0.2261 l
0.4678 0.2261 l
0.4682 0.2261 l
0.4686 0.2261 l
0.4690 0.2261 l
0.4694 0.2261 l
0.4698 0.2261 l
0.4702 0.2261 l
0.4706 0.2261 l
0.4710 0.2261 l
0.4714 0.2261 l
0.4718 0.2261 l
0.4722 0.2261 l
0.4726 0.2353 l
0.4730 0.2329 l
0.4734 0.2329 l
0.4738 0.2329 l
0.4742 0.2329 l
0.4746 0.2329 l
0.4750 0.2329 l
0.4754 0.2329 l
0.4758 0.2329 l
0.4762 0.2329 l
0.4766 0.2329 l
0.4770 0.2329 l
0.4774 0.2329 l
0.4778 0.2329 l
0.4782 0.2329 l
0.4786 0.2329 l
0.4790 0.2329 l
0.4794 0.2329 l
0.4798 0.2329 l
0.4802 0.2329 l
0.4806 0.2329 l
0.4810 0.2329 l
0.4814 0.2329 l
0.4818 0.2329 l
0.4822 0.2329 l
0.4825 0.2329 l
0.4829 0.2329 l
0.4833 0.2329 l
0.4837 0.2329 l
0.4841 0.2329 l
0.4845 0.2329 l
0.4849 0.2329 l
0.4853 0.2329 l
0.4857 0.2329 l
0.4861 0.2329 l
0.4865 0.2329 l
0.4869 0.2329 l
0.4873 0.2329 l
0.4877 0.2329 l
0.4881 0.2329 l
0.4885 0.2329 l
0.4889 0.2329 l
0.4893 0.2329 l
0.4897 0.2329 l
0.4901 0.2329 l
0.4905 0.2329 l
0.4909 0.2329 l
0.4913 0.2329 l
0.4917 0.2329 l
0.4921 0.2329 l
0.4925 0.2329 l
0.4929 0.2329 l
0.4933 0.2329 l
0.4937 0.2329 l
0.4941 0.2329 l
0.4945 0.2329 l
0.4949 0.2329 l
0.4953 0.2329 l
0.4957 0.2329 l
0.4961 0.2329 l
0.4965 0.2329 l
0.4969 0.2329 l
0.4973 0.2329 l
0.4977 0.2329 l
0.4981 0.2329 l
0.4985 0.2329 l
0.4989 0.2329 l
0.4993 0.2329 l
0.4997 0.2329 l
0.5001 0.2329 l
0.5005 0.2329 l
0.5009 0.2329 l
0.5013 0.2329 l
0.5017 0.2329 l
0.5021 0.2329 l
0.5025 0.2329 l
0.5029 0.2329 l
0.5033 0.2329 l
0.5037 0.2329 l
0.5041 0.2329 l
0.5045 0.2329 l
0.5049 0.2329 l
0.5053 0.2329 l
0.5057 0.2329 l
0.5061 0.2329 l
0.5065 0.2329 l
0.5069 0.2329 l
0.5073 0.2329 l
0.5077 0.2329 l
0.5081 0.2329 l
0.5085 0.2329 l
0.5089 0.2329 l
0.5093 0.2329 l
0.5097 0.2329 l
0.5101 0.2329 l
0.5105 0.2329 l
0.5109 0.2329 l
0.5113 0.2329 l
0.5117 0.2329 l
0.5121 0.2329 l
0.5125 0.2329 l
0.5129 0.2329 l
0.5133 0.2329 l
0.5137 0.2329 l
0.5141 0.2329 l
0.5145 0.2329 l
0.5149 0.2329 l
0.5153 0.2329 l
0.5157 0.2329 l
0.5161 0.2329 l
0.5165 0.2329 l
0.5169 0.2329 l
0.5173 0.2329 l
0.5177 0.2329 l
0.5181 0.2329 l
0.5185 0.2329 l
0.5191 0.2329 l
0.5197 0.2329 l
0.5202 0.2329 l
0.5208 0.2329 l
0.5213 0.2329 l
0.5219 0.2329 l
0.5225 0.2329 l
0.5230 0.2329 l
0.5236 0.2329 l
0.5242 0.2329 l
0.5247 0.2329 l
0.5253 0.2329 l
0.5259 0.2329 l
0.5264 0.2329 l
0.5270 0.2329 l
0.5276 0.2329 l
0.5281 0.2329 l
0.5287 0.2329 l
0.5293 0.2329 l
0.5298 0.2329 l
0.5306 0.2329 l
0.5314 0.2329 l
0.5322 0.2329 l
0.5330 0.2329 l
0.5338 0.2329 l
0.5346 0.2329 l
0.5354 0.2329 l
0.5362 0.2329 l
0.5370 0.2329 l
0.5378 0.2329 l
0.5390 0.2329 l
0.5401 0.2329 l
0.5412 0.2329 l
0.5423 0.2329 l
0.5435 0.2329 l
0.5451 0.2329 l
0.5467 0.2329 l
0.5483 0.2329 l
0.5505 0.2329 l
0.5537 0.2329 l
0.5582 0.2329 l
0.5646 0.2329 l
0.5678 0.2329 l
0.5710 0.2329 l
0.5733 0.2329 l
0.5756 0.2329 l
0.5778 0.2329 l
0.5794 0.2329 l
0.5810 0.2329 l
0.5826 0.2329 l
0.5842 0.2329 l
0.5858 0.2329 l
0.5869 0.2329 l
0.5881 0.2329 l
0.5892 0.2329 l
0.5903 0.2329 l
0.5915 0.2329 l
0.5926 0.2329 l
0.5937 0.2329 l
0.5949 0.2329 l
0.5960 0.2329 l
0.5971 0.2329 l
0.5982 0.2329 l
0.5994 0.2329 l
0.6002 0.2329 l
0.6010 0.2329 l
0.6018 0.2329 l
0.6026 0.2329 l
0.6034 0.2329 l
0.6042 0.2329 l
0.6050 0.2329 l
0.6058 0.2329 l
0.6066 0.2329 l
0.6074 0.2329 l
0.6082 0.2329 l
0.6090 0.2329 l
0.6098 0.2329 l
0.6106 0.2329 l
0.6114 0.2329 l
0.6122 0.2329 l
0.6130 0.2329 l
0.6138 0.2329 l
0.6146 0.2329 l
0.6154 0.2329 l
0.6162 0.2329 l
0.6170 0.2329 l
0.6178 0.2329 l
0.6186 0.2329 l
0.6194 0.2329 l
0.6202 0.2329 l
0.6210 0.2329 l
0.6215 0.2329 l
0.6221 0.2329 l
0.6227 0.2329 l
0.6232 0.2329 l
0.6238 0.2329 l
0.6244 0.2329 l
0.6249 0.2329 l
0.6255 0.2329 l
0.6260 0.2329 l
0.6266 0.2329 l
0.6272 0.2329 l
0.6277 0.2329 l
0.6283 0.2329 l
0.6289 0.2329 l
0.6294 0.2329 l
0.6300 0.2329 l
0.6306 0.2329 l
0.6311 0.2329 l
0.6317 0.2329 l
0.6323 0.2329 l
0.6328 0.2329 l
0.6334 0.2329 l
0.6340 0.2329 l
0.6345 0.2329 l
0.6351 0.2329 l
0.6357 0.2329 l
0.6362 0.2329 l
0.6368 0.2329 l
0.6373 0.2329 l
0.6379 0.2329 l
0.6385 0.2329 l
0.6390 0.2329 l
0.6396 0.2329 l
0.6402 0.2329 l
0.6407 0.2329 l
0.6413 0.2329 l
0.6419 0.2329 l
0.6424 0.2329 l
0.6430 0.2329 l
0.6436 0.2329 l
0.6441 0.2329 l
0.6447 0.2329 l
0.6453 0.2329 l
0.6458 0.2329 l
0.6464 0.2329 l
0.6470 0.2329 l
0.6475 0.2329 l
0.6481 0.2329 l
0.6487 0.2329 l
0.6492 0.2329 l
0.6498 0.2329 l
0.6503 0.2329 l
0.6509 0.2329 l
0.6515 0.2317 l
0.6520 0.2317 l
0.6526 0.2317 l
0.6532 0.2317 l
0.6537 0.2317 l
0.6543 0.2317 l
0.6549 0.2317 l
0.6554 0.2317 l
0.6560 0.2317 l
0.6566 0.2317 l
0.6571 0.2317 l
0.6577 0.2317 l
0.6583 0.2317 l
0.6588 0.2317 l
0.6594 0.2317 l
0.6600 0.2317 l
0.6605 0.2317 l
0.6611 0.2317 l
0.6617 0.2317 l
0.6622 0.2317 l
0.6628 0.2317 l
0.6633 0.2317 l
0.6639 0.2317 l
0.6643 0.2317 l
0.6647 0.2317 l
0.6651 0.2317 l
0.6655 0.2317 l
0.6659 0.2317 l
0.6663 0.2317 l
0.6667 0.2317 l
0.6671 0.2317 l
0.6675 0.2317 l
0.6679 0.2317 l
0.6683 0.2317 l
0.6687 0.2317 l
0.6691 0.2317 l
0.6695 0.2317 l
0.6699 0.2317 l
0.6703 0.2317 l
0.6707 0.2317 l
0.6711 0.2317 l
0.6715 0.2317 l
0.6719 0.2317 l
0.6723 0.2317 l
0.6727 0.2317 l
0.6731 0.2317 l
0.6735 0.2317 l
0.6739 0.2317 l
0.6743 0.2317 l
0.6747 0.2273 l
0.6751 0.2273 l
0.6755 0.2273 l
0.6759 0.2273 l
0.6763 0.2273 l
0.6767 0.2273 l
0.6771 0.2273 l
0.6775 0.2273 l
0.6779 0.2273 l
0.6783 0.2273 l
0.6787 0.2273 l
0.6791 0.2273 l
0.6795 0.2273 l
0.6799 0.2273 l
0.6803 0.2273 l
0.6807 0.2273 l
0.6811 0.2273 l
0.6815 0.2273 l
0.6819 0.2273 l
0.6823 0.2273 l
0.6827 0.2273 l
0.6831 0.2273 l
0.6835 0.2273 l
0.6839 0.2273 l
0.6843 0.2273 l
0.6847 0.2262 l
0.6851 0.2262 l
0.6855 0.2262 l
0.6859 0.2262 l
0.6863 0.2245 l
0.6867 0.2245 l
0.6871 0.2245 l
0.6875 0.2233 l
0.6879 0.2233 l
0.6883 0.2211 l
0.6887 0.2211 l
0.6891 0.2211 l
0.6895 0.2211 l
0.6899 0.2211 l
0.6903 0.2172 l
0.6907 0.2150 l
0.6911 0.2150 l
0.6915 0.2127 l
0.6919 0.2127 l
0.6923 0.2127 l
0.6927 0.2079 l
0.6931 0.2079 l
0.6935 0.2047 l
0.6939 0.2030 l
0.6943 0.2004 l
0.6947 0.2004 l
0.6951 0.1987 l
0.6955 0.1979 l
0.6959 0.1971 l
0.6963 0.1971 l
0.6967 0.1971 l
0.6971 0.1915 l
0.6975 0.1884 l
0.6979 0.1823 l
0.6983 0.1765 l
0.6987 0.1765 l
0.6991 0.1757 l
0.6995 0.1640 l
0.6999 0.1578 l
0.7001 0.1578 l
s
[] 0 SD
0.0015 SLW
n
0.1500 0.1500 m
0.7000 0.1500 l
s
n
0.1500 0.5000 m
0.7000 0.5000 l
s
n
0.1934 0.1500 m
0.1934 0.1600 l
s
n
0.1934 0.5000 m
0.1934 0.4900 l
s
n
0.3382 0.1500 m
0.3382 0.1600 l
s
n
0.3382 0.5000 m
0.3382 0.4900 l
s
n
0.4829 0.1500 m
0.4829 0.1600 l
s
n
0.4829 0.5000 m
0.4829 0.4900 l
s
n
0.6276 0.1500 m
0.6276 0.1600 l
s
n
0.6276 0.5000 m
0.6276 0.4900 l
s
n
0.2658 0.1500 m
0.2658 0.1700 l
s
n
0.2658 0.5000 m
0.2658 0.4800 l
s
n
0.4105 0.1500 m
0.4105 0.1700 l
s
n
0.4105 0.5000 m
0.4105 0.4800 l
s
n
0.5553 0.1500 m
0.5553 0.1700 l
s
n
0.5553 0.5000 m
0.5553 0.4800 l
s
n
0.7000 0.1500 m
0.7000 0.1700 l
s
n
0.7000 0.5000 m
0.7000 0.4800 l
s
/Times-Roman findfont
dup length dict begin
 {1 index /FID ne {def} {pop pop} ifelse} forall
 /Encoding DefEncoding def
 currentdict
end
/Font0 exch definefont pop
/Font0 FFSF
0.2491 0.1209 m
GS
[0.0280 0.0000 0.0000 0.0280 0 0] CC
(0.5) show
GR
/Font0 FFSF
0.3935 0.1209 m
GS
[0.0280 0.0000 0.0000 0.0280 0 0] CC
(1.0) show
GR
/Font0 FFSF
0.5386 0.1209 m
GS
[0.0280 0.0000 0.0000 0.0280 0 0] CC
(1.5) show
GR
/Font0 FFSF
0.6829 0.1209 m
GS
[0.0280 0.0000 0.0000 0.0280 0 0] CC
(2.0) show
GR
/Font0 FFSF
0.4004 0.0914 m
GS
[0.0280 0.0000 0.0000 0.0280 0 0] CC
(time) show
GR
n
0.1500 0.1500 m
0.1500 0.5000 l
s
n
0.7000 0.1500 m
0.7000 0.5000 l
s
n
0.1500 0.1938 m
0.1600 0.1938 l
s
n
0.7000 0.1938 m
0.6900 0.1938 l
s
n
0.1500 0.2812 m
0.1600 0.2812 l
s
n
0.7000 0.2812 m
0.6900 0.2812 l
s
n
0.1500 0.3688 m
0.1600 0.3688 l
s
n
0.7000 0.3688 m
0.6900 0.3688 l
s
n
0.1500 0.4562 m
0.1600 0.4562 l
s
n
0.7000 0.4562 m
0.6900 0.4562 l
s
n
0.1500 0.1500 m
0.1700 0.1500 l
s
n
0.7000 0.1500 m
0.6800 0.1500 l
s
n
0.1500 0.2375 m
0.1700 0.2375 l
s
n
0.7000 0.2375 m
0.6800 0.2375 l
s
n
0.1500 0.3250 m
0.1700 0.3250 l
s
n
0.7000 0.3250 m
0.6800 0.3250 l
s
n
0.1500 0.4125 m
0.1700 0.4125 l
s
n
0.7000 0.4125 m
0.6800 0.4125 l
s
n
0.1500 0.5000 m
0.1700 0.5000 l
s
n
0.7000 0.5000 m
0.6800 0.5000 l
s
/Font0 FFSF
0.1270 0.1407 m
GS
[0.0280 0.0000 0.0000 0.0280 0 0] CC
(0) show
GR
/Font0 FFSF
0.0710 0.2282 m
GS
[0.0280 0.0000 0.0000 0.0280 0 0] CC
(10000) show
GR
/Font0 FFSF
0.0710 0.3157 m
GS
[0.0280 0.0000 0.0000 0.0280 0 0] CC
(20000) show
GR
/Font0 FFSF
0.0710 0.4032 m
GS
[0.0280 0.0000 0.0000 0.0280 0 0] CC
(30000) show
GR
/Font0 FFSF
0.0710 0.4907 m
GS
[0.0280 0.0000 0.0000 0.0280 0 0] CC
(40000) show
GR
/Font0 FFSF
0.0605 0.2308 m
GS
[0.0000 0.0280 -0.0280 0.0000 0 0] CC
(number of DOFs) show
GR
n
0.1500 0.1500 m
0.1500 0.5000 l
0.7000 0.5000 l
0.7000 0.1500 l
0.1500 0.1500 l
c
s
n
0.5263 0.4650 m
0.5263 0.3533 l
0.6424 0.3533 l
0.6424 0.4650 l
c
[/DeviceRGB] SCS
Color0 SC
fill
[/DeviceRGB] SCS
Color1 SC
n
0.5263 0.4650 m
0.5263 0.3533 l
0.6424 0.3533 l
0.6424 0.4650 l
0.5263 0.4650 l
c
s
/Font0 FFSF
0.5974 0.4432 m
GS
[0.0171 0.0000 0.0000 0.0171 0 0] CC
(p = 1) show
GR
[] 0 SD
0.0023 SLW
n
0.5374 0.4473 m
0.5774 0.4473 l
s
/Font0 FFSF
0.5974 0.4178 m
GS
[0.0171 0.0000 0.0000 0.0171 0 0] CC
(p = 2) show
GR
[0.0113 0.0068 ] 0 SD
0.0023 SLW
n
0.5374 0.4218 m
0.5774 0.4218 l
s
/Font0 FFSF
0.5974 0.3924 m
GS
[0.0171 0.0000 0.0000 0.0171 0 0] CC
(p = 3) show
GR
[0.0023 0.0068 0.0113 0.0068 ] 0 SD
0.0023 SLW
n
0.5374 0.3964 m
0.5774 0.3964 l
s
/Font0 FFSF
0.5974 0.3669 m
GS
[0.0171 0.0000 0.0000 0.0171 0 0] CC
(p = 4) show
GR
[0.0113 0.0068 0.0023 0.0068 0.0113 0.0068 ] 0 SD
0.0023 SLW
n
0.5374 0.3710 m
0.5774 0.3710 l
s
%%Trailer
%%BoundingBox: 23 52 425 303
%%DocumentNeededResources: font Times-Roman
%%EOF
