%!PS-Adobe-2.0 EPSF-2.0
% %BoundingBox: 25.0 334.0 768.0 575.0
%%BoundingBox: 12.5 167.0 384.0 287.5
%%Title: /usr/people/alfred/ALBERTA/DOC/quadratic_dof.eps
%%CreationDate: 9:52 AM March  5, 1997
%%Pages: 1
%%EndComments
%%BeginProlog
%%BeginResource ShowcaseResource
1 setlinejoin
/M  { moveto } bind def /S { show  } bind def
/R { rmoveto } bind def /L { lineto } bind def
/B { newpath 0 0 M 0 1 L 1 1 L 1 0 L closepath } bind def
/CS { closepath stroke } bind def
/S {
    /fixwidth exch def
    dup length /nchars exch def
    dup stringwidth pop
    fixwidth exch sub nchars div
    exch 0 exch ashow
} def
/bwproc {
	rgbproc
	dup length 3 idiv string 0 3 0
	5 -1 roll {
	add 2 1 roll 1 sub dup 0 eq
	{ pop 3 idiv 3 -1 roll dup 4 -1 roll dup
	  3 1 roll 5 -1 roll put 1 add 3 0 }
	{ 2 1 roll } ifelse
	} forall
	pop pop pop
} def
systemdict /colorimage known not {
	/colorimage {
		pop
		pop
		/rgbproc exch def
		{ bwproc } image
	} def
} if
0.500000 0.500000 scale
0 setlinewidth
/drawtri {
/y3 exch def
/x3 exch def
/y2 exch def
/x2 exch def
/y1 exch def
/x1 exch def
0 setgray
newpath
x1 y1 moveto
x2 y2 lineto
x3 y3 lineto
closepath
stroke
} bind def
/filltri {
/y3 exch def
/x3 exch def
/y2 exch def
/x2 exch def
/y1 exch def
/x1 exch def
newpath
x1 y1 moveto
x2 y2 lineto
x3 y3 lineto
closepath
fill
} bind def
/cliptri {
/y3 exch def
/x3 exch def
/y2 exch def
/x2 exch def
/y1 exch def
/x1 exch def
0 setgray
newpath
x1 y1 moveto
x2 y2 lineto
x3 y3 lineto
closepath
clip
} bind def
/imgscanrgb {
gsave
translate
/scandy exch def
/scandx exch def
/istr scandx 3 mul string def
scandx scandy scale
0.500000 0.500000 scale
scandx scandy 8
[scandx 0 0 scandy neg 0 scandy]
{currentfile istr readhexstring pop}
false 3
colorimage
grestore
} bind def
/imgscanbw {
gsave
translate
/scandy exch def
/scandx exch def
/istr scandx string def
scandx scandy scale
0.500000 0.500000 scale
scandx scandy 8
[scandx 0 0 scandy neg 0 scandy]
{currentfile istr readhexstring pop}
image
grestore
} bind def
/showcaseisoencoding [
/.notdef /.notdef /.notdef /.notdef
/.notdef /.notdef /.notdef /.notdef
/.notdef /.notdef /.notdef /.notdef
/.notdef /.notdef /.notdef /.notdef
/.notdef /.notdef /.notdef /.notdef
/.notdef /.notdef /.notdef /.notdef
/.notdef /.notdef /.notdef /.notdef
/.notdef /.notdef /.notdef /.notdef
/space /exclam /quotedbl /numbersign
/dollar /percent /ampersand /quoteright
/parenleft /parenright /asterisk /plus
/comma /minus /period /slash
/zero /one /two /three /four /five /six /seven
/eight /nine /colon /semicolon
/less /equal /greater /question
/at /A /B /C /D /E /F /G
/H /I /J /K /L /M /N /O
/P /Q /R /S /T /U /V /W
/X /Y /Z /bracketleft
/backslash /bracketright /asciicircum /underscore
/quoteleft /a /b /c /d /e /f /g
/h /i /j /k /l /m /n /o
/p /q /r /s /t /u /v /w
/x /y /z /braceleft
/bar /braceright /asciitilde /guilsinglright
/fraction /florin /quotesingle /quotedblleft
/guilsinglleft /fi /fl /endash
/dagger /daggerdbl /bullet /quotesinglbase
/quotedblbase /quotedblright /ellipsis /trademark
/dotlessi /grave /acute /circumflex
/tilde /macron /breve /dotaccent
/dieresis /perthousand /ring /cedilla
/Ydieresis /hungarumlaut /ogonek /caron
/emdash /exclamdown /cent /sterling
/currency /yen /brokenbar /section
/dieresis /copyright /ordfeminine /guillemotleft
/logicalnot /hyphen /registered /macron
/degree /plusminus /twosuperior /threesuperior
/acute /mu /paragraph /periodcentered
/cedilla /onesuperior /ordmasculine /guillemotright
/onequarter /onehalf /threequarters /questiondown
/Agrave /Aacute /Acircumflex /Atilde
/Adieresis /Aring /AE /Ccedilla
/Egrave /Eacute /Ecircumflex /Edieresis
/Igrave /Iacute /Icircumflex /Idieresis
/Eth /Ntilde /Ograve /Oacute
/Ocircumflex /Otilde /Odieresis /multiply
/Oslash /Ugrave /Uacute /Ucircumflex
/Udieresis /Yacute /Thorn /germandbls
/agrave /aacute /acircumflex /atilde
/adieresis /aring /ae /ccedilla
/egrave /eacute /ecircumflex /edieresis
/igrave /iacute /icircumflex /idieresis
/eth /ntilde /ograve /oacute
/ocircumflex /otilde /odieresis /divide
/oslash /ugrave /uacute /ucircumflex
/udieresis /yacute /thorn /ydieresis ] def
/showcasedingbatencoding [
/.notdef /.notdef /.notdef /.notdef
/.notdef /.notdef /.notdef /.notdef
/.notdef /.notdef /.notdef /.notdef
/.notdef /.notdef /.notdef /.notdef
/.notdef /.notdef /.notdef /.notdef
/.notdef /.notdef /.notdef /.notdef
/.notdef /.notdef /.notdef /.notdef
/.notdef /.notdef /.notdef /.notdef
/.notdef /a1 /a2 /a202 /a3 /a4 /a5 /a119 /a118 /a117
/a11 /a12 /a13 /a14 /a15 /a16 /a105 /a17 /a18 /a19
/a20 /a21 /a22 /a23 /a24 /a25 /a26 /a27 /a28 /a6 /a7
/a8 /a9 /a10 /a29
/a30 /a31 /a32 /a33 /a34 /a35 /a36 /a37 /a38 /a39
/a40 /a41 /a42 /a43 /a44 /a45 /a46 /a47 /a48 /a49
/a50 /a51 /a52 /a53 /a54 /a55 /a56 /a57 /a58 /a59
/a60 /a61 /a62 /a63 /a64 /a65 /a66 /a67 /a68 /a69
/a70 /a71 /a72 /a73 /a74 /a203 /a75 /a204 /a76 /a77 /a78
/a79 /a81 /a82 /a83 /a84 /a97 /a98 /a99 /a100 /.notdef
/a205 /a85 /a206 /a86 /a87 /a88 /a89 /a90 /a91 /a92 /a93
/a94 /a95 /a96
/.notdef /.notdef /.notdef /.notdef /.notdef /.notdef
/.notdef /.notdef /.notdef /.notdef /.notdef /.notdef
/.notdef /.notdef /.notdef /.notdef /.notdef /.notdef
/.notdef /a101 /a102 /a103 /a104 /a106 /a107 /a108
/a112 /a111 /a110 /a109
/a120 /a121 /a122 /a123 /a124 /a125 /a126 /a127 /a128 /a129
/a130 /a131 /a132 /a133 /a134 /a135 /a136 /a137 /a138 /a139
/a140 /a141 /a142 /a143 /a144 /a145 /a146 /a147 /a148 /a149
/a150 /a151 /a152 /a153 /a154 /a155 /a156 /a157 /a158 /a159
/a160 /a161 /a163 /a164 /a196 /a165 /a192 /a166 /a167 /a168
/a169 /a170 /a171 /a172 /a173 /a162 /a174 /a175 /a176 /a177
/a178 /a179 /a193 /a180 /a199 /a181 /a200 /a182 /.notdef
/a201 /a183 /a184 /a197 /a185 /a194 /a198 /a186 /a195 /a187
/a188 /a189 /a190 /a191 /.notdef
] def
/Helvetica findfont
dup length dict begin
  {1 index /FID ne {def} {pop pop} ifelse} forall
  /Encoding showcaseisoencoding def
  currentdict
end
/Helvetica-SHOWISO exch definefont pop
/Courier findfont
dup length dict begin
  {1 index /FID ne {def} {pop pop} ifelse} forall
  /Encoding showcaseisoencoding def
  currentdict
end
/Courier-SHOWISO exch definefont pop
/newfont 10 dict def
newfont begin

 /FontType 3 def
 /FontMatrix [1 0 0 1 0 0] def
 /FontBBox [0 0 1 1] def
 /Encoding 256 array def
 0 1 255 {Encoding exch /.notdef put} for

 /CharProcs 1 dict def
 CharProcs begin
 /.notdef {} def

end

 /BuildChar {
  1 0
  0 0 1 1
  setcachedevice
  exch begin
  Encoding exch get
  CharProcs exch get
  end
  exec
 } def
end
/PatternFont newfont definefont pop

%%EndResource
%%EndProlog
%%BeginSetup
%%EndSetup
%%Page: label 1
gsave
/saveit save def
gsave
gsave
0 0 0 setrgbcolor
1.000000 setlinewidth
newpath
216 540 M
90 414 L
270 360 L
closepath
stroke
grestore
gsave
gsave
matrix currentmatrix
[1 0 0 1 107 409.5] concat
newpath
0 0 M 0 18 L 12.8 18 L 12.8 0 L
closepath setmatrix
0 0 0 setrgbcolor
grestore
newpath
105 407.5 M 105 429.5 L 121.8 429.5 L 121.8 407.5 L
closepath clip newpath
0 0 0 setrgbcolor
matrix currentmatrix
[1 0 0 1 107 409.5] concat
/Courier-SHOWISO findfont 18 scalefont setfont
0 0 0 setrgbcolor
0 3.78947 M (0) 10.8 S
setmatrix
grestore
gsave
gsave
matrix currentmatrix
[1 0 0 1 247.5 369] concat
newpath
0 0 M 0 18 L 12.8 18 L 12.8 0 L
closepath setmatrix
0 0 0 setrgbcolor
grestore
newpath
245.5 367 M 245.5 389 L 262.3 389 L 262.3 367 L
closepath clip newpath
0 0 0 setrgbcolor
matrix currentmatrix
[1 0 0 1 247.5 369] concat
/Courier-SHOWISO findfont 18 scalefont setfont
0 0 0 setrgbcolor
0 3.78947 M (1) 10.8 S
setmatrix
grestore
gsave
gsave
matrix currentmatrix
[1 0 0 1 207 508.5] concat
newpath
0 0 M 0 18 L 12.8 18 L 12.8 0 L
closepath setmatrix
0 0 0 setrgbcolor
grestore
newpath
205 506.5 M 205 528.5 L 221.8 528.5 L 221.8 506.5 L
closepath clip newpath
0 0 0 setrgbcolor
matrix currentmatrix
[1 0 0 1 207 508.5] concat
/Courier-SHOWISO findfont 18 scalefont setfont
0 0 0 setrgbcolor
0 3.78947 M (2) 10.8 S
setmatrix
grestore
gsave
gsave
matrix currentmatrix
[1 0 0 1 25.5 408.5] concat
newpath
0 0 M 0 14 L 59.596 14 L 59.596 0 L
closepath setmatrix
0 0 0 setrgbcolor
grestore
newpath
23.5 406.5 M 23.5 424.971 L 87.096 424.971 L 87.096 406.5 L
closepath clip newpath
0 0 0 setrgbcolor
matrix currentmatrix
[1 0 0 1 25.5 408.5] concat
/Helvetica-SHOWISO findfont 14 scalefont setfont
0 0 0 setrgbcolor
0 2.47059 M (dof[0][nv) 53.704 S
53.704 2.47059 M (]) 3.892 S
setmatrix
grestore
gsave
gsave
matrix currentmatrix
[1 0 0 1 274 348.5] concat
newpath
0 0 M 0 14 L 59.596 14 L 59.596 0 L
closepath setmatrix
0 0 0 setrgbcolor
grestore
newpath
272 346.5 M 272 364.971 L 335.596 364.971 L 335.596 346.5 L
closepath clip newpath
0 0 0 setrgbcolor
matrix currentmatrix
[1 0 0 1 274 348.5] concat
/Helvetica-SHOWISO findfont 14 scalefont setfont
0 0 0 setrgbcolor
0 2.47059 M (dof[1][nv) 53.704 S
53.704 2.47059 M (]) 3.892 S
setmatrix
grestore
gsave
gsave
matrix currentmatrix
[1 0 0 1 189 539.5] concat
newpath
0 0 M 0 14 L 59.596 14 L 59.596 0 L
closepath setmatrix
0 0 0 setrgbcolor
grestore
newpath
187 537.5 M 187 555.971 L 250.596 555.971 L 250.596 537.5 L
closepath clip newpath
0 0 0 setrgbcolor
matrix currentmatrix
[1 0 0 1 189 539.5] concat
/Helvetica-SHOWISO findfont 14 scalefont setfont
0 0 0 setrgbcolor
0 2.47059 M (dof[2][nv) 53.704 S
53.704 2.47059 M (]) 3.892 S
setmatrix
grestore
gsave
gsave
matrix currentmatrix
[1 0 0 1 130 369] concat
newpath
0 0 M 0 14 L 60.38 14 L 60.38 0 L
closepath setmatrix
0 0 0 setrgbcolor
grestore
newpath
128 367 M 128 385.471 L 192.38 385.471 L 192.38 367 L
closepath clip newpath
0 0 0 setrgbcolor
matrix currentmatrix
[1 0 0 1 130 369] concat
/Helvetica-SHOWISO findfont 14 scalefont setfont
0 0 0 setrgbcolor
0 2.47059 M (dof[5) 31.136 S
31.136 2.47059 M (][ne]) 27.244 S
setmatrix
grestore
gsave
gsave
matrix currentmatrix
[1 0 0 1 248 442] concat
newpath
0 0 M 0 14 L 60.38 14 L 60.38 0 L
closepath setmatrix
0 0 0 setrgbcolor
grestore
newpath
246 440 M 246 458.471 L 310.38 458.471 L 310.38 440 L
closepath clip newpath
0 0 0 setrgbcolor
matrix currentmatrix
[1 0 0 1 248 442] concat
/Helvetica-SHOWISO findfont 14 scalefont setfont
0 0 0 setrgbcolor
0 2.47059 M (dof[3) 31.136 S
31.136 2.47059 M (][ne]) 27.244 S
setmatrix
grestore
gsave
gsave
matrix currentmatrix
[1 0 0 1 91 476] concat
newpath
0 0 M 0 14 L 60.38 14 L 60.38 0 L
closepath setmatrix
0 0 0 setrgbcolor
grestore
newpath
89 474 M 89 492.471 L 153.38 492.471 L 153.38 474 L
closepath clip newpath
0 0 0 setrgbcolor
matrix currentmatrix
[1 0 0 1 91 476] concat
/Helvetica-SHOWISO findfont 14 scalefont setfont
0 0 0 setrgbcolor
0 2.47059 M (dof[4) 31.136 S
31.136 2.47059 M (][ne]) 27.244 S
setmatrix
grestore
gsave
gsave
matrix currentmatrix
[1 0 0 1 226 437] concat
newpath
0 0 M 0 18 L 12.8 18 L 12.8 0 L
closepath setmatrix
0 0 0 setrgbcolor
grestore
newpath
224 435 M 224 457 L 240.8 457 L 240.8 435 L
closepath clip newpath
0 0 0 setrgbcolor
matrix currentmatrix
[1 0 0 1 226 437] concat
/Courier-SHOWISO findfont 18 scalefont setfont
0 0 0 setrgbcolor
0 3.78947 M (3) 10.8 S
setmatrix
grestore
gsave
gsave
matrix currentmatrix
[1 0 0 1 159 460] concat
newpath
0 0 M 0 18 L 12.8 18 L 12.8 0 L
closepath setmatrix
0 0 0 setrgbcolor
grestore
newpath
157 458 M 157 480 L 173.8 480 L 173.8 458 L
closepath clip newpath
0 0 0 setrgbcolor
matrix currentmatrix
[1 0 0 1 159 460] concat
/Courier-SHOWISO findfont 18 scalefont setfont
0 0 0 setrgbcolor
0 3.78947 M (4) 10.8 S
setmatrix
grestore
gsave
gsave
matrix currentmatrix
[1 0 0 1 177 393] concat
newpath
0 0 M 0 18 L 12.8 18 L 12.8 0 L
closepath setmatrix
0 0 0 setrgbcolor
grestore
newpath
175 391 M 175 413 L 191.8 413 L 191.8 391 L
closepath clip newpath
0 0 0 setrgbcolor
matrix currentmatrix
[1 0 0 1 177 393] concat
/Courier-SHOWISO findfont 18 scalefont setfont
0 0 0 setrgbcolor
0 3.78947 M (5) 10.8 S
setmatrix
grestore
gsave
0 0 0 setrgbcolor
1.000000 setlinewidth
newpath
432 446.538 M
558 351 L
702 398.769 L
666 558 L
558 351 L
stroke
grestore
gsave
0 0 0 setrgbcolor
1.000000 setlinewidth
newpath
666 558 M
432 446.538 L
stroke
grestore
gsave
0 0 0 setrgbcolor
1.000000 setlinewidth
[4] 0 setdash
newpath
432 446.538 M
702 398.769 L
stroke
grestore
gsave
gsave
matrix currentmatrix
[1 0 0 1 448 434] concat
newpath
0 0 M 0 18 L 12.8 18 L 12.8 0 L
closepath setmatrix
0 0 0 setrgbcolor
grestore
newpath
446 432 M 446 454 L 462.8 454 L 462.8 432 L
closepath clip newpath
0 0 0 setrgbcolor
matrix currentmatrix
[1 0 0 1 448 434] concat
/Courier-SHOWISO findfont 18 scalefont setfont
0 0 0 setrgbcolor
0 3.78947 M (0) 10.8 S
setmatrix
grestore
gsave
gsave
matrix currentmatrix
[1 0 0 1 553 356] concat
newpath
0 0 M 0 18 L 12.8 18 L 12.8 0 L
closepath setmatrix
0 0 0 setrgbcolor
grestore
newpath
551 354 M 551 376 L 567.8 376 L 567.8 354 L
closepath clip newpath
0 0 0 setrgbcolor
matrix currentmatrix
[1 0 0 1 553 356] concat
/Courier-SHOWISO findfont 18 scalefont setfont
0 0 0 setrgbcolor
0 3.78947 M (1) 10.8 S
setmatrix
grestore
gsave
gsave
matrix currentmatrix
[1 0 0 1 687 395] concat
newpath
0 0 M 0 18 L 12.8 18 L 12.8 0 L
closepath setmatrix
0 0 0 setrgbcolor
grestore
newpath
685 393 M 685 415 L 701.8 415 L 701.8 393 L
closepath clip newpath
0 0 0 setrgbcolor
matrix currentmatrix
[1 0 0 1 687 395] concat
/Courier-SHOWISO findfont 18 scalefont setfont
0 0 0 setrgbcolor
0 3.78947 M (2) 10.8 S
setmatrix
grestore
gsave
gsave
matrix currentmatrix
[1 0 0 1 658 531] concat
newpath
0 0 M 0 18 L 12.8 18 L 12.8 0 L
closepath setmatrix
0 0 0 setrgbcolor
grestore
newpath
656 529 M 656 551 L 672.8 551 L 672.8 529 L
closepath clip newpath
0 0 0 setrgbcolor
matrix currentmatrix
[1 0 0 1 658 531] concat
/Courier-SHOWISO findfont 18 scalefont setfont
0 0 0 setrgbcolor
0 3.78947 M (3) 10.8 S
setmatrix
grestore
gsave
gsave
matrix currentmatrix
[1 0 0 1 498 392] concat
newpath
0 0 M 0 18 L 12.8 18 L 12.8 0 L
closepath setmatrix
0 0 0 setrgbcolor
grestore
newpath
496 390 M 496 412 L 512.8 412 L 512.8 390 L
closepath clip newpath
0 0 0 setrgbcolor
matrix currentmatrix
[1 0 0 1 498 392] concat
/Courier-SHOWISO findfont 18 scalefont setfont
0 0 0 setrgbcolor
0 3.78947 M (4) 10.8 S
setmatrix
grestore
gsave
gsave
matrix currentmatrix
[1 0 0 1 562 405] concat
newpath
0 0 M 0 18 L 12.8 18 L 12.8 0 L
closepath setmatrix
0 0 0 setrgbcolor
grestore
newpath
560 403 M 560 425 L 576.8 425 L 576.8 403 L
closepath clip newpath
0 0 0 setrgbcolor
matrix currentmatrix
[1 0 0 1 562 405] concat
/Courier-SHOWISO findfont 18 scalefont setfont
0 0 0 setrgbcolor
0 3.78947 M (5) 10.8 S
setmatrix
grestore
gsave
gsave
matrix currentmatrix
[1 0 0 1 551 486] concat
newpath
0 0 M 0 18 L 12.8 18 L 12.8 0 L
closepath setmatrix
0 0 0 setrgbcolor
grestore
newpath
549 484 M 549 506 L 565.8 506 L 565.8 484 L
closepath clip newpath
0 0 0 setrgbcolor
matrix currentmatrix
[1 0 0 1 551 486] concat
/Courier-SHOWISO findfont 18 scalefont setfont
0 0 0 setrgbcolor
0 3.78947 M (6) 10.8 S
setmatrix
grestore
gsave
gsave
matrix currentmatrix
[1 0 0 1 595 444] concat
newpath
0 0 M 0 18 L 12.8 18 L 12.8 0 L
closepath setmatrix
0 0 0 setrgbcolor
grestore
newpath
593 442 M 593 464 L 609.8 464 L 609.8 442 L
closepath clip newpath
0 0 0 setrgbcolor
matrix currentmatrix
[1 0 0 1 595 444] concat
/Courier-SHOWISO findfont 18 scalefont setfont
0 0 0 setrgbcolor
0 3.78947 M (8) 10.8 S
setmatrix
grestore
gsave
gsave
matrix currentmatrix
[1 0 0 1 622 373] concat
newpath
0 0 M 0 18 L 12.8 18 L 12.8 0 L
closepath setmatrix
0 0 0 setrgbcolor
grestore
newpath
620 371 M 620 393 L 636.8 393 L 636.8 371 L
closepath clip newpath
0 0 0 setrgbcolor
matrix currentmatrix
[1 0 0 1 622 373] concat
/Courier-SHOWISO findfont 18 scalefont setfont
0 0 0 setrgbcolor
0 3.78947 M (7) 10.8 S
setmatrix
grestore
gsave
gsave
matrix currentmatrix
[1 0 0 1 673 457] concat
newpath
0 0 M 0 18 L 12.8 18 L 12.8 0 L
closepath setmatrix
0 0 0 setrgbcolor
grestore
newpath
671 455 M 671 477 L 687.8 477 L 687.8 455 L
closepath clip newpath
0 0 0 setrgbcolor
matrix currentmatrix
[1 0 0 1 673 457] concat
/Courier-SHOWISO findfont 18 scalefont setfont
0 0 0 setrgbcolor
0 3.78947 M (9) 10.8 S
setmatrix
grestore
gsave
gsave
matrix currentmatrix
[1 0 0 1 367 440] concat
newpath
0 0 M 0 14 L 59.596 14 L 59.596 0 L
closepath setmatrix
0 0 0 setrgbcolor
grestore
newpath
365 438 M 365 456.471 L 428.596 456.471 L 428.596 438 L
closepath clip newpath
0 0 0 setrgbcolor
matrix currentmatrix
[1 0 0 1 367 440] concat
/Helvetica-SHOWISO findfont 14 scalefont setfont
0 0 0 setrgbcolor
0 2.47059 M (dof[0][nv]) 57.596 S
setmatrix
grestore
gsave
gsave
matrix currentmatrix
[1 0 0 1 533 334] concat
newpath
0 0 M 0 14 L 59.596 14 L 59.596 0 L
closepath setmatrix
0 0 0 setrgbcolor
grestore
newpath
531 332 M 531 350.471 L 594.596 350.471 L 594.596 332 L
closepath clip newpath
0 0 0 setrgbcolor
matrix currentmatrix
[1 0 0 1 533 334] concat
/Helvetica-SHOWISO findfont 14 scalefont setfont
0 0 0 setrgbcolor
0 2.47059 M (dof[1) 31.136 S
31.136 2.47059 M (][nv]) 26.46 S
setmatrix
grestore
gsave
gsave
matrix currentmatrix
[1 0 0 1 708 393] concat
newpath
0 0 M 0 14 L 59.596 14 L 59.596 0 L
closepath setmatrix
0 0 0 setrgbcolor
grestore
newpath
706 391 M 706 409.471 L 769.596 409.471 L 769.596 391 L
closepath clip newpath
0 0 0 setrgbcolor
matrix currentmatrix
[1 0 0 1 708 393] concat
/Helvetica-SHOWISO findfont 14 scalefont setfont
0 0 0 setrgbcolor
0 2.47059 M (dof[2) 31.136 S
31.136 2.47059 M (][nv]) 26.46 S
setmatrix
grestore
gsave
gsave
matrix currentmatrix
[1 0 0 1 641 561] concat
newpath
0 0 M 0 14 L 59.596 14 L 59.596 0 L
closepath setmatrix
0 0 0 setrgbcolor
grestore
newpath
639 559 M 639 577.471 L 702.596 577.471 L 702.596 559 L
closepath clip newpath
0 0 0 setrgbcolor
matrix currentmatrix
[1 0 0 1 641 561] concat
/Helvetica-SHOWISO findfont 14 scalefont setfont
0 0 0 setrgbcolor
0 2.47059 M (dof[3) 31.136 S
31.136 2.47059 M (][nv]) 26.46 S
setmatrix
grestore
gsave
gsave
matrix currentmatrix
[1 0 0 1 431 383] concat
newpath
0 0 M 0 14 L 60.38 14 L 60.38 0 L
closepath setmatrix
0 0 0 setrgbcolor
grestore
newpath
429 381 M 429 399.471 L 493.38 399.471 L 493.38 381 L
closepath clip newpath
0 0 0 setrgbcolor
matrix currentmatrix
[1 0 0 1 431 383] concat
/Helvetica-SHOWISO findfont 14 scalefont setfont
0 0 0 setrgbcolor
0 2.47059 M (dof[4][ne]) 58.38 S
setmatrix
grestore
gsave
gsave
matrix currentmatrix
[1 0 0 1 571 425] concat
newpath
0 0 M 0 14 L 60.38 14 L 60.38 0 L
closepath setmatrix
0 0 0 setrgbcolor
grestore
newpath
569 423 M 569 441.471 L 633.38 441.471 L 633.38 423 L
closepath clip newpath
0 0 0 setrgbcolor
matrix currentmatrix
[1 0 0 1 571 425] concat
/Helvetica-SHOWISO findfont 14 scalefont setfont
0 0 0 setrgbcolor
0 2.47059 M (dof[5) 31.136 S
31.136 2.47059 M (][ne]) 27.244 S
setmatrix
grestore
gsave
gsave
matrix currentmatrix
[1 0 0 1 490 507] concat
newpath
0 0 M 0 14 L 60.38 14 L 60.38 0 L
closepath setmatrix
0 0 0 setrgbcolor
grestore
newpath
488 505 M 488 523.471 L 552.38 523.471 L 552.38 505 L
closepath clip newpath
0 0 0 setrgbcolor
matrix currentmatrix
[1 0 0 1 490 507] concat
/Helvetica-SHOWISO findfont 14 scalefont setfont
0 0 0 setrgbcolor
0 2.47059 M (dof[6) 31.136 S
31.136 2.47059 M (][ne]) 27.244 S
setmatrix
grestore
gsave
gsave
matrix currentmatrix
[1 0 0 1 611 446] concat
newpath
0 0 M 0 14 L 60.38 14 L 60.38 0 L
closepath setmatrix
0 0 0 setrgbcolor
grestore
newpath
609 444 M 609 462.471 L 673.38 462.471 L 673.38 444 L
closepath clip newpath
0 0 0 setrgbcolor
matrix currentmatrix
[1 0 0 1 611 446] concat
/Helvetica-SHOWISO findfont 14 scalefont setfont
0 0 0 setrgbcolor
0 2.47059 M (dof[8) 31.136 S
31.136 2.47059 M (][ne]) 27.244 S
setmatrix
grestore
gsave
gsave
matrix currentmatrix
[1 0 0 1 628 362] concat
newpath
0 0 M 0 14 L 60.38 14 L 60.38 0 L
closepath setmatrix
0 0 0 setrgbcolor
grestore
newpath
626 360 M 626 378.471 L 690.38 378.471 L 690.38 360 L
closepath clip newpath
0 0 0 setrgbcolor
matrix currentmatrix
[1 0 0 1 628 362] concat
/Helvetica-SHOWISO findfont 14 scalefont setfont
0 0 0 setrgbcolor
0 2.47059 M (dof[7) 31.136 S
31.136 2.47059 M (][ne]) 27.244 S
setmatrix
grestore
gsave
gsave
matrix currentmatrix
[1 0 0 1 692 464] concat
newpath
0 0 M 0 14 L 60.38 14 L 60.38 0 L
closepath setmatrix
0 0 0 setrgbcolor
grestore
newpath
690 462 M 690 480.471 L 754.38 480.471 L 754.38 462 L
closepath clip newpath
0 0 0 setrgbcolor
matrix currentmatrix
[1 0 0 1 692 464] concat
/Helvetica-SHOWISO findfont 14 scalefont setfont
0 0 0 setrgbcolor
0 2.47059 M (dof[9) 31.136 S
31.136 2.47059 M (][ne]) 27.244 S
setmatrix
grestore
grestore
showpage
saveit restore
grestore
%%EOF
