%!PS-Adobe-2.0 EPSF-2.0
% %BoundingBox: 5.0 202.0 781.0 918.0
%%BoundingBox: 2.5 101.0 390.5 459.0
%%Title: /tmp_mnt/hosts/xtreme/mnt2/ALBERTA/DOC/ref_tetra_gen.eps
%%CreationDate: 5:29 PM August 14, 1997
%%Pages: 1
%%EndComments
%%BeginProlog
%%BeginResource ShowcaseResource
1 setlinejoin
/M  { moveto } bind def /S { show  } bind def
/R { rmoveto } bind def /L { lineto } bind def
/B { newpath 0 0 M 0 1 L 1 1 L 1 0 L closepath } bind def
/CS { closepath stroke } bind def
/S {
    /fixwidth exch def
    dup length /nchars exch def
    dup stringwidth pop
    fixwidth exch sub nchars div
    exch 0 exch ashow
} def
/bwproc {
	rgbproc
	dup length 3 idiv string 0 3 0
	5 -1 roll {
	add 2 1 roll 1 sub dup 0 eq
	{ pop 3 idiv 3 -1 roll dup 4 -1 roll dup
	  3 1 roll 5 -1 roll put 1 add 3 0 }
	{ 2 1 roll } ifelse
	} forall
	pop pop pop
} def
systemdict /colorimage known not {
	/colorimage {
		pop
		pop
		/rgbproc exch def
		{ bwproc } image
	} def
} if
0.500000 0.500000 scale
0 setlinewidth
/drawtri {
/y3 exch def
/x3 exch def
/y2 exch def
/x2 exch def
/y1 exch def
/x1 exch def
0 setgray
newpath
x1 y1 moveto
x2 y2 lineto
x3 y3 lineto
closepath
stroke
} bind def
/filltri {
/y3 exch def
/x3 exch def
/y2 exch def
/x2 exch def
/y1 exch def
/x1 exch def
newpath
x1 y1 moveto
x2 y2 lineto
x3 y3 lineto
closepath
fill
} bind def
/cliptri {
/y3 exch def
/x3 exch def
/y2 exch def
/x2 exch def
/y1 exch def
/x1 exch def
0 setgray
newpath
x1 y1 moveto
x2 y2 lineto
x3 y3 lineto
closepath
clip
} bind def
/imgscanrgb {
gsave
translate
/scandy exch def
/scandx exch def
/istr scandx 3 mul string def
scandx scandy scale
0.500000 0.500000 scale
scandx scandy 8
[scandx 0 0 scandy neg 0 scandy]
{currentfile istr readhexstring pop}
false 3
colorimage
grestore
} bind def
/imgscanbw {
gsave
translate
/scandy exch def
/scandx exch def
/istr scandx string def
scandx scandy scale
0.500000 0.500000 scale
scandx scandy 8
[scandx 0 0 scandy neg 0 scandy]
{currentfile istr readhexstring pop}
image
grestore
} bind def
/showcaseisoencoding [
/.notdef /.notdef /.notdef /.notdef
/.notdef /.notdef /.notdef /.notdef
/.notdef /.notdef /.notdef /.notdef
/.notdef /.notdef /.notdef /.notdef
/.notdef /.notdef /.notdef /.notdef
/.notdef /.notdef /.notdef /.notdef
/.notdef /.notdef /.notdef /.notdef
/.notdef /.notdef /.notdef /.notdef
/space /exclam /quotedbl /numbersign
/dollar /percent /ampersand /quoteright
/parenleft /parenright /asterisk /plus
/comma /minus /period /slash
/zero /one /two /three /four /five /six /seven
/eight /nine /colon /semicolon
/less /equal /greater /question
/at /A /B /C /D /E /F /G
/H /I /J /K /L /M /N /O
/P /Q /R /S /T /U /V /W
/X /Y /Z /bracketleft
/backslash /bracketright /asciicircum /underscore
/quoteleft /a /b /c /d /e /f /g
/h /i /j /k /l /m /n /o
/p /q /r /s /t /u /v /w
/x /y /z /braceleft
/bar /braceright /asciitilde /guilsinglright
/fraction /florin /quotesingle /quotedblleft
/guilsinglleft /fi /fl /endash
/dagger /daggerdbl /bullet /quotesinglbase
/quotedblbase /quotedblright /ellipsis /trademark
/dotlessi /grave /acute /circumflex
/tilde /macron /breve /dotaccent
/dieresis /perthousand /ring /cedilla
/Ydieresis /hungarumlaut /ogonek /caron
/emdash /exclamdown /cent /sterling
/currency /yen /brokenbar /section
/dieresis /copyright /ordfeminine /guillemotleft
/logicalnot /hyphen /registered /macron
/degree /plusminus /twosuperior /threesuperior
/acute /mu /paragraph /periodcentered
/cedilla /onesuperior /ordmasculine /guillemotright
/onequarter /onehalf /threequarters /questiondown
/Agrave /Aacute /Acircumflex /Atilde
/Adieresis /Aring /AE /Ccedilla
/Egrave /Eacute /Ecircumflex /Edieresis
/Igrave /Iacute /Icircumflex /Idieresis
/Eth /Ntilde /Ograve /Oacute
/Ocircumflex /Otilde /Odieresis /multiply
/Oslash /Ugrave /Uacute /Ucircumflex
/Udieresis /Yacute /Thorn /germandbls
/agrave /aacute /acircumflex /atilde
/adieresis /aring /ae /ccedilla
/egrave /eacute /ecircumflex /edieresis
/igrave /iacute /icircumflex /idieresis
/eth /ntilde /ograve /oacute
/ocircumflex /otilde /odieresis /divide
/oslash /ugrave /uacute /ucircumflex
/udieresis /yacute /thorn /ydieresis ] def
/showcasedingbatencoding [
/.notdef /.notdef /.notdef /.notdef
/.notdef /.notdef /.notdef /.notdef
/.notdef /.notdef /.notdef /.notdef
/.notdef /.notdef /.notdef /.notdef
/.notdef /.notdef /.notdef /.notdef
/.notdef /.notdef /.notdef /.notdef
/.notdef /.notdef /.notdef /.notdef
/.notdef /.notdef /.notdef /.notdef
/.notdef /a1 /a2 /a202 /a3 /a4 /a5 /a119 /a118 /a117
/a11 /a12 /a13 /a14 /a15 /a16 /a105 /a17 /a18 /a19
/a20 /a21 /a22 /a23 /a24 /a25 /a26 /a27 /a28 /a6 /a7
/a8 /a9 /a10 /a29
/a30 /a31 /a32 /a33 /a34 /a35 /a36 /a37 /a38 /a39
/a40 /a41 /a42 /a43 /a44 /a45 /a46 /a47 /a48 /a49
/a50 /a51 /a52 /a53 /a54 /a55 /a56 /a57 /a58 /a59
/a60 /a61 /a62 /a63 /a64 /a65 /a66 /a67 /a68 /a69
/a70 /a71 /a72 /a73 /a74 /a203 /a75 /a204 /a76 /a77 /a78
/a79 /a81 /a82 /a83 /a84 /a97 /a98 /a99 /a100 /.notdef
/a205 /a85 /a206 /a86 /a87 /a88 /a89 /a90 /a91 /a92 /a93
/a94 /a95 /a96
/.notdef /.notdef /.notdef /.notdef /.notdef /.notdef
/.notdef /.notdef /.notdef /.notdef /.notdef /.notdef
/.notdef /.notdef /.notdef /.notdef /.notdef /.notdef
/.notdef /a101 /a102 /a103 /a104 /a106 /a107 /a108
/a112 /a111 /a110 /a109
/a120 /a121 /a122 /a123 /a124 /a125 /a126 /a127 /a128 /a129
/a130 /a131 /a132 /a133 /a134 /a135 /a136 /a137 /a138 /a139
/a140 /a141 /a142 /a143 /a144 /a145 /a146 /a147 /a148 /a149
/a150 /a151 /a152 /a153 /a154 /a155 /a156 /a157 /a158 /a159
/a160 /a161 /a163 /a164 /a196 /a165 /a192 /a166 /a167 /a168
/a169 /a170 /a171 /a172 /a173 /a162 /a174 /a175 /a176 /a177
/a178 /a179 /a193 /a180 /a199 /a181 /a200 /a182 /.notdef
/a201 /a183 /a184 /a197 /a185 /a194 /a198 /a186 /a195 /a187
/a188 /a189 /a190 /a191 /.notdef
] def
/Times-Roman findfont
dup length dict begin
  {1 index /FID ne {def} {pop pop} ifelse} forall
  /Encoding showcaseisoencoding def
  currentdict
end
/Times-Roman-SHOWISO exch definefont pop
/Symbol findfont
dup length dict begin
  {1 index /FID ne {def} {pop pop} ifelse} forall
  currentdict
end
/Symbol-SHOWISO exch definefont pop
/newfont 10 dict def
newfont begin

 /FontType 3 def
 /FontMatrix [1 0 0 1 0 0] def
 /FontBBox [0 0 1 1] def
 /Encoding 256 array def
 0 1 255 {Encoding exch /.notdef put} for

 /CharProcs 1 dict def
 CharProcs begin
 /.notdef {} def

end

 /BuildChar {
  1 0
  0 0 1 1
  setcachedevice
  exch begin
  Encoding exch get
  CharProcs exch get
  end
  exec
 } def
end
/PatternFont newfont definefont pop

%%EndResource
%%EndProlog
%%BeginSetup
%%EndSetup
%%Page: label 1
gsave
/saveit save def
gsave
gsave
0 0 0 setrgbcolor
1.000000 setlinewidth
newpath
522 270 M
504 315 L
576 306 L
stroke
grestore
gsave
0 0 0 setrgbcolor
1.000000 setlinewidth
newpath
459 351 M
522 270 L
stroke
grestore
gsave
0 0 0 setrgbcolor
1.000000 setlinewidth
newpath
459 351 M
576 306 L
stroke
grestore
gsave
gsave
matrix currentmatrix
[1 0 0 1 567 306] concat
newpath
0 0 M 0 18 L 11 18 L 11 0 L
closepath setmatrix
0 0 0 setrgbcolor
grestore
newpath
565 304 M 565 326.429 L 580 326.429 L 580 304 L
closepath clip newpath
0 0 0 setrgbcolor
matrix currentmatrix
[1 0 0 1 567 306] concat
/Times-Roman-SHOWISO findfont 18 scalefont setfont
0 0 0 setrgbcolor
0 3.42857 M (0) 9 S
setmatrix
grestore
gsave
gsave
matrix currentmatrix
[1 0 0 1 504 310.5] concat
newpath
0 0 M 0 18 L 11 18 L 11 0 L
closepath setmatrix
0 0 0 setrgbcolor
grestore
newpath
502 308.5 M 502 330.929 L 517 330.929 L 517 308.5 L
closepath clip newpath
0 0 0 setrgbcolor
matrix currentmatrix
[1 0 0 1 504 310.5] concat
/Times-Roman-SHOWISO findfont 18 scalefont setfont
0 0 0 setrgbcolor
0 3.42857 M (2) 9 S
setmatrix
grestore
gsave
0 0 0 setrgbcolor
1.000000 setlinewidth
newpath
504 315 M
459 351 L
stroke
grestore
gsave
0 0 0 setrgbcolor
1.000000 setlinewidth
newpath
576 306 M
522 270 L
stroke
grestore
gsave
gsave
matrix currentmatrix
[1 0 0 1 508.5 261] concat
newpath
0 0 M 0 18 L 11 18 L 11 0 L
closepath setmatrix
0 0 0 setrgbcolor
grestore
newpath
506.5 259 M 506.5 281.429 L 521.5 281.429 L 521.5 259 L
closepath clip newpath
0 0 0 setrgbcolor
matrix currentmatrix
[1 0 0 1 508.5 261] concat
/Times-Roman-SHOWISO findfont 18 scalefont setfont
0 0 0 setrgbcolor
0 3.42857 M (3) 9 S
setmatrix
grestore
gsave
gsave
matrix currentmatrix
[1 0 0 1 450 342] concat
newpath
0 0 M 0 18 L 11 18 L 11 0 L
closepath setmatrix
0 0 0 setrgbcolor
grestore
newpath
448 340 M 448 362.429 L 463 362.429 L 463 340 L
closepath clip newpath
0 0 0 setrgbcolor
matrix currentmatrix
[1 0 0 1 450 342] concat
/Times-Roman-SHOWISO findfont 18 scalefont setfont
0 0 0 setrgbcolor
0 3.42857 M (1) 9 S
setmatrix
grestore
gsave
gsave
matrix currentmatrix
[1 0 0 1 522 333] concat
newpath
0 0 M 0 18 L 58.988 18 L 58.988 0 L
closepath setmatrix
0 0 0 setrgbcolor
grestore
newpath
520 331 M 520 353.429 L 582.988 353.429 L 582.988 331 L
closepath clip newpath
0 0 0 setrgbcolor
matrix currentmatrix
[1 0 0 1 522 333] concat
/Times-Roman-SHOWISO findfont 18 scalefont setfont
0 0 0 setrgbcolor
0 3.42857 M (child[1]) 56.988 S
setmatrix
grestore
gsave
0 0 0 setrgbcolor
1.000000 setlinewidth
newpath
432 216 M
468 297 L
486 252 L
stroke
grestore
gsave
0 0 0 setrgbcolor
1.000000 setlinewidth
newpath
423 333 M
432 216 L
stroke
grestore
gsave
0 0 0 setrgbcolor
1.000000 setlinewidth
[4] 0 setdash
newpath
423 333 M
486 252 L
stroke
grestore
gsave
gsave
matrix currentmatrix
[1 0 0 1 418.5 211.5] concat
newpath
0 0 M 0 18 L 11 18 L 11 0 L
closepath setmatrix
0 0 0 setrgbcolor
grestore
newpath
416.5 209.5 M 416.5 231.929 L 431.5 231.929 L 431.5 209.5 L
closepath clip newpath
0 0 0 setrgbcolor
matrix currentmatrix
[1 0 0 1 418.5 211.5] concat
/Times-Roman-SHOWISO findfont 18 scalefont setfont
0 0 0 setrgbcolor
0 3.42857 M (0) 9 S
setmatrix
grestore
gsave
gsave
matrix currentmatrix
[1 0 0 1 468 288] concat
newpath
0 0 M 0 18 L 11 18 L 11 0 L
closepath setmatrix
0 0 0 setrgbcolor
grestore
newpath
466 286 M 466 308.429 L 481 308.429 L 481 286 L
closepath clip newpath
0 0 0 setrgbcolor
matrix currentmatrix
[1 0 0 1 468 288] concat
/Times-Roman-SHOWISO findfont 18 scalefont setfont
0 0 0 setrgbcolor
0 3.42857 M (2) 9 S
setmatrix
grestore
gsave
0 0 0 setrgbcolor
1.000000 setlinewidth
newpath
468 297 M
423 333 L
stroke
grestore
gsave
0 0 0 setrgbcolor
1.000000 setlinewidth
newpath
486 252 M
432 216 L
stroke
grestore
gsave
gsave
matrix currentmatrix
[1 0 0 1 486 243] concat
newpath
0 0 M 0 18 L 11 18 L 11 0 L
closepath setmatrix
0 0 0 setrgbcolor
grestore
newpath
484 241 M 484 263.429 L 499 263.429 L 499 241 L
closepath clip newpath
0 0 0 setrgbcolor
matrix currentmatrix
[1 0 0 1 486 243] concat
/Times-Roman-SHOWISO findfont 18 scalefont setfont
0 0 0 setrgbcolor
0 3.42857 M (3) 9 S
setmatrix
grestore
gsave
gsave
matrix currentmatrix
[1 0 0 1 414 319.5] concat
newpath
0 0 M 0 18 L 11 18 L 11 0 L
closepath setmatrix
0 0 0 setrgbcolor
grestore
newpath
412 317.5 M 412 339.929 L 427 339.929 L 427 317.5 L
closepath clip newpath
0 0 0 setrgbcolor
matrix currentmatrix
[1 0 0 1 414 319.5] concat
/Times-Roman-SHOWISO findfont 18 scalefont setfont
0 0 0 setrgbcolor
0 3.42857 M (1) 9 S
setmatrix
grestore
gsave
gsave
matrix currentmatrix
[1 0 0 1 472.5 220.5] concat
newpath
0 0 M 0 18 L 58.988 18 L 58.988 0 L
closepath setmatrix
0 0 0 setrgbcolor
grestore
newpath
470.5 218.5 M 470.5 240.929 L 533.488 240.929 L 533.488 218.5 L
closepath clip newpath
0 0 0 setrgbcolor
matrix currentmatrix
[1 0 0 1 472.5 220.5] concat
/Times-Roman-SHOWISO findfont 18 scalefont setfont
0 0 0 setrgbcolor
0 3.42857 M (child[0]) 56.988 S
setmatrix
grestore
gsave
gsave
matrix currentmatrix
[1 0 0 1 769.5 216] concat
newpath
0 0 M 0 18 L 11 18 L 11 0 L
closepath setmatrix
0 0 0 setrgbcolor
grestore
newpath
767.5 214 M 767.5 236.429 L 782.5 236.429 L 782.5 214 L
closepath clip newpath
0 0 0 setrgbcolor
matrix currentmatrix
[1 0 0 1 769.5 216] concat
/Times-Roman-SHOWISO findfont 18 scalefont setfont
0 0 0 setrgbcolor
0 3.42857 M (0) 9 S
setmatrix
grestore
gsave
0 0 0 setrgbcolor
1.000000 setlinewidth
newpath
693 229.5 M
747 265.5 L
765 220.5 L
stroke
grestore
gsave
0 0 0 setrgbcolor
1.000000 setlinewidth
newpath
648 265.5 M
693 229.5 L
stroke
grestore
gsave
0 0 0 setrgbcolor
1.000000 setlinewidth
[4] 0 setdash
newpath
648 265.5 M
765 220.5 L
stroke
grestore
gsave
gsave
matrix currentmatrix
[1 0 0 1 679.5 216] concat
newpath
0 0 M 0 18 L 11 18 L 11 0 L
closepath setmatrix
0 0 0 setrgbcolor
grestore
newpath
677.5 214 M 677.5 236.429 L 692.5 236.429 L 692.5 214 L
closepath clip newpath
0 0 0 setrgbcolor
matrix currentmatrix
[1 0 0 1 679.5 216] concat
/Times-Roman-SHOWISO findfont 18 scalefont setfont
0 0 0 setrgbcolor
0 3.42857 M (2) 9 S
setmatrix
grestore
gsave
0 0 0 setrgbcolor
1.000000 setlinewidth
newpath
747 265.5 M
648 265.5 L
stroke
grestore
gsave
0 0 0 setrgbcolor
1.000000 setlinewidth
newpath
765 220.5 M
693 229.5 L
stroke
grestore
gsave
gsave
matrix currentmatrix
[1 0 0 1 751.5 261] concat
newpath
0 0 M 0 18 L 11 18 L 11 0 L
closepath setmatrix
0 0 0 setrgbcolor
grestore
newpath
749.5 259 M 749.5 281.429 L 764.5 281.429 L 764.5 259 L
closepath clip newpath
0 0 0 setrgbcolor
matrix currentmatrix
[1 0 0 1 751.5 261] concat
/Times-Roman-SHOWISO findfont 18 scalefont setfont
0 0 0 setrgbcolor
0 3.42857 M (3) 9 S
setmatrix
grestore
gsave
gsave
matrix currentmatrix
[1 0 0 1 639 252] concat
newpath
0 0 M 0 18 L 11 18 L 11 0 L
closepath setmatrix
0 0 0 setrgbcolor
grestore
newpath
637 250 M 637 272.429 L 652 272.429 L 652 250 L
closepath clip newpath
0 0 0 setrgbcolor
matrix currentmatrix
[1 0 0 1 639 252] concat
/Times-Roman-SHOWISO findfont 18 scalefont setfont
0 0 0 setrgbcolor
0 3.42857 M (1) 9 S
setmatrix
grestore
gsave
gsave
matrix currentmatrix
[1 0 0 1 607.5 229.5] concat
newpath
0 0 M 0 18 L 58.988 18 L 58.988 0 L
closepath setmatrix
0 0 0 setrgbcolor
grestore
newpath
605.5 227.5 M 605.5 249.929 L 668.488 249.929 L 668.488 227.5 L
closepath clip newpath
0 0 0 setrgbcolor
matrix currentmatrix
[1 0 0 1 607.5 229.5] concat
/Times-Roman-SHOWISO findfont 18 scalefont setfont
0 0 0 setrgbcolor
0 3.42857 M (child[1]) 56.988 S
setmatrix
grestore
gsave
0 0 0 setrgbcolor
1.000000 setlinewidth
newpath
675 270 M
711 351 L
729 306 L
stroke
grestore
gsave
0 0 0 setrgbcolor
1.000000 setlinewidth
newpath
630 306 M
675 270 L
stroke
grestore
gsave
0 0 0 setrgbcolor
1.000000 setlinewidth
[4] 0 setdash
newpath
630 306 M
729 306 L
stroke
grestore
gsave
gsave
matrix currentmatrix
[1 0 0 1 711 351] concat
newpath
0 0 M 0 18 L 11 18 L 11 0 L
closepath setmatrix
0 0 0 setrgbcolor
grestore
newpath
709 349 M 709 371.429 L 724 371.429 L 724 349 L
closepath clip newpath
0 0 0 setrgbcolor
matrix currentmatrix
[1 0 0 1 711 351] concat
/Times-Roman-SHOWISO findfont 18 scalefont setfont
0 0 0 setrgbcolor
0 3.42857 M (0) 9 S
setmatrix
grestore
gsave
gsave
matrix currentmatrix
[1 0 0 1 670.5 274.5] concat
newpath
0 0 M 0 18 L 11 18 L 11 0 L
closepath setmatrix
0 0 0 setrgbcolor
grestore
newpath
668.5 272.5 M 668.5 294.929 L 683.5 294.929 L 683.5 272.5 L
closepath clip newpath
0 0 0 setrgbcolor
matrix currentmatrix
[1 0 0 1 670.5 274.5] concat
/Times-Roman-SHOWISO findfont 18 scalefont setfont
0 0 0 setrgbcolor
0 3.42857 M (2) 9 S
setmatrix
grestore
gsave
0 0 0 setrgbcolor
1.000000 setlinewidth
newpath
711 351 M
630 306 L
stroke
grestore
gsave
0 0 0 setrgbcolor
1.000000 setlinewidth
newpath
729 306 M
675 270 L
stroke
grestore
gsave
gsave
matrix currentmatrix
[1 0 0 1 733.5 301.5] concat
newpath
0 0 M 0 18 L 11 18 L 11 0 L
closepath setmatrix
0 0 0 setrgbcolor
grestore
newpath
731.5 299.5 M 731.5 321.929 L 746.5 321.929 L 746.5 299.5 L
closepath clip newpath
0 0 0 setrgbcolor
matrix currentmatrix
[1 0 0 1 733.5 301.5] concat
/Times-Roman-SHOWISO findfont 18 scalefont setfont
0 0 0 setrgbcolor
0 3.42857 M (3) 9 S
setmatrix
grestore
gsave
gsave
matrix currentmatrix
[1 0 0 1 621 297] concat
newpath
0 0 M 0 18 L 11 18 L 11 0 L
closepath setmatrix
0 0 0 setrgbcolor
grestore
newpath
619 295 M 619 317.429 L 634 317.429 L 634 295 L
closepath clip newpath
0 0 0 setrgbcolor
matrix currentmatrix
[1 0 0 1 621 297] concat
/Times-Roman-SHOWISO findfont 18 scalefont setfont
0 0 0 setrgbcolor
0 3.42857 M (1) 9 S
setmatrix
grestore
gsave
gsave
matrix currentmatrix
[1 0 0 1 607.5 328.5] concat
newpath
0 0 M 0 18 L 58.988 18 L 58.988 0 L
closepath setmatrix
0 0 0 setrgbcolor
grestore
newpath
605.5 326.5 M 605.5 348.929 L 668.488 348.929 L 668.488 326.5 L
closepath clip newpath
0 0 0 setrgbcolor
matrix currentmatrix
[1 0 0 1 607.5 328.5] concat
/Times-Roman-SHOWISO findfont 18 scalefont setfont
0 0 0 setrgbcolor
0 3.42857 M (child[0]) 56.988 S
setmatrix
grestore
gsave
gsave
matrix currentmatrix
[1 0 0 1 486 585] concat
newpath
0 0 M 0 18 L 11 18 L 11 0 L
closepath setmatrix
0 0 0 setrgbcolor
grestore
newpath
484 583 M 484 605.429 L 499 605.429 L 499 583 L
closepath clip newpath
0 0 0 setrgbcolor
matrix currentmatrix
[1 0 0 1 486 585] concat
/Times-Roman-SHOWISO findfont 18 scalefont setfont
0 0 0 setrgbcolor
0 3.42857 M (1) 9 S
setmatrix
grestore
gsave
gsave
matrix currentmatrix
[1 0 0 1 112.5 702] concat
newpath
0 0 M 0 18 L 58.988 18 L 58.988 0 L
closepath setmatrix
0 0 0 setrgbcolor
grestore
newpath
110.5 700 M 110.5 722.429 L 173.488 722.429 L 173.488 700 L
closepath clip newpath
0 0 0 setrgbcolor
matrix currentmatrix
[1 0 0 1 112.5 702] concat
/Times-Roman-SHOWISO findfont 18 scalefont setfont
0 0 0 setrgbcolor
0 3.42857 M (child[0]) 56.988 S
setmatrix
grestore
gsave
gsave
matrix currentmatrix
[1 0 0 1 346.5 657] concat
newpath
0 0 M 0 18 L 11 18 L 11 0 L
closepath setmatrix
0 0 0 setrgbcolor
grestore
newpath
344.5 655 M 344.5 677.429 L 359.5 677.429 L 359.5 655 L
closepath clip newpath
0 0 0 setrgbcolor
matrix currentmatrix
[1 0 0 1 346.5 657] concat
/Times-Roman-SHOWISO findfont 18 scalefont setfont
0 0 0 setrgbcolor
0 3.42857 M (1) 9 S
setmatrix
grestore
gsave
0 0 0 setrgbcolor
1.000000 setlinewidth
newpath
288 810 M
378 738 L
486 810 L
stroke
grestore
gsave
0 0 0 setrgbcolor
1.000000 setlinewidth
[4] 0 setdash
newpath
288 810 M
486 810 L
stroke
grestore
gsave
0 0 0 setrgbcolor
1.000000 setlinewidth
newpath
378 738 M
450 900 L
486 810 L
stroke
grestore
gsave
0 0 0 setrgbcolor
1.000000 setlinewidth
newpath
450 900 M
288 810 L
stroke
grestore
gsave
gsave
matrix currentmatrix
[1 0 0 1 450 900] concat
newpath
0 0 M 0 18 L 11 18 L 11 0 L
closepath setmatrix
0 0 0 setrgbcolor
grestore
newpath
448 898 M 448 920.429 L 463 920.429 L 463 898 L
closepath clip newpath
0 0 0 setrgbcolor
matrix currentmatrix
[1 0 0 1 450 900] concat
/Times-Roman-SHOWISO findfont 18 scalefont setfont
0 0 0 setrgbcolor
0 3.42857 M (1) 9 S
setmatrix
grestore
gsave
gsave
matrix currentmatrix
[1 0 0 1 490.5 801] concat
newpath
0 0 M 0 18 L 11 18 L 11 0 L
closepath setmatrix
0 0 0 setrgbcolor
grestore
newpath
488.5 799 M 488.5 821.429 L 503.5 821.429 L 503.5 799 L
closepath clip newpath
0 0 0 setrgbcolor
matrix currentmatrix
[1 0 0 1 490.5 801] concat
/Times-Roman-SHOWISO findfont 18 scalefont setfont
0 0 0 setrgbcolor
0 3.42857 M (2) 9 S
setmatrix
grestore
gsave
gsave
matrix currentmatrix
[1 0 0 1 272.5 801.5] concat
newpath
0 0 M 0 18 L 11 18 L 11 0 L
closepath setmatrix
0 0 0 setrgbcolor
grestore
newpath
270.5 799.5 M 270.5 821.929 L 285.5 821.929 L 285.5 799.5 L
closepath clip newpath
0 0 0 setrgbcolor
matrix currentmatrix
[1 0 0 1 272.5 801.5] concat
/Times-Roman-SHOWISO findfont 18 scalefont setfont
0 0 0 setrgbcolor
0 3.42857 M (0) 9 S
setmatrix
grestore
gsave
gsave
matrix currentmatrix
[1 0 0 1 373.5 720] concat
newpath
0 0 M 0 18 L 11 18 L 11 0 L
closepath setmatrix
0 0 0 setrgbcolor
grestore
newpath
371.5 718 M 371.5 740.429 L 386.5 740.429 L 386.5 718 L
closepath clip newpath
0 0 0 setrgbcolor
matrix currentmatrix
[1 0 0 1 373.5 720] concat
/Times-Roman-SHOWISO findfont 18 scalefont setfont
0 0 0 setrgbcolor
0 3.42857 M (3) 9 S
setmatrix
grestore
gsave
gsave
matrix currentmatrix
[1 0 0 1 17 863.57] concat
newpath
0 0 M 0 24 L 75.992 24 L 75.992 0 L
closepath setmatrix
0 0 0 setrgbcolor
grestore
newpath
15 861.57 M 15 890.713 L 94.992 890.713 L 94.992 861.57 L
closepath clip newpath
0 0 0 setrgbcolor
matrix currentmatrix
[1 0 0 1 17 863.57] concat
/Times-Roman-SHOWISO findfont 24 scalefont setfont
0 0 0 setrgbcolor
0 5.14286 M (Type 0:) 73.992 S
setmatrix
grestore
gsave
gsave
matrix currentmatrix
[1 0 0 1 18 723] concat
newpath
0 0 M 0 24 L 75.992 24 L 75.992 0 L
closepath setmatrix
0 0 0 setrgbcolor
grestore
newpath
16 721 M 16 750.143 L 95.992 750.143 L 95.992 721 L
closepath clip newpath
0 0 0 setrgbcolor
matrix currentmatrix
[1 0 0 1 18 723] concat
/Times-Roman-SHOWISO findfont 24 scalefont setfont
0 0 0 setrgbcolor
0 5.14286 M (Type 1:) 73.992 S
setmatrix
grestore
gsave
gsave
matrix currentmatrix
[1 0 0 1 18 547.5] concat
newpath
0 0 M 0 24 L 75.992 24 L 75.992 0 L
closepath setmatrix
0 0 0 setrgbcolor
grestore
newpath
16 545.5 M 16 574.643 L 95.992 574.643 L 95.992 545.5 L
closepath clip newpath
0 0 0 setrgbcolor
matrix currentmatrix
[1 0 0 1 18 547.5] concat
/Times-Roman-SHOWISO findfont 24 scalefont setfont
0 0 0 setrgbcolor
0 5.14286 M (Type 2:) 73.992 S
setmatrix
grestore
gsave
gsave
matrix currentmatrix
[1 0 0 1 18 358.5] concat
newpath
0 0 M 0 24 L 75.992 24 L 75.992 0 L
closepath setmatrix
0 0 0 setrgbcolor
grestore
newpath
16 356.5 M 16 385.643 L 95.992 385.643 L 95.992 356.5 L
closepath clip newpath
0 0 0 setrgbcolor
matrix currentmatrix
[1 0 0 1 18 358.5] concat
/Times-Roman-SHOWISO findfont 24 scalefont setfont
0 0 0 setrgbcolor
0 5.14286 M (Type 0:) 73.992 S
setmatrix
grestore
gsave
0 0 0 setrgbcolor
1.000000 setlinewidth
newpath
612 486 M
648 567 L
684 477 L
stroke
grestore
gsave
0 0 0 setrgbcolor
1.000000 setlinewidth
newpath
567 522 M
612 486 L
stroke
grestore
gsave
0 0 0 setrgbcolor
1.000000 setlinewidth
[4] 0 setdash
newpath
567 522 M
684 477 L
stroke
grestore
gsave
gsave
matrix currentmatrix
[1 0 0 1 648 567] concat
newpath
0 0 M 0 18 L 11 18 L 11 0 L
closepath setmatrix
0 0 0 setrgbcolor
grestore
newpath
646 565 M 646 587.429 L 661 587.429 L 661 565 L
closepath clip newpath
0 0 0 setrgbcolor
matrix currentmatrix
[1 0 0 1 648 567] concat
/Times-Roman-SHOWISO findfont 18 scalefont setfont
0 0 0 setrgbcolor
0 3.42857 M (0) 9 S
setmatrix
grestore
gsave
gsave
matrix currentmatrix
[1 0 0 1 553.5 513] concat
newpath
0 0 M 0 18 L 11 18 L 11 0 L
closepath setmatrix
0 0 0 setrgbcolor
grestore
newpath
551.5 511 M 551.5 533.429 L 566.5 533.429 L 566.5 511 L
closepath clip newpath
0 0 0 setrgbcolor
matrix currentmatrix
[1 0 0 1 553.5 513] concat
/Times-Roman-SHOWISO findfont 18 scalefont setfont
0 0 0 setrgbcolor
0 3.42857 M (2) 9 S
setmatrix
grestore
gsave
0 0 0 setrgbcolor
1.000000 setlinewidth
newpath
648 567 M
567 522 L
stroke
grestore
gsave
0 0 0 setrgbcolor
1.000000 setlinewidth
newpath
684 477 M
612 486 L
stroke
grestore
gsave
gsave
matrix currentmatrix
[1 0 0 1 594 477] concat
newpath
0 0 M 0 18 L 11 18 L 11 0 L
closepath setmatrix
0 0 0 setrgbcolor
grestore
newpath
592 475 M 592 497.429 L 607 497.429 L 607 475 L
closepath clip newpath
0 0 0 setrgbcolor
matrix currentmatrix
[1 0 0 1 594 477] concat
/Times-Roman-SHOWISO findfont 18 scalefont setfont
0 0 0 setrgbcolor
0 3.42857 M (3) 9 S
setmatrix
grestore
gsave
gsave
matrix currentmatrix
[1 0 0 1 684 477] concat
newpath
0 0 M 0 18 L 11 18 L 11 0 L
closepath setmatrix
0 0 0 setrgbcolor
grestore
newpath
682 475 M 682 497.429 L 697 497.429 L 697 475 L
closepath clip newpath
0 0 0 setrgbcolor
matrix currentmatrix
[1 0 0 1 684 477] concat
/Times-Roman-SHOWISO findfont 18 scalefont setfont
0 0 0 setrgbcolor
0 3.42857 M (1) 9 S
setmatrix
grestore
gsave
gsave
matrix currentmatrix
[1 0 0 1 666 531] concat
newpath
0 0 M 0 18 L 58.988 18 L 58.988 0 L
closepath setmatrix
0 0 0 setrgbcolor
grestore
newpath
664 529 M 664 551.429 L 726.988 551.429 L 726.988 529 L
closepath clip newpath
0 0 0 setrgbcolor
matrix currentmatrix
[1 0 0 1 666 531] concat
/Times-Roman-SHOWISO findfont 18 scalefont setfont
0 0 0 setrgbcolor
0 3.42857 M (child[0]) 56.988 S
setmatrix
grestore
gsave
0 0 0 setrgbcolor
1.000000 setlinewidth
newpath
522 382.5 M
558 463.5 L
630 454.5 L
stroke
grestore
gsave
0 0 0 setrgbcolor
1.000000 setlinewidth
newpath
513 499.5 M
522 382.5 L
stroke
grestore
gsave
0 0 0 setrgbcolor
1.000000 setlinewidth
newpath
513 499.5 M
630 454.5 L
stroke
grestore
gsave
gsave
matrix currentmatrix
[1 0 0 1 508.5 378] concat
newpath
0 0 M 0 18 L 11 18 L 11 0 L
closepath setmatrix
0 0 0 setrgbcolor
grestore
newpath
506.5 376 M 506.5 398.429 L 521.5 398.429 L 521.5 376 L
closepath clip newpath
0 0 0 setrgbcolor
matrix currentmatrix
[1 0 0 1 508.5 378] concat
/Times-Roman-SHOWISO findfont 18 scalefont setfont
0 0 0 setrgbcolor
0 3.42857 M (0) 9 S
setmatrix
grestore
gsave
gsave
matrix currentmatrix
[1 0 0 1 499.5 490.5] concat
newpath
0 0 M 0 18 L 11 18 L 11 0 L
closepath setmatrix
0 0 0 setrgbcolor
grestore
newpath
497.5 488.5 M 497.5 510.929 L 512.5 510.929 L 512.5 488.5 L
closepath clip newpath
0 0 0 setrgbcolor
matrix currentmatrix
[1 0 0 1 499.5 490.5] concat
/Times-Roman-SHOWISO findfont 18 scalefont setfont
0 0 0 setrgbcolor
0 3.42857 M (2) 9 S
setmatrix
grestore
gsave
0 0 0 setrgbcolor
1.000000 setlinewidth
newpath
558 463.5 M
513 499.5 L
stroke
grestore
gsave
0 0 0 setrgbcolor
1.000000 setlinewidth
newpath
630 454.5 M
522 382.5 L
stroke
grestore
gsave
gsave
matrix currentmatrix
[1 0 0 1 540 450] concat
newpath
0 0 M 0 18 L 11 18 L 11 0 L
closepath setmatrix
0 0 0 setrgbcolor
grestore
newpath
538 448 M 538 470.429 L 553 470.429 L 553 448 L
closepath clip newpath
0 0 0 setrgbcolor
matrix currentmatrix
[1 0 0 1 540 450] concat
/Times-Roman-SHOWISO findfont 18 scalefont setfont
0 0 0 setrgbcolor
0 3.42857 M (3) 9 S
setmatrix
grestore
gsave
gsave
matrix currentmatrix
[1 0 0 1 630 450] concat
newpath
0 0 M 0 18 L 11 18 L 11 0 L
closepath setmatrix
0 0 0 setrgbcolor
grestore
newpath
628 448 M 628 470.429 L 643 470.429 L 643 448 L
closepath clip newpath
0 0 0 setrgbcolor
matrix currentmatrix
[1 0 0 1 630 450] concat
/Times-Roman-SHOWISO findfont 18 scalefont setfont
0 0 0 setrgbcolor
0 3.42857 M (1) 9 S
setmatrix
grestore
gsave
gsave
matrix currentmatrix
[1 0 0 1 450 432] concat
newpath
0 0 M 0 18 L 58.988 18 L 58.988 0 L
closepath setmatrix
0 0 0 setrgbcolor
grestore
newpath
448 430 M 448 452.429 L 510.988 452.429 L 510.988 430 L
closepath clip newpath
0 0 0 setrgbcolor
matrix currentmatrix
[1 0 0 1 450 432] concat
/Times-Roman-SHOWISO findfont 18 scalefont setfont
0 0 0 setrgbcolor
0 3.42857 M (child[1]) 56.988 S
setmatrix
grestore
gsave
0 0 0 setrgbcolor
1.000000 setlinewidth
newpath
504 576 M
576 738 L
612 648 L
stroke
grestore
gsave
0 0 0 setrgbcolor
1.000000 setlinewidth
newpath
495 693 M
504 576 L
stroke
grestore
gsave
0 0 0 setrgbcolor
1.000000 setlinewidth
[4] 0 setdash
newpath
495 693 M
612 648 L
stroke
grestore
gsave
gsave
matrix currentmatrix
[1 0 0 1 576 738] concat
newpath
0 0 M 0 18 L 11 18 L 11 0 L
closepath setmatrix
0 0 0 setrgbcolor
grestore
newpath
574 736 M 574 758.429 L 589 758.429 L 589 736 L
closepath clip newpath
0 0 0 setrgbcolor
matrix currentmatrix
[1 0 0 1 576 738] concat
/Times-Roman-SHOWISO findfont 18 scalefont setfont
0 0 0 setrgbcolor
0 3.42857 M (0) 9 S
setmatrix
grestore
gsave
gsave
matrix currentmatrix
[1 0 0 1 616.5 639] concat
newpath
0 0 M 0 18 L 11 18 L 11 0 L
closepath setmatrix
0 0 0 setrgbcolor
grestore
newpath
614.5 637 M 614.5 659.429 L 629.5 659.429 L 629.5 637 L
closepath clip newpath
0 0 0 setrgbcolor
matrix currentmatrix
[1 0 0 1 616.5 639] concat
/Times-Roman-SHOWISO findfont 18 scalefont setfont
0 0 0 setrgbcolor
0 3.42857 M (2) 9 S
setmatrix
grestore
gsave
0 0 0 setrgbcolor
1.000000 setlinewidth
newpath
576 738 M
495 693 L
stroke
grestore
gsave
0 0 0 setrgbcolor
1.000000 setlinewidth
newpath
612 648 M
504 576 L
stroke
grestore
gsave
gsave
matrix currentmatrix
[1 0 0 1 481.5 688.5] concat
newpath
0 0 M 0 18 L 11 18 L 11 0 L
closepath setmatrix
0 0 0 setrgbcolor
grestore
newpath
479.5 686.5 M 479.5 708.929 L 494.5 708.929 L 494.5 686.5 L
closepath clip newpath
0 0 0 setrgbcolor
matrix currentmatrix
[1 0 0 1 481.5 688.5] concat
/Times-Roman-SHOWISO findfont 18 scalefont setfont
0 0 0 setrgbcolor
0 3.42857 M (3) 9 S
setmatrix
grestore
gsave
gsave
matrix currentmatrix
[1 0 0 1 603 693] concat
newpath
0 0 M 0 18 L 58.988 18 L 58.988 0 L
closepath setmatrix
0 0 0 setrgbcolor
grestore
newpath
601 691 M 601 713.429 L 663.988 713.429 L 663.988 691 L
closepath clip newpath
0 0 0 setrgbcolor
matrix currentmatrix
[1 0 0 1 603 693] concat
/Times-Roman-SHOWISO findfont 18 scalefont setfont
0 0 0 setrgbcolor
0 3.42857 M (child[1]) 56.988 S
setmatrix
grestore
gsave
0 0 0 setrgbcolor
1.000000 setlinewidth
newpath
144 666 M
234 594 L
342 666 L
stroke
grestore
gsave
0 0 0 setrgbcolor
1.000000 setlinewidth
[4] 0 setdash
newpath
144 666 M
342 666 L
stroke
grestore
gsave
0 0 0 setrgbcolor
1.000000 setlinewidth
newpath
225 711 M
234 594 L
stroke
grestore
gsave
0 0 0 setrgbcolor
1.000000 setlinewidth
newpath
225 711 M
342 666 L
stroke
grestore
gsave
gsave
matrix currentmatrix
[1 0 0 1 128.5 657.5] concat
newpath
0 0 M 0 18 L 11 18 L 11 0 L
closepath setmatrix
0 0 0 setrgbcolor
grestore
newpath
126.5 655.5 M 126.5 677.929 L 141.5 677.929 L 141.5 655.5 L
closepath clip newpath
0 0 0 setrgbcolor
matrix currentmatrix
[1 0 0 1 128.5 657.5] concat
/Times-Roman-SHOWISO findfont 18 scalefont setfont
0 0 0 setrgbcolor
0 3.42857 M (0) 9 S
setmatrix
grestore
gsave
0 0 0 setrgbcolor
1.000000 setlinewidth
newpath
225 711 M
144 666 L
stroke
grestore
gsave
gsave
matrix currentmatrix
[1 0 0 1 220.5 706.5] concat
newpath
0 0 M 0 18 L 11 18 L 11 0 L
closepath setmatrix
0 0 0 setrgbcolor
grestore
newpath
218.5 704.5 M 218.5 726.929 L 233.5 726.929 L 233.5 704.5 L
closepath clip newpath
0 0 0 setrgbcolor
matrix currentmatrix
[1 0 0 1 220.5 706.5] concat
/Times-Roman-SHOWISO findfont 18 scalefont setfont
0 0 0 setrgbcolor
0 3.42857 M (3) 9 S
setmatrix
grestore
gsave
gsave
matrix currentmatrix
[1 0 0 1 229.5 576] concat
newpath
0 0 M 0 18 L 11 18 L 11 0 L
closepath setmatrix
0 0 0 setrgbcolor
grestore
newpath
227.5 574 M 227.5 596.429 L 242.5 596.429 L 242.5 574 L
closepath clip newpath
0 0 0 setrgbcolor
matrix currentmatrix
[1 0 0 1 229.5 576] concat
/Times-Roman-SHOWISO findfont 18 scalefont setfont
0 0 0 setrgbcolor
0 3.42857 M (2) 9 S
setmatrix
grestore
gsave
0 0 0 setrgbcolor
1.000000 setlinewidth
newpath
89.0385 486 M
179.038 414 L
189 486 L
stroke
grestore
gsave
0 0 0 setrgbcolor
1.000000 setlinewidth
[4] 0 setdash
newpath
89.0385 486 M
189 486 L
stroke
grestore
gsave
0 0 0 setrgbcolor
1.000000 setlinewidth
newpath
170.038 531 M
179.038 414 L
stroke
grestore
gsave
0 0 0 setrgbcolor
1.000000 setlinewidth
newpath
170.038 531 M
189 486 L
stroke
grestore
gsave
gsave
matrix currentmatrix
[1 0 0 1 183.538 409.5] concat
newpath
0 0 M 0 18 L 11 18 L 11 0 L
closepath setmatrix
0 0 0 setrgbcolor
grestore
newpath
181.538 407.5 M 181.538 429.929 L 196.538 429.929 L 196.538 407.5 L
closepath clip newpath
0 0 0 setrgbcolor
matrix currentmatrix
[1 0 0 1 183.538 409.5] concat
/Times-Roman-SHOWISO findfont 18 scalefont setfont
0 0 0 setrgbcolor
0 3.42857 M (1) 9 S
setmatrix
grestore
gsave
gsave
matrix currentmatrix
[1 0 0 1 73.5385 477.5] concat
newpath
0 0 M 0 18 L 11 18 L 11 0 L
closepath setmatrix
0 0 0 setrgbcolor
grestore
newpath
71.5385 475.5 M 71.5385 497.929 L 86.5385 497.929 L 86.5385 475.5 L
closepath clip newpath
0 0 0 setrgbcolor
matrix currentmatrix
[1 0 0 1 73.5385 477.5] concat
/Times-Roman-SHOWISO findfont 18 scalefont setfont
0 0 0 setrgbcolor
0 3.42857 M (0) 9 S
setmatrix
grestore
gsave
0 0 0 setrgbcolor
1.000000 setlinewidth
newpath
170.038 531 M
89.0385 486 L
stroke
grestore
gsave
gsave
matrix currentmatrix
[1 0 0 1 192.538 477] concat
newpath
0 0 M 0 18 L 11 18 L 11 0 L
closepath setmatrix
0 0 0 setrgbcolor
grestore
newpath
190.538 475 M 190.538 497.429 L 205.538 497.429 L 205.538 475 L
closepath clip newpath
0 0 0 setrgbcolor
matrix currentmatrix
[1 0 0 1 192.538 477] concat
/Times-Roman-SHOWISO findfont 18 scalefont setfont
0 0 0 setrgbcolor
0 3.42857 M (3) 9 S
setmatrix
grestore
gsave
gsave
matrix currentmatrix
[1 0 0 1 174.538 526.5] concat
newpath
0 0 M 0 18 L 11 18 L 11 0 L
closepath setmatrix
0 0 0 setrgbcolor
grestore
newpath
172.538 524.5 M 172.538 546.929 L 187.538 546.929 L 187.538 524.5 L
closepath clip newpath
0 0 0 setrgbcolor
matrix currentmatrix
[1 0 0 1 174.538 526.5] concat
/Times-Roman-SHOWISO findfont 18 scalefont setfont
0 0 0 setrgbcolor
0 3.42857 M (2) 9 S
setmatrix
grestore
gsave
gsave
matrix currentmatrix
[1 0 0 1 76.5 517.5] concat
newpath
0 0 M 0 18 L 58.988 18 L 58.988 0 L
closepath setmatrix
0 0 0 setrgbcolor
grestore
newpath
74.5 515.5 M 74.5 537.929 L 137.488 537.929 L 137.488 515.5 L
closepath clip newpath
0 0 0 setrgbcolor
matrix currentmatrix
[1 0 0 1 76.5 517.5] concat
/Times-Roman-SHOWISO findfont 18 scalefont setfont
0 0 0 setrgbcolor
0 3.42857 M (child[0]) 56.988 S
setmatrix
grestore
gsave
0 0 0 setrgbcolor
1.000000 setlinewidth
newpath
234.462 414 M
342.462 486 L
stroke
grestore
gsave
0 0 0 setrgbcolor
1.000000 setlinewidth
[4] 0 setdash
newpath
243 486 M
342.462 486 L
stroke
grestore
gsave
0 0 0 setrgbcolor
1.000000 setlinewidth
newpath
225.462 531 M
234.462 414 L
stroke
grestore
gsave
0 0 0 setrgbcolor
1.000000 setlinewidth
newpath
225.462 531 M
342.462 486 L
stroke
grestore
gsave
gsave
matrix currentmatrix
[1 0 0 1 220.962 409.5] concat
newpath
0 0 M 0 18 L 11 18 L 11 0 L
closepath setmatrix
0 0 0 setrgbcolor
grestore
newpath
218.962 407.5 M 218.962 429.929 L 233.962 429.929 L 233.962 407.5 L
closepath clip newpath
0 0 0 setrgbcolor
matrix currentmatrix
[1 0 0 1 220.962 409.5] concat
/Times-Roman-SHOWISO findfont 18 scalefont setfont
0 0 0 setrgbcolor
0 3.42857 M (1) 9 S
setmatrix
grestore
gsave
gsave
matrix currentmatrix
[1 0 0 1 344.962 477.5] concat
newpath
0 0 M 0 18 L 11 18 L 11 0 L
closepath setmatrix
0 0 0 setrgbcolor
grestore
newpath
342.962 475.5 M 342.962 497.929 L 357.962 497.929 L 357.962 475.5 L
closepath clip newpath
0 0 0 setrgbcolor
matrix currentmatrix
[1 0 0 1 344.962 477.5] concat
/Times-Roman-SHOWISO findfont 18 scalefont setfont
0 0 0 setrgbcolor
0 3.42857 M (0) 9 S
setmatrix
grestore
gsave
0 0 0 setrgbcolor
1.000000 setlinewidth
[4] 0 setdash
newpath
225.462 531 M
243 486 L
234 414 L
stroke
grestore
gsave
gsave
matrix currentmatrix
[1 0 0 1 243.462 486] concat
newpath
0 0 M 0 18 L 11 18 L 11 0 L
closepath setmatrix
0 0 0 setrgbcolor
grestore
newpath
241.462 484 M 241.462 506.429 L 256.462 506.429 L 256.462 484 L
closepath clip newpath
0 0 0 setrgbcolor
matrix currentmatrix
[1 0 0 1 243.462 486] concat
/Times-Roman-SHOWISO findfont 18 scalefont setfont
0 0 0 setrgbcolor
0 3.42857 M (3) 9 S
setmatrix
grestore
gsave
gsave
matrix currentmatrix
[1 0 0 1 211.962 526.5] concat
newpath
0 0 M 0 18 L 11 18 L 11 0 L
closepath setmatrix
0 0 0 setrgbcolor
grestore
newpath
209.962 524.5 M 209.962 546.929 L 224.962 546.929 L 224.962 524.5 L
closepath clip newpath
0 0 0 setrgbcolor
matrix currentmatrix
[1 0 0 1 211.962 526.5] concat
/Times-Roman-SHOWISO findfont 18 scalefont setfont
0 0 0 setrgbcolor
0 3.42857 M (2) 9 S
setmatrix
grestore
gsave
gsave
matrix currentmatrix
[1 0 0 1 265.5 517.5] concat
newpath
0 0 M 0 18 L 58.988 18 L 58.988 0 L
closepath setmatrix
0 0 0 setrgbcolor
grestore
newpath
263.5 515.5 M 263.5 537.929 L 326.488 537.929 L 326.488 515.5 L
closepath clip newpath
0 0 0 setrgbcolor
matrix currentmatrix
[1 0 0 1 265.5 517.5] concat
/Times-Roman-SHOWISO findfont 18 scalefont setfont
0 0 0 setrgbcolor
0 3.42857 M (child[1]) 56.988 S
setmatrix
grestore
gsave
0 0 0 setrgbcolor
1.000000 setlinewidth
newpath
36 306 M
81 270 L
135.962 306 L
stroke
grestore
gsave
0 0 0 setrgbcolor
1.000000 setlinewidth
[4] 0 setdash
newpath
36 306 M
135.962 306 L
stroke
grestore
gsave
0 0 0 setrgbcolor
1.000000 setlinewidth
newpath
117 351 M
81 270 L
stroke
grestore
gsave
0 0 0 setrgbcolor
1.000000 setlinewidth
newpath
117 351 M
135.962 306 L
stroke
grestore
gsave
gsave
matrix currentmatrix
[1 0 0 1 121.5 342] concat
newpath
0 0 M 0 18 L 11 18 L 11 0 L
closepath setmatrix
0 0 0 setrgbcolor
grestore
newpath
119.5 340 M 119.5 362.429 L 134.5 362.429 L 134.5 340 L
closepath clip newpath
0 0 0 setrgbcolor
matrix currentmatrix
[1 0 0 1 121.5 342] concat
/Times-Roman-SHOWISO findfont 18 scalefont setfont
0 0 0 setrgbcolor
0 3.42857 M (1) 9 S
setmatrix
grestore
gsave
gsave
matrix currentmatrix
[1 0 0 1 20.5 297.5] concat
newpath
0 0 M 0 18 L 11 18 L 11 0 L
closepath setmatrix
0 0 0 setrgbcolor
grestore
newpath
18.5 295.5 M 18.5 317.929 L 33.5 317.929 L 33.5 295.5 L
closepath clip newpath
0 0 0 setrgbcolor
matrix currentmatrix
[1 0 0 1 20.5 297.5] concat
/Times-Roman-SHOWISO findfont 18 scalefont setfont
0 0 0 setrgbcolor
0 3.42857 M (0) 9 S
setmatrix
grestore
gsave
0 0 0 setrgbcolor
1.000000 setlinewidth
newpath
117 351 M
36 306 L
stroke
grestore
gsave
gsave
matrix currentmatrix
[1 0 0 1 72 252] concat
newpath
0 0 M 0 18 L 11 18 L 11 0 L
closepath setmatrix
0 0 0 setrgbcolor
grestore
newpath
70 250 M 70 272.429 L 85 272.429 L 85 250 L
closepath clip newpath
0 0 0 setrgbcolor
matrix currentmatrix
[1 0 0 1 72 252] concat
/Times-Roman-SHOWISO findfont 18 scalefont setfont
0 0 0 setrgbcolor
0 3.42857 M (3) 9 S
setmatrix
grestore
gsave
gsave
matrix currentmatrix
[1 0 0 1 121.5 306] concat
newpath
0 0 M 0 18 L 11 18 L 11 0 L
closepath setmatrix
0 0 0 setrgbcolor
grestore
newpath
119.5 304 M 119.5 326.429 L 134.5 326.429 L 134.5 304 L
closepath clip newpath
0 0 0 setrgbcolor
matrix currentmatrix
[1 0 0 1 121.5 306] concat
/Times-Roman-SHOWISO findfont 18 scalefont setfont
0 0 0 setrgbcolor
0 3.42857 M (2) 9 S
setmatrix
grestore
gsave
gsave
matrix currentmatrix
[1 0 0 1 5.46153 270] concat
newpath
0 0 M 0 18 L 58.988 18 L 58.988 0 L
closepath setmatrix
0 0 0 setrgbcolor
grestore
newpath
3.46153 268 M 3.46153 290.429 L 66.4495 290.429 L 66.4495 268 L
closepath clip newpath
0 0 0 setrgbcolor
matrix currentmatrix
[1 0 0 1 5.46153 270] concat
/Times-Roman-SHOWISO findfont 18 scalefont setfont
0 0 0 setrgbcolor
0 3.42857 M (child[0]) 56.988 S
setmatrix
grestore
gsave
0 0 0 setrgbcolor
1.000000 setlinewidth
newpath
117 243 M
162 207 L
171.962 279 L
stroke
grestore
gsave
0 0 0 setrgbcolor
1.000000 setlinewidth
[4] 0 setdash
newpath
117 243 M
171.962 279 L
stroke
grestore
gsave
0 0 0 setrgbcolor
1.000000 setlinewidth
newpath
153 324 M
162 207 L
stroke
grestore
gsave
0 0 0 setrgbcolor
1.000000 setlinewidth
newpath
153 324 M
171.962 279 L
stroke
grestore
gsave
gsave
matrix currentmatrix
[1 0 0 1 157.5 315] concat
newpath
0 0 M 0 18 L 11 18 L 11 0 L
closepath setmatrix
0 0 0 setrgbcolor
grestore
newpath
155.5 313 M 155.5 335.429 L 170.5 335.429 L 170.5 313 L
closepath clip newpath
0 0 0 setrgbcolor
matrix currentmatrix
[1 0 0 1 157.5 315] concat
/Times-Roman-SHOWISO findfont 18 scalefont setfont
0 0 0 setrgbcolor
0 3.42857 M (1) 9 S
setmatrix
grestore
gsave
gsave
matrix currentmatrix
[1 0 0 1 169 203] concat
newpath
0 0 M 0 18 L 11 18 L 11 0 L
closepath setmatrix
0 0 0 setrgbcolor
grestore
newpath
167 201 M 167 223.429 L 182 223.429 L 182 201 L
closepath clip newpath
0 0 0 setrgbcolor
matrix currentmatrix
[1 0 0 1 169 203] concat
/Times-Roman-SHOWISO findfont 18 scalefont setfont
0 0 0 setrgbcolor
0 3.42857 M (0) 9 S
setmatrix
grestore
gsave
0 0 0 setrgbcolor
1.000000 setlinewidth
newpath
153 324 M
117 243 L
stroke
grestore
gsave
gsave
matrix currentmatrix
[1 0 0 1 108 234] concat
newpath
0 0 M 0 18 L 11 18 L 11 0 L
closepath setmatrix
0 0 0 setrgbcolor
grestore
newpath
106 232 M 106 254.429 L 121 254.429 L 121 232 L
closepath clip newpath
0 0 0 setrgbcolor
matrix currentmatrix
[1 0 0 1 108 234] concat
/Times-Roman-SHOWISO findfont 18 scalefont setfont
0 0 0 setrgbcolor
0 3.42857 M (3) 9 S
setmatrix
grestore
gsave
gsave
matrix currentmatrix
[1 0 0 1 175.5 270] concat
newpath
0 0 M 0 18 L 11 18 L 11 0 L
closepath setmatrix
0 0 0 setrgbcolor
grestore
newpath
173.5 268 M 173.5 290.429 L 188.5 290.429 L 188.5 268 L
closepath clip newpath
0 0 0 setrgbcolor
matrix currentmatrix
[1 0 0 1 175.5 270] concat
/Times-Roman-SHOWISO findfont 18 scalefont setfont
0 0 0 setrgbcolor
0 3.42857 M (2) 9 S
setmatrix
grestore
gsave
gsave
matrix currentmatrix
[1 0 0 1 68.4615 216] concat
newpath
0 0 M 0 18 L 58.988 18 L 58.988 0 L
closepath setmatrix
0 0 0 setrgbcolor
grestore
newpath
66.4615 214 M 66.4615 236.429 L 129.45 236.429 L 129.45 214 L
closepath clip newpath
0 0 0 setrgbcolor
matrix currentmatrix
[1 0 0 1 68.4615 216] concat
/Times-Roman-SHOWISO findfont 18 scalefont setfont
0 0 0 setrgbcolor
0 3.42857 M (child[1]) 56.988 S
setmatrix
grestore
gsave
0 0 0 setrgbcolor
1.000000 setlinewidth
newpath
234 216 M
288 252 L
stroke
grestore
gsave
0 0 0 setrgbcolor
1.000000 setlinewidth
[4] 0 setdash
newpath
242.538 288 M
288 252 L
stroke
grestore
gsave
0 0 0 setrgbcolor
1.000000 setlinewidth
newpath
225 333 M
234 216 L
stroke
grestore
gsave
0 0 0 setrgbcolor
1.000000 setlinewidth
newpath
225 333 M
288 252 L
stroke
grestore
gsave
gsave
matrix currentmatrix
[1 0 0 1 216 324] concat
newpath
0 0 M 0 18 L 11 18 L 11 0 L
closepath setmatrix
0 0 0 setrgbcolor
grestore
newpath
214 322 M 214 344.429 L 229 344.429 L 229 322 L
closepath clip newpath
0 0 0 setrgbcolor
matrix currentmatrix
[1 0 0 1 216 324] concat
/Times-Roman-SHOWISO findfont 18 scalefont setfont
0 0 0 setrgbcolor
0 3.42857 M (1) 9 S
setmatrix
grestore
gsave
gsave
matrix currentmatrix
[1 0 0 1 223 207.5] concat
newpath
0 0 M 0 18 L 11 18 L 11 0 L
closepath setmatrix
0 0 0 setrgbcolor
grestore
newpath
221 205.5 M 221 227.929 L 236 227.929 L 236 205.5 L
closepath clip newpath
0 0 0 setrgbcolor
matrix currentmatrix
[1 0 0 1 223 207.5] concat
/Times-Roman-SHOWISO findfont 18 scalefont setfont
0 0 0 setrgbcolor
0 3.42857 M (0) 9 S
setmatrix
grestore
gsave
0 0 0 setrgbcolor
1.000000 setlinewidth
[4] 0 setdash
newpath
225 333 M
242.538 288 L
233.538 216 L
stroke
grestore
gsave
gsave
matrix currentmatrix
[1 0 0 1 288 234] concat
newpath
0 0 M 0 18 L 11 18 L 11 0 L
closepath setmatrix
0 0 0 setrgbcolor
grestore
newpath
286 232 M 286 254.429 L 301 254.429 L 301 232 L
closepath clip newpath
0 0 0 setrgbcolor
matrix currentmatrix
[1 0 0 1 288 234] concat
/Times-Roman-SHOWISO findfont 18 scalefont setfont
0 0 0 setrgbcolor
0 3.42857 M (3) 9 S
setmatrix
grestore
gsave
gsave
matrix currentmatrix
[1 0 0 1 243 265.5] concat
newpath
0 0 M 0 18 L 11 18 L 11 0 L
closepath setmatrix
0 0 0 setrgbcolor
grestore
newpath
241 263.5 M 241 285.929 L 256 285.929 L 256 263.5 L
closepath clip newpath
0 0 0 setrgbcolor
matrix currentmatrix
[1 0 0 1 243 265.5] concat
/Times-Roman-SHOWISO findfont 18 scalefont setfont
0 0 0 setrgbcolor
0 3.42857 M (2) 9 S
setmatrix
grestore
gsave
gsave
matrix currentmatrix
[1 0 0 1 247.038 202.5] concat
newpath
0 0 M 0 18 L 58.988 18 L 58.988 0 L
closepath setmatrix
0 0 0 setrgbcolor
grestore
newpath
245.038 200.5 M 245.038 222.929 L 308.026 222.929 L 308.026 200.5 L
closepath clip newpath
0 0 0 setrgbcolor
matrix currentmatrix
[1 0 0 1 247.038 202.5] concat
/Times-Roman-SHOWISO findfont 18 scalefont setfont
0 0 0 setrgbcolor
0 3.42857 M (child[1]) 56.988 S
setmatrix
grestore
gsave
0 0 0 setrgbcolor
1.000000 setlinewidth
newpath
319.5 274.5 M
373.5 310.5 L
stroke
grestore
gsave
0 0 0 setrgbcolor
1.000000 setlinewidth
[4] 0 setdash
newpath
274.038 310.5 M
373.5 310.5 L
stroke
grestore
gsave
0 0 0 setrgbcolor
1.000000 setlinewidth
newpath
256.5 355.5 M
319.5 274.5 L
stroke
grestore
gsave
0 0 0 setrgbcolor
1.000000 setlinewidth
newpath
256.5 355.5 M
373.5 310.5 L
stroke
grestore
gsave
gsave
matrix currentmatrix
[1 0 0 1 247.5 346.5] concat
newpath
0 0 M 0 18 L 11 18 L 11 0 L
closepath setmatrix
0 0 0 setrgbcolor
grestore
newpath
245.5 344.5 M 245.5 366.929 L 260.5 366.929 L 260.5 344.5 L
closepath clip newpath
0 0 0 setrgbcolor
matrix currentmatrix
[1 0 0 1 247.5 346.5] concat
/Times-Roman-SHOWISO findfont 18 scalefont setfont
0 0 0 setrgbcolor
0 3.42857 M (1) 9 S
setmatrix
grestore
gsave
gsave
matrix currentmatrix
[1 0 0 1 376 302] concat
newpath
0 0 M 0 18 L 11 18 L 11 0 L
closepath setmatrix
0 0 0 setrgbcolor
grestore
newpath
374 300 M 374 322.429 L 389 322.429 L 389 300 L
closepath clip newpath
0 0 0 setrgbcolor
matrix currentmatrix
[1 0 0 1 376 302] concat
/Times-Roman-SHOWISO findfont 18 scalefont setfont
0 0 0 setrgbcolor
0 3.42857 M (0) 9 S
setmatrix
grestore
gsave
0 0 0 setrgbcolor
1.000000 setlinewidth
newpath
256.5 355.5 M
274.038 310.5 L
319.5 274.5 L
stroke
grestore
gsave
gsave
matrix currentmatrix
[1 0 0 1 328.5 261] concat
newpath
0 0 M 0 18 L 11 18 L 11 0 L
closepath setmatrix
0 0 0 setrgbcolor
grestore
newpath
326.5 259 M 326.5 281.429 L 341.5 281.429 L 341.5 259 L
closepath clip newpath
0 0 0 setrgbcolor
matrix currentmatrix
[1 0 0 1 328.5 261] concat
/Times-Roman-SHOWISO findfont 18 scalefont setfont
0 0 0 setrgbcolor
0 3.42857 M (3) 9 S
setmatrix
grestore
gsave
gsave
matrix currentmatrix
[1 0 0 1 261 301.5] concat
newpath
0 0 M 0 18 L 11 18 L 11 0 L
closepath setmatrix
0 0 0 setrgbcolor
grestore
newpath
259 299.5 M 259 321.929 L 274 321.929 L 274 299.5 L
closepath clip newpath
0 0 0 setrgbcolor
matrix currentmatrix
[1 0 0 1 261 301.5] concat
/Times-Roman-SHOWISO findfont 18 scalefont setfont
0 0 0 setrgbcolor
0 3.42857 M (2) 9 S
setmatrix
grestore
gsave
gsave
matrix currentmatrix
[1 0 0 1 296.538 342] concat
newpath
0 0 M 0 18 L 58.988 18 L 58.988 0 L
closepath setmatrix
0 0 0 setrgbcolor
grestore
newpath
294.538 340 M 294.538 362.429 L 357.526 362.429 L 357.526 340 L
closepath clip newpath
0 0 0 setrgbcolor
matrix currentmatrix
[1 0 0 1 296.538 342] concat
/Times-Roman-SHOWISO findfont 18 scalefont setfont
0 0 0 setrgbcolor
0 3.42857 M (child[0]) 56.988 S
setmatrix
grestore
grestore
showpage
saveit restore
grestore
%%EOF
