%!PS-Adobe-2.0 EPSF-2.0
%%Title: ref_1simplex.eps
%%Creator: fig2dev Version 3.2 Patchlevel 3d
%%CreationDate: Wed May 14 09:41:26 2003
%%For: schmidt@linux (Alfred Schmidt)
%%BoundingBox: 0 0 201 94
%%Magnification: 1.0000
%%EndComments
/$F2psDict 200 dict def
$F2psDict begin
$F2psDict /mtrx matrix put
/col-1 {0 setgray} bind def
/col0 {0.000 0.000 0.000 srgb} bind def
/col1 {0.000 0.000 1.000 srgb} bind def
/col2 {0.000 1.000 0.000 srgb} bind def
/col3 {0.000 1.000 1.000 srgb} bind def
/col4 {1.000 0.000 0.000 srgb} bind def
/col5 {1.000 0.000 1.000 srgb} bind def
/col6 {1.000 1.000 0.000 srgb} bind def
/col7 {1.000 1.000 1.000 srgb} bind def
/col8 {0.000 0.000 0.560 srgb} bind def
/col9 {0.000 0.000 0.690 srgb} bind def
/col10 {0.000 0.000 0.820 srgb} bind def
/col11 {0.530 0.810 1.000 srgb} bind def
/col12 {0.000 0.560 0.000 srgb} bind def
/col13 {0.000 0.690 0.000 srgb} bind def
/col14 {0.000 0.820 0.000 srgb} bind def
/col15 {0.000 0.560 0.560 srgb} bind def
/col16 {0.000 0.690 0.690 srgb} bind def
/col17 {0.000 0.820 0.820 srgb} bind def
/col18 {0.560 0.000 0.000 srgb} bind def
/col19 {0.690 0.000 0.000 srgb} bind def
/col20 {0.820 0.000 0.000 srgb} bind def
/col21 {0.560 0.000 0.560 srgb} bind def
/col22 {0.690 0.000 0.690 srgb} bind def
/col23 {0.820 0.000 0.820 srgb} bind def
/col24 {0.500 0.190 0.000 srgb} bind def
/col25 {0.630 0.250 0.000 srgb} bind def
/col26 {0.750 0.380 0.000 srgb} bind def
/col27 {1.000 0.500 0.500 srgb} bind def
/col28 {1.000 0.630 0.630 srgb} bind def
/col29 {1.000 0.750 0.750 srgb} bind def
/col30 {1.000 0.880 0.880 srgb} bind def
/col31 {1.000 0.840 0.000 srgb} bind def

end
save
newpath 0 94 moveto 0 0 lineto 201 0 lineto 201 94 lineto closepath clip newpath
-99.2 159.3 translate
1 -1 scale

/cp {closepath} bind def
/ef {eofill} bind def
/gr {grestore} bind def
/gs {gsave} bind def
/sa {save} bind def
/rs {restore} bind def
/l {lineto} bind def
/m {moveto} bind def
/rm {rmoveto} bind def
/n {newpath} bind def
/s {stroke} bind def
/sh {show} bind def
/slc {setlinecap} bind def
/slj {setlinejoin} bind def
/slw {setlinewidth} bind def
/srgb {setrgbcolor} bind def
/rot {rotate} bind def
/sc {scale} bind def
/sd {setdash} bind def
/ff {findfont} bind def
/sf {setfont} bind def
/scf {scalefont} bind def
/sw {stringwidth} bind def
/tr {translate} bind def
/tnt {dup dup currentrgbcolor
  4 -2 roll dup 1 exch sub 3 -1 roll mul add
  4 -2 roll dup 1 exch sub 3 -1 roll mul add
  4 -2 roll dup 1 exch sub 3 -1 roll mul add srgb}
  bind def
/shd {dup dup currentrgbcolor 4 -2 roll mul 4 -2 roll mul
  4 -2 roll mul srgb} bind def
 /DrawEllipse {
	/endangle exch def
	/startangle exch def
	/yrad exch def
	/xrad exch def
	/y exch def
	/x exch def
	/savematrix mtrx currentmatrix def
	x y tr xrad yrad sc 0 0 1 startangle endangle arc
	closepath
	savematrix setmatrix
	} def

/$F2psBegin {$F2psDict begin /$F2psEnteredState save def} def
/$F2psEnd {$F2psEnteredState restore end} def

$F2psBegin
10 setmiterlimit
 0.06299 0.06299 sc
%
% Fig objects follow
%
7.500 slw
% Ellipse
n 1800 1350 45 45 0 360 DrawEllipse gs 0.00 setgray ef gr gs col0 s gr

% Ellipse
n 4500 1350 45 45 0 360 DrawEllipse gs 0.00 setgray ef gr gs col0 s gr

% Ellipse
n 1665 2475 45 45 0 360 DrawEllipse gs 0.00 setgray ef gr gs col0 s gr

% Ellipse
n 4635 2475 45 45 0 360 DrawEllipse gs 0.00 setgray ef gr gs col0 s gr

% Ellipse
n 3294 2476 45 45 0 360 DrawEllipse gs 0.00 setgray ef gr gs col0 s gr

% Ellipse
n 3035 2470 45 45 0 360 DrawEllipse gs 0.00 setgray ef gr gs col0 s gr

% Polyline
n 1800 1350 m
 4500 1350 l gs col0 s gr 
% Polyline
n 1665 2475 m
 3015 2475 l gs col0 s gr 
% Polyline
n 3285 2475 m
 4635 2475 l gs col0 s gr 
% Polyline
 [15 45] 45 sd
n 1665 2475 m
 1800 1350 l gs col0 s gr  [] 0 sd
% Polyline
 [15 45] 45 sd
n 4635 2475 m
 4500 1350 l gs col0 s gr  [] 0 sd
% Polyline
 [15 45] 45 sd
n 3060 2475 m 3150 1350 l
 3285 2475 l gs col0 s gr  [] 0 sd
/Times-Roman ff 240.00 scf sf
1980 2340 m
gs 1 -1 sc (child[0]) col0 sh gr
/Times-Roman ff 240.00 scf sf
3600 2340 m
gs 1 -1 sc (child[1]) col0 sh gr
/Times-Roman ff 240.00 scf sf
1755 1215 m
gs 1 -1 sc (0) col0 sh gr
/Times-Roman ff 240.00 scf sf
4455 1215 m
gs 1 -1 sc (1) col0 sh gr
/Times-Roman ff 240.00 scf sf
2925 2385 m
gs 1 -1 sc (1) col0 sh gr
/Times-Roman ff 240.00 scf sf
3285 2385 m
gs 1 -1 sc (0) col0 sh gr
/Times-Roman ff 240.00 scf sf
1575 2385 m
gs 1 -1 sc (0) col0 sh gr
/Times-Roman ff 240.00 scf sf
4635 2385 m
gs 1 -1 sc (1) col0 sh gr
$F2psEnd
rs
