#FIG 3.2
Portrait
Center
Metric
A4      
100.00
Single
-2
1200 2
0 32 #a0a0a0
6 2250 0 4320 2070
# Created with ALBERTA using write_mesh_fig().
6 2250 0 4320 2070
3 5 0 1 -1 32 50 -1 20 0.000 0 0 0 7
	 4285 1035 3992 1742 3285 2035 3285 1535 3285 1035 3785 1035
	 4285 1035
	 0.000 -1.000 0.000 -1.000 0.000 -1.000 0.000
3 5 0 1 -1 32 50 -1 20 0.000 0 0 0 7
	 3285 2035 2578 1742 2285 1035 2785 1035 3285 1035 3285 1535
	 3285 2035
	 0.000 -1.000 0.000 -1.000 0.000 -1.000 0.000
3 5 0 1 -1 32 50 -1 20 0.000 0 0 0 7
	 2285 1035 2578 328 3285 35 3285 535 3285 1035 2785 1035
	 2285 1035
	 0.000 -1.000 0.000 -1.000 0.000 -1.000 0.000
3 5 0 1 -1 32 50 -1 20 0.000 0 0 0 7
	 3285 35 3992 328 4285 1035 3785 1035 3285 1035 3285 535
	 3285 35
	 0.000 -1.000 0.000 -1.000 0.000 -1.000 0.000
-6
-6
6 4500 0 6570 2070
# Created with ALBERTA using write_mesh_fig().
6 4500 0 6570 2070
3 5 0 1 -1 32 50 -1 20 0.000 0 0 0 7
	 5535 1035 6035 1035 6535 1035 6458 1417 6242 1742 5888 1388
	 5535 1035
	 0.000 -1.000 0.000 -1.000 0.000 -1.000 0.000
3 5 0 1 -1 32 50 -1 20 0.000 0 0 0 7
	 5535 2035 5535 1535 5535 1035 5888 1388 6242 1742 5917 1958
	 5535 2035
	 0.000 -1.000 0.000 -1.000 0.000 -1.000 0.000
3 5 0 1 -1 32 50 -1 20 0.000 0 0 0 7
	 5535 1035 5535 1535 5535 2035 5153 1958 4828 1742 5182 1388
	 5535 1035
	 0.000 -1.000 0.000 -1.000 0.000 -1.000 0.000
3 5 0 1 -1 32 50 -1 20 0.000 0 0 0 7
	 4535 1035 5035 1035 5535 1035 5182 1388 4828 1742 4612 1417
	 4535 1035
	 0.000 -1.000 0.000 -1.000 0.000 -1.000 0.000
3 5 0 1 -1 32 50 -1 20 0.000 0 0 0 7
	 5535 1035 5035 1035 4535 1035 4612 653 4828 328 5182 682
	 5535 1035
	 0.000 -1.000 0.000 -1.000 0.000 -1.000 0.000
3 5 0 1 -1 32 50 -1 20 0.000 0 0 0 7
	 5535 35 5535 535 5535 1035 5182 682 4828 328 5153 112
	 5535 35
	 0.000 -1.000 0.000 -1.000 0.000 -1.000 0.000
3 5 0 1 -1 32 50 -1 20 0.000 0 0 0 7
	 5535 1035 5535 535 5535 35 5917 112 6242 328 5888 682
	 5535 1035
	 0.000 -1.000 0.000 -1.000 0.000 -1.000 0.000
3 5 0 1 -1 32 50 -1 20 0.000 0 0 0 7
	 6535 1035 6035 1035 5535 1035 5888 682 6242 328 6458 653
	 6535 1035
	 0.000 -1.000 0.000 -1.000 0.000 -1.000 0.000
-6
-6
# Created with ALBERTA using write_mesh_fig().
6 2250 2250 4320 4320
2 3 0 1 -1 0 50 -1 -1 0.000 0 0 -1 0 0 4
	 3785 3285 3992 3992 3638 3638 3785 3285
2 3 0 1 -1 0 50 -1 -1 0.000 0 0 -1 0 0 4
	 3285 3285 3785 3285 3638 3638 3285 3285
2 3 0 1 -1 0 50 -1 -1 0.000 0 0 -1 0 0 4
	 3285 3785 3285 3285 3638 3638 3285 3785
2 3 0 1 -1 0 50 -1 -1 0.000 0 0 -1 0 0 4
	 3992 3992 3285 3785 3638 3638 3992 3992
2 3 0 1 -1 0 50 -1 -1 0.000 0 0 -1 0 0 4
	 3285 3785 2578 3992 2932 3638 3285 3785
2 3 0 1 -1 0 50 -1 -1 0.000 0 0 -1 0 0 4
	 3285 3285 3285 3785 2932 3638 3285 3285
2 3 0 1 -1 0 50 -1 -1 0.000 0 0 -1 0 0 4
	 2785 3285 3285 3285 2932 3638 2785 3285
2 3 0 1 -1 0 50 -1 -1 0.000 0 0 -1 0 0 4
	 2578 3992 2785 3285 2932 3638 2578 3992
2 3 0 1 -1 0 50 -1 -1 0.000 0 0 -1 0 0 4
	 2785 3285 2578 2578 2932 2932 2785 3285
2 3 0 1 -1 0 50 -1 -1 0.000 0 0 -1 0 0 4
	 3285 3285 2785 3285 2932 2932 3285 3285
2 3 0 1 -1 0 50 -1 -1 0.000 0 0 -1 0 0 4
	 3285 2785 3285 3285 2932 2932 3285 2785
2 3 0 1 -1 0 50 -1 -1 0.000 0 0 -1 0 0 4
	 2578 2578 3285 2785 2932 2932 2578 2578
2 3 0 1 -1 0 50 -1 -1 0.000 0 0 -1 0 0 4
	 3285 2785 3992 2578 3638 2932 3285 2785
2 3 0 1 -1 0 50 -1 -1 0.000 0 0 -1 0 0 4
	 3285 3285 3285 2785 3638 2932 3285 3285
2 3 0 1 -1 0 50 -1 -1 0.000 0 0 -1 0 0 4
	 3785 3285 3285 3285 3638 2932 3785 3285
2 3 0 1 -1 0 50 -1 -1 0.000 0 0 -1 0 0 4
	 3992 2578 3785 3285 3638 2932 3992 2578
3 5 0 1 -1 32 50 -1 20 0.000 0 0 0 7
	 3785 3285 4035 3285 4285 3285 4265 3480 4208 3667 3996 3476
	 3785 3285
	 0.000 -1.000 0.000 -1.000 0.000 -1.000 0.000
3 5 0 1 -1 32 50 -1 20 0.000 0 0 0 7
	 3992 3992 3888 3638 3785 3285 3996 3476 4208 3667 4116 3840
	 3992 3992
	 0.000 -1.000 0.000 -1.000 0.000 -1.000 0.000
3 5 0 1 -1 32 50 -1 20 0.000 0 0 0 7
	 3285 3785 3638 3888 3992 3992 3840 4116 3667 4208 3476 3996
	 3285 3785
	 0.000 -1.000 0.000 -1.000 0.000 -1.000 0.000
3 5 0 1 -1 32 50 -1 20 0.000 0 0 0 7
	 3285 4285 3285 4035 3285 3785 3476 3996 3667 4208 3480 4265
	 3285 4285
	 0.000 -1.000 0.000 -1.000 0.000 -1.000 0.000
3 5 0 1 -1 32 50 -1 20 0.000 0 0 0 7
	 3285 3785 3285 4035 3285 4285 3090 4265 2903 4208 3094 3996
	 3285 3785
	 0.000 -1.000 0.000 -1.000 0.000 -1.000 0.000
3 5 0 1 -1 32 50 -1 20 0.000 0 0 0 7
	 2578 3992 2932 3888 3285 3785 3094 3996 2903 4208 2730 4116
	 2578 3992
	 0.000 -1.000 0.000 -1.000 0.000 -1.000 0.000
3 5 0 1 -1 32 50 -1 20 0.000 0 0 0 7
	 2785 3285 2682 3638 2578 3992 2454 3840 2362 3667 2574 3476
	 2785 3285
	 0.000 -1.000 0.000 -1.000 0.000 -1.000 0.000
3 5 0 1 -1 32 50 -1 20 0.000 0 0 0 7
	 2285 3285 2535 3285 2785 3285 2574 3476 2362 3667 2305 3480
	 2285 3285
	 0.000 -1.000 0.000 -1.000 0.000 -1.000 0.000
3 5 0 1 -1 32 50 -1 20 0.000 0 0 0 7
	 2785 3285 2535 3285 2285 3285 2305 3090 2362 2903 2574 3094
	 2785 3285
	 0.000 -1.000 0.000 -1.000 0.000 -1.000 0.000
3 5 0 1 -1 32 50 -1 20 0.000 0 0 0 7
	 2578 2578 2682 2932 2785 3285 2574 3094 2362 2903 2454 2730
	 2578 2578
	 0.000 -1.000 0.000 -1.000 0.000 -1.000 0.000
3 5 0 1 -1 32 50 -1 20 0.000 0 0 0 7
	 3285 2785 2932 2682 2578 2578 2730 2454 2903 2362 3094 2574
	 3285 2785
	 0.000 -1.000 0.000 -1.000 0.000 -1.000 0.000
3 5 0 1 -1 32 50 -1 20 0.000 0 0 0 7
	 3285 2285 3285 2535 3285 2785 3094 2574 2903 2362 3090 2305
	 3285 2285
	 0.000 -1.000 0.000 -1.000 0.000 -1.000 0.000
3 5 0 1 -1 32 50 -1 20 0.000 0 0 0 7
	 3285 2785 3285 2535 3285 2285 3480 2305 3667 2362 3476 2574
	 3285 2785
	 0.000 -1.000 0.000 -1.000 0.000 -1.000 0.000
3 5 0 1 -1 32 50 -1 20 0.000 0 0 0 7
	 3992 2578 3638 2682 3285 2785 3476 2574 3667 2362 3840 2454
	 3992 2578
	 0.000 -1.000 0.000 -1.000 0.000 -1.000 0.000
3 5 0 1 -1 32 50 -1 20 0.000 0 0 0 7
	 3785 3285 3888 2932 3992 2578 4116 2730 4208 2903 3996 3094
	 3785 3285
	 0.000 -1.000 0.000 -1.000 0.000 -1.000 0.000
3 5 0 1 -1 32 50 -1 20 0.000 0 0 0 7
	 4285 3285 4035 3285 3785 3285 3996 3094 4208 2903 4265 3090
	 4285 3285
	 0.000 -1.000 0.000 -1.000 0.000 -1.000 0.000
-6
# Created with ALBERTA using write_mesh_fig().
6 4500 2250 6570 4320
2 3 0 1 -1 0 50 -1 -1 0.000 0 0 -1 0 0 4
	 5888 3638 6035 3285 6138 3638 5888 3638
2 3 0 1 -1 0 50 -1 -1 0.000 0 0 -1 0 0 4
	 6242 3992 5888 3638 6138 3638 6242 3992
2 3 0 1 -1 0 50 -1 -1 0.000 0 0 -1 0 0 4
	 5888 3638 5535 3285 5785 3285 5888 3638
2 3 0 1 -1 0 50 -1 -1 0.000 0 0 -1 0 0 4
	 6035 3285 5888 3638 5785 3285 6035 3285
2 3 0 1 -1 0 50 -1 -1 0.000 0 0 -1 0 0 4
	 6458 3667 6035 3285 6285 3285 6458 3667
2 3 0 1 -1 0 50 -1 -1 0.000 0 0 -1 0 0 4
	 6035 3285 6458 3667 6138 3638 6035 3285
2 3 0 1 -1 0 50 -1 -1 0.000 0 0 -1 0 0 4
	 5917 4208 5535 3785 5888 3888 5917 4208
2 3 0 1 -1 0 50 -1 -1 0.000 0 0 -1 0 0 4
	 5535 3785 5917 4208 5535 4035 5535 3785
2 3 0 1 -1 0 50 -1 -1 0.000 0 0 -1 0 0 4
	 5888 3638 5535 3785 5535 3535 5888 3638
2 3 0 1 -1 0 50 -1 -1 0.000 0 0 -1 0 0 4
	 5535 3285 5888 3638 5535 3535 5535 3285
2 3 0 1 -1 0 50 -1 -1 0.000 0 0 -1 0 0 4
	 5888 3638 6242 3992 5888 3888 5888 3638
2 3 0 1 -1 0 50 -1 -1 0.000 0 0 -1 0 0 4
	 5535 3785 5888 3638 5888 3888 5535 3785
2 3 0 1 -1 0 50 -1 -1 0.000 0 0 -1 0 0 4
	 5182 3638 5535 3785 5182 3888 5182 3638
2 3 0 1 -1 0 50 -1 -1 0.000 0 0 -1 0 0 4
	 4828 3992 5182 3638 5182 3888 4828 3992
2 3 0 1 -1 0 50 -1 -1 0.000 0 0 -1 0 0 4
	 5182 3638 5535 3285 5535 3535 5182 3638
2 3 0 1 -1 0 50 -1 -1 0.000 0 0 -1 0 0 4
	 5535 3785 5182 3638 5535 3535 5535 3785
2 3 0 1 -1 0 50 -1 -1 0.000 0 0 -1 0 0 4
	 5153 4208 5535 3785 5535 4035 5153 4208
2 3 0 1 -1 0 50 -1 -1 0.000 0 0 -1 0 0 4
	 5535 3785 5153 4208 5182 3888 5535 3785
2 3 0 1 -1 0 50 -1 -1 0.000 0 0 -1 0 0 4
	 4612 3667 5035 3285 4932 3638 4612 3667
2 3 0 1 -1 0 50 -1 -1 0.000 0 0 -1 0 0 4
	 5035 3285 4612 3667 4785 3285 5035 3285
2 3 0 1 -1 0 50 -1 -1 0.000 0 0 -1 0 0 4
	 5182 3638 5035 3285 5285 3285 5182 3638
2 3 0 1 -1 0 50 -1 -1 0.000 0 0 -1 0 0 4
	 5535 3285 5182 3638 5285 3285 5535 3285
2 3 0 1 -1 0 50 -1 -1 0.000 0 0 -1 0 0 4
	 5182 3638 4828 3992 4932 3638 5182 3638
2 3 0 1 -1 0 50 -1 -1 0.000 0 0 -1 0 0 4
	 5035 3285 5182 3638 4932 3638 5035 3285
2 3 0 1 -1 0 50 -1 -1 0.000 0 0 -1 0 0 4
	 5182 2932 5035 3285 4932 2932 5182 2932
2 3 0 1 -1 0 50 -1 -1 0.000 0 0 -1 0 0 4
	 4828 2578 5182 2932 4932 2932 4828 2578
2 3 0 1 -1 0 50 -1 -1 0.000 0 0 -1 0 0 4
	 5182 2932 5535 3285 5285 3285 5182 2932
2 3 0 1 -1 0 50 -1 -1 0.000 0 0 -1 0 0 4
	 5035 3285 5182 2932 5285 3285 5035 3285
2 3 0 1 -1 0 50 -1 -1 0.000 0 0 -1 0 0 4
	 4612 2903 5035 3285 4785 3285 4612 2903
2 3 0 1 -1 0 50 -1 -1 0.000 0 0 -1 0 0 4
	 5035 3285 4612 2903 4932 2932 5035 3285
2 3 0 1 -1 0 50 -1 -1 0.000 0 0 -1 0 0 4
	 5153 2362 5535 2785 5182 2682 5153 2362
2 3 0 1 -1 0 50 -1 -1 0.000 0 0 -1 0 0 4
	 5535 2785 5153 2362 5535 2535 5535 2785
2 3 0 1 -1 0 50 -1 -1 0.000 0 0 -1 0 0 4
	 5182 2932 5535 2785 5535 3035 5182 2932
2 3 0 1 -1 0 50 -1 -1 0.000 0 0 -1 0 0 4
	 5535 3285 5182 2932 5535 3035 5535 3285
2 3 0 1 -1 0 50 -1 -1 0.000 0 0 -1 0 0 4
	 5182 2932 4828 2578 5182 2682 5182 2932
2 3 0 1 -1 0 50 -1 -1 0.000 0 0 -1 0 0 4
	 5535 2785 5182 2932 5182 2682 5535 2785
2 3 0 1 -1 0 50 -1 -1 0.000 0 0 -1 0 0 4
	 5888 2932 5535 2785 5888 2682 5888 2932
2 3 0 1 -1 0 50 -1 -1 0.000 0 0 -1 0 0 4
	 6242 2578 5888 2932 5888 2682 6242 2578
2 3 0 1 -1 0 50 -1 -1 0.000 0 0 -1 0 0 4
	 5888 2932 5535 3285 5535 3035 5888 2932
2 3 0 1 -1 0 50 -1 -1 0.000 0 0 -1 0 0 4
	 5535 2785 5888 2932 5535 3035 5535 2785
2 3 0 1 -1 0 50 -1 -1 0.000 0 0 -1 0 0 4
	 5917 2362 5535 2785 5535 2535 5917 2362
2 3 0 1 -1 0 50 -1 -1 0.000 0 0 -1 0 0 4
	 5535 2785 5917 2362 5888 2682 5535 2785
2 3 0 1 -1 0 50 -1 -1 0.000 0 0 -1 0 0 4
	 6458 2903 6035 3285 6138 2932 6458 2903
2 3 0 1 -1 0 50 -1 -1 0.000 0 0 -1 0 0 4
	 6035 3285 6458 2903 6285 3285 6035 3285
2 3 0 1 -1 0 50 -1 -1 0.000 0 0 -1 0 0 4
	 5888 2932 6035 3285 5785 3285 5888 2932
2 3 0 1 -1 0 50 -1 -1 0.000 0 0 -1 0 0 4
	 5535 3285 5888 2932 5785 3285 5535 3285
2 3 0 1 -1 0 50 -1 -1 0.000 0 0 -1 0 0 4
	 5888 2932 6242 2578 6138 2932 5888 2932
2 3 0 1 -1 0 50 -1 -1 0.000 0 0 -1 0 0 4
	 6035 3285 5888 2932 6138 2932 6035 3285
3 5 0 1 -1 32 50 -1 20 0.000 0 0 0 7
	 6535 3285 6515 3480 6458 3667 6371 3476 6285 3285 6410 3285
	 6535 3285
	 0.000 -1.000 0.000 -1.000 0.000 -1.000 0.000
3 5 0 1 -1 32 50 -1 20 0.000 0 0 0 7
	 6458 3667 6366 3840 6242 3992 6190 3815 6138 3638 6298 3653
	 6458 3667
	 0.000 -1.000 0.000 -1.000 0.000 -1.000 0.000
3 5 0 1 -1 32 50 -1 20 0.000 0 0 0 7
	 6242 3992 6090 4116 5917 4208 5903 4048 5888 3888 6065 3940
	 6242 3992
	 0.000 -1.000 0.000 -1.000 0.000 -1.000 0.000
3 5 0 1 -1 32 50 -1 20 0.000 0 0 0 7
	 5917 4208 5730 4265 5535 4285 5535 4160 5535 4035 5726 4121
	 5917 4208
	 0.000 -1.000 0.000 -1.000 0.000 -1.000 0.000
3 5 0 1 -1 32 50 -1 20 0.000 0 0 0 7
	 5535 4285 5340 4265 5153 4208 5344 4121 5535 4035 5535 4160
	 5535 4285
	 0.000 -1.000 0.000 -1.000 0.000 -1.000 0.000
3 5 0 1 -1 32 50 -1 20 0.000 0 0 0 7
	 5153 4208 4980 4116 4828 3992 5005 3940 5182 3888 5167 4048
	 5153 4208
	 0.000 -1.000 0.000 -1.000 0.000 -1.000 0.000
3 5 0 1 -1 32 50 -1 20 0.000 0 0 0 7
	 4828 3992 4704 3840 4612 3667 4772 3653 4932 3638 4880 3815
	 4828 3992
	 0.000 -1.000 0.000 -1.000 0.000 -1.000 0.000
3 5 0 1 -1 32 50 -1 20 0.000 0 0 0 7
	 4612 3667 4555 3480 4535 3285 4660 3285 4785 3285 4699 3476
	 4612 3667
	 0.000 -1.000 0.000 -1.000 0.000 -1.000 0.000
3 5 0 1 -1 32 50 -1 20 0.000 0 0 0 7
	 4535 3285 4555 3090 4612 2903 4699 3094 4785 3285 4660 3285
	 4535 3285
	 0.000 -1.000 0.000 -1.000 0.000 -1.000 0.000
3 5 0 1 -1 32 50 -1 20 0.000 0 0 0 7
	 4612 2903 4704 2730 4828 2578 4880 2755 4932 2932 4772 2917
	 4612 2903
	 0.000 -1.000 0.000 -1.000 0.000 -1.000 0.000
3 5 0 1 -1 32 50 -1 20 0.000 0 0 0 7
	 4828 2578 4980 2454 5153 2362 5167 2522 5182 2682 5005 2630
	 4828 2578
	 0.000 -1.000 0.000 -1.000 0.000 -1.000 0.000
3 5 0 1 -1 32 50 -1 20 0.000 0 0 0 7
	 5153 2362 5340 2305 5535 2285 5535 2410 5535 2535 5344 2449
	 5153 2362
	 0.000 -1.000 0.000 -1.000 0.000 -1.000 0.000
3 5 0 1 -1 32 50 -1 20 0.000 0 0 0 7
	 5535 2285 5730 2305 5917 2362 5726 2449 5535 2535 5535 2410
	 5535 2285
	 0.000 -1.000 0.000 -1.000 0.000 -1.000 0.000
3 5 0 1 -1 32 50 -1 20 0.000 0 0 0 7
	 5917 2362 6090 2454 6242 2578 6065 2630 5888 2682 5903 2522
	 5917 2362
	 0.000 -1.000 0.000 -1.000 0.000 -1.000 0.000
3 5 0 1 -1 32 50 -1 20 0.000 0 0 0 7
	 6242 2578 6366 2730 6458 2903 6298 2917 6138 2932 6190 2755
	 6242 2578
	 0.000 -1.000 0.000 -1.000 0.000 -1.000 0.000
3 5 0 1 -1 32 50 -1 20 0.000 0 0 0 7
	 6458 2903 6515 3090 6535 3285 6410 3285 6285 3285 6371 3094
	 6458 2903
	 0.000 -1.000 0.000 -1.000 0.000 -1.000 0.000
-6
# Created with ALBERTA using write_mesh_fig().
6 6750 0 8820 2070
2 3 0 1 -1 0 50 -1 -1 0.000 0 0 -1 0 0 4
	 8492 1742 7785 1035 8285 1035 8492 1742
2 3 0 1 -1 0 50 -1 -1 0.000 0 0 -1 0 0 4
	 7785 1035 8492 1742 7785 1535 7785 1035
2 3 0 1 -1 0 50 -1 -1 0.000 0 0 -1 0 0 4
	 7078 1742 7785 1035 7785 1535 7078 1742
2 3 0 1 -1 0 50 -1 -1 0.000 0 0 -1 0 0 4
	 7785 1035 7078 1742 7285 1035 7785 1035
2 3 0 1 -1 0 50 -1 -1 0.000 0 0 -1 0 0 4
	 7078 328 7785 1035 7285 1035 7078 328
2 3 0 1 -1 0 50 -1 -1 0.000 0 0 -1 0 0 4
	 7785 1035 7078 328 7785 535 7785 1035
2 3 0 1 -1 0 50 -1 -1 0.000 0 0 -1 0 0 4
	 8492 328 7785 1035 7785 535 8492 328
2 3 0 1 -1 0 50 -1 -1 0.000 0 0 -1 0 0 4
	 7785 1035 8492 328 8285 1035 7785 1035
3 5 0 1 -1 32 50 -1 20 0.000 0 0 0 7
	 8785 1035 8708 1417 8492 1742 8388 1388 8285 1035 8535 1035
	 8785 1035
	 0.000 -1.000 0.000 -1.000 0.000 -1.000 0.000
3 5 0 1 -1 32 50 -1 20 0.000 0 0 0 7
	 8492 1742 8167 1958 7785 2035 7785 1785 7785 1535 8138 1638
	 8492 1742
	 0.000 -1.000 0.000 -1.000 0.000 -1.000 0.000
3 5 0 1 -1 32 50 -1 20 0.000 0 0 0 7
	 7785 2035 7403 1958 7078 1742 7432 1638 7785 1535 7785 1785
	 7785 2035
	 0.000 -1.000 0.000 -1.000 0.000 -1.000 0.000
3 5 0 1 -1 32 50 -1 20 0.000 0 0 0 7
	 7078 1742 6862 1417 6785 1035 7035 1035 7285 1035 7182 1388
	 7078 1742
	 0.000 -1.000 0.000 -1.000 0.000 -1.000 0.000
3 5 0 1 -1 32 50 -1 20 0.000 0 0 0 7
	 6785 1035 6862 653 7078 328 7182 682 7285 1035 7035 1035
	 6785 1035
	 0.000 -1.000 0.000 -1.000 0.000 -1.000 0.000
3 5 0 1 -1 32 50 -1 20 0.000 0 0 0 7
	 7078 328 7403 112 7785 35 7785 285 7785 535 7432 432
	 7078 328
	 0.000 -1.000 0.000 -1.000 0.000 -1.000 0.000
3 5 0 1 -1 32 50 -1 20 0.000 0 0 0 7
	 7785 35 8167 112 8492 328 8138 432 7785 535 7785 285
	 7785 35
	 0.000 -1.000 0.000 -1.000 0.000 -1.000 0.000
3 5 0 1 -1 32 50 -1 20 0.000 0 0 0 7
	 8492 328 8708 653 8785 1035 8535 1035 8285 1035 8388 682
	 8492 328
	 0.000 -1.000 0.000 -1.000 0.000 -1.000 0.000
-6
# Created with ALBERTA using write_mesh_fig().
6 6750 2250 8820 4320
2 3 0 1 -1 0 50 -1 -1 0.000 0 0 -1 0 0 4
	 8388 3638 8138 3638 8211 3461 8388 3638
2 3 0 1 -1 0 50 -1 -1 0.000 0 0 -1 0 0 4
	 8285 3285 8388 3638 8211 3461 8285 3285
2 3 0 1 -1 0 50 -1 -1 0.000 0 0 -1 0 0 4
	 8388 3638 8492 3992 8315 3815 8388 3638
2 3 0 1 -1 0 50 -1 -1 0.000 0 0 -1 0 0 4
	 8138 3638 8388 3638 8315 3815 8138 3638
2 3 0 1 -1 0 50 -1 -1 0.000 0 0 -1 0 0 4
	 8035 3285 8138 3638 7961 3461 8035 3285
2 3 0 1 -1 0 50 -1 -1 0.000 0 0 -1 0 0 4
	 7785 3285 8035 3285 7961 3461 7785 3285
2 3 0 1 -1 0 50 -1 -1 0.000 0 0 -1 0 0 4
	 8035 3285 8285 3285 8211 3461 8035 3285
2 3 0 1 -1 0 50 -1 -1 0.000 0 0 -1 0 0 4
	 8138 3638 8035 3285 8211 3461 8138 3638
2 3 0 1 -1 0 50 -1 -1 0.000 0 0 -1 0 0 4
	 8535 3285 8708 3667 8496 3476 8535 3285
2 3 0 1 -1 0 50 -1 -1 0.000 0 0 -1 0 0 4
	 8285 3285 8535 3285 8496 3476 8285 3285
2 3 0 1 -1 0 50 -1 -1 0.000 0 0 -1 0 0 4
	 8388 3638 8285 3285 8496 3476 8388 3638
2 3 0 1 -1 0 50 -1 -1 0.000 0 0 -1 0 0 4
	 8708 3667 8388 3638 8496 3476 8708 3667
2 3 0 1 -1 0 50 -1 -1 0.000 0 0 -1 0 0 4
	 8138 3888 8167 4208 7976 3996 8138 3888
2 3 0 1 -1 0 50 -1 -1 0.000 0 0 -1 0 0 4
	 7785 3785 8138 3888 7976 3996 7785 3785
2 3 0 1 -1 0 50 -1 -1 0.000 0 0 -1 0 0 4
	 7785 4035 7785 3785 7976 3996 7785 4035
2 3 0 1 -1 0 50 -1 -1 0.000 0 0 -1 0 0 4
	 8167 4208 7785 4035 7976 3996 8167 4208
2 3 0 1 -1 0 50 -1 -1 0.000 0 0 -1 0 0 4
	 7785 3535 8138 3638 7961 3711 7785 3535
2 3 0 1 -1 0 50 -1 -1 0.000 0 0 -1 0 0 4
	 7785 3785 7785 3535 7961 3711 7785 3785
2 3 0 1 -1 0 50 -1 -1 0.000 0 0 -1 0 0 4
	 7785 3535 7785 3285 7961 3461 7785 3535
2 3 0 1 -1 0 50 -1 -1 0.000 0 0 -1 0 0 4
	 8138 3638 7785 3535 7961 3461 8138 3638
2 3 0 1 -1 0 50 -1 -1 0.000 0 0 -1 0 0 4
	 8138 3888 8138 3638 8315 3815 8138 3888
2 3 0 1 -1 0 50 -1 -1 0.000 0 0 -1 0 0 4
	 8492 3992 8138 3888 8315 3815 8492 3992
2 3 0 1 -1 0 50 -1 -1 0.000 0 0 -1 0 0 4
	 8138 3888 7785 3785 7961 3711 8138 3888
2 3 0 1 -1 0 50 -1 -1 0.000 0 0 -1 0 0 4
	 8138 3638 8138 3888 7961 3711 8138 3638
2 3 0 1 -1 0 50 -1 -1 0.000 0 0 -1 0 0 4
	 7432 3888 7432 3638 7609 3711 7432 3888
2 3 0 1 -1 0 50 -1 -1 0.000 0 0 -1 0 0 4
	 7785 3785 7432 3888 7609 3711 7785 3785
2 3 0 1 -1 0 50 -1 -1 0.000 0 0 -1 0 0 4
	 7432 3888 7078 3992 7255 3815 7432 3888
2 3 0 1 -1 0 50 -1 -1 0.000 0 0 -1 0 0 4
	 7432 3638 7432 3888 7255 3815 7432 3638
2 3 0 1 -1 0 50 -1 -1 0.000 0 0 -1 0 0 4
	 7785 3535 7432 3638 7609 3461 7785 3535
2 3 0 1 -1 0 50 -1 -1 0.000 0 0 -1 0 0 4
	 7785 3285 7785 3535 7609 3461 7785 3285
2 3 0 1 -1 0 50 -1 -1 0.000 0 0 -1 0 0 4
	 7785 3535 7785 3785 7609 3711 7785 3535
2 3 0 1 -1 0 50 -1 -1 0.000 0 0 -1 0 0 4
	 7432 3638 7785 3535 7609 3711 7432 3638
2 3 0 1 -1 0 50 -1 -1 0.000 0 0 -1 0 0 4
	 7785 4035 7403 4208 7594 3996 7785 4035
2 3 0 1 -1 0 50 -1 -1 0.000 0 0 -1 0 0 4
	 7785 3785 7785 4035 7594 3996 7785 3785
2 3 0 1 -1 0 50 -1 -1 0.000 0 0 -1 0 0 4
	 7432 3888 7785 3785 7594 3996 7432 3888
2 3 0 1 -1 0 50 -1 -1 0.000 0 0 -1 0 0 4
	 7403 4208 7432 3888 7594 3996 7403 4208
2 3 0 1 -1 0 50 -1 -1 0.000 0 0 -1 0 0 4
	 7182 3638 6862 3667 7074 3476 7182 3638
2 3 0 1 -1 0 50 -1 -1 0.000 0 0 -1 0 0 4
	 7285 3285 7182 3638 7074 3476 7285 3285
2 3 0 1 -1 0 50 -1 -1 0.000 0 0 -1 0 0 4
	 7035 3285 7285 3285 7074 3476 7035 3285
2 3 0 1 -1 0 50 -1 -1 0.000 0 0 -1 0 0 4
	 6862 3667 7035 3285 7074 3476 6862 3667
2 3 0 1 -1 0 50 -1 -1 0.000 0 0 -1 0 0 4
	 7535 3285 7432 3638 7359 3461 7535 3285
2 3 0 1 -1 0 50 -1 -1 0.000 0 0 -1 0 0 4
	 7285 3285 7535 3285 7359 3461 7285 3285
2 3 0 1 -1 0 50 -1 -1 0.000 0 0 -1 0 0 4
	 7535 3285 7785 3285 7609 3461 7535 3285
2 3 0 1 -1 0 50 -1 -1 0.000 0 0 -1 0 0 4
	 7432 3638 7535 3285 7609 3461 7432 3638
2 3 0 1 -1 0 50 -1 -1 0.000 0 0 -1 0 0 4
	 7182 3638 7432 3638 7255 3815 7182 3638
2 3 0 1 -1 0 50 -1 -1 0.000 0 0 -1 0 0 4
	 7078 3992 7182 3638 7255 3815 7078 3992
2 3 0 1 -1 0 50 -1 -1 0.000 0 0 -1 0 0 4
	 7182 3638 7285 3285 7359 3461 7182 3638
2 3 0 1 -1 0 50 -1 -1 0.000 0 0 -1 0 0 4
	 7432 3638 7182 3638 7359 3461 7432 3638
2 3 0 1 -1 0 50 -1 -1 0.000 0 0 -1 0 0 4
	 7182 2932 7432 2932 7359 3109 7182 2932
2 3 0 1 -1 0 50 -1 -1 0.000 0 0 -1 0 0 4
	 7285 3285 7182 2932 7359 3109 7285 3285
2 3 0 1 -1 0 50 -1 -1 0.000 0 0 -1 0 0 4
	 7182 2932 7078 2578 7255 2755 7182 2932
2 3 0 1 -1 0 50 -1 -1 0.000 0 0 -1 0 0 4
	 7432 2932 7182 2932 7255 2755 7432 2932
2 3 0 1 -1 0 50 -1 -1 0.000 0 0 -1 0 0 4
	 7535 3285 7432 2932 7609 3109 7535 3285
2 3 0 1 -1 0 50 -1 -1 0.000 0 0 -1 0 0 4
	 7785 3285 7535 3285 7609 3109 7785 3285
2 3 0 1 -1 0 50 -1 -1 0.000 0 0 -1 0 0 4
	 7535 3285 7285 3285 7359 3109 7535 3285
2 3 0 1 -1 0 50 -1 -1 0.000 0 0 -1 0 0 4
	 7432 2932 7535 3285 7359 3109 7432 2932
2 3 0 1 -1 0 50 -1 -1 0.000 0 0 -1 0 0 4
	 7035 3285 6862 2903 7074 3094 7035 3285
2 3 0 1 -1 0 50 -1 -1 0.000 0 0 -1 0 0 4
	 7285 3285 7035 3285 7074 3094 7285 3285
2 3 0 1 -1 0 50 -1 -1 0.000 0 0 -1 0 0 4
	 7182 2932 7285 3285 7074 3094 7182 2932
2 3 0 1 -1 0 50 -1 -1 0.000 0 0 -1 0 0 4
	 6862 2903 7182 2932 7074 3094 6862 2903
2 3 0 1 -1 0 50 -1 -1 0.000 0 0 -1 0 0 4
	 7432 2682 7403 2362 7594 2574 7432 2682
2 3 0 1 -1 0 50 -1 -1 0.000 0 0 -1 0 0 4
	 7785 2785 7432 2682 7594 2574 7785 2785
2 3 0 1 -1 0 50 -1 -1 0.000 0 0 -1 0 0 4
	 7785 2535 7785 2785 7594 2574 7785 2535
2 3 0 1 -1 0 50 -1 -1 0.000 0 0 -1 0 0 4
	 7403 2362 7785 2535 7594 2574 7403 2362
2 3 0 1 -1 0 50 -1 -1 0.000 0 0 -1 0 0 4
	 7785 3035 7432 2932 7609 2859 7785 3035
2 3 0 1 -1 0 50 -1 -1 0.000 0 0 -1 0 0 4
	 7785 2785 7785 3035 7609 2859 7785 2785
2 3 0 1 -1 0 50 -1 -1 0.000 0 0 -1 0 0 4
	 7785 3035 7785 3285 7609 3109 7785 3035
2 3 0 1 -1 0 50 -1 -1 0.000 0 0 -1 0 0 4
	 7432 2932 7785 3035 7609 3109 7432 2932
2 3 0 1 -1 0 50 -1 -1 0.000 0 0 -1 0 0 4
	 7432 2682 7432 2932 7255 2755 7432 2682
2 3 0 1 -1 0 50 -1 -1 0.000 0 0 -1 0 0 4
	 7078 2578 7432 2682 7255 2755 7078 2578
2 3 0 1 -1 0 50 -1 -1 0.000 0 0 -1 0 0 4
	 7432 2682 7785 2785 7609 2859 7432 2682
2 3 0 1 -1 0 50 -1 -1 0.000 0 0 -1 0 0 4
	 7432 2932 7432 2682 7609 2859 7432 2932
2 3 0 1 -1 0 50 -1 -1 0.000 0 0 -1 0 0 4
	 8138 2682 8138 2932 7961 2859 8138 2682
2 3 0 1 -1 0 50 -1 -1 0.000 0 0 -1 0 0 4
	 7785 2785 8138 2682 7961 2859 7785 2785
2 3 0 1 -1 0 50 -1 -1 0.000 0 0 -1 0 0 4
	 8138 2682 8492 2578 8315 2755 8138 2682
2 3 0 1 -1 0 50 -1 -1 0.000 0 0 -1 0 0 4
	 8138 2932 8138 2682 8315 2755 8138 2932
2 3 0 1 -1 0 50 -1 -1 0.000 0 0 -1 0 0 4
	 7785 3035 8138 2932 7961 3109 7785 3035
2 3 0 1 -1 0 50 -1 -1 0.000 0 0 -1 0 0 4
	 7785 3285 7785 3035 7961 3109 7785 3285
2 3 0 1 -1 0 50 -1 -1 0.000 0 0 -1 0 0 4
	 7785 3035 7785 2785 7961 2859 7785 3035
2 3 0 1 -1 0 50 -1 -1 0.000 0 0 -1 0 0 4
	 8138 2932 7785 3035 7961 2859 8138 2932
2 3 0 1 -1 0 50 -1 -1 0.000 0 0 -1 0 0 4
	 7785 2535 8167 2362 7976 2574 7785 2535
2 3 0 1 -1 0 50 -1 -1 0.000 0 0 -1 0 0 4
	 7785 2785 7785 2535 7976 2574 7785 2785
2 3 0 1 -1 0 50 -1 -1 0.000 0 0 -1 0 0 4
	 8138 2682 7785 2785 7976 2574 8138 2682
2 3 0 1 -1 0 50 -1 -1 0.000 0 0 -1 0 0 4
	 8167 2362 8138 2682 7976 2574 8167 2362
2 3 0 1 -1 0 50 -1 -1 0.000 0 0 -1 0 0 4
	 8388 2932 8708 2903 8496 3094 8388 2932
2 3 0 1 -1 0 50 -1 -1 0.000 0 0 -1 0 0 4
	 8285 3285 8388 2932 8496 3094 8285 3285
2 3 0 1 -1 0 50 -1 -1 0.000 0 0 -1 0 0 4
	 8535 3285 8285 3285 8496 3094 8535 3285
2 3 0 1 -1 0 50 -1 -1 0.000 0 0 -1 0 0 4
	 8708 2903 8535 3285 8496 3094 8708 2903
2 3 0 1 -1 0 50 -1 -1 0.000 0 0 -1 0 0 4
	 8035 3285 8138 2932 8211 3109 8035 3285
2 3 0 1 -1 0 50 -1 -1 0.000 0 0 -1 0 0 4
	 8285 3285 8035 3285 8211 3109 8285 3285
2 3 0 1 -1 0 50 -1 -1 0.000 0 0 -1 0 0 4
	 8035 3285 7785 3285 7961 3109 8035 3285
2 3 0 1 -1 0 50 -1 -1 0.000 0 0 -1 0 0 4
	 8138 2932 8035 3285 7961 3109 8138 2932
2 3 0 1 -1 0 50 -1 -1 0.000 0 0 -1 0 0 4
	 8388 2932 8138 2932 8315 2755 8388 2932
2 3 0 1 -1 0 50 -1 -1 0.000 0 0 -1 0 0 4
	 8492 2578 8388 2932 8315 2755 8492 2578
2 3 0 1 -1 0 50 -1 -1 0.000 0 0 -1 0 0 4
	 8388 2932 8285 3285 8211 3109 8388 2932
2 3 0 1 -1 0 50 -1 -1 0.000 0 0 -1 0 0 4
	 8138 2932 8388 2932 8211 3109 8138 2932
3 5 0 1 -1 32 50 -1 20 0.000 0 0 0 7
	 8535 3285 8660 3285 8785 3285 8780 3383 8765 3480 8650 3382
	 8535 3285
	 0.000 -1.000 0.000 -1.000 0.000 -1.000 0.000
3 5 0 1 -1 32 50 -1 20 0.000 0 0 0 7
	 8708 3667 8621 3476 8535 3285 8650 3382 8765 3480 8741 3575
	 8708 3667
	 0.000 -1.000 0.000 -1.000 0.000 -1.000 0.000
3 5 0 1 -1 32 50 -1 20 0.000 0 0 0 7
	 8388 3638 8548 3653 8708 3667 8666 3756 8616 3840 8502 3739
	 8388 3638
	 0.000 -1.000 0.000 -1.000 0.000 -1.000 0.000
3 5 0 1 -1 32 50 -1 20 0.000 0 0 0 7
	 8492 3992 8440 3815 8388 3638 8502 3739 8616 3840 8558 3919
	 8492 3992
	 0.000 -1.000 0.000 -1.000 0.000 -1.000 0.000
3 5 0 1 -1 32 50 -1 20 0.000 0 0 0 7
	 8138 3888 8315 3940 8492 3992 8419 4058 8340 4116 8239 4002
	 8138 3888
	 0.000 -1.000 0.000 -1.000 0.000 -1.000 0.000
3 5 0 1 -1 32 50 -1 20 0.000 0 0 0 7
	 8167 4208 8153 4048 8138 3888 8239 4002 8340 4116 8256 4166
	 8167 4208
	 0.000 -1.000 0.000 -1.000 0.000 -1.000 0.000
3 5 0 1 -1 32 50 -1 20 0.000 0 0 0 7
	 7785 4035 7976 4121 8167 4208 8075 4241 7980 4265 7882 4150
	 7785 4035
	 0.000 -1.000 0.000 -1.000 0.000 -1.000 0.000
3 5 0 1 -1 32 50 -1 20 0.000 0 0 0 7
	 7785 4285 7785 4160 7785 4035 7882 4150 7980 4265 7883 4280
	 7785 4285
	 0.000 -1.000 0.000 -1.000 0.000 -1.000 0.000
3 5 0 1 -1 32 50 -1 20 0.000 0 0 0 7
	 7785 4035 7785 4160 7785 4285 7687 4280 7590 4265 7688 4150
	 7785 4035
	 0.000 -1.000 0.000 -1.000 0.000 -1.000 0.000
3 5 0 1 -1 32 50 -1 20 0.000 0 0 0 7
	 7403 4208 7594 4121 7785 4035 7688 4150 7590 4265 7495 4241
	 7403 4208
	 0.000 -1.000 0.000 -1.000 0.000 -1.000 0.000
3 5 0 1 -1 32 50 -1 20 0.000 0 0 0 7
	 7432 3888 7417 4048 7403 4208 7314 4166 7230 4116 7331 4002
	 7432 3888
	 0.000 -1.000 0.000 -1.000 0.000 -1.000 0.000
3 5 0 1 -1 32 50 -1 20 0.000 0 0 0 7
	 7078 3992 7255 3940 7432 3888 7331 4002 7230 4116 7151 4058
	 7078 3992
	 0.000 -1.000 0.000 -1.000 0.000 -1.000 0.000
3 5 0 1 -1 32 50 -1 20 0.000 0 0 0 7
	 7182 3638 7130 3815 7078 3992 7012 3919 6954 3840 7068 3739
	 7182 3638
	 0.000 -1.000 0.000 -1.000 0.000 -1.000 0.000
3 5 0 1 -1 32 50 -1 20 0.000 0 0 0 7
	 6862 3667 7022 3653 7182 3638 7068 3739 6954 3840 6904 3756
	 6862 3667
	 0.000 -1.000 0.000 -1.000 0.000 -1.000 0.000
3 5 0 1 -1 32 50 -1 20 0.000 0 0 0 7
	 7035 3285 6949 3476 6862 3667 6829 3575 6805 3480 6920 3382
	 7035 3285
	 0.000 -1.000 0.000 -1.000 0.000 -1.000 0.000
3 5 0 1 -1 32 50 -1 20 0.000 0 0 0 7
	 6785 3285 6910 3285 7035 3285 6920 3382 6805 3480 6790 3383
	 6785 3285
	 0.000 -1.000 0.000 -1.000 0.000 -1.000 0.000
3 5 0 1 -1 32 50 -1 20 0.000 0 0 0 7
	 7035 3285 6910 3285 6785 3285 6790 3187 6805 3090 6920 3188
	 7035 3285
	 0.000 -1.000 0.000 -1.000 0.000 -1.000 0.000
3 5 0 1 -1 32 50 -1 20 0.000 0 0 0 7
	 6862 2903 6949 3094 7035 3285 6920 3188 6805 3090 6829 2995
	 6862 2903
	 0.000 -1.000 0.000 -1.000 0.000 -1.000 0.000
3 5 0 1 -1 32 50 -1 20 0.000 0 0 0 7
	 7182 2932 7022 2917 6862 2903 6904 2814 6954 2730 7068 2831
	 7182 2932
	 0.000 -1.000 0.000 -1.000 0.000 -1.000 0.000
3 5 0 1 -1 32 50 -1 20 0.000 0 0 0 7
	 7078 2578 7130 2755 7182 2932 7068 2831 6954 2730 7012 2651
	 7078 2578
	 0.000 -1.000 0.000 -1.000 0.000 -1.000 0.000
3 5 0 1 -1 32 50 -1 20 0.000 0 0 0 7
	 7432 2682 7255 2630 7078 2578 7151 2512 7230 2454 7331 2568
	 7432 2682
	 0.000 -1.000 0.000 -1.000 0.000 -1.000 0.000
3 5 0 1 -1 32 50 -1 20 0.000 0 0 0 7
	 7403 2362 7417 2522 7432 2682 7331 2568 7230 2454 7314 2404
	 7403 2362
	 0.000 -1.000 0.000 -1.000 0.000 -1.000 0.000
3 5 0 1 -1 32 50 -1 20 0.000 0 0 0 7
	 7785 2535 7594 2449 7403 2362 7495 2329 7590 2305 7688 2420
	 7785 2535
	 0.000 -1.000 0.000 -1.000 0.000 -1.000 0.000
3 5 0 1 -1 32 50 -1 20 0.000 0 0 0 7
	 7785 2285 7785 2410 7785 2535 7688 2420 7590 2305 7687 2290
	 7785 2285
	 0.000 -1.000 0.000 -1.000 0.000 -1.000 0.000
3 5 0 1 -1 32 50 -1 20 0.000 0 0 0 7
	 7785 2535 7785 2410 7785 2285 7883 2290 7980 2305 7882 2420
	 7785 2535
	 0.000 -1.000 0.000 -1.000 0.000 -1.000 0.000
3 5 0 1 -1 32 50 -1 20 0.000 0 0 0 7
	 8167 2362 7976 2449 7785 2535 7882 2420 7980 2305 8075 2329
	 8167 2362
	 0.000 -1.000 0.000 -1.000 0.000 -1.000 0.000
3 5 0 1 -1 32 50 -1 20 0.000 0 0 0 7
	 8138 2682 8153 2522 8167 2362 8256 2404 8340 2454 8239 2568
	 8138 2682
	 0.000 -1.000 0.000 -1.000 0.000 -1.000 0.000
3 5 0 1 -1 32 50 -1 20 0.000 0 0 0 7
	 8492 2578 8315 2630 8138 2682 8239 2568 8340 2454 8419 2512
	 8492 2578
	 0.000 -1.000 0.000 -1.000 0.000 -1.000 0.000
3 5 0 1 -1 32 50 -1 20 0.000 0 0 0 7
	 8388 2932 8440 2755 8492 2578 8558 2651 8616 2730 8502 2831
	 8388 2932
	 0.000 -1.000 0.000 -1.000 0.000 -1.000 0.000
3 5 0 1 -1 32 50 -1 20 0.000 0 0 0 7
	 8708 2903 8548 2917 8388 2932 8502 2831 8616 2730 8666 2814
	 8708 2903
	 0.000 -1.000 0.000 -1.000 0.000 -1.000 0.000
3 5 0 1 -1 32 50 -1 20 0.000 0 0 0 7
	 8535 3285 8621 3094 8708 2903 8741 2995 8765 3090 8650 3188
	 8535 3285
	 0.000 -1.000 0.000 -1.000 0.000 -1.000 0.000
3 5 0 1 -1 32 50 -1 20 0.000 0 0 0 7
	 8785 3285 8660 3285 8535 3285 8650 3188 8765 3090 8780 3187
	 8785 3285
	 0.000 -1.000 0.000 -1.000 0.000 -1.000 0.000
-6
