%!PS-Adobe-2.0 EPSF-2.0
%%Title: refine_parametric.fig
%%Creator: fig2dev Version 3.2 Patchlevel 5-alpha3
%%CreationDate: Wed Apr 25 15:45:40 2007
%%For: claus@gloin (Claus-Justus Heine)
%%BoundingBox: 0 0 411 270
%Magnification: 1.0000
%%EndComments
/$F2psDict 200 dict def
$F2psDict begin
$F2psDict /mtrx matrix put
/col-1 {0 setgray} bind def
/col0 {0.000 0.000 0.000 srgb} bind def
/col1 {0.000 0.000 1.000 srgb} bind def
/col2 {0.000 1.000 0.000 srgb} bind def
/col3 {0.000 1.000 1.000 srgb} bind def
/col4 {1.000 0.000 0.000 srgb} bind def
/col5 {1.000 0.000 1.000 srgb} bind def
/col6 {1.000 1.000 0.000 srgb} bind def
/col7 {1.000 1.000 1.000 srgb} bind def
/col8 {0.000 0.000 0.560 srgb} bind def
/col9 {0.000 0.000 0.690 srgb} bind def
/col10 {0.000 0.000 0.820 srgb} bind def
/col11 {0.530 0.810 1.000 srgb} bind def
/col12 {0.000 0.560 0.000 srgb} bind def
/col13 {0.000 0.690 0.000 srgb} bind def
/col14 {0.000 0.820 0.000 srgb} bind def
/col15 {0.000 0.560 0.560 srgb} bind def
/col16 {0.000 0.690 0.690 srgb} bind def
/col17 {0.000 0.820 0.820 srgb} bind def
/col18 {0.560 0.000 0.000 srgb} bind def
/col19 {0.690 0.000 0.000 srgb} bind def
/col20 {0.820 0.000 0.000 srgb} bind def
/col21 {0.560 0.000 0.560 srgb} bind def
/col22 {0.690 0.000 0.690 srgb} bind def
/col23 {0.820 0.000 0.820 srgb} bind def
/col24 {0.500 0.190 0.000 srgb} bind def
/col25 {0.630 0.250 0.000 srgb} bind def
/col26 {0.750 0.380 0.000 srgb} bind def
/col27 {1.000 0.500 0.500 srgb} bind def
/col28 {1.000 0.630 0.630 srgb} bind def
/col29 {1.000 0.750 0.750 srgb} bind def
/col30 {1.000 0.880 0.880 srgb} bind def
/col31 {1.000 0.840 0.000 srgb} bind def
/col32 {0.627 0.627 0.627 srgb} bind def

end
save
newpath 0 270 moveto 0 0 lineto 411 0 lineto 411 270 lineto closepath clip newpath
-143.2 270.7 translate
1 -1 scale

/cp {closepath} bind def
/ef {eofill} bind def
/gr {grestore} bind def
/gs {gsave} bind def
/sa {save} bind def
/rs {restore} bind def
/l {lineto} bind def
/m {moveto} bind def
/rm {rmoveto} bind def
/n {newpath} bind def
/s {stroke} bind def
/sh {show} bind def
/slc {setlinecap} bind def
/slj {setlinejoin} bind def
/slw {setlinewidth} bind def
/srgb {setrgbcolor} bind def
/rot {rotate} bind def
/sc {scale} bind def
/sd {setdash} bind def
/ff {findfont} bind def
/sf {setfont} bind def
/scf {scalefont} bind def
/sw {stringwidth} bind def
/tr {translate} bind def
/tnt {dup dup currentrgbcolor
  4 -2 roll dup 1 exch sub 3 -1 roll mul add
  4 -2 roll dup 1 exch sub 3 -1 roll mul add
  4 -2 roll dup 1 exch sub 3 -1 roll mul add srgb}
  bind def
/shd {dup dup currentrgbcolor 4 -2 roll mul 4 -2 roll mul
  4 -2 roll mul srgb} bind def
/$F2psBegin {$F2psDict begin /$F2psEnteredState save def} def
/$F2psEnd {$F2psEnteredState restore end} def

$F2psBegin
10 setmiterlimit
0 slj 0 slc
 0.06299 0.06299 sc
%
% Fig objects follow
%
% 
% here starts figure with depth 50
% Polyline
2 slj
0 slc
7.500 slw
n 3992 1742 m 3953 1779 l 3912 1813 l 3871 1843 l 3831 1870 l 3792 1894 l
 3753 1914 l 3715 1932 l 3678 1948 l 3641 1961 l 3605 1973 l
 3569 1984 l 3535 1993 l 3501 2001 l 3468 2007 l 3436 2013 l
 3407 2018 l 3380 2023 l 3356 2026 l 3336 2029 l 3319 2031 l
 3306 2033 l 3296 2034 l 3290 2034 l 3287 2035 l 3285 2035 l
 3285 2034 l 3285 2031 l 3285 2025 l 3285 2017 l 3285 2006 l
 3285 1991 l 3285 1974 l 3285 1955 l 3285 1933 l 3285 1910 l
 3285 1885 l 3285 1859 l 3285 1831 l 3285 1802 l 3285 1771 l
 3285 1738 l 3285 1703 l 3285 1664 l 3285 1624 l 3285 1580 l
 3285 1535 l 3285 1490 l 3285 1446 l 3285 1406 l 3285 1367 l
 3285 1332 l 3285 1299 l 3285 1268 l 3285 1239 l 3285 1211 l
 3285 1185 l 3285 1160 l 3285 1137 l 3285 1115 l 3285 1096 l
 3285 1079 l 3285 1064 l 3285 1053 l 3285 1045 l 3285 1039 l
 3285 1036 l 3285 1035 l 3286 1035 l 3289 1035 l 3295 1035 l
 3303 1035 l 3314 1035 l 3329 1035 l 3346 1035 l 3365 1035 l
 3387 1035 l 3410 1035 l 3435 1035 l 3461 1035 l 3489 1035 l
 3518 1035 l 3549 1035 l 3582 1035 l 3617 1035 l 3656 1035 l
 3696 1035 l 3740 1035 l 3785 1035 l 3830 1035 l 3874 1035 l
 3914 1035 l 3953 1035 l 3988 1035 l 4021 1035 l 4052 1035 l
 4081 1035 l 4109 1035 l 4135 1035 l 4160 1035 l 4183 1035 l
 4205 1035 l 4224 1035 l 4241 1035 l 4256 1035 l 4267 1035 l
 4275 1035 l 4281 1035 l 4284 1035 l 4285 1035 l 4285 1037 l
 4284 1040 l 4284 1046 l 4283 1056 l 4281 1069 l 4279 1086 l
 4276 1106 l 4273 1130 l 4268 1157 l 4263 1186 l 4257 1218 l
 4251 1251 l 4243 1285 l 4234 1319 l 4223 1355 l 4211 1391 l
 4198 1428 l 4182 1465 l 4164 1503 l 4144 1542 l 4120 1581 l
 4093 1621 l 4063 1662 l 4029 1703 l
 cp gs col32 1.00 shd ef gr gs col-1 s gr 
% Polyline
n 2578 1742 m 2541 1703 l 2507 1662 l 2477 1621 l 2450 1581 l 2426 1542 l
 2406 1503 l 2388 1465 l 2372 1428 l 2359 1391 l 2347 1355 l
 2336 1319 l 2327 1285 l 2319 1251 l 2313 1218 l 2307 1186 l
 2302 1157 l 2297 1130 l 2294 1106 l 2291 1086 l 2289 1069 l
 2287 1056 l 2286 1046 l 2286 1040 l 2285 1037 l 2285 1035 l
 2286 1035 l 2289 1035 l 2295 1035 l 2303 1035 l 2314 1035 l
 2329 1035 l 2346 1035 l 2365 1035 l 2387 1035 l 2410 1035 l
 2435 1035 l 2461 1035 l 2489 1035 l 2518 1035 l 2549 1035 l
 2582 1035 l 2617 1035 l 2656 1035 l 2696 1035 l 2740 1035 l
 2785 1035 l 2830 1035 l 2874 1035 l 2914 1035 l 2953 1035 l
 2988 1035 l 3021 1035 l 3052 1035 l 3081 1035 l 3109 1035 l
 3135 1035 l 3160 1035 l 3183 1035 l 3205 1035 l 3224 1035 l
 3241 1035 l 3256 1035 l 3267 1035 l 3275 1035 l 3281 1035 l
 3284 1035 l 3285 1035 l 3285 1036 l 3285 1039 l 3285 1045 l
 3285 1053 l 3285 1064 l 3285 1079 l 3285 1096 l 3285 1115 l
 3285 1137 l 3285 1160 l 3285 1185 l 3285 1211 l 3285 1239 l
 3285 1268 l 3285 1299 l 3285 1332 l 3285 1367 l 3285 1406 l
 3285 1446 l 3285 1490 l 3285 1535 l 3285 1580 l 3285 1624 l
 3285 1664 l 3285 1703 l 3285 1738 l 3285 1771 l 3285 1802 l
 3285 1831 l 3285 1859 l 3285 1885 l 3285 1910 l 3285 1933 l
 3285 1955 l 3285 1974 l 3285 1991 l 3285 2006 l 3285 2017 l
 3285 2025 l 3285 2031 l 3285 2034 l 3285 2035 l 3283 2035 l
 3280 2034 l 3274 2034 l 3264 2033 l 3251 2031 l 3234 2029 l
 3214 2026 l 3190 2023 l 3163 2018 l 3134 2013 l 3102 2007 l
 3069 2001 l 3035 1993 l 3001 1984 l 2965 1973 l 2929 1961 l
 2892 1948 l 2855 1932 l 2817 1914 l 2778 1894 l 2739 1870 l
 2699 1843 l 2658 1813 l 2617 1779 l
 cp gs col32 1.00 shd ef gr gs col-1 s gr 
% Polyline
n 2578 328 m 2617 291 l 2658 257 l 2699 227 l 2739 200 l 2778 176 l
 2817 156 l 2855 138 l 2892 122 l 2929 109 l 2965 97 l
 3001 86 l 3035 77 l 3069 69 l 3102 63 l 3134 57 l
 3163 52 l 3190 47 l 3214 44 l 3234 41 l 3251 39 l
 3264 37 l 3274 36 l 3280 36 l 3283 35 l 3285 35 l
 3285 36 l 3285 39 l 3285 45 l 3285 53 l 3285 64 l
 3285 79 l 3285 96 l 3285 115 l 3285 137 l 3285 160 l
 3285 185 l 3285 211 l 3285 239 l 3285 268 l 3285 299 l
 3285 332 l 3285 367 l 3285 406 l 3285 446 l 3285 490 l
 3285 535 l 3285 580 l 3285 624 l 3285 664 l 3285 703 l
 3285 738 l 3285 771 l 3285 802 l 3285 831 l 3285 859 l
 3285 885 l 3285 910 l 3285 933 l 3285 955 l 3285 974 l
 3285 991 l 3285 1006 l 3285 1017 l 3285 1025 l 3285 1031 l
 3285 1034 l 3285 1035 l 3284 1035 l 3281 1035 l 3275 1035 l
 3267 1035 l 3256 1035 l 3241 1035 l 3224 1035 l 3205 1035 l
 3183 1035 l 3160 1035 l 3135 1035 l 3109 1035 l 3081 1035 l
 3052 1035 l 3021 1035 l 2988 1035 l 2953 1035 l 2914 1035 l
 2874 1035 l 2830 1035 l 2785 1035 l 2740 1035 l 2696 1035 l
 2656 1035 l 2617 1035 l 2582 1035 l 2549 1035 l 2518 1035 l
 2489 1035 l 2461 1035 l 2435 1035 l 2410 1035 l 2387 1035 l
 2365 1035 l 2346 1035 l 2329 1035 l 2314 1035 l 2303 1035 l
 2295 1035 l 2289 1035 l 2286 1035 l 2285 1035 l 2285 1033 l
 2286 1030 l 2286 1024 l 2287 1014 l 2289 1001 l 2291 984 l
 2294 964 l 2297 940 l 2302 913 l 2307 884 l 2313 852 l
 2319 819 l 2327 785 l 2336 751 l 2347 715 l 2359 679 l
 2372 642 l 2388 605 l 2406 567 l 2426 528 l 2450 489 l
 2477 449 l 2507 408 l 2541 367 l
 cp gs col32 1.00 shd ef gr gs col-1 s gr 
% Polyline
n 3992 328 m 4029 367 l 4063 408 l 4093 449 l 4120 489 l 4144 528 l
 4164 567 l 4182 605 l 4198 642 l 4211 679 l 4223 715 l
 4234 751 l 4243 785 l 4251 819 l 4257 852 l 4263 884 l
 4268 913 l 4273 940 l 4276 964 l 4279 984 l 4281 1001 l
 4283 1014 l 4284 1024 l 4284 1030 l 4285 1033 l 4285 1035 l
 4284 1035 l 4281 1035 l 4275 1035 l 4267 1035 l 4256 1035 l
 4241 1035 l 4224 1035 l 4205 1035 l 4183 1035 l 4160 1035 l
 4135 1035 l 4109 1035 l 4081 1035 l 4052 1035 l 4021 1035 l
 3988 1035 l 3953 1035 l 3914 1035 l 3874 1035 l 3830 1035 l
 3785 1035 l 3740 1035 l 3696 1035 l 3656 1035 l 3617 1035 l
 3582 1035 l 3549 1035 l 3518 1035 l 3489 1035 l 3461 1035 l
 3435 1035 l 3410 1035 l 3387 1035 l 3365 1035 l 3346 1035 l
 3329 1035 l 3314 1035 l 3303 1035 l 3295 1035 l 3289 1035 l
 3286 1035 l 3285 1035 l 3285 1034 l 3285 1031 l 3285 1025 l
 3285 1017 l 3285 1006 l 3285 991 l 3285 974 l 3285 955 l
 3285 933 l 3285 910 l 3285 885 l 3285 859 l 3285 831 l
 3285 802 l 3285 771 l 3285 738 l 3285 703 l 3285 664 l
 3285 624 l 3285 580 l 3285 535 l 3285 490 l 3285 446 l
 3285 406 l 3285 367 l 3285 332 l 3285 299 l 3285 268 l
 3285 239 l 3285 211 l 3285 185 l 3285 160 l 3285 137 l
 3285 115 l 3285 96 l 3285 79 l 3285 64 l 3285 53 l
 3285 45 l 3285 39 l 3285 36 l 3285 35 l 3287 35 l
 3290 36 l 3296 36 l 3306 37 l 3319 39 l 3336 41 l
 3356 44 l 3380 47 l 3407 52 l 3436 57 l 3468 63 l
 3501 69 l 3535 77 l 3569 86 l 3605 97 l 3641 109 l
 3678 122 l 3715 138 l 3753 156 l 3792 176 l 3831 200 l
 3871 227 l 3912 257 l 3953 291 l
 cp gs col32 1.00 shd ef gr gs col-1 s gr 
% Polyline
n 6035 1035 m 6080 1035 l 6124 1035 l 6164 1035 l 6203 1035 l 6238 1035 l
 6271 1035 l 6302 1035 l 6331 1035 l 6359 1035 l 6385 1035 l
 6410 1035 l 6433 1035 l 6455 1035 l 6474 1035 l 6491 1035 l
 6506 1035 l 6517 1035 l 6525 1035 l 6531 1035 l 6534 1035 l
 6535 1035 l 6535 1037 l 6535 1041 l 6535 1049 l 6534 1060 l
 6533 1075 l 6532 1093 l 6531 1113 l 6529 1136 l 6526 1160 l
 6523 1186 l 6518 1213 l 6513 1241 l 6506 1272 l 6497 1305 l
 6486 1340 l 6473 1378 l 6458 1417 l 6441 1456 l 6424 1491 l
 6406 1524 l 6389 1554 l 6372 1580 l 6356 1604 l 6340 1626 l
 6324 1647 l 6309 1666 l 6294 1684 l 6281 1699 l 6269 1713 l
 6259 1724 l 6252 1732 l 6246 1737 l 6243 1741 l 6242 1742 l
 6241 1741 l 6239 1739 l 6235 1735 l 6229 1729 l 6221 1721 l
 6211 1711 l 6199 1699 l 6185 1685 l 6170 1670 l 6153 1653 l
 6136 1636 l 6117 1617 l 6098 1598 l 6077 1577 l 6055 1555 l
 6032 1532 l 6007 1507 l 5980 1480 l 5951 1451 l 5920 1420 l
 5888 1388 l 5856 1356 l 5825 1325 l 5796 1296 l 5770 1270 l
 5745 1245 l 5721 1221 l 5699 1199 l 5679 1179 l 5659 1159 l
 5641 1141 l 5623 1123 l 5607 1107 l 5591 1091 l 5578 1078 l
 5566 1066 l 5556 1056 l 5548 1048 l 5542 1042 l 5538 1038 l
 5536 1036 l 5535 1035 l 5536 1035 l 5539 1035 l 5545 1035 l
 5553 1035 l 5564 1035 l 5579 1035 l 5596 1035 l 5615 1035 l
 5637 1035 l 5660 1035 l 5685 1035 l 5711 1035 l 5739 1035 l
 5768 1035 l 5799 1035 l 5832 1035 l 5867 1035 l 5906 1035 l
 5946 1035 l 5990 1035 l
 cp gs col32 1.00 shd ef gr gs col-1 s gr 
% Polyline
n 5535 1535 m 5535 1490 l 5535 1446 l 5535 1406 l 5535 1367 l 5535 1332 l
 5535 1299 l 5535 1268 l 5535 1239 l 5535 1211 l 5535 1185 l
 5535 1160 l 5535 1137 l 5535 1115 l 5535 1096 l 5535 1079 l
 5535 1064 l 5535 1053 l 5535 1045 l 5535 1039 l 5535 1036 l
 5535 1035 l 5536 1036 l 5538 1038 l 5542 1042 l 5548 1048 l
 5556 1056 l 5566 1066 l 5578 1078 l 5591 1091 l 5607 1107 l
 5623 1123 l 5641 1141 l 5659 1159 l 5679 1179 l 5699 1199 l
 5721 1221 l 5745 1245 l 5770 1270 l 5796 1296 l 5825 1325 l
 5856 1356 l 5888 1388 l 5920 1420 l 5951 1451 l 5980 1480 l
 6007 1507 l 6032 1532 l 6055 1555 l 6077 1577 l 6098 1598 l
 6117 1617 l 6136 1636 l 6153 1653 l 6170 1670 l 6185 1685 l
 6199 1699 l 6211 1711 l 6221 1721 l 6229 1729 l 6235 1735 l
 6239 1739 l 6241 1741 l 6242 1742 l 6241 1743 l 6237 1746 l
 6232 1752 l 6224 1759 l 6213 1769 l 6199 1781 l 6184 1794 l
 6166 1809 l 6147 1824 l 6126 1840 l 6104 1856 l 6080 1872 l
 6054 1889 l 6024 1906 l 5991 1924 l 5956 1941 l 5917 1958 l
 5878 1973 l 5840 1986 l 5805 1997 l 5772 2006 l 5741 2013 l
 5713 2018 l 5686 2023 l 5660 2026 l 5636 2029 l 5613 2031 l
 5593 2032 l 5575 2033 l 5560 2034 l 5549 2035 l 5541 2035 l
 5537 2035 l 5535 2035 l 5535 2034 l 5535 2031 l 5535 2025 l
 5535 2017 l 5535 2006 l 5535 1991 l 5535 1974 l 5535 1955 l
 5535 1933 l 5535 1910 l 5535 1885 l 5535 1859 l 5535 1831 l
 5535 1802 l 5535 1771 l 5535 1738 l 5535 1703 l 5535 1664 l
 5535 1624 l 5535 1580 l
 cp gs col32 1.00 shd ef gr gs col-1 s gr 
% Polyline
n 5535 1535 m 5535 1580 l 5535 1624 l 5535 1664 l 5535 1703 l 5535 1738 l
 5535 1771 l 5535 1802 l 5535 1831 l 5535 1859 l 5535 1885 l
 5535 1910 l 5535 1933 l 5535 1955 l 5535 1974 l 5535 1991 l
 5535 2006 l 5535 2017 l 5535 2025 l 5535 2031 l 5535 2034 l
 5535 2035 l 5533 2035 l 5529 2035 l 5521 2035 l 5510 2034 l
 5495 2033 l 5477 2032 l 5457 2031 l 5434 2029 l 5410 2026 l
 5384 2023 l 5357 2018 l 5329 2013 l 5298 2006 l 5265 1997 l
 5230 1986 l 5192 1973 l 5153 1958 l 5114 1941 l 5079 1924 l
 5046 1906 l 5016 1889 l 4990 1872 l 4966 1856 l 4944 1840 l
 4923 1824 l 4904 1809 l 4886 1794 l 4871 1781 l 4857 1769 l
 4846 1759 l 4838 1752 l 4833 1746 l 4829 1743 l 4828 1742 l
 4829 1741 l 4831 1739 l 4835 1735 l 4841 1729 l 4849 1721 l
 4859 1711 l 4871 1699 l 4885 1685 l 4900 1670 l 4917 1653 l
 4934 1636 l 4953 1617 l 4972 1598 l 4993 1577 l 5015 1555 l
 5038 1532 l 5063 1507 l 5090 1480 l 5119 1451 l 5150 1420 l
 5182 1388 l 5214 1356 l 5245 1325 l 5274 1296 l 5300 1270 l
 5325 1245 l 5349 1221 l 5371 1199 l 5391 1179 l 5411 1159 l
 5429 1141 l 5447 1123 l 5463 1107 l 5479 1091 l 5492 1078 l
 5504 1066 l 5514 1056 l 5522 1048 l 5528 1042 l 5532 1038 l
 5534 1036 l 5535 1035 l 5535 1036 l 5535 1039 l 5535 1045 l
 5535 1053 l 5535 1064 l 5535 1079 l 5535 1096 l 5535 1115 l
 5535 1137 l 5535 1160 l 5535 1185 l 5535 1211 l 5535 1239 l
 5535 1268 l 5535 1299 l 5535 1332 l 5535 1367 l 5535 1406 l
 5535 1446 l 5535 1490 l
 cp gs col32 1.00 shd ef gr gs col-1 s gr 
% Polyline
n 5035 1035 m 5080 1035 l 5124 1035 l 5164 1035 l 5203 1035 l 5238 1035 l
 5271 1035 l 5302 1035 l 5331 1035 l 5359 1035 l 5385 1035 l
 5410 1035 l 5433 1035 l 5455 1035 l 5474 1035 l 5491 1035 l
 5506 1035 l 5517 1035 l 5525 1035 l 5531 1035 l 5534 1035 l
 5535 1035 l 5534 1036 l 5532 1038 l 5528 1042 l 5522 1048 l
 5514 1056 l 5504 1066 l 5492 1078 l 5479 1091 l 5463 1107 l
 5447 1123 l 5429 1141 l 5411 1159 l 5391 1179 l 5371 1199 l
 5349 1221 l 5325 1245 l 5300 1270 l 5274 1296 l 5245 1325 l
 5214 1356 l 5182 1388 l 5150 1420 l 5119 1451 l 5090 1480 l
 5063 1507 l 5038 1532 l 5015 1555 l 4993 1577 l 4972 1598 l
 4953 1617 l 4934 1636 l 4917 1653 l 4900 1670 l 4885 1685 l
 4871 1699 l 4859 1711 l 4849 1721 l 4841 1729 l 4835 1735 l
 4831 1739 l 4829 1741 l 4828 1742 l 4827 1741 l 4824 1737 l
 4818 1732 l 4811 1724 l 4801 1713 l 4789 1699 l 4776 1684 l
 4761 1666 l 4746 1647 l 4730 1626 l 4714 1604 l 4698 1580 l
 4681 1554 l 4664 1524 l 4646 1491 l 4629 1456 l 4612 1417 l
 4597 1378 l 4584 1340 l 4573 1305 l 4564 1272 l 4557 1241 l
 4552 1213 l 4547 1186 l 4544 1160 l 4541 1136 l 4539 1113 l
 4538 1093 l 4537 1075 l 4536 1060 l 4535 1049 l 4535 1041 l
 4535 1037 l 4535 1035 l 4536 1035 l 4539 1035 l 4545 1035 l
 4553 1035 l 4564 1035 l 4579 1035 l 4596 1035 l 4615 1035 l
 4637 1035 l 4660 1035 l 4685 1035 l 4711 1035 l 4739 1035 l
 4768 1035 l 4799 1035 l 4832 1035 l 4867 1035 l 4906 1035 l
 4946 1035 l 4990 1035 l
 cp gs col32 1.00 shd ef gr gs col-1 s gr 
% Polyline
n 5035 1035 m 4990 1035 l 4946 1035 l 4906 1035 l 4867 1035 l 4832 1035 l
 4799 1035 l 4768 1035 l 4739 1035 l 4711 1035 l 4685 1035 l
 4660 1035 l 4637 1035 l 4615 1035 l 4596 1035 l 4579 1035 l
 4564 1035 l 4553 1035 l 4545 1035 l 4539 1035 l 4536 1035 l
 4535 1035 l 4535 1033 l 4535 1029 l 4535 1021 l 4536 1010 l
 4537 995 l 4538 977 l 4539 957 l 4541 934 l 4544 910 l
 4547 884 l 4552 857 l 4557 829 l 4564 798 l 4573 765 l
 4584 730 l 4597 692 l 4612 653 l 4629 614 l 4646 579 l
 4664 546 l 4681 516 l 4698 490 l 4714 466 l 4730 444 l
 4746 423 l 4761 404 l 4776 386 l 4789 371 l 4801 357 l
 4811 346 l 4818 338 l 4824 333 l 4827 329 l 4828 328 l
 4829 329 l 4831 331 l 4835 335 l 4841 341 l 4849 349 l
 4859 359 l 4871 371 l 4885 385 l 4900 400 l 4917 417 l
 4934 434 l 4953 453 l 4972 472 l 4993 493 l 5015 515 l
 5038 538 l 5063 563 l 5090 590 l 5119 619 l 5150 650 l
 5182 682 l 5214 714 l 5245 745 l 5274 774 l 5300 800 l
 5325 825 l 5349 849 l 5371 871 l 5391 891 l 5411 911 l
 5429 929 l 5447 947 l 5463 963 l 5479 979 l 5492 992 l
 5504 1004 l 5514 1014 l 5522 1022 l 5528 1028 l 5532 1032 l
 5534 1034 l 5535 1035 l 5534 1035 l 5531 1035 l 5525 1035 l
 5517 1035 l 5506 1035 l 5491 1035 l 5474 1035 l 5455 1035 l
 5433 1035 l 5410 1035 l 5385 1035 l 5359 1035 l 5331 1035 l
 5302 1035 l 5271 1035 l 5238 1035 l 5203 1035 l 5164 1035 l
 5124 1035 l 5080 1035 l
 cp gs col32 1.00 shd ef gr gs col-1 s gr 
% Polyline
n 5535 535 m 5535 580 l 5535 624 l 5535 664 l 5535 703 l 5535 738 l
 5535 771 l 5535 802 l 5535 831 l 5535 859 l 5535 885 l
 5535 910 l 5535 933 l 5535 955 l 5535 974 l 5535 991 l
 5535 1006 l 5535 1017 l 5535 1025 l 5535 1031 l 5535 1034 l
 5535 1035 l 5534 1034 l 5532 1032 l 5528 1028 l 5522 1022 l
 5514 1014 l 5504 1004 l 5492 992 l 5479 979 l 5463 963 l
 5447 947 l 5429 929 l 5411 911 l 5391 891 l 5371 871 l
 5349 849 l 5325 825 l 5300 800 l 5274 774 l 5245 745 l
 5214 714 l 5182 682 l 5150 650 l 5119 619 l 5090 590 l
 5063 563 l 5038 538 l 5015 515 l 4993 493 l 4972 472 l
 4953 453 l 4934 434 l 4917 417 l 4900 400 l 4885 385 l
 4871 371 l 4859 359 l 4849 349 l 4841 341 l 4835 335 l
 4831 331 l 4829 329 l 4828 328 l 4829 327 l 4833 324 l
 4838 318 l 4846 311 l 4857 301 l 4871 289 l 4886 276 l
 4904 261 l 4923 246 l 4944 230 l 4966 214 l 4990 198 l
 5016 181 l 5046 164 l 5079 146 l 5114 129 l 5153 112 l
 5192 97 l 5230 84 l 5265 73 l 5298 64 l 5329 57 l
 5357 52 l 5384 47 l 5410 44 l 5434 41 l 5457 39 l
 5477 38 l 5495 37 l 5510 36 l 5521 35 l 5529 35 l
 5533 35 l 5535 35 l 5535 36 l 5535 39 l 5535 45 l
 5535 53 l 5535 64 l 5535 79 l 5535 96 l 5535 115 l
 5535 137 l 5535 160 l 5535 185 l 5535 211 l 5535 239 l
 5535 268 l 5535 299 l 5535 332 l 5535 367 l 5535 406 l
 5535 446 l 5535 490 l
 cp gs col32 1.00 shd ef gr gs col-1 s gr 
% Polyline
n 5535 535 m 5535 490 l 5535 446 l 5535 406 l 5535 367 l 5535 332 l
 5535 299 l 5535 268 l 5535 239 l 5535 211 l 5535 185 l
 5535 160 l 5535 137 l 5535 115 l 5535 96 l 5535 79 l
 5535 64 l 5535 53 l 5535 45 l 5535 39 l 5535 36 l
 5535 35 l 5537 35 l 5541 35 l 5549 35 l 5560 36 l
 5575 37 l 5593 38 l 5613 39 l 5636 41 l 5660 44 l
 5686 47 l 5713 52 l 5741 57 l 5772 64 l 5805 73 l
 5840 84 l 5878 97 l 5917 112 l 5956 129 l 5991 146 l
 6024 164 l 6054 181 l 6080 198 l 6104 214 l 6126 230 l
 6147 246 l 6166 261 l 6184 276 l 6199 289 l 6213 301 l
 6224 311 l 6232 318 l 6237 324 l 6241 327 l 6242 328 l
 6241 329 l 6239 331 l 6235 335 l 6229 341 l 6221 349 l
 6211 359 l 6199 371 l 6185 385 l 6170 400 l 6153 417 l
 6136 434 l 6117 453 l 6098 472 l 6077 493 l 6055 515 l
 6032 538 l 6007 563 l 5980 590 l 5951 619 l 5920 650 l
 5888 682 l 5856 714 l 5825 745 l 5796 774 l 5770 800 l
 5745 825 l 5721 849 l 5699 871 l 5679 891 l 5659 911 l
 5641 929 l 5623 947 l 5607 963 l 5591 979 l 5578 992 l
 5566 1004 l 5556 1014 l 5548 1022 l 5542 1028 l 5538 1032 l
 5536 1034 l 5535 1035 l 5535 1034 l 5535 1031 l 5535 1025 l
 5535 1017 l 5535 1006 l 5535 991 l 5535 974 l 5535 955 l
 5535 933 l 5535 910 l 5535 885 l 5535 859 l 5535 831 l
 5535 802 l 5535 771 l 5535 738 l 5535 703 l 5535 664 l
 5535 624 l 5535 580 l
 cp gs col32 1.00 shd ef gr gs col-1 s gr 
% Polyline
n 6035 1035 m 5990 1035 l 5946 1035 l 5906 1035 l 5867 1035 l 5832 1035 l
 5799 1035 l 5768 1035 l 5739 1035 l 5711 1035 l 5685 1035 l
 5660 1035 l 5637 1035 l 5615 1035 l 5596 1035 l 5579 1035 l
 5564 1035 l 5553 1035 l 5545 1035 l 5539 1035 l 5536 1035 l
 5535 1035 l 5536 1034 l 5538 1032 l 5542 1028 l 5548 1022 l
 5556 1014 l 5566 1004 l 5578 992 l 5591 979 l 5607 963 l
 5623 947 l 5641 929 l 5659 911 l 5679 891 l 5699 871 l
 5721 849 l 5745 825 l 5770 800 l 5796 774 l 5825 745 l
 5856 714 l 5888 682 l 5920 650 l 5951 619 l 5980 590 l
 6007 563 l 6032 538 l 6055 515 l 6077 493 l 6098 472 l
 6117 453 l 6136 434 l 6153 417 l 6170 400 l 6185 385 l
 6199 371 l 6211 359 l 6221 349 l 6229 341 l 6235 335 l
 6239 331 l 6241 329 l 6242 328 l 6243 329 l 6246 333 l
 6252 338 l 6259 346 l 6269 357 l 6281 371 l 6294 386 l
 6309 404 l 6324 423 l 6340 444 l 6356 466 l 6372 490 l
 6389 516 l 6406 546 l 6424 579 l 6441 614 l 6458 653 l
 6473 692 l 6486 730 l 6497 765 l 6506 798 l 6513 829 l
 6518 857 l 6523 884 l 6526 910 l 6529 934 l 6531 957 l
 6532 977 l 6533 995 l 6534 1010 l 6535 1021 l 6535 1029 l
 6535 1033 l 6535 1035 l 6534 1035 l 6531 1035 l 6525 1035 l
 6517 1035 l 6506 1035 l 6491 1035 l 6474 1035 l 6455 1035 l
 6433 1035 l 6410 1035 l 6385 1035 l 6359 1035 l 6331 1035 l
 6302 1035 l 6271 1035 l 6238 1035 l 6203 1035 l 6164 1035 l
 6124 1035 l 6080 1035 l
 cp gs col32 1.00 shd ef gr gs col-1 s gr 
% Polyline
0 slj
n 3785 3285 m 3992 3992 l 3638 3638 l
 cp gs col-1 s gr 
% Polyline
n 3285 3285 m 3785 3285 l 3638 3638 l
 cp gs col-1 s gr 
% Polyline
n 3285 3785 m 3285 3285 l 3638 3638 l
 cp gs col-1 s gr 
% Polyline
n 3992 3992 m 3285 3785 l 3638 3638 l
 cp gs col-1 s gr 
% Polyline
n 3285 3785 m 2578 3992 l 2932 3638 l
 cp gs col-1 s gr 
% Polyline
n 3285 3285 m 3285 3785 l 2932 3638 l
 cp gs col-1 s gr 
% Polyline
n 2785 3285 m 3285 3285 l 2932 3638 l
 cp gs col-1 s gr 
% Polyline
n 2578 3992 m 2785 3285 l 2932 3638 l
 cp gs col-1 s gr 
% Polyline
n 2785 3285 m 2578 2578 l 2932 2932 l
 cp gs col-1 s gr 
% Polyline
n 3285 3285 m 2785 3285 l 2932 2932 l
 cp gs col-1 s gr 
% Polyline
n 3285 2785 m 3285 3285 l 2932 2932 l
 cp gs col-1 s gr 
% Polyline
n 2578 2578 m 3285 2785 l 2932 2932 l
 cp gs col-1 s gr 
% Polyline
n 3285 2785 m 3992 2578 l 3638 2932 l
 cp gs col-1 s gr 
% Polyline
n 3285 3285 m 3285 2785 l 3638 2932 l
 cp gs col-1 s gr 
% Polyline
n 3785 3285 m 3285 3285 l 3638 2932 l
 cp gs col-1 s gr 
% Polyline
n 3992 2578 m 3785 3285 l 3638 2932 l
 cp gs col-1 s gr 
% Polyline
2 slj
n 4035 3285 m 4070 3285 l 4103 3285 l 4132 3285 l 4158 3285 l 4181 3285 l
 4203 3285 l 4223 3285 l 4240 3285 l 4256 3285 l 4268 3285 l
 4277 3285 l 4283 3285 l 4285 3285 l 4285 3287 l 4285 3291 l
 4285 3298 l 4285 3308 l 4284 3320 l 4283 3335 l 4283 3350 l
 4281 3367 l 4280 3385 l 4277 3406 l 4274 3428 l 4270 3453 l
 4265 3480 l 4258 3511 l 4251 3539 l 4245 3563 l 4238 3585 l
 4232 3604 l 4226 3621 l 4220 3636 l 4215 3649 l 4211 3658 l
 4209 3664 l 4208 3667 l 4207 3666 l 4203 3663 l 4198 3658 l
 4190 3651 l 4180 3642 l 4168 3631 l 4155 3619 l 4140 3606 l
 4124 3592 l 4107 3577 l 4089 3560 l 4069 3542 l 4047 3522 l
 4022 3500 l 3996 3476 l 3970 3452 l 3945 3430 l 3923 3410 l
 3903 3392 l 3885 3375 l 3868 3360 l 3852 3346 l 3838 3333 l
 3824 3321 l 3812 3310 l 3803 3301 l 3795 3294 l 3789 3289 l
 3786 3286 l 3785 3285 l 3787 3285 l 3793 3285 l 3802 3285 l
 3814 3285 l 3830 3285 l 3848 3285 l 3867 3285 l 3889 3285 l
 3912 3285 l 3938 3285 l 3967 3285 l 4000 3285 l
 cp gs col32 1.00 shd ef gr gs col-1 s gr 
% Polyline
n 3888 3638 m 3877 3599 l 3866 3562 l 3856 3528 l 3847 3497 l 3839 3469 l
 3831 3442 l 3824 3418 l 3817 3395 l 3811 3373 l 3805 3353 l
 3800 3335 l 3795 3320 l 3791 3307 l 3788 3297 l 3787 3290 l
 3785 3287 l 3785 3285 l 3786 3286 l 3789 3289 l 3795 3294 l
 3803 3301 l 3812 3310 l 3824 3321 l 3838 3333 l 3852 3346 l
 3868 3360 l 3885 3375 l 3903 3392 l 3923 3410 l 3945 3430 l
 3970 3452 l 3996 3476 l 4022 3500 l 4047 3522 l 4069 3542 l
 4089 3560 l 4107 3577 l 4124 3592 l 4140 3606 l 4155 3619 l
 4168 3631 l 4180 3642 l 4190 3651 l 4198 3658 l 4203 3663 l
 4207 3666 l 4208 3667 l 4207 3670 l 4204 3676 l 4200 3685 l
 4195 3697 l 4188 3712 l 4180 3729 l 4171 3747 l 4161 3767 l
 4148 3789 l 4133 3813 l 4116 3840 l 4101 3863 l 4086 3883 l
 4072 3901 l 4059 3917 l 4048 3931 l 4036 3944 l 4026 3956 l
 4016 3966 l 4008 3975 l 4001 3983 l 3996 3988 l 3993 3991 l
 3992 3992 l 3991 3990 l 3990 3987 l 3988 3980 l 3986 3970 l
 3982 3957 l 3977 3942 l 3972 3923 l 3966 3903 l 3960 3882 l
 3953 3859 l 3945 3834 l 3938 3807 l 3929 3779 l 3920 3748 l
 3910 3714 l 3899 3677 l
 cp gs col32 1.00 shd ef gr gs col-1 s gr 
% Polyline
n 3638 3888 m 3677 3899 l 3714 3910 l 3748 3920 l 3779 3929 l 3807 3938 l
 3834 3945 l 3859 3953 l 3882 3960 l 3903 3966 l 3923 3972 l
 3942 3977 l 3957 3982 l 3970 3986 l 3980 3988 l 3987 3990 l
 3990 3991 l 3992 3992 l 3991 3993 l 3988 3996 l 3983 4001 l
 3975 4008 l 3966 4016 l 3956 4026 l 3944 4036 l 3931 4048 l
 3917 4059 l 3901 4072 l 3883 4086 l 3863 4101 l 3840 4116 l
 3813 4133 l 3789 4148 l 3767 4161 l 3747 4171 l 3729 4180 l
 3712 4188 l 3697 4195 l 3685 4200 l 3676 4204 l 3670 4207 l
 3667 4208 l 3666 4207 l 3663 4203 l 3658 4198 l 3651 4190 l
 3642 4180 l 3631 4168 l 3619 4155 l 3606 4140 l 3592 4124 l
 3577 4107 l 3560 4089 l 3542 4069 l 3522 4047 l 3500 4022 l
 3476 3996 l 3452 3970 l 3430 3945 l 3410 3923 l 3392 3903 l
 3375 3885 l 3360 3868 l 3346 3852 l 3333 3838 l 3321 3824 l
 3310 3812 l 3301 3803 l 3294 3795 l 3289 3789 l 3286 3786 l
 3285 3785 l 3287 3785 l 3290 3787 l 3297 3788 l 3307 3791 l
 3320 3795 l 3335 3800 l 3353 3805 l 3373 3811 l 3395 3817 l
 3418 3824 l 3442 3831 l 3469 3839 l 3497 3847 l 3528 3856 l
 3562 3866 l 3599 3877 l
 cp gs col32 1.00 shd ef gr gs col-1 s gr 
% Polyline
n 3285 4035 m 3285 4000 l 3285 3967 l 3285 3938 l 3285 3912 l 3285 3889 l
 3285 3867 l 3285 3847 l 3285 3830 l 3285 3814 l 3285 3802 l
 3285 3793 l 3285 3787 l 3285 3785 l 3286 3786 l 3289 3789 l
 3294 3795 l 3301 3803 l 3310 3812 l 3321 3824 l 3333 3838 l
 3346 3852 l 3360 3868 l 3375 3885 l 3392 3903 l 3410 3923 l
 3430 3945 l 3452 3970 l 3476 3996 l 3500 4022 l 3522 4047 l
 3542 4069 l 3560 4089 l 3577 4107 l 3592 4124 l 3606 4140 l
 3619 4155 l 3631 4168 l 3642 4180 l 3651 4190 l 3658 4198 l
 3663 4203 l 3666 4207 l 3667 4208 l 3664 4209 l 3658 4211 l
 3649 4215 l 3636 4220 l 3621 4226 l 3604 4232 l 3585 4238 l
 3563 4245 l 3539 4251 l 3511 4258 l 3480 4265 l 3453 4270 l
 3428 4274 l 3406 4277 l 3385 4280 l 3367 4281 l 3350 4283 l
 3334 4283 l 3320 4284 l 3308 4285 l 3298 4285 l 3291 4285 l
 3287 4285 l 3285 4285 l 3285 4283 l 3285 4277 l 3285 4268 l
 3285 4256 l 3285 4240 l 3285 4222 l 3285 4203 l 3285 4181 l
 3285 4158 l 3285 4132 l 3285 4103 l 3285 4070 l
 cp gs col32 1.00 shd ef gr gs col-1 s gr 
% Polyline
n 3285 4035 m 3285 4070 l 3285 4103 l 3285 4132 l 3285 4158 l 3285 4181 l
 3285 4203 l 3285 4223 l 3285 4240 l 3285 4256 l 3285 4268 l
 3285 4277 l 3285 4283 l 3285 4285 l 3283 4285 l 3279 4285 l
 3272 4285 l 3262 4285 l 3250 4284 l 3235 4283 l 3220 4283 l
 3203 4281 l 3185 4280 l 3164 4277 l 3142 4274 l 3117 4270 l
 3090 4265 l 3059 4258 l 3031 4251 l 3007 4245 l 2985 4238 l
 2966 4232 l 2949 4226 l 2934 4220 l 2921 4215 l 2912 4211 l
 2906 4209 l 2903 4208 l 2904 4207 l 2907 4203 l 2912 4198 l
 2919 4190 l 2928 4180 l 2939 4168 l 2951 4155 l 2964 4140 l
 2978 4124 l 2993 4107 l 3010 4089 l 3028 4069 l 3048 4047 l
 3070 4022 l 3094 3996 l 3118 3970 l 3140 3945 l 3160 3923 l
 3178 3903 l 3195 3885 l 3210 3868 l 3224 3852 l 3237 3838 l
 3249 3824 l 3260 3812 l 3269 3803 l 3276 3795 l 3281 3789 l
 3284 3786 l 3285 3785 l 3285 3787 l 3285 3793 l 3285 3802 l
 3285 3814 l 3285 3830 l 3285 3848 l 3285 3867 l 3285 3889 l
 3285 3912 l 3285 3938 l 3285 3967 l 3285 4000 l
 cp gs col32 1.00 shd ef gr gs col-1 s gr 
% Polyline
n 2932 3888 m 2971 3877 l 3008 3866 l 3042 3856 l 3073 3847 l 3101 3839 l
 3128 3831 l 3152 3824 l 3175 3817 l 3197 3811 l 3217 3805 l
 3235 3800 l 3250 3795 l 3263 3791 l 3273 3788 l 3280 3787 l
 3283 3785 l 3285 3785 l 3284 3786 l 3281 3789 l 3276 3795 l
 3269 3803 l 3260 3812 l 3249 3824 l 3237 3838 l 3224 3852 l
 3210 3868 l 3195 3885 l 3178 3903 l 3160 3923 l 3140 3945 l
 3118 3970 l 3094 3996 l 3070 4022 l 3048 4047 l 3028 4069 l
 3010 4089 l 2993 4107 l 2978 4124 l 2964 4140 l 2951 4155 l
 2939 4168 l 2928 4180 l 2919 4190 l 2912 4198 l 2907 4203 l
 2904 4207 l 2903 4208 l 2900 4207 l 2894 4204 l 2885 4200 l
 2873 4195 l 2858 4188 l 2841 4180 l 2823 4171 l 2803 4161 l
 2781 4148 l 2757 4133 l 2730 4116 l 2707 4101 l 2687 4086 l
 2669 4072 l 2653 4059 l 2639 4048 l 2626 4036 l 2614 4026 l
 2604 4016 l 2595 4008 l 2587 4001 l 2582 3996 l 2579 3993 l
 2578 3992 l 2580 3991 l 2583 3990 l 2590 3988 l 2600 3986 l
 2613 3982 l 2628 3977 l 2647 3972 l 2667 3966 l 2688 3960 l
 2711 3953 l 2736 3945 l 2763 3938 l 2791 3929 l 2822 3920 l
 2856 3910 l 2893 3899 l
 cp gs col32 1.00 shd ef gr gs col-1 s gr 
% Polyline
n 2682 3638 m 2671 3677 l 2660 3714 l 2650 3748 l 2641 3779 l 2632 3807 l
 2625 3834 l 2617 3859 l 2610 3882 l 2604 3903 l 2598 3923 l
 2593 3942 l 2588 3957 l 2584 3970 l 2582 3980 l 2580 3987 l
 2579 3990 l 2578 3992 l 2577 3991 l 2574 3988 l 2569 3983 l
 2562 3975 l 2554 3966 l 2544 3956 l 2534 3944 l 2522 3931 l
 2511 3917 l 2498 3901 l 2484 3883 l 2469 3863 l 2454 3840 l
 2437 3813 l 2422 3789 l 2409 3767 l 2399 3747 l 2390 3729 l
 2382 3712 l 2375 3697 l 2370 3685 l 2366 3676 l 2363 3670 l
 2362 3667 l 2363 3666 l 2367 3663 l 2372 3658 l 2380 3651 l
 2390 3642 l 2402 3631 l 2415 3619 l 2430 3606 l 2446 3592 l
 2463 3577 l 2481 3560 l 2501 3542 l 2523 3522 l 2548 3500 l
 2574 3476 l 2600 3452 l 2625 3430 l 2647 3410 l 2667 3392 l
 2685 3375 l 2702 3360 l 2718 3346 l 2732 3333 l 2746 3321 l
 2758 3310 l 2767 3301 l 2775 3294 l 2781 3289 l 2784 3286 l
 2785 3285 l 2785 3287 l 2783 3290 l 2782 3297 l 2779 3307 l
 2775 3320 l 2770 3335 l 2765 3353 l 2759 3373 l 2753 3395 l
 2746 3418 l 2739 3442 l 2731 3469 l 2723 3497 l 2714 3528 l
 2704 3562 l 2693 3599 l
 cp gs col32 1.00 shd ef gr gs col-1 s gr 
% Polyline
n 2535 3285 m 2570 3285 l 2603 3285 l 2632 3285 l 2658 3285 l 2681 3285 l
 2703 3285 l 2723 3285 l 2740 3285 l 2756 3285 l 2768 3285 l
 2777 3285 l 2783 3285 l 2785 3285 l 2784 3286 l 2781 3289 l
 2775 3294 l 2767 3301 l 2758 3310 l 2746 3321 l 2732 3333 l
 2718 3346 l 2702 3360 l 2685 3375 l 2667 3392 l 2647 3410 l
 2625 3430 l 2600 3452 l 2574 3476 l 2548 3500 l 2523 3522 l
 2501 3542 l 2481 3560 l 2463 3577 l 2446 3592 l 2430 3606 l
 2415 3619 l 2402 3631 l 2390 3642 l 2380 3651 l 2372 3658 l
 2367 3663 l 2363 3666 l 2362 3667 l 2361 3664 l 2359 3658 l
 2355 3649 l 2350 3636 l 2344 3621 l 2338 3604 l 2332 3585 l
 2325 3563 l 2319 3539 l 2312 3511 l 2305 3480 l 2300 3453 l
 2296 3428 l 2293 3406 l 2290 3385 l 2289 3367 l 2287 3350 l
 2287 3334 l 2286 3320 l 2285 3308 l 2285 3298 l 2285 3291 l
 2285 3287 l 2285 3285 l 2287 3285 l 2293 3285 l 2302 3285 l
 2314 3285 l 2330 3285 l 2348 3285 l 2367 3285 l 2389 3285 l
 2412 3285 l 2438 3285 l 2467 3285 l 2500 3285 l
 cp gs col32 1.00 shd ef gr gs col-1 s gr 
% Polyline
n 2535 3285 m 2500 3285 l 2467 3285 l 2438 3285 l 2412 3285 l 2389 3285 l
 2367 3285 l 2347 3285 l 2330 3285 l 2314 3285 l 2302 3285 l
 2293 3285 l 2287 3285 l 2285 3285 l 2285 3283 l 2285 3279 l
 2285 3272 l 2285 3262 l 2286 3250 l 2287 3235 l 2287 3220 l
 2289 3203 l 2290 3185 l 2293 3164 l 2296 3142 l 2300 3117 l
 2305 3090 l 2312 3059 l 2319 3031 l 2325 3007 l 2332 2985 l
 2338 2966 l 2344 2949 l 2350 2934 l 2355 2921 l 2359 2912 l
 2361 2906 l 2362 2903 l 2363 2904 l 2367 2907 l 2372 2912 l
 2380 2919 l 2390 2928 l 2402 2939 l 2415 2951 l 2430 2964 l
 2446 2978 l 2463 2993 l 2481 3010 l 2501 3028 l 2523 3048 l
 2548 3070 l 2574 3094 l 2600 3118 l 2625 3140 l 2647 3160 l
 2667 3178 l 2685 3195 l 2702 3210 l 2718 3224 l 2732 3237 l
 2746 3249 l 2758 3260 l 2767 3269 l 2775 3276 l 2781 3281 l
 2784 3284 l 2785 3285 l 2783 3285 l 2777 3285 l 2768 3285 l
 2756 3285 l 2740 3285 l 2722 3285 l 2703 3285 l 2681 3285 l
 2658 3285 l 2632 3285 l 2603 3285 l 2570 3285 l
 cp gs col32 1.00 shd ef gr gs col-1 s gr 
% Polyline
n 2682 2932 m 2693 2971 l 2704 3008 l 2714 3042 l 2723 3073 l 2731 3101 l
 2739 3128 l 2746 3152 l 2753 3175 l 2759 3197 l 2765 3217 l
 2770 3235 l 2775 3250 l 2779 3263 l 2782 3273 l 2783 3280 l
 2785 3283 l 2785 3285 l 2784 3284 l 2781 3281 l 2775 3276 l
 2767 3269 l 2758 3260 l 2746 3249 l 2732 3237 l 2718 3224 l
 2702 3210 l 2685 3195 l 2667 3178 l 2647 3160 l 2625 3140 l
 2600 3118 l 2574 3094 l 2548 3070 l 2523 3048 l 2501 3028 l
 2481 3010 l 2463 2993 l 2446 2978 l 2430 2964 l 2415 2951 l
 2402 2939 l 2390 2928 l 2380 2919 l 2372 2912 l 2367 2907 l
 2363 2904 l 2362 2903 l 2363 2900 l 2366 2894 l 2370 2885 l
 2375 2873 l 2382 2858 l 2390 2841 l 2399 2823 l 2409 2803 l
 2422 2781 l 2437 2757 l 2454 2730 l 2469 2707 l 2484 2687 l
 2498 2669 l 2511 2653 l 2522 2639 l 2534 2626 l 2544 2614 l
 2554 2604 l 2562 2595 l 2569 2587 l 2574 2582 l 2577 2579 l
 2578 2578 l 2579 2580 l 2580 2583 l 2582 2590 l 2584 2600 l
 2588 2613 l 2593 2628 l 2598 2647 l 2604 2667 l 2610 2688 l
 2617 2711 l 2625 2736 l 2632 2763 l 2641 2791 l 2650 2822 l
 2660 2856 l 2671 2893 l
 cp gs col32 1.00 shd ef gr gs col-1 s gr 
% Polyline
n 2932 2682 m 2893 2671 l 2856 2660 l 2822 2650 l 2791 2641 l 2763 2632 l
 2736 2625 l 2711 2617 l 2688 2610 l 2667 2604 l 2647 2598 l
 2628 2593 l 2613 2588 l 2600 2584 l 2590 2582 l 2583 2580 l
 2580 2579 l 2578 2578 l 2579 2577 l 2582 2574 l 2587 2569 l
 2595 2562 l 2604 2554 l 2614 2544 l 2626 2534 l 2639 2522 l
 2653 2511 l 2669 2498 l 2687 2484 l 2707 2469 l 2730 2454 l
 2757 2437 l 2781 2422 l 2803 2409 l 2823 2399 l 2841 2390 l
 2858 2382 l 2873 2375 l 2885 2370 l 2894 2366 l 2900 2363 l
 2903 2362 l 2904 2363 l 2907 2367 l 2912 2372 l 2919 2380 l
 2928 2390 l 2939 2402 l 2951 2415 l 2964 2430 l 2978 2446 l
 2993 2463 l 3010 2481 l 3028 2501 l 3048 2523 l 3070 2548 l
 3094 2574 l 3118 2600 l 3140 2625 l 3160 2647 l 3178 2667 l
 3195 2685 l 3210 2702 l 3224 2718 l 3237 2732 l 3249 2746 l
 3260 2758 l 3269 2767 l 3276 2775 l 3281 2781 l 3284 2784 l
 3285 2785 l 3283 2785 l 3280 2783 l 3273 2782 l 3263 2779 l
 3250 2775 l 3235 2770 l 3217 2765 l 3197 2759 l 3175 2753 l
 3152 2746 l 3128 2739 l 3101 2731 l 3073 2723 l 3042 2714 l
 3008 2704 l 2971 2693 l
 cp gs col32 1.00 shd ef gr gs col-1 s gr 
% Polyline
n 3285 2535 m 3285 2570 l 3285 2603 l 3285 2632 l 3285 2658 l 3285 2681 l
 3285 2703 l 3285 2723 l 3285 2740 l 3285 2756 l 3285 2768 l
 3285 2777 l 3285 2783 l 3285 2785 l 3284 2784 l 3281 2781 l
 3276 2775 l 3269 2767 l 3260 2758 l 3249 2746 l 3237 2732 l
 3224 2718 l 3210 2702 l 3195 2685 l 3178 2667 l 3160 2647 l
 3140 2625 l 3118 2600 l 3094 2574 l 3070 2548 l 3048 2523 l
 3028 2501 l 3010 2481 l 2993 2463 l 2978 2446 l 2964 2430 l
 2951 2415 l 2939 2402 l 2928 2390 l 2919 2380 l 2912 2372 l
 2907 2367 l 2904 2363 l 2903 2362 l 2906 2361 l 2912 2359 l
 2921 2355 l 2934 2350 l 2949 2344 l 2966 2338 l 2985 2332 l
 3007 2325 l 3031 2319 l 3059 2312 l 3090 2305 l 3117 2300 l
 3142 2296 l 3164 2293 l 3185 2290 l 3203 2289 l 3220 2287 l
 3236 2287 l 3250 2286 l 3262 2285 l 3272 2285 l 3279 2285 l
 3283 2285 l 3285 2285 l 3285 2287 l 3285 2293 l 3285 2302 l
 3285 2314 l 3285 2330 l 3285 2348 l 3285 2367 l 3285 2389 l
 3285 2412 l 3285 2438 l 3285 2467 l 3285 2500 l
 cp gs col32 1.00 shd ef gr gs col-1 s gr 
% Polyline
n 3285 2535 m 3285 2500 l 3285 2467 l 3285 2438 l 3285 2412 l 3285 2389 l
 3285 2367 l 3285 2347 l 3285 2330 l 3285 2314 l 3285 2302 l
 3285 2293 l 3285 2287 l 3285 2285 l 3287 2285 l 3291 2285 l
 3298 2285 l 3308 2285 l 3320 2286 l 3335 2287 l 3350 2287 l
 3367 2289 l 3385 2290 l 3406 2293 l 3428 2296 l 3453 2300 l
 3480 2305 l 3511 2312 l 3539 2319 l 3563 2325 l 3585 2332 l
 3604 2338 l 3621 2344 l 3636 2350 l 3649 2355 l 3658 2359 l
 3664 2361 l 3667 2362 l 3666 2363 l 3663 2367 l 3658 2372 l
 3651 2380 l 3642 2390 l 3631 2402 l 3619 2415 l 3606 2430 l
 3592 2446 l 3577 2463 l 3560 2481 l 3542 2501 l 3522 2523 l
 3500 2548 l 3476 2574 l 3452 2600 l 3430 2625 l 3410 2647 l
 3392 2667 l 3375 2685 l 3360 2702 l 3346 2718 l 3333 2732 l
 3321 2746 l 3310 2758 l 3301 2767 l 3294 2775 l 3289 2781 l
 3286 2784 l 3285 2785 l 3285 2783 l 3285 2777 l 3285 2768 l
 3285 2756 l 3285 2740 l 3285 2722 l 3285 2703 l 3285 2681 l
 3285 2658 l 3285 2632 l 3285 2603 l 3285 2570 l
 cp gs col32 1.00 shd ef gr gs col-1 s gr 
% Polyline
n 3638 2682 m 3599 2693 l 3562 2704 l 3528 2714 l 3497 2723 l 3469 2731 l
 3442 2739 l 3418 2746 l 3395 2753 l 3373 2759 l 3353 2765 l
 3335 2770 l 3320 2775 l 3307 2779 l 3297 2782 l 3290 2783 l
 3287 2785 l 3285 2785 l 3286 2784 l 3289 2781 l 3294 2775 l
 3301 2767 l 3310 2758 l 3321 2746 l 3333 2732 l 3346 2718 l
 3360 2702 l 3375 2685 l 3392 2667 l 3410 2647 l 3430 2625 l
 3452 2600 l 3476 2574 l 3500 2548 l 3522 2523 l 3542 2501 l
 3560 2481 l 3577 2463 l 3592 2446 l 3606 2430 l 3619 2415 l
 3631 2402 l 3642 2390 l 3651 2380 l 3658 2372 l 3663 2367 l
 3666 2363 l 3667 2362 l 3670 2363 l 3676 2366 l 3685 2370 l
 3697 2375 l 3712 2382 l 3729 2390 l 3747 2399 l 3767 2409 l
 3789 2422 l 3813 2437 l 3840 2454 l 3863 2469 l 3883 2484 l
 3901 2498 l 3917 2511 l 3931 2522 l 3944 2534 l 3956 2544 l
 3966 2554 l 3975 2562 l 3983 2569 l 3988 2574 l 3991 2577 l
 3992 2578 l 3990 2579 l 3987 2580 l 3980 2582 l 3970 2584 l
 3957 2588 l 3942 2593 l 3923 2598 l 3903 2604 l 3882 2610 l
 3859 2617 l 3834 2625 l 3807 2632 l 3779 2641 l 3748 2650 l
 3714 2660 l 3677 2671 l
 cp gs col32 1.00 shd ef gr gs col-1 s gr 
% Polyline
n 3888 2932 m 3899 2893 l 3910 2856 l 3920 2822 l 3929 2791 l 3938 2763 l
 3945 2736 l 3953 2711 l 3960 2688 l 3966 2667 l 3972 2647 l
 3977 2628 l 3982 2613 l 3986 2600 l 3988 2590 l 3990 2583 l
 3991 2580 l 3992 2578 l 3993 2579 l 3996 2582 l 4001 2587 l
 4008 2595 l 4016 2604 l 4026 2614 l 4036 2626 l 4048 2639 l
 4059 2653 l 4072 2669 l 4086 2687 l 4101 2707 l 4116 2730 l
 4133 2757 l 4148 2781 l 4161 2803 l 4171 2823 l 4180 2841 l
 4188 2858 l 4195 2873 l 4200 2885 l 4204 2894 l 4207 2900 l
 4208 2903 l 4207 2904 l 4203 2907 l 4198 2912 l 4190 2919 l
 4180 2928 l 4168 2939 l 4155 2951 l 4140 2964 l 4124 2978 l
 4107 2993 l 4089 3010 l 4069 3028 l 4047 3048 l 4022 3070 l
 3996 3094 l 3970 3118 l 3945 3140 l 3923 3160 l 3903 3178 l
 3885 3195 l 3868 3210 l 3852 3224 l 3838 3237 l 3824 3249 l
 3812 3260 l 3803 3269 l 3795 3276 l 3789 3281 l 3786 3284 l
 3785 3285 l 3785 3283 l 3787 3280 l 3788 3273 l 3791 3263 l
 3795 3250 l 3800 3235 l 3805 3217 l 3811 3197 l 3817 3175 l
 3824 3152 l 3831 3128 l 3839 3101 l 3847 3073 l 3856 3042 l
 3866 3008 l 3877 2971 l
 cp gs col32 1.00 shd ef gr gs col-1 s gr 
% Polyline
n 4035 3285 m 4000 3285 l 3967 3285 l 3938 3285 l 3912 3285 l 3889 3285 l
 3867 3285 l 3847 3285 l 3830 3285 l 3814 3285 l 3802 3285 l
 3793 3285 l 3787 3285 l 3785 3285 l 3786 3284 l 3789 3281 l
 3795 3276 l 3803 3269 l 3812 3260 l 3824 3249 l 3838 3237 l
 3852 3224 l 3868 3210 l 3885 3195 l 3903 3178 l 3923 3160 l
 3945 3140 l 3970 3118 l 3996 3094 l 4022 3070 l 4047 3048 l
 4069 3028 l 4089 3010 l 4107 2993 l 4124 2978 l 4140 2964 l
 4155 2951 l 4168 2939 l 4180 2928 l 4190 2919 l 4198 2912 l
 4203 2907 l 4207 2904 l 4208 2903 l 4209 2906 l 4211 2912 l
 4215 2921 l 4220 2934 l 4226 2949 l 4232 2966 l 4238 2985 l
 4245 3007 l 4251 3031 l 4258 3059 l 4265 3090 l 4270 3117 l
 4274 3142 l 4277 3164 l 4280 3185 l 4281 3203 l 4283 3220 l
 4283 3236 l 4284 3250 l 4285 3262 l 4285 3272 l 4285 3279 l
 4285 3283 l 4285 3285 l 4283 3285 l 4277 3285 l 4268 3285 l
 4256 3285 l 4240 3285 l 4222 3285 l 4203 3285 l 4181 3285 l
 4158 3285 l 4132 3285 l 4103 3285 l 4070 3285 l
 cp gs col32 1.00 shd ef gr gs col-1 s gr 
% Polyline
0 slj
n 5888 3638 m 6035 3285 l 6138 3638 l
 cp gs col-1 s gr 
% Polyline
n 6242 3992 m 5888 3638 l 6138 3638 l
 cp gs col-1 s gr 
% Polyline
n 5888 3638 m 5535 3285 l 5785 3285 l
 cp gs col-1 s gr 
% Polyline
n 6035 3285 m 5888 3638 l 5785 3285 l
 cp gs col-1 s gr 
% Polyline
n 6458 3667 m 6035 3285 l 6285 3285 l
 cp gs col-1 s gr 
% Polyline
n 6035 3285 m 6458 3667 l 6138 3638 l
 cp gs col-1 s gr 
% Polyline
n 5917 4208 m 5535 3785 l 5888 3888 l
 cp gs col-1 s gr 
% Polyline
n 5535 3785 m 5917 4208 l 5535 4035 l
 cp gs col-1 s gr 
% Polyline
n 5888 3638 m 5535 3785 l 5535 3535 l
 cp gs col-1 s gr 
% Polyline
n 5535 3285 m 5888 3638 l 5535 3535 l
 cp gs col-1 s gr 
% Polyline
n 5888 3638 m 6242 3992 l 5888 3888 l
 cp gs col-1 s gr 
% Polyline
n 5535 3785 m 5888 3638 l 5888 3888 l
 cp gs col-1 s gr 
% Polyline
n 5182 3638 m 5535 3785 l 5182 3888 l
 cp gs col-1 s gr 
% Polyline
n 4828 3992 m 5182 3638 l 5182 3888 l
 cp gs col-1 s gr 
% Polyline
n 5182 3638 m 5535 3285 l 5535 3535 l
 cp gs col-1 s gr 
% Polyline
n 5535 3785 m 5182 3638 l 5535 3535 l
 cp gs col-1 s gr 
% Polyline
n 5153 4208 m 5535 3785 l 5535 4035 l
 cp gs col-1 s gr 
% Polyline
n 5535 3785 m 5153 4208 l 5182 3888 l
 cp gs col-1 s gr 
% Polyline
n 4612 3667 m 5035 3285 l 4932 3638 l
 cp gs col-1 s gr 
% Polyline
n 5035 3285 m 4612 3667 l 4785 3285 l
 cp gs col-1 s gr 
% Polyline
n 5182 3638 m 5035 3285 l 5285 3285 l
 cp gs col-1 s gr 
% Polyline
n 5535 3285 m 5182 3638 l 5285 3285 l
 cp gs col-1 s gr 
% Polyline
n 5182 3638 m 4828 3992 l 4932 3638 l
 cp gs col-1 s gr 
% Polyline
n 5035 3285 m 5182 3638 l 4932 3638 l
 cp gs col-1 s gr 
% Polyline
n 5182 2932 m 5035 3285 l 4932 2932 l
 cp gs col-1 s gr 
% Polyline
n 4828 2578 m 5182 2932 l 4932 2932 l
 cp gs col-1 s gr 
% Polyline
n 5182 2932 m 5535 3285 l 5285 3285 l
 cp gs col-1 s gr 
% Polyline
n 5035 3285 m 5182 2932 l 5285 3285 l
 cp gs col-1 s gr 
% Polyline
n 4612 2903 m 5035 3285 l 4785 3285 l
 cp gs col-1 s gr 
% Polyline
n 5035 3285 m 4612 2903 l 4932 2932 l
 cp gs col-1 s gr 
% Polyline
n 5153 2362 m 5535 2785 l 5182 2682 l
 cp gs col-1 s gr 
% Polyline
n 5535 2785 m 5153 2362 l 5535 2535 l
 cp gs col-1 s gr 
% Polyline
n 5182 2932 m 5535 2785 l 5535 3035 l
 cp gs col-1 s gr 
% Polyline
n 5535 3285 m 5182 2932 l 5535 3035 l
 cp gs col-1 s gr 
% Polyline
n 5182 2932 m 4828 2578 l 5182 2682 l
 cp gs col-1 s gr 
% Polyline
n 5535 2785 m 5182 2932 l 5182 2682 l
 cp gs col-1 s gr 
% Polyline
n 5888 2932 m 5535 2785 l 5888 2682 l
 cp gs col-1 s gr 
% Polyline
n 6242 2578 m 5888 2932 l 5888 2682 l
 cp gs col-1 s gr 
% Polyline
n 5888 2932 m 5535 3285 l 5535 3035 l
 cp gs col-1 s gr 
% Polyline
n 5535 2785 m 5888 2932 l 5535 3035 l
 cp gs col-1 s gr 
% Polyline
n 5917 2362 m 5535 2785 l 5535 2535 l
 cp gs col-1 s gr 
% Polyline
n 5535 2785 m 5917 2362 l 5888 2682 l
 cp gs col-1 s gr 
% Polyline
n 6458 2903 m 6035 3285 l 6138 2932 l
 cp gs col-1 s gr 
% Polyline
n 6035 3285 m 6458 2903 l 6285 3285 l
 cp gs col-1 s gr 
% Polyline
n 5888 2932 m 6035 3285 l 5785 3285 l
 cp gs col-1 s gr 
% Polyline
n 5535 3285 m 5888 2932 l 5785 3285 l
 cp gs col-1 s gr 
% Polyline
n 5888 2932 m 6242 2578 l 6138 2932 l
 cp gs col-1 s gr 
% Polyline
n 6035 3285 m 5888 2932 l 6138 2932 l
 cp gs col-1 s gr 
% Polyline
2 slj
n 6515 3480 m 6508 3511 l 6501 3539 l 6495 3563 l 6488 3585 l 6482 3604 l
 6476 3621 l 6470 3636 l 6465 3649 l 6461 3658 l 6459 3664 l
 6458 3667 l 6457 3665 l 6455 3661 l 6452 3654 l 6448 3645 l
 6442 3633 l 6436 3619 l 6429 3604 l 6422 3588 l 6414 3570 l
 6404 3550 l 6394 3528 l 6383 3503 l 6371 3476 l 6359 3449 l
 6348 3424 l 6338 3402 l 6329 3382 l 6321 3364 l 6313 3348 l
 6306 3333 l 6300 3319 l 6295 3307 l 6291 3298 l 6288 3291 l
 6286 3287 l 6285 3285 l 6288 3285 l 6294 3285 l 6304 3285 l
 6316 3285 l 6330 3285 l 6346 3285 l 6364 3285 l 6386 3285 l
 6410 3285 l 6434 3285 l 6456 3285 l 6474 3285 l 6490 3285 l
 6504 3285 l 6516 3285 l 6526 3285 l 6532 3285 l 6535 3285 l
 6535 3287 l 6535 3291 l 6535 3298 l 6535 3308 l 6534 3320 l
 6533 3335 l 6533 3350 l 6531 3367 l 6530 3385 l 6527 3406 l
 6524 3428 l 6520 3453 l
 cp gs col32 1.00 shd ef gr gs col-1 s gr 
% Polyline
n 6366 3840 m 6351 3863 l 6336 3883 l 6322 3901 l 6309 3917 l 6298 3931 l
 6286 3944 l 6276 3956 l 6266 3966 l 6258 3975 l 6251 3983 l
 6246 3988 l 6243 3991 l 6242 3992 l 6241 3989 l 6240 3984 l
 6237 3975 l 6233 3962 l 6229 3948 l 6224 3931 l 6219 3913 l
 6213 3893 l 6206 3870 l 6198 3844 l 6190 3815 l 6182 3786 l
 6174 3760 l 6167 3737 l 6161 3717 l 6156 3699 l 6151 3682 l
 6147 3668 l 6143 3655 l 6140 3646 l 6139 3641 l 6138 3638 l
 6140 3638 l 6145 3639 l 6154 3640 l 6165 3641 l 6178 3642 l
 6193 3643 l 6209 3645 l 6228 3647 l 6248 3648 l 6272 3651 l
 6298 3653 l 6324 3655 l 6348 3657 l 6368 3659 l 6387 3661 l
 6403 3662 l 6418 3664 l 6431 3665 l 6442 3666 l 6451 3666 l
 6456 3667 l 6458 3667 l 6457 3670 l 6454 3676 l 6450 3685 l
 6445 3697 l 6438 3712 l 6430 3729 l 6421 3747 l 6411 3767 l
 6398 3789 l 6383 3813 l
 cp gs col32 1.00 shd ef gr gs col-1 s gr 
% Polyline
n 6090 4116 m 6063 4133 l 6039 4148 l 6017 4161 l 5997 4171 l 5979 4180 l
 5962 4188 l 5947 4195 l 5935 4200 l 5926 4204 l 5920 4207 l
 5917 4208 l 5917 4206 l 5916 4201 l 5916 4192 l 5915 4181 l
 5914 4168 l 5912 4153 l 5911 4137 l 5909 4118 l 5907 4098 l
 5905 4074 l 5903 4048 l 5901 4022 l 5898 3998 l 5897 3978 l
 5895 3959 l 5893 3943 l 5892 3928 l 5891 3915 l 5890 3904 l
 5889 3895 l 5888 3890 l 5888 3888 l 5891 3889 l 5896 3890 l
 5905 3893 l 5918 3897 l 5932 3901 l 5949 3906 l 5967 3911 l
 5987 3917 l 6010 3924 l 6036 3932 l 6065 3940 l 6094 3948 l
 6120 3956 l 6143 3963 l 6163 3969 l 6181 3974 l 6198 3979 l
 6212 3983 l 6225 3987 l 6234 3990 l 6239 3991 l 6242 3992 l
 6241 3993 l 6238 3996 l 6233 4001 l 6225 4008 l 6216 4016 l
 6206 4026 l 6194 4036 l 6181 4048 l 6167 4059 l 6151 4072 l
 6133 4086 l 6113 4101 l
 cp gs col32 1.00 shd ef gr gs col-1 s gr 
% Polyline
n 5730 4265 m 5703 4270 l 5678 4274 l 5656 4277 l 5635 4280 l 5617 4281 l
 5600 4283 l 5584 4283 l 5570 4284 l 5558 4285 l 5548 4285 l
 5541 4285 l 5537 4285 l 5535 4285 l 5535 4282 l 5535 4276 l
 5535 4266 l 5535 4254 l 5535 4240 l 5535 4224 l 5535 4206 l
 5535 4184 l 5535 4160 l 5535 4136 l 5535 4114 l 5535 4096 l
 5535 4080 l 5535 4066 l 5535 4054 l 5535 4044 l 5535 4038 l
 5535 4035 l 5537 4036 l 5541 4038 l 5548 4041 l 5557 4045 l
 5569 4050 l 5583 4056 l 5598 4063 l 5614 4071 l 5632 4079 l
 5652 4088 l 5674 4098 l 5699 4109 l 5726 4121 l 5753 4133 l
 5778 4144 l 5800 4154 l 5820 4164 l 5838 4172 l 5854 4179 l
 5869 4186 l 5883 4192 l 5895 4198 l 5904 4202 l 5911 4205 l
 5915 4207 l 5917 4208 l 5914 4209 l 5908 4211 l 5899 4215 l
 5886 4220 l 5871 4226 l 5854 4232 l 5835 4238 l 5813 4245 l
 5789 4251 l 5761 4258 l
 cp gs col32 1.00 shd ef gr gs col-1 s gr 
% Polyline
n 5340 4265 m 5309 4258 l 5281 4251 l 5257 4245 l 5235 4238 l 5216 4232 l
 5199 4226 l 5184 4220 l 5171 4215 l 5162 4211 l 5156 4209 l
 5153 4208 l 5155 4207 l 5159 4205 l 5166 4202 l 5175 4198 l
 5187 4192 l 5201 4186 l 5216 4179 l 5232 4172 l 5250 4164 l
 5270 4154 l 5292 4144 l 5317 4133 l 5344 4121 l 5371 4109 l
 5396 4098 l 5418 4088 l 5438 4079 l 5456 4071 l 5472 4063 l
 5487 4056 l 5501 4050 l 5513 4045 l 5522 4041 l 5529 4038 l
 5533 4036 l 5535 4035 l 5535 4038 l 5535 4044 l 5535 4054 l
 5535 4066 l 5535 4080 l 5535 4096 l 5535 4114 l 5535 4136 l
 5535 4160 l 5535 4184 l 5535 4206 l 5535 4224 l 5535 4240 l
 5535 4254 l 5535 4266 l 5535 4276 l 5535 4282 l 5535 4285 l
 5533 4285 l 5529 4285 l 5522 4285 l 5512 4285 l 5500 4284 l
 5485 4283 l 5470 4283 l 5453 4281 l 5435 4280 l 5414 4277 l
 5392 4274 l 5367 4270 l
 cp gs col32 1.00 shd ef gr gs col-1 s gr 
% Polyline
n 4980 4116 m 4957 4101 l 4937 4086 l 4919 4072 l 4903 4059 l 4889 4048 l
 4876 4036 l 4864 4026 l 4854 4016 l 4845 4008 l 4837 4001 l
 4832 3996 l 4829 3993 l 4828 3992 l 4831 3991 l 4836 3990 l
 4845 3987 l 4858 3983 l 4872 3979 l 4889 3974 l 4907 3969 l
 4927 3963 l 4950 3956 l 4976 3948 l 5005 3940 l 5034 3932 l
 5060 3924 l 5083 3917 l 5103 3911 l 5121 3906 l 5138 3901 l
 5152 3897 l 5165 3893 l 5174 3890 l 5179 3889 l 5182 3888 l
 5182 3890 l 5181 3895 l 5180 3904 l 5179 3915 l 5178 3928 l
 5177 3943 l 5175 3959 l 5173 3978 l 5172 3998 l 5169 4022 l
 5167 4048 l 5165 4074 l 5163 4098 l 5161 4118 l 5159 4137 l
 5158 4153 l 5156 4168 l 5155 4181 l 5154 4192 l 5154 4201 l
 5153 4206 l 5153 4208 l 5150 4207 l 5144 4204 l 5135 4200 l
 5123 4195 l 5108 4188 l 5091 4180 l 5073 4171 l 5053 4161 l
 5031 4148 l 5007 4133 l
 cp gs col32 1.00 shd ef gr gs col-1 s gr 
% Polyline
n 4704 3840 m 4687 3813 l 4672 3789 l 4659 3767 l 4649 3747 l 4640 3729 l
 4632 3712 l 4625 3697 l 4620 3685 l 4616 3676 l 4613 3670 l
 4612 3667 l 4614 3667 l 4619 3666 l 4628 3666 l 4639 3665 l
 4652 3664 l 4667 3662 l 4683 3661 l 4702 3659 l 4722 3657 l
 4746 3655 l 4772 3653 l 4798 3651 l 4822 3648 l 4842 3647 l
 4861 3645 l 4877 3643 l 4892 3642 l 4905 3641 l 4916 3640 l
 4925 3639 l 4930 3638 l 4932 3638 l 4931 3641 l 4930 3646 l
 4927 3655 l 4923 3668 l 4919 3682 l 4914 3699 l 4909 3717 l
 4903 3737 l 4896 3760 l 4888 3786 l 4880 3815 l 4872 3844 l
 4864 3870 l 4857 3893 l 4851 3913 l 4846 3931 l 4841 3948 l
 4837 3962 l 4833 3975 l 4830 3984 l 4829 3989 l 4828 3992 l
 4827 3991 l 4824 3988 l 4819 3983 l 4812 3975 l 4804 3966 l
 4794 3956 l 4784 3944 l 4772 3931 l 4761 3917 l 4748 3901 l
 4734 3883 l 4719 3863 l
 cp gs col32 1.00 shd ef gr gs col-1 s gr 
% Polyline
n 4555 3480 m 4550 3453 l 4546 3428 l 4543 3406 l 4540 3385 l 4539 3367 l
 4537 3350 l 4537 3334 l 4536 3320 l 4535 3308 l 4535 3298 l
 4535 3291 l 4535 3287 l 4535 3285 l 4538 3285 l 4544 3285 l
 4554 3285 l 4566 3285 l 4580 3285 l 4596 3285 l 4614 3285 l
 4636 3285 l 4660 3285 l 4684 3285 l 4706 3285 l 4724 3285 l
 4740 3285 l 4754 3285 l 4766 3285 l 4776 3285 l 4782 3285 l
 4785 3285 l 4784 3287 l 4782 3291 l 4779 3298 l 4775 3307 l
 4770 3319 l 4764 3333 l 4757 3348 l 4749 3364 l 4741 3382 l
 4732 3402 l 4722 3424 l 4711 3449 l 4699 3476 l 4687 3503 l
 4676 3528 l 4666 3550 l 4656 3570 l 4648 3588 l 4641 3604 l
 4634 3619 l 4628 3633 l 4622 3645 l 4618 3654 l 4615 3661 l
 4613 3665 l 4612 3667 l 4611 3664 l 4609 3658 l 4605 3649 l
 4600 3636 l 4594 3621 l 4588 3604 l 4582 3585 l 4575 3563 l
 4569 3539 l 4562 3511 l
 cp gs col32 1.00 shd ef gr gs col-1 s gr 
% Polyline
n 4555 3090 m 4562 3059 l 4569 3031 l 4575 3007 l 4582 2985 l 4588 2966 l
 4594 2949 l 4600 2934 l 4605 2921 l 4609 2912 l 4611 2906 l
 4612 2903 l 4613 2905 l 4615 2909 l 4618 2916 l 4622 2925 l
 4628 2937 l 4634 2951 l 4641 2966 l 4648 2982 l 4656 3000 l
 4666 3020 l 4676 3042 l 4687 3067 l 4699 3094 l 4711 3121 l
 4722 3146 l 4732 3168 l 4741 3188 l 4749 3206 l 4757 3222 l
 4764 3237 l 4770 3251 l 4775 3263 l 4779 3272 l 4782 3279 l
 4784 3283 l 4785 3285 l 4782 3285 l 4776 3285 l 4766 3285 l
 4754 3285 l 4740 3285 l 4724 3285 l 4706 3285 l 4684 3285 l
 4660 3285 l 4636 3285 l 4614 3285 l 4596 3285 l 4580 3285 l
 4566 3285 l 4554 3285 l 4544 3285 l 4538 3285 l 4535 3285 l
 4535 3283 l 4535 3279 l 4535 3272 l 4535 3262 l 4536 3250 l
 4537 3235 l 4537 3220 l 4539 3203 l 4540 3185 l 4543 3164 l
 4546 3142 l 4550 3117 l
 cp gs col32 1.00 shd ef gr gs col-1 s gr 
% Polyline
n 4704 2730 m 4719 2707 l 4734 2687 l 4748 2669 l 4761 2653 l 4772 2639 l
 4784 2626 l 4794 2614 l 4804 2604 l 4812 2595 l 4819 2587 l
 4824 2582 l 4827 2579 l 4828 2578 l 4829 2581 l 4830 2586 l
 4833 2595 l 4837 2608 l 4841 2622 l 4846 2639 l 4851 2657 l
 4857 2677 l 4864 2700 l 4872 2726 l 4880 2755 l 4888 2784 l
 4896 2810 l 4903 2833 l 4909 2853 l 4914 2871 l 4919 2888 l
 4923 2902 l 4927 2915 l 4930 2924 l 4931 2929 l 4932 2932 l
 4930 2932 l 4925 2931 l 4916 2930 l 4905 2929 l 4892 2928 l
 4877 2927 l 4861 2925 l 4842 2923 l 4822 2922 l 4798 2919 l
 4772 2917 l 4746 2915 l 4722 2913 l 4702 2911 l 4683 2909 l
 4667 2908 l 4652 2906 l 4639 2905 l 4628 2904 l 4619 2904 l
 4614 2903 l 4612 2903 l 4613 2900 l 4616 2894 l 4620 2885 l
 4625 2873 l 4632 2858 l 4640 2841 l 4649 2823 l 4659 2803 l
 4672 2781 l 4687 2757 l
 cp gs col32 1.00 shd ef gr gs col-1 s gr 
% Polyline
n 4980 2454 m 5007 2437 l 5031 2422 l 5053 2409 l 5073 2399 l 5091 2390 l
 5108 2382 l 5123 2375 l 5135 2370 l 5144 2366 l 5150 2363 l
 5153 2362 l 5153 2364 l 5154 2369 l 5154 2378 l 5155 2389 l
 5156 2402 l 5158 2417 l 5159 2433 l 5161 2452 l 5163 2472 l
 5165 2496 l 5167 2522 l 5169 2548 l 5172 2572 l 5173 2592 l
 5175 2611 l 5177 2627 l 5178 2642 l 5179 2655 l 5180 2666 l
 5181 2675 l 5182 2680 l 5182 2682 l 5179 2681 l 5174 2680 l
 5165 2677 l 5152 2673 l 5138 2669 l 5121 2664 l 5103 2659 l
 5083 2653 l 5060 2646 l 5034 2638 l 5005 2630 l 4976 2622 l
 4950 2614 l 4927 2607 l 4907 2601 l 4889 2596 l 4872 2591 l
 4858 2587 l 4845 2583 l 4836 2580 l 4831 2579 l 4828 2578 l
 4829 2577 l 4832 2574 l 4837 2569 l 4845 2562 l 4854 2554 l
 4864 2544 l 4876 2534 l 4889 2522 l 4903 2511 l 4919 2498 l
 4937 2484 l 4957 2469 l
 cp gs col32 1.00 shd ef gr gs col-1 s gr 
% Polyline
n 5340 2305 m 5367 2300 l 5392 2296 l 5414 2293 l 5435 2290 l 5453 2289 l
 5470 2287 l 5486 2287 l 5500 2286 l 5512 2285 l 5522 2285 l
 5529 2285 l 5533 2285 l 5535 2285 l 5535 2288 l 5535 2294 l
 5535 2304 l 5535 2316 l 5535 2330 l 5535 2346 l 5535 2364 l
 5535 2386 l 5535 2410 l 5535 2434 l 5535 2456 l 5535 2474 l
 5535 2490 l 5535 2504 l 5535 2516 l 5535 2526 l 5535 2532 l
 5535 2535 l 5533 2534 l 5529 2532 l 5522 2529 l 5513 2525 l
 5501 2520 l 5487 2514 l 5472 2507 l 5456 2499 l 5438 2491 l
 5418 2482 l 5396 2472 l 5371 2461 l 5344 2449 l 5317 2437 l
 5292 2426 l 5270 2416 l 5250 2406 l 5232 2398 l 5216 2391 l
 5201 2384 l 5187 2378 l 5175 2372 l 5166 2368 l 5159 2365 l
 5155 2363 l 5153 2362 l 5156 2361 l 5162 2359 l 5171 2355 l
 5184 2350 l 5199 2344 l 5216 2338 l 5235 2332 l 5257 2325 l
 5281 2319 l 5309 2312 l
 cp gs col32 1.00 shd ef gr gs col-1 s gr 
% Polyline
n 5730 2305 m 5761 2312 l 5789 2319 l 5813 2325 l 5835 2332 l 5854 2338 l
 5871 2344 l 5886 2350 l 5899 2355 l 5908 2359 l 5914 2361 l
 5917 2362 l 5915 2363 l 5911 2365 l 5904 2368 l 5895 2372 l
 5883 2378 l 5869 2384 l 5854 2391 l 5838 2398 l 5820 2406 l
 5800 2416 l 5778 2426 l 5753 2437 l 5726 2449 l 5699 2461 l
 5674 2472 l 5652 2482 l 5632 2491 l 5614 2499 l 5598 2507 l
 5583 2514 l 5569 2520 l 5557 2525 l 5548 2529 l 5541 2532 l
 5537 2534 l 5535 2535 l 5535 2532 l 5535 2526 l 5535 2516 l
 5535 2504 l 5535 2490 l 5535 2474 l 5535 2456 l 5535 2434 l
 5535 2410 l 5535 2386 l 5535 2364 l 5535 2346 l 5535 2330 l
 5535 2316 l 5535 2304 l 5535 2294 l 5535 2288 l 5535 2285 l
 5537 2285 l 5541 2285 l 5548 2285 l 5558 2285 l 5570 2286 l
 5585 2287 l 5600 2287 l 5617 2289 l 5635 2290 l 5656 2293 l
 5678 2296 l 5703 2300 l
 cp gs col32 1.00 shd ef gr gs col-1 s gr 
% Polyline
n 6090 2454 m 6113 2469 l 6133 2484 l 6151 2498 l 6167 2511 l 6181 2522 l
 6194 2534 l 6206 2544 l 6216 2554 l 6225 2562 l 6233 2569 l
 6238 2574 l 6241 2577 l 6242 2578 l 6239 2579 l 6234 2580 l
 6225 2583 l 6212 2587 l 6198 2591 l 6181 2596 l 6163 2601 l
 6143 2607 l 6120 2614 l 6094 2622 l 6065 2630 l 6036 2638 l
 6010 2646 l 5987 2653 l 5967 2659 l 5949 2664 l 5932 2669 l
 5918 2673 l 5905 2677 l 5896 2680 l 5891 2681 l 5888 2682 l
 5888 2680 l 5889 2675 l 5890 2666 l 5891 2655 l 5892 2642 l
 5893 2627 l 5895 2611 l 5897 2592 l 5898 2572 l 5901 2548 l
 5903 2522 l 5905 2496 l 5907 2472 l 5909 2452 l 5911 2433 l
 5912 2417 l 5914 2402 l 5915 2389 l 5916 2378 l 5916 2369 l
 5917 2364 l 5917 2362 l 5920 2363 l 5926 2366 l 5935 2370 l
 5947 2375 l 5962 2382 l 5979 2390 l 5997 2399 l 6017 2409 l
 6039 2422 l 6063 2437 l
 cp gs col32 1.00 shd ef gr gs col-1 s gr 
% Polyline
n 6366 2730 m 6383 2757 l 6398 2781 l 6411 2803 l 6421 2823 l 6430 2841 l
 6438 2858 l 6445 2873 l 6450 2885 l 6454 2894 l 6457 2900 l
 6458 2903 l 6456 2903 l 6451 2904 l 6442 2904 l 6431 2905 l
 6418 2906 l 6403 2908 l 6387 2909 l 6368 2911 l 6348 2913 l
 6324 2915 l 6298 2917 l 6272 2919 l 6248 2922 l 6228 2923 l
 6209 2925 l 6193 2927 l 6178 2928 l 6165 2929 l 6154 2930 l
 6145 2931 l 6140 2932 l 6138 2932 l 6139 2929 l 6140 2924 l
 6143 2915 l 6147 2902 l 6151 2888 l 6156 2871 l 6161 2853 l
 6167 2833 l 6174 2810 l 6182 2784 l 6190 2755 l 6198 2726 l
 6206 2700 l 6213 2677 l 6219 2657 l 6224 2639 l 6229 2622 l
 6233 2608 l 6237 2595 l 6240 2586 l 6241 2581 l 6242 2578 l
 6243 2579 l 6246 2582 l 6251 2587 l 6258 2595 l 6266 2604 l
 6276 2614 l 6286 2626 l 6298 2639 l 6309 2653 l 6322 2669 l
 6336 2687 l 6351 2707 l
 cp gs col32 1.00 shd ef gr gs col-1 s gr 
% Polyline
n 6515 3090 m 6520 3117 l 6524 3142 l 6527 3164 l 6530 3185 l 6531 3203 l
 6533 3220 l 6533 3236 l 6534 3250 l 6535 3262 l 6535 3272 l
 6535 3279 l 6535 3283 l 6535 3285 l 6532 3285 l 6526 3285 l
 6516 3285 l 6504 3285 l 6490 3285 l 6474 3285 l 6456 3285 l
 6434 3285 l 6410 3285 l 6386 3285 l 6364 3285 l 6346 3285 l
 6330 3285 l 6316 3285 l 6304 3285 l 6294 3285 l 6288 3285 l
 6285 3285 l 6286 3283 l 6288 3279 l 6291 3272 l 6295 3263 l
 6300 3251 l 6306 3237 l 6313 3222 l 6321 3206 l 6329 3188 l
 6338 3168 l 6348 3146 l 6359 3121 l 6371 3094 l 6383 3067 l
 6394 3042 l 6404 3020 l 6414 3000 l 6422 2982 l 6429 2966 l
 6436 2951 l 6442 2937 l 6448 2925 l 6452 2916 l 6455 2909 l
 6457 2905 l 6458 2903 l 6459 2906 l 6461 2912 l 6465 2921 l
 6470 2934 l 6476 2949 l 6482 2966 l 6488 2985 l 6495 3007 l
 6501 3031 l 6508 3059 l
 cp gs col32 1.00 shd ef gr gs col-1 s gr 
% Polyline
0 slj
n 8492 1742 m 7785 1035 l 8285 1035 l
 cp gs col-1 s gr 
% Polyline
n 7785 1035 m 8492 1742 l 7785 1535 l
 cp gs col-1 s gr 
% Polyline
n 7078 1742 m 7785 1035 l 7785 1535 l
 cp gs col-1 s gr 
% Polyline
n 7785 1035 m 7078 1742 l 7285 1035 l
 cp gs col-1 s gr 
% Polyline
n 7078 328 m 7785 1035 l 7285 1035 l
 cp gs col-1 s gr 
% Polyline
n 7785 1035 m 7078 328 l 7785 535 l
 cp gs col-1 s gr 
% Polyline
n 8492 328 m 7785 1035 l 7785 535 l
 cp gs col-1 s gr 
% Polyline
n 7785 1035 m 8492 328 l 8285 1035 l
 cp gs col-1 s gr 
% Polyline
2 slj
n 8708 1417 m 8691 1456 l 8674 1491 l 8656 1524 l 8639 1554 l 8622 1580 l
 8606 1604 l 8590 1626 l 8574 1647 l 8559 1666 l 8544 1684 l
 8531 1699 l 8519 1713 l 8509 1724 l 8502 1732 l 8496 1737 l
 8493 1741 l 8492 1742 l 8491 1740 l 8490 1737 l 8488 1730 l
 8486 1720 l 8482 1707 l 8477 1692 l 8472 1673 l 8466 1653 l
 8460 1632 l 8453 1609 l 8445 1584 l 8438 1557 l 8429 1529 l
 8420 1498 l 8410 1464 l 8399 1427 l 8388 1388 l 8377 1349 l
 8366 1312 l 8356 1278 l 8347 1247 l 8339 1219 l 8331 1192 l
 8324 1168 l 8317 1145 l 8311 1123 l 8305 1103 l 8300 1085 l
 8295 1070 l 8291 1057 l 8288 1047 l 8287 1040 l 8285 1037 l
 8285 1035 l 8287 1035 l 8293 1035 l 8302 1035 l 8314 1035 l
 8330 1035 l 8348 1035 l 8367 1035 l 8389 1035 l 8412 1035 l
 8438 1035 l 8467 1035 l 8500 1035 l 8535 1035 l 8570 1035 l
 8603 1035 l 8632 1035 l 8658 1035 l 8681 1035 l 8703 1035 l
 8723 1035 l 8740 1035 l 8756 1035 l 8768 1035 l 8777 1035 l
 8783 1035 l 8785 1035 l 8785 1037 l 8785 1041 l 8785 1049 l
 8784 1060 l 8783 1075 l 8782 1093 l 8781 1113 l 8779 1136 l
 8776 1160 l 8773 1186 l 8768 1213 l 8763 1241 l 8756 1272 l
 8747 1305 l 8736 1340 l 8723 1378 l
 cp gs col32 1.00 shd ef gr gs col-1 s gr 
% Polyline
n 8167 1958 m 8128 1973 l 8090 1986 l 8055 1997 l 8022 2006 l 7991 2013 l
 7963 2018 l 7936 2023 l 7910 2026 l 7886 2029 l 7863 2031 l
 7843 2032 l 7825 2033 l 7810 2034 l 7799 2035 l 7791 2035 l
 7787 2035 l 7785 2035 l 7785 2033 l 7785 2027 l 7785 2018 l
 7785 2006 l 7785 1990 l 7785 1972 l 7785 1953 l 7785 1931 l
 7785 1908 l 7785 1882 l 7785 1853 l 7785 1820 l 7785 1785 l
 7785 1750 l 7785 1717 l 7785 1688 l 7785 1662 l 7785 1639 l
 7785 1617 l 7785 1597 l 7785 1580 l 7785 1564 l 7785 1552 l
 7785 1543 l 7785 1537 l 7785 1535 l 7787 1535 l 7790 1537 l
 7797 1538 l 7807 1541 l 7820 1545 l 7835 1550 l 7853 1555 l
 7873 1561 l 7895 1567 l 7918 1574 l 7942 1581 l 7969 1589 l
 7997 1597 l 8028 1606 l 8062 1616 l 8099 1627 l 8138 1638 l
 8177 1649 l 8214 1660 l 8248 1670 l 8279 1679 l 8307 1688 l
 8334 1695 l 8359 1703 l 8382 1710 l 8403 1716 l 8423 1722 l
 8442 1727 l 8457 1732 l 8470 1736 l 8480 1738 l 8487 1740 l
 8490 1741 l 8492 1742 l 8491 1743 l 8487 1746 l 8482 1752 l
 8474 1759 l 8463 1769 l 8449 1781 l 8434 1794 l 8416 1809 l
 8397 1824 l 8376 1840 l 8354 1856 l 8330 1872 l 8304 1889 l
 8274 1906 l 8241 1924 l 8206 1941 l
 cp gs col32 1.00 shd ef gr gs col-1 s gr 
% Polyline
n 7403 1958 m 7364 1941 l 7329 1924 l 7296 1906 l 7266 1889 l 7240 1872 l
 7216 1856 l 7194 1840 l 7173 1824 l 7154 1809 l 7136 1794 l
 7121 1781 l 7107 1769 l 7096 1759 l 7088 1752 l 7083 1746 l
 7079 1743 l 7078 1742 l 7080 1741 l 7083 1740 l 7090 1738 l
 7100 1736 l 7113 1732 l 7128 1727 l 7147 1722 l 7167 1716 l
 7188 1710 l 7211 1703 l 7236 1695 l 7263 1688 l 7291 1679 l
 7322 1670 l 7356 1660 l 7393 1649 l 7432 1638 l 7471 1627 l
 7508 1616 l 7542 1606 l 7573 1597 l 7601 1589 l 7628 1581 l
 7652 1574 l 7675 1567 l 7697 1561 l 7717 1555 l 7735 1550 l
 7750 1545 l 7763 1541 l 7773 1538 l 7780 1537 l 7783 1535 l
 7785 1535 l 7785 1537 l 7785 1543 l 7785 1552 l 7785 1564 l
 7785 1580 l 7785 1598 l 7785 1617 l 7785 1639 l 7785 1662 l
 7785 1688 l 7785 1717 l 7785 1750 l 7785 1785 l 7785 1820 l
 7785 1853 l 7785 1882 l 7785 1908 l 7785 1931 l 7785 1953 l
 7785 1973 l 7785 1990 l 7785 2006 l 7785 2018 l 7785 2027 l
 7785 2033 l 7785 2035 l 7783 2035 l 7779 2035 l 7771 2035 l
 7760 2034 l 7745 2033 l 7727 2032 l 7707 2031 l 7684 2029 l
 7660 2026 l 7634 2023 l 7607 2018 l 7579 2013 l 7548 2006 l
 7515 1997 l 7480 1986 l 7442 1973 l
 cp gs col32 1.00 shd ef gr gs col-1 s gr 
% Polyline
n 6862 1417 m 6847 1378 l 6834 1340 l 6823 1305 l 6814 1272 l 6807 1241 l
 6802 1213 l 6797 1186 l 6794 1160 l 6791 1136 l 6789 1113 l
 6788 1093 l 6787 1075 l 6786 1060 l 6785 1049 l 6785 1041 l
 6785 1037 l 6785 1035 l 6787 1035 l 6793 1035 l 6802 1035 l
 6814 1035 l 6830 1035 l 6848 1035 l 6867 1035 l 6889 1035 l
 6912 1035 l 6938 1035 l 6967 1035 l 7000 1035 l 7035 1035 l
 7070 1035 l 7103 1035 l 7132 1035 l 7158 1035 l 7181 1035 l
 7203 1035 l 7223 1035 l 7240 1035 l 7256 1035 l 7268 1035 l
 7277 1035 l 7283 1035 l 7285 1035 l 7285 1037 l 7283 1040 l
 7282 1047 l 7279 1057 l 7275 1070 l 7270 1085 l 7265 1103 l
 7259 1123 l 7253 1145 l 7246 1168 l 7239 1192 l 7231 1219 l
 7223 1247 l 7214 1278 l 7204 1312 l 7193 1349 l 7182 1388 l
 7171 1427 l 7160 1464 l 7150 1498 l 7141 1529 l 7132 1557 l
 7125 1584 l 7117 1609 l 7110 1632 l 7104 1653 l 7098 1673 l
 7093 1692 l 7088 1707 l 7084 1720 l 7082 1730 l 7080 1737 l
 7079 1740 l 7078 1742 l 7077 1741 l 7074 1737 l 7068 1732 l
 7061 1724 l 7051 1713 l 7039 1699 l 7026 1684 l 7011 1666 l
 6996 1647 l 6980 1626 l 6964 1604 l 6948 1580 l 6931 1554 l
 6914 1524 l 6896 1491 l 6879 1456 l
 cp gs col32 1.00 shd ef gr gs col-1 s gr 
% Polyline
n 6862 653 m 6879 614 l 6896 579 l 6914 546 l 6931 516 l 6948 490 l
 6964 466 l 6980 444 l 6996 423 l 7011 404 l 7026 386 l
 7039 371 l 7051 357 l 7061 346 l 7068 338 l 7074 333 l
 7077 329 l 7078 328 l 7079 330 l 7080 333 l 7082 340 l
 7084 350 l 7088 363 l 7093 378 l 7098 397 l 7104 417 l
 7110 438 l 7117 461 l 7125 486 l 7132 513 l 7141 541 l
 7150 572 l 7160 606 l 7171 643 l 7182 682 l 7193 721 l
 7204 758 l 7214 792 l 7223 823 l 7231 851 l 7239 878 l
 7246 902 l 7253 925 l 7259 947 l 7265 967 l 7270 985 l
 7275 1000 l 7279 1013 l 7282 1023 l 7283 1030 l 7285 1033 l
 7285 1035 l 7283 1035 l 7277 1035 l 7268 1035 l 7256 1035 l
 7240 1035 l 7222 1035 l 7203 1035 l 7181 1035 l 7158 1035 l
 7132 1035 l 7103 1035 l 7070 1035 l 7035 1035 l 7000 1035 l
 6967 1035 l 6938 1035 l 6912 1035 l 6889 1035 l 6867 1035 l
 6847 1035 l 6830 1035 l 6814 1035 l 6802 1035 l 6793 1035 l
 6787 1035 l 6785 1035 l 6785 1033 l 6785 1029 l 6785 1021 l
 6786 1010 l 6787 995 l 6788 977 l 6789 957 l 6791 934 l
 6794 910 l 6797 884 l 6802 857 l 6807 829 l 6814 798 l
 6823 765 l 6834 730 l 6847 692 l
 cp gs col32 1.00 shd ef gr gs col-1 s gr 
% Polyline
n 7403 112 m 7442 97 l 7480 84 l 7515 73 l 7548 64 l 7579 57 l
 7607 52 l 7634 47 l 7660 44 l 7684 41 l 7707 39 l
 7727 38 l 7745 37 l 7760 36 l 7771 35 l 7779 35 l
 7783 35 l 7785 35 l 7785 37 l 7785 43 l 7785 52 l
 7785 64 l 7785 80 l 7785 98 l 7785 117 l 7785 139 l
 7785 162 l 7785 188 l 7785 217 l 7785 250 l 7785 285 l
 7785 320 l 7785 353 l 7785 382 l 7785 408 l 7785 431 l
 7785 453 l 7785 473 l 7785 490 l 7785 506 l 7785 518 l
 7785 527 l 7785 533 l 7785 535 l 7783 535 l 7780 533 l
 7773 532 l 7763 529 l 7750 525 l 7735 520 l 7717 515 l
 7697 509 l 7675 503 l 7652 496 l 7628 489 l 7601 481 l
 7573 473 l 7542 464 l 7508 454 l 7471 443 l 7432 432 l
 7393 421 l 7356 410 l 7322 400 l 7291 391 l 7263 382 l
 7236 375 l 7211 367 l 7188 360 l 7167 354 l 7147 348 l
 7128 343 l 7113 338 l 7100 334 l 7090 332 l 7083 330 l
 7080 329 l 7078 328 l 7079 327 l 7083 324 l 7088 318 l
 7096 311 l 7107 301 l 7121 289 l 7136 276 l 7154 261 l
 7173 246 l 7194 230 l 7216 214 l 7240 198 l 7266 181 l
 7296 164 l 7329 146 l 7364 129 l
 cp gs col32 1.00 shd ef gr gs col-1 s gr 
% Polyline
n 8167 112 m 8206 129 l 8241 146 l 8274 164 l 8304 181 l 8330 198 l
 8354 214 l 8376 230 l 8397 246 l 8416 261 l 8434 276 l
 8449 289 l 8463 301 l 8474 311 l 8482 318 l 8487 324 l
 8491 327 l 8492 328 l 8490 329 l 8487 330 l 8480 332 l
 8470 334 l 8457 338 l 8442 343 l 8423 348 l 8403 354 l
 8382 360 l 8359 367 l 8334 375 l 8307 382 l 8279 391 l
 8248 400 l 8214 410 l 8177 421 l 8138 432 l 8099 443 l
 8062 454 l 8028 464 l 7997 473 l 7969 481 l 7942 489 l
 7918 496 l 7895 503 l 7873 509 l 7853 515 l 7835 520 l
 7820 525 l 7807 529 l 7797 532 l 7790 533 l 7787 535 l
 7785 535 l 7785 533 l 7785 527 l 7785 518 l 7785 506 l
 7785 490 l 7785 472 l 7785 453 l 7785 431 l 7785 408 l
 7785 382 l 7785 353 l 7785 320 l 7785 285 l 7785 250 l
 7785 217 l 7785 188 l 7785 162 l 7785 139 l 7785 117 l
 7785 97 l 7785 80 l 7785 64 l 7785 52 l 7785 43 l
 7785 37 l 7785 35 l 7787 35 l 7791 35 l 7799 35 l
 7810 36 l 7825 37 l 7843 38 l 7863 39 l 7886 41 l
 7910 44 l 7936 47 l 7963 52 l 7991 57 l 8022 64 l
 8055 73 l 8090 84 l 8128 97 l
 cp gs col32 1.00 shd ef gr gs col-1 s gr 
% Polyline
n 8708 653 m 8723 692 l 8736 730 l 8747 765 l 8756 798 l 8763 829 l
 8768 857 l 8773 884 l 8776 910 l 8779 934 l 8781 957 l
 8782 977 l 8783 995 l 8784 1010 l 8785 1021 l 8785 1029 l
 8785 1033 l 8785 1035 l 8783 1035 l 8777 1035 l 8768 1035 l
 8756 1035 l 8740 1035 l 8722 1035 l 8703 1035 l 8681 1035 l
 8658 1035 l 8632 1035 l 8603 1035 l 8570 1035 l 8535 1035 l
 8500 1035 l 8467 1035 l 8438 1035 l 8412 1035 l 8389 1035 l
 8367 1035 l 8347 1035 l 8330 1035 l 8314 1035 l 8302 1035 l
 8293 1035 l 8287 1035 l 8285 1035 l 8285 1033 l 8287 1030 l
 8288 1023 l 8291 1013 l 8295 1000 l 8300 985 l 8305 967 l
 8311 947 l 8317 925 l 8324 902 l 8331 878 l 8339 851 l
 8347 823 l 8356 792 l 8366 758 l 8377 721 l 8388 682 l
 8399 643 l 8410 606 l 8420 572 l 8429 541 l 8438 513 l
 8445 486 l 8453 461 l 8460 438 l 8466 417 l 8472 397 l
 8477 378 l 8482 363 l 8486 350 l 8488 340 l 8490 333 l
 8491 330 l 8492 328 l 8493 329 l 8496 333 l 8502 338 l
 8509 346 l 8519 357 l 8531 371 l 8544 386 l 8559 404 l
 8574 423 l 8590 444 l 8606 466 l 8622 490 l 8639 516 l
 8656 546 l 8674 579 l 8691 614 l
 cp gs col32 1.00 shd ef gr gs col-1 s gr 
% Polyline
0 slj
n 8388 3638 m 8138 3638 l 8211 3461 l
 cp gs col-1 s gr 
% Polyline
n 8285 3285 m 8388 3638 l 8211 3461 l
 cp gs col-1 s gr 
% Polyline
n 8388 3638 m 8492 3992 l 8315 3815 l
 cp gs col-1 s gr 
% Polyline
n 8138 3638 m 8388 3638 l 8315 3815 l
 cp gs col-1 s gr 
% Polyline
n 8035 3285 m 8138 3638 l 7961 3461 l
 cp gs col-1 s gr 
% Polyline
n 7785 3285 m 8035 3285 l 7961 3461 l
 cp gs col-1 s gr 
% Polyline
n 8035 3285 m 8285 3285 l 8211 3461 l
 cp gs col-1 s gr 
% Polyline
n 8138 3638 m 8035 3285 l 8211 3461 l
 cp gs col-1 s gr 
% Polyline
n 8535 3285 m 8708 3667 l 8496 3476 l
 cp gs col-1 s gr 
% Polyline
n 8285 3285 m 8535 3285 l 8496 3476 l
 cp gs col-1 s gr 
% Polyline
n 8388 3638 m 8285 3285 l 8496 3476 l
 cp gs col-1 s gr 
% Polyline
n 8708 3667 m 8388 3638 l 8496 3476 l
 cp gs col-1 s gr 
% Polyline
n 8138 3888 m 8167 4208 l 7976 3996 l
 cp gs col-1 s gr 
% Polyline
n 7785 3785 m 8138 3888 l 7976 3996 l
 cp gs col-1 s gr 
% Polyline
n 7785 4035 m 7785 3785 l 7976 3996 l
 cp gs col-1 s gr 
% Polyline
n 8167 4208 m 7785 4035 l 7976 3996 l
 cp gs col-1 s gr 
% Polyline
n 7785 3535 m 8138 3638 l 7961 3711 l
 cp gs col-1 s gr 
% Polyline
n 7785 3785 m 7785 3535 l 7961 3711 l
 cp gs col-1 s gr 
% Polyline
n 7785 3535 m 7785 3285 l 7961 3461 l
 cp gs col-1 s gr 
% Polyline
n 8138 3638 m 7785 3535 l 7961 3461 l
 cp gs col-1 s gr 
% Polyline
n 8138 3888 m 8138 3638 l 8315 3815 l
 cp gs col-1 s gr 
% Polyline
n 8492 3992 m 8138 3888 l 8315 3815 l
 cp gs col-1 s gr 
% Polyline
n 8138 3888 m 7785 3785 l 7961 3711 l
 cp gs col-1 s gr 
% Polyline
n 8138 3638 m 8138 3888 l 7961 3711 l
 cp gs col-1 s gr 
% Polyline
n 7432 3888 m 7432 3638 l 7609 3711 l
 cp gs col-1 s gr 
% Polyline
n 7785 3785 m 7432 3888 l 7609 3711 l
 cp gs col-1 s gr 
% Polyline
n 7432 3888 m 7078 3992 l 7255 3815 l
 cp gs col-1 s gr 
% Polyline
n 7432 3638 m 7432 3888 l 7255 3815 l
 cp gs col-1 s gr 
% Polyline
n 7785 3535 m 7432 3638 l 7609 3461 l
 cp gs col-1 s gr 
% Polyline
n 7785 3285 m 7785 3535 l 7609 3461 l
 cp gs col-1 s gr 
% Polyline
n 7785 3535 m 7785 3785 l 7609 3711 l
 cp gs col-1 s gr 
% Polyline
n 7432 3638 m 7785 3535 l 7609 3711 l
 cp gs col-1 s gr 
% Polyline
n 7785 4035 m 7403 4208 l 7594 3996 l
 cp gs col-1 s gr 
% Polyline
n 7785 3785 m 7785 4035 l 7594 3996 l
 cp gs col-1 s gr 
% Polyline
n 7432 3888 m 7785 3785 l 7594 3996 l
 cp gs col-1 s gr 
% Polyline
n 7403 4208 m 7432 3888 l 7594 3996 l
 cp gs col-1 s gr 
% Polyline
n 7182 3638 m 6862 3667 l 7074 3476 l
 cp gs col-1 s gr 
% Polyline
n 7285 3285 m 7182 3638 l 7074 3476 l
 cp gs col-1 s gr 
% Polyline
n 7035 3285 m 7285 3285 l 7074 3476 l
 cp gs col-1 s gr 
% Polyline
n 6862 3667 m 7035 3285 l 7074 3476 l
 cp gs col-1 s gr 
% Polyline
n 7535 3285 m 7432 3638 l 7359 3461 l
 cp gs col-1 s gr 
% Polyline
n 7285 3285 m 7535 3285 l 7359 3461 l
 cp gs col-1 s gr 
% Polyline
n 7535 3285 m 7785 3285 l 7609 3461 l
 cp gs col-1 s gr 
% Polyline
n 7432 3638 m 7535 3285 l 7609 3461 l
 cp gs col-1 s gr 
% Polyline
n 7182 3638 m 7432 3638 l 7255 3815 l
 cp gs col-1 s gr 
% Polyline
n 7078 3992 m 7182 3638 l 7255 3815 l
 cp gs col-1 s gr 
% Polyline
n 7182 3638 m 7285 3285 l 7359 3461 l
 cp gs col-1 s gr 
% Polyline
n 7432 3638 m 7182 3638 l 7359 3461 l
 cp gs col-1 s gr 
% Polyline
n 7182 2932 m 7432 2932 l 7359 3109 l
 cp gs col-1 s gr 
% Polyline
n 7285 3285 m 7182 2932 l 7359 3109 l
 cp gs col-1 s gr 
% Polyline
n 7182 2932 m 7078 2578 l 7255 2755 l
 cp gs col-1 s gr 
% Polyline
n 7432 2932 m 7182 2932 l 7255 2755 l
 cp gs col-1 s gr 
% Polyline
n 7535 3285 m 7432 2932 l 7609 3109 l
 cp gs col-1 s gr 
% Polyline
n 7785 3285 m 7535 3285 l 7609 3109 l
 cp gs col-1 s gr 
% Polyline
n 7535 3285 m 7285 3285 l 7359 3109 l
 cp gs col-1 s gr 
% Polyline
n 7432 2932 m 7535 3285 l 7359 3109 l
 cp gs col-1 s gr 
% Polyline
n 7035 3285 m 6862 2903 l 7074 3094 l
 cp gs col-1 s gr 
% Polyline
n 7285 3285 m 7035 3285 l 7074 3094 l
 cp gs col-1 s gr 
% Polyline
n 7182 2932 m 7285 3285 l 7074 3094 l
 cp gs col-1 s gr 
% Polyline
n 6862 2903 m 7182 2932 l 7074 3094 l
 cp gs col-1 s gr 
% Polyline
n 7432 2682 m 7403 2362 l 7594 2574 l
 cp gs col-1 s gr 
% Polyline
n 7785 2785 m 7432 2682 l 7594 2574 l
 cp gs col-1 s gr 
% Polyline
n 7785 2535 m 7785 2785 l 7594 2574 l
 cp gs col-1 s gr 
% Polyline
n 7403 2362 m 7785 2535 l 7594 2574 l
 cp gs col-1 s gr 
% Polyline
n 7785 3035 m 7432 2932 l 7609 2859 l
 cp gs col-1 s gr 
% Polyline
n 7785 2785 m 7785 3035 l 7609 2859 l
 cp gs col-1 s gr 
% Polyline
n 7785 3035 m 7785 3285 l 7609 3109 l
 cp gs col-1 s gr 
% Polyline
n 7432 2932 m 7785 3035 l 7609 3109 l
 cp gs col-1 s gr 
% Polyline
n 7432 2682 m 7432 2932 l 7255 2755 l
 cp gs col-1 s gr 
% Polyline
n 7078 2578 m 7432 2682 l 7255 2755 l
 cp gs col-1 s gr 
% Polyline
n 7432 2682 m 7785 2785 l 7609 2859 l
 cp gs col-1 s gr 
% Polyline
n 7432 2932 m 7432 2682 l 7609 2859 l
 cp gs col-1 s gr 
% Polyline
n 8138 2682 m 8138 2932 l 7961 2859 l
 cp gs col-1 s gr 
% Polyline
n 7785 2785 m 8138 2682 l 7961 2859 l
 cp gs col-1 s gr 
% Polyline
n 8138 2682 m 8492 2578 l 8315 2755 l
 cp gs col-1 s gr 
% Polyline
n 8138 2932 m 8138 2682 l 8315 2755 l
 cp gs col-1 s gr 
% Polyline
n 7785 3035 m 8138 2932 l 7961 3109 l
 cp gs col-1 s gr 
% Polyline
n 7785 3285 m 7785 3035 l 7961 3109 l
 cp gs col-1 s gr 
% Polyline
n 7785 3035 m 7785 2785 l 7961 2859 l
 cp gs col-1 s gr 
% Polyline
n 8138 2932 m 7785 3035 l 7961 2859 l
 cp gs col-1 s gr 
% Polyline
n 7785 2535 m 8167 2362 l 7976 2574 l
 cp gs col-1 s gr 
% Polyline
n 7785 2785 m 7785 2535 l 7976 2574 l
 cp gs col-1 s gr 
% Polyline
n 8138 2682 m 7785 2785 l 7976 2574 l
 cp gs col-1 s gr 
% Polyline
n 8167 2362 m 8138 2682 l 7976 2574 l
 cp gs col-1 s gr 
% Polyline
n 8388 2932 m 8708 2903 l 8496 3094 l
 cp gs col-1 s gr 
% Polyline
n 8285 3285 m 8388 2932 l 8496 3094 l
 cp gs col-1 s gr 
% Polyline
n 8535 3285 m 8285 3285 l 8496 3094 l
 cp gs col-1 s gr 
% Polyline
n 8708 2903 m 8535 3285 l 8496 3094 l
 cp gs col-1 s gr 
% Polyline
n 8035 3285 m 8138 2932 l 8211 3109 l
 cp gs col-1 s gr 
% Polyline
n 8285 3285 m 8035 3285 l 8211 3109 l
 cp gs col-1 s gr 
% Polyline
n 8035 3285 m 7785 3285 l 7961 3109 l
 cp gs col-1 s gr 
% Polyline
n 8138 2932 m 8035 3285 l 7961 3109 l
 cp gs col-1 s gr 
% Polyline
n 8388 2932 m 8138 2932 l 8315 2755 l
 cp gs col-1 s gr 
% Polyline
n 8492 2578 m 8388 2932 l 8315 2755 l
 cp gs col-1 s gr 
% Polyline
n 8388 2932 m 8285 3285 l 8211 3109 l
 cp gs col-1 s gr 
% Polyline
n 8138 2932 m 8388 2932 l 8211 3109 l
 cp gs col-1 s gr 
% Polyline
2 slj
n 8660 3285 m 8684 3285 l 8706 3285 l 8724 3285 l 8740 3285 l 8754 3285 l
 8766 3285 l 8776 3285 l 8782 3285 l 8785 3285 l 8785 3286 l
 8785 3290 l 8785 3298 l 8785 3310 l 8784 3324 l 8783 3340 l
 8782 3360 l 8780 3383 l 8777 3406 l 8775 3426 l 8772 3442 l
 8770 3456 l 8768 3467 l 8766 3476 l 8765 3479 l 8765 3480 l
 8763 3478 l 8760 3475 l 8754 3470 l 8746 3464 l 8736 3455 l
 8726 3446 l 8714 3436 l 8701 3425 l 8686 3412 l 8669 3398 l
 8650 3382 l 8631 3366 l 8614 3352 l 8599 3339 l 8586 3328 l
 8574 3318 l 8564 3309 l 8554 3301 l 8546 3294 l 8540 3289 l
 8537 3286 l 8535 3285 l 8538 3285 l 8544 3285 l 8554 3285 l
 8566 3285 l 8580 3285 l 8596 3285 l 8614 3285 l 8636 3285 l

 cp gs col32 1.00 shd ef gr gs col-1 s gr 
% Polyline
n 8621 3476 m 8609 3449 l 8598 3424 l 8588 3402 l 8579 3382 l 8571 3364 l
 8563 3348 l 8556 3333 l 8550 3319 l 8545 3307 l 8541 3298 l
 8538 3291 l 8536 3287 l 8535 3285 l 8537 3286 l 8540 3289 l
 8546 3294 l 8554 3301 l 8564 3309 l 8574 3318 l 8586 3328 l
 8599 3339 l 8614 3352 l 8631 3366 l 8650 3382 l 8669 3398 l
 8686 3412 l 8701 3425 l 8714 3436 l 8726 3446 l 8736 3455 l
 8746 3464 l 8754 3470 l 8760 3475 l 8763 3478 l 8765 3480 l
 8765 3481 l 8764 3484 l 8762 3493 l 8760 3504 l 8757 3518 l
 8753 3534 l 8748 3553 l 8741 3575 l 8734 3597 l 8728 3616 l
 8722 3631 l 8717 3644 l 8713 3655 l 8710 3663 l 8708 3666 l
 8708 3667 l 8707 3665 l 8705 3661 l 8702 3654 l 8698 3645 l
 8692 3633 l 8686 3619 l 8679 3604 l 8672 3588 l 8664 3570 l
 8654 3550 l 8644 3528 l 8633 3503 l
 cp gs col32 1.00 shd ef gr gs col-1 s gr 
% Polyline
n 8548 3653 m 8574 3655 l 8598 3657 l 8618 3659 l 8637 3661 l 8653 3662 l
 8668 3664 l 8681 3665 l 8692 3666 l 8701 3666 l 8706 3667 l
 8708 3667 l 8708 3668 l 8706 3671 l 8703 3679 l 8698 3690 l
 8692 3703 l 8685 3718 l 8677 3735 l 8666 3756 l 8655 3777 l
 8645 3794 l 8637 3808 l 8629 3819 l 8623 3829 l 8618 3836 l
 8616 3839 l 8616 3840 l 8614 3838 l 8611 3835 l 8605 3830 l
 8597 3823 l 8587 3815 l 8577 3805 l 8565 3795 l 8552 3783 l
 8537 3770 l 8521 3755 l 8502 3739 l 8483 3723 l 8467 3708 l
 8452 3695 l 8439 3683 l 8427 3673 l 8416 3663 l 8407 3655 l
 8399 3648 l 8393 3643 l 8390 3640 l 8388 3638 l 8390 3638 l
 8395 3639 l 8404 3640 l 8415 3641 l 8428 3642 l 8443 3643 l
 8459 3645 l 8478 3647 l 8498 3648 l 8522 3651 l
 cp gs col32 1.00 shd ef gr gs col-1 s gr 
% Polyline
n 8440 3815 m 8432 3786 l 8424 3760 l 8417 3737 l 8411 3717 l 8406 3699 l
 8401 3682 l 8397 3668 l 8393 3655 l 8390 3646 l 8389 3641 l
 8388 3638 l 8390 3640 l 8393 3643 l 8399 3648 l 8407 3655 l
 8417 3663 l 8427 3673 l 8439 3683 l 8452 3695 l 8467 3708 l
 8483 3723 l 8502 3739 l 8521 3755 l 8537 3770 l 8552 3783 l
 8565 3795 l 8577 3805 l 8588 3815 l 8597 3823 l 8605 3830 l
 8611 3835 l 8614 3838 l 8616 3840 l 8616 3841 l 8613 3844 l
 8609 3851 l 8602 3860 l 8594 3872 l 8585 3885 l 8573 3901 l
 8558 3919 l 8543 3937 l 8530 3952 l 8519 3964 l 8509 3974 l
 8501 3983 l 8495 3989 l 8492 3992 l 8491 3989 l 8490 3984 l
 8487 3975 l 8483 3962 l 8479 3948 l 8474 3931 l 8469 3913 l
 8463 3893 l 8456 3870 l 8448 3844 l
 cp gs col32 1.00 shd ef gr gs col-1 s gr 
% Polyline
n 8315 3940 m 8344 3948 l 8370 3956 l 8393 3963 l 8413 3969 l 8431 3974 l
 8448 3979 l 8462 3983 l 8475 3987 l 8484 3990 l 8489 3991 l
 8492 3992 l 8489 3995 l 8483 4001 l 8474 4009 l 8464 4019 l
 8452 4030 l 8437 4043 l 8419 4058 l 8401 4073 l 8385 4085 l
 8372 4094 l 8360 4102 l 8351 4109 l 8344 4113 l 8341 4116 l
 8340 4116 l 8338 4114 l 8335 4111 l 8330 4105 l 8323 4097 l
 8315 4087 l 8305 4077 l 8295 4065 l 8283 4052 l 8270 4037 l
 8255 4021 l 8239 4002 l 8223 3983 l 8208 3967 l 8195 3952 l
 8183 3939 l 8173 3927 l 8163 3916 l 8155 3907 l 8148 3899 l
 8143 3893 l 8140 3890 l 8138 3888 l 8141 3889 l 8146 3890 l
 8155 3893 l 8168 3897 l 8182 3901 l 8199 3906 l 8217 3911 l
 8237 3917 l 8260 3924 l 8286 3932 l
 cp gs col32 1.00 shd ef gr gs col-1 s gr 
% Polyline
n 8153 4048 m 8151 4022 l 8148 3998 l 8147 3978 l 8145 3959 l 8143 3943 l
 8142 3928 l 8141 3915 l 8140 3904 l 8139 3895 l 8138 3890 l
 8138 3888 l 8140 3890 l 8143 3893 l 8148 3899 l 8155 3907 l
 8163 3917 l 8173 3927 l 8183 3939 l 8195 3952 l 8208 3967 l
 8223 3983 l 8239 4002 l 8255 4021 l 8270 4037 l 8283 4052 l
 8295 4065 l 8305 4077 l 8315 4088 l 8323 4097 l 8330 4105 l
 8335 4111 l 8338 4114 l 8340 4116 l 8339 4116 l 8336 4118 l
 8329 4123 l 8319 4129 l 8308 4137 l 8294 4145 l 8277 4155 l
 8256 4166 l 8235 4177 l 8218 4185 l 8203 4192 l 8190 4198 l
 8179 4203 l 8171 4206 l 8168 4208 l 8167 4208 l 8167 4206 l
 8166 4201 l 8166 4192 l 8165 4181 l 8164 4168 l 8162 4153 l
 8161 4137 l 8159 4118 l 8157 4098 l 8155 4074 l
 cp gs col32 1.00 shd ef gr gs col-1 s gr 
% Polyline
n 7976 4121 m 8003 4133 l 8028 4144 l 8050 4154 l 8070 4164 l 8088 4172 l
 8104 4179 l 8119 4186 l 8133 4192 l 8145 4198 l 8154 4202 l
 8161 4205 l 8165 4207 l 8167 4208 l 8166 4208 l 8163 4210 l
 8155 4213 l 8144 4217 l 8131 4222 l 8116 4228 l 8097 4234 l
 8075 4241 l 8053 4248 l 8034 4253 l 8018 4257 l 8004 4260 l
 7993 4262 l 7984 4264 l 7981 4265 l 7980 4265 l 7978 4263 l
 7975 4260 l 7970 4254 l 7964 4246 l 7955 4236 l 7946 4226 l
 7936 4214 l 7925 4201 l 7912 4186 l 7898 4169 l 7882 4150 l
 7866 4131 l 7852 4114 l 7839 4099 l 7828 4086 l 7818 4074 l
 7809 4064 l 7801 4054 l 7794 4046 l 7789 4040 l 7786 4037 l
 7785 4035 l 7787 4036 l 7791 4038 l 7798 4041 l 7807 4045 l
 7819 4050 l 7833 4056 l 7848 4063 l 7864 4071 l 7882 4079 l
 7902 4088 l 7924 4098 l 7949 4109 l
 cp gs col32 1.00 shd ef gr gs col-1 s gr 
% Polyline
n 7785 4160 m 7785 4136 l 7785 4114 l 7785 4096 l 7785 4080 l 7785 4066 l
 7785 4054 l 7785 4044 l 7785 4038 l 7785 4035 l 7786 4037 l
 7789 4040 l 7794 4046 l 7801 4054 l 7809 4064 l 7818 4074 l
 7828 4086 l 7839 4099 l 7852 4114 l 7866 4131 l 7882 4150 l
 7898 4169 l 7912 4186 l 7925 4201 l 7936 4214 l 7946 4226 l
 7955 4236 l 7964 4246 l 7970 4254 l 7975 4260 l 7978 4263 l
 7980 4265 l 7979 4265 l 7976 4266 l 7967 4268 l 7956 4270 l
 7942 4272 l 7926 4275 l 7906 4277 l 7883 4280 l 7860 4282 l
 7840 4283 l 7824 4284 l 7810 4285 l 7798 4285 l 7790 4285 l
 7786 4285 l 7785 4285 l 7785 4282 l 7785 4276 l 7785 4266 l
 7785 4254 l 7785 4240 l 7785 4224 l 7785 4206 l 7785 4184 l

 cp gs col32 1.00 shd ef gr gs col-1 s gr 
% Polyline
n 7785 4160 m 7785 4184 l 7785 4206 l 7785 4224 l 7785 4240 l 7785 4254 l
 7785 4266 l 7785 4276 l 7785 4282 l 7785 4285 l 7784 4285 l
 7780 4285 l 7772 4285 l 7760 4285 l 7746 4284 l 7730 4283 l
 7710 4282 l 7687 4280 l 7664 4277 l 7644 4275 l 7628 4272 l
 7614 4270 l 7603 4268 l 7594 4266 l 7591 4265 l 7590 4265 l
 7592 4263 l 7595 4260 l 7600 4254 l 7606 4246 l 7615 4236 l
 7624 4226 l 7634 4214 l 7645 4201 l 7658 4186 l 7672 4169 l
 7688 4150 l 7704 4131 l 7718 4114 l 7731 4099 l 7742 4086 l
 7752 4074 l 7761 4064 l 7769 4054 l 7776 4046 l 7781 4040 l
 7784 4037 l 7785 4035 l 7785 4038 l 7785 4044 l 7785 4054 l
 7785 4066 l 7785 4080 l 7785 4096 l 7785 4114 l 7785 4136 l

 cp gs col32 1.00 shd ef gr gs col-1 s gr 
% Polyline
n 7594 4121 m 7621 4109 l 7646 4098 l 7668 4088 l 7688 4079 l 7706 4071 l
 7722 4063 l 7737 4056 l 7751 4050 l 7763 4045 l 7772 4041 l
 7779 4038 l 7783 4036 l 7785 4035 l 7784 4037 l 7781 4040 l
 7776 4046 l 7769 4054 l 7761 4064 l 7752 4074 l 7742 4086 l
 7731 4099 l 7718 4114 l 7704 4131 l 7688 4150 l 7672 4169 l
 7658 4186 l 7645 4201 l 7634 4214 l 7624 4226 l 7615 4236 l
 7606 4246 l 7600 4254 l 7595 4260 l 7592 4263 l 7590 4265 l
 7589 4265 l 7586 4264 l 7577 4262 l 7566 4260 l 7552 4257 l
 7536 4253 l 7517 4248 l 7495 4241 l 7473 4234 l 7454 4228 l
 7439 4222 l 7426 4217 l 7415 4213 l 7407 4210 l 7404 4208 l
 7403 4208 l 7405 4207 l 7409 4205 l 7416 4202 l 7425 4198 l
 7437 4192 l 7451 4186 l 7466 4179 l 7482 4172 l 7500 4164 l
 7520 4154 l 7542 4144 l 7567 4133 l
 cp gs col32 1.00 shd ef gr gs col-1 s gr 
% Polyline
n 7417 4048 m 7415 4074 l 7413 4098 l 7411 4118 l 7409 4137 l 7408 4153 l
 7406 4168 l 7405 4181 l 7404 4192 l 7404 4201 l 7403 4206 l
 7403 4208 l 7402 4208 l 7399 4206 l 7391 4203 l 7380 4198 l
 7367 4192 l 7352 4185 l 7335 4177 l 7314 4166 l 7293 4155 l
 7276 4145 l 7262 4137 l 7251 4129 l 7241 4123 l 7234 4118 l
 7231 4116 l 7230 4116 l 7232 4114 l 7235 4111 l 7240 4105 l
 7247 4097 l 7255 4087 l 7265 4077 l 7275 4065 l 7287 4052 l
 7300 4037 l 7315 4021 l 7331 4002 l 7347 3983 l 7362 3967 l
 7375 3952 l 7387 3939 l 7397 3927 l 7407 3916 l 7415 3907 l
 7422 3899 l 7427 3893 l 7430 3890 l 7432 3888 l 7432 3890 l
 7431 3895 l 7430 3904 l 7429 3915 l 7428 3928 l 7427 3943 l
 7425 3959 l 7423 3978 l 7422 3998 l 7419 4022 l
 cp gs col32 1.00 shd ef gr gs col-1 s gr 
% Polyline
n 7255 3940 m 7284 3932 l 7310 3924 l 7333 3917 l 7353 3911 l 7371 3906 l
 7388 3901 l 7402 3897 l 7415 3893 l 7424 3890 l 7429 3889 l
 7432 3888 l 7430 3890 l 7427 3893 l 7422 3899 l 7415 3907 l
 7407 3917 l 7397 3927 l 7387 3939 l 7375 3952 l 7362 3967 l
 7347 3983 l 7331 4002 l 7315 4021 l 7300 4037 l 7287 4052 l
 7275 4065 l 7265 4077 l 7255 4088 l 7247 4097 l 7240 4105 l
 7235 4111 l 7232 4114 l 7230 4116 l 7229 4116 l 7226 4113 l
 7219 4109 l 7210 4102 l 7198 4094 l 7185 4085 l 7169 4073 l
 7151 4058 l 7133 4043 l 7118 4030 l 7106 4019 l 7096 4009 l
 7087 4001 l 7081 3995 l 7078 3992 l 7081 3991 l 7086 3990 l
 7095 3987 l 7108 3983 l 7122 3979 l 7139 3974 l 7157 3969 l
 7177 3963 l 7200 3956 l 7226 3948 l
 cp gs col32 1.00 shd ef gr gs col-1 s gr 
% Polyline
n 7130 3815 m 7122 3844 l 7114 3870 l 7107 3893 l 7101 3913 l 7096 3931 l
 7091 3948 l 7087 3962 l 7083 3975 l 7080 3984 l 7079 3989 l
 7078 3992 l 7075 3989 l 7069 3983 l 7061 3974 l 7051 3964 l
 7040 3952 l 7027 3937 l 7012 3919 l 6997 3901 l 6985 3885 l
 6976 3872 l 6968 3860 l 6961 3851 l 6957 3844 l 6954 3841 l
 6954 3840 l 6956 3838 l 6959 3835 l 6965 3830 l 6973 3823 l
 6983 3815 l 6993 3805 l 7005 3795 l 7018 3783 l 7033 3770 l
 7049 3755 l 7068 3739 l 7087 3723 l 7103 3708 l 7118 3695 l
 7131 3683 l 7143 3673 l 7154 3663 l 7163 3655 l 7171 3648 l
 7177 3643 l 7180 3640 l 7182 3638 l 7181 3641 l 7180 3646 l
 7177 3655 l 7173 3668 l 7169 3682 l 7164 3699 l 7159 3717 l
 7153 3737 l 7146 3760 l 7138 3786 l
 cp gs col32 1.00 shd ef gr gs col-1 s gr 
% Polyline
n 7022 3653 m 7048 3651 l 7072 3648 l 7092 3647 l 7111 3645 l 7127 3643 l
 7142 3642 l 7155 3641 l 7166 3640 l 7175 3639 l 7180 3638 l
 7182 3638 l 7180 3640 l 7177 3643 l 7171 3648 l 7163 3655 l
 7153 3663 l 7143 3673 l 7131 3683 l 7118 3695 l 7103 3708 l
 7087 3723 l 7068 3739 l 7049 3755 l 7033 3770 l 7018 3783 l
 7005 3795 l 6993 3805 l 6982 3815 l 6973 3823 l 6965 3830 l
 6959 3835 l 6956 3838 l 6954 3840 l 6954 3839 l 6952 3836 l
 6947 3829 l 6941 3819 l 6933 3808 l 6925 3794 l 6915 3777 l
 6904 3756 l 6893 3735 l 6885 3718 l 6878 3703 l 6872 3690 l
 6867 3679 l 6864 3671 l 6862 3668 l 6862 3667 l 6864 3667 l
 6869 3666 l 6878 3666 l 6889 3665 l 6902 3664 l 6917 3662 l
 6933 3661 l 6952 3659 l 6972 3657 l 6996 3655 l
 cp gs col32 1.00 shd ef gr gs col-1 s gr 
% Polyline
n 6949 3476 m 6937 3503 l 6926 3528 l 6916 3550 l 6906 3570 l 6898 3588 l
 6891 3604 l 6884 3619 l 6878 3633 l 6872 3645 l 6868 3654 l
 6865 3661 l 6863 3665 l 6862 3667 l 6862 3666 l 6860 3663 l
 6857 3655 l 6853 3644 l 6848 3631 l 6842 3616 l 6836 3597 l
 6829 3575 l 6822 3553 l 6817 3534 l 6813 3518 l 6810 3504 l
 6808 3493 l 6806 3484 l 6805 3481 l 6805 3480 l 6807 3478 l
 6810 3475 l 6816 3470 l 6824 3464 l 6834 3455 l 6844 3446 l
 6856 3436 l 6869 3425 l 6884 3412 l 6901 3398 l 6920 3382 l
 6939 3366 l 6956 3352 l 6971 3339 l 6984 3328 l 6996 3318 l
 7006 3309 l 7016 3301 l 7024 3294 l 7030 3289 l 7033 3286 l
 7035 3285 l 7034 3287 l 7032 3291 l 7029 3298 l 7025 3307 l
 7020 3319 l 7014 3333 l 7007 3348 l 6999 3364 l 6991 3382 l
 6982 3402 l 6972 3424 l 6961 3449 l
 cp gs col32 1.00 shd ef gr gs col-1 s gr 
% Polyline
n 6910 3285 m 6934 3285 l 6956 3285 l 6974 3285 l 6990 3285 l 7004 3285 l
 7016 3285 l 7026 3285 l 7032 3285 l 7035 3285 l 7033 3286 l
 7030 3289 l 7024 3294 l 7016 3301 l 7006 3309 l 6996 3318 l
 6984 3328 l 6971 3339 l 6956 3352 l 6939 3366 l 6920 3382 l
 6901 3398 l 6884 3412 l 6869 3425 l 6856 3436 l 6844 3446 l
 6834 3455 l 6824 3464 l 6816 3470 l 6810 3475 l 6807 3478 l
 6805 3480 l 6805 3479 l 6804 3476 l 6802 3467 l 6800 3456 l
 6798 3442 l 6795 3426 l 6793 3406 l 6790 3383 l 6788 3360 l
 6787 3340 l 6786 3324 l 6785 3310 l 6785 3298 l 6785 3290 l
 6785 3286 l 6785 3285 l 6788 3285 l 6794 3285 l 6804 3285 l
 6816 3285 l 6830 3285 l 6846 3285 l 6864 3285 l 6886 3285 l

 cp gs col32 1.00 shd ef gr gs col-1 s gr 
% Polyline
n 6910 3285 m 6886 3285 l 6864 3285 l 6846 3285 l 6830 3285 l 6816 3285 l
 6804 3285 l 6794 3285 l 6788 3285 l 6785 3285 l 6785 3284 l
 6785 3280 l 6785 3272 l 6785 3260 l 6786 3246 l 6787 3230 l
 6788 3210 l 6790 3187 l 6793 3164 l 6795 3144 l 6798 3128 l
 6800 3114 l 6802 3103 l 6804 3094 l 6805 3091 l 6805 3090 l
 6807 3092 l 6810 3095 l 6816 3100 l 6824 3106 l 6834 3115 l
 6844 3124 l 6856 3134 l 6869 3145 l 6884 3158 l 6901 3172 l
 6920 3188 l 6939 3204 l 6956 3218 l 6971 3231 l 6984 3242 l
 6996 3252 l 7006 3261 l 7016 3269 l 7024 3276 l 7030 3281 l
 7033 3284 l 7035 3285 l 7032 3285 l 7026 3285 l 7016 3285 l
 7004 3285 l 6990 3285 l 6974 3285 l 6956 3285 l 6934 3285 l

 cp gs col32 1.00 shd ef gr gs col-1 s gr 
% Polyline
n 6949 3094 m 6961 3121 l 6972 3146 l 6982 3168 l 6991 3188 l 6999 3206 l
 7007 3222 l 7014 3237 l 7020 3251 l 7025 3263 l 7029 3272 l
 7032 3279 l 7034 3283 l 7035 3285 l 7033 3284 l 7030 3281 l
 7024 3276 l 7016 3269 l 7006 3261 l 6996 3252 l 6984 3242 l
 6971 3231 l 6956 3218 l 6939 3204 l 6920 3188 l 6901 3172 l
 6884 3158 l 6869 3145 l 6856 3134 l 6844 3124 l 6834 3115 l
 6824 3106 l 6816 3100 l 6810 3095 l 6807 3092 l 6805 3090 l
 6805 3089 l 6806 3086 l 6808 3077 l 6810 3066 l 6813 3052 l
 6817 3036 l 6822 3017 l 6829 2995 l 6836 2973 l 6842 2954 l
 6848 2939 l 6853 2926 l 6857 2915 l 6860 2907 l 6862 2904 l
 6862 2903 l 6863 2905 l 6865 2909 l 6868 2916 l 6872 2925 l
 6878 2937 l 6884 2951 l 6891 2966 l 6898 2982 l 6906 3000 l
 6916 3020 l 6926 3042 l 6937 3067 l
 cp gs col32 1.00 shd ef gr gs col-1 s gr 
% Polyline
n 7022 2917 m 6996 2915 l 6972 2913 l 6952 2911 l 6933 2909 l 6917 2908 l
 6902 2906 l 6889 2905 l 6878 2904 l 6869 2904 l 6864 2903 l
 6862 2903 l 6862 2902 l 6864 2899 l 6867 2891 l 6872 2880 l
 6878 2867 l 6885 2852 l 6893 2835 l 6904 2814 l 6915 2793 l
 6925 2776 l 6933 2762 l 6941 2751 l 6947 2741 l 6952 2734 l
 6954 2731 l 6954 2730 l 6956 2732 l 6959 2735 l 6965 2740 l
 6973 2747 l 6983 2755 l 6993 2765 l 7005 2775 l 7018 2787 l
 7033 2800 l 7049 2815 l 7068 2831 l 7087 2847 l 7103 2862 l
 7118 2875 l 7131 2887 l 7143 2897 l 7154 2907 l 7163 2915 l
 7171 2922 l 7177 2927 l 7180 2930 l 7182 2932 l 7180 2932 l
 7175 2931 l 7166 2930 l 7155 2929 l 7142 2928 l 7127 2927 l
 7111 2925 l 7092 2923 l 7072 2922 l 7048 2919 l
 cp gs col32 1.00 shd ef gr gs col-1 s gr 
% Polyline
n 7130 2755 m 7138 2784 l 7146 2810 l 7153 2833 l 7159 2853 l 7164 2871 l
 7169 2888 l 7173 2902 l 7177 2915 l 7180 2924 l 7181 2929 l
 7182 2932 l 7180 2930 l 7177 2927 l 7171 2922 l 7163 2915 l
 7153 2907 l 7143 2897 l 7131 2887 l 7118 2875 l 7103 2862 l
 7087 2847 l 7068 2831 l 7049 2815 l 7033 2800 l 7018 2787 l
 7005 2775 l 6993 2765 l 6982 2755 l 6973 2747 l 6965 2740 l
 6959 2735 l 6956 2732 l 6954 2730 l 6954 2729 l 6957 2726 l
 6961 2719 l 6968 2710 l 6976 2698 l 6985 2685 l 6997 2669 l
 7012 2651 l 7027 2633 l 7040 2618 l 7051 2606 l 7061 2596 l
 7069 2587 l 7075 2581 l 7078 2578 l 7079 2581 l 7080 2586 l
 7083 2595 l 7087 2608 l 7091 2622 l 7096 2639 l 7101 2657 l
 7107 2677 l 7114 2700 l 7122 2726 l
 cp gs col32 1.00 shd ef gr gs col-1 s gr 
% Polyline
n 7255 2630 m 7226 2622 l 7200 2614 l 7177 2607 l 7157 2601 l 7139 2596 l
 7122 2591 l 7108 2587 l 7095 2583 l 7086 2580 l 7081 2579 l
 7078 2578 l 7081 2575 l 7087 2569 l 7096 2561 l 7106 2551 l
 7118 2540 l 7133 2527 l 7151 2512 l 7169 2497 l 7185 2485 l
 7198 2476 l 7210 2468 l 7219 2461 l 7226 2457 l 7229 2454 l
 7230 2454 l 7232 2456 l 7235 2459 l 7240 2465 l 7247 2473 l
 7255 2483 l 7265 2493 l 7275 2505 l 7287 2518 l 7300 2533 l
 7315 2549 l 7331 2568 l 7347 2587 l 7362 2603 l 7375 2618 l
 7387 2631 l 7397 2643 l 7407 2654 l 7415 2663 l 7422 2671 l
 7427 2677 l 7430 2680 l 7432 2682 l 7429 2681 l 7424 2680 l
 7415 2677 l 7402 2673 l 7388 2669 l 7371 2664 l 7353 2659 l
 7333 2653 l 7310 2646 l 7284 2638 l
 cp gs col32 1.00 shd ef gr gs col-1 s gr 
% Polyline
n 7417 2522 m 7419 2548 l 7422 2572 l 7423 2592 l 7425 2611 l 7427 2627 l
 7428 2642 l 7429 2655 l 7430 2666 l 7431 2675 l 7432 2680 l
 7432 2682 l 7430 2680 l 7427 2677 l 7422 2671 l 7415 2663 l
 7407 2653 l 7397 2643 l 7387 2631 l 7375 2618 l 7362 2603 l
 7347 2587 l 7331 2568 l 7315 2549 l 7300 2533 l 7287 2518 l
 7275 2505 l 7265 2493 l 7255 2482 l 7247 2473 l 7240 2465 l
 7235 2459 l 7232 2456 l 7230 2454 l 7231 2454 l 7234 2452 l
 7241 2447 l 7251 2441 l 7262 2433 l 7276 2425 l 7293 2415 l
 7314 2404 l 7335 2393 l 7352 2385 l 7367 2378 l 7380 2372 l
 7391 2367 l 7399 2364 l 7402 2362 l 7403 2362 l 7403 2364 l
 7404 2369 l 7404 2378 l 7405 2389 l 7406 2402 l 7408 2417 l
 7409 2433 l 7411 2452 l 7413 2472 l 7415 2496 l
 cp gs col32 1.00 shd ef gr gs col-1 s gr 
% Polyline
n 7594 2449 m 7567 2437 l 7542 2426 l 7520 2416 l 7500 2406 l 7482 2398 l
 7466 2391 l 7451 2384 l 7437 2378 l 7425 2372 l 7416 2368 l
 7409 2365 l 7405 2363 l 7403 2362 l 7404 2362 l 7407 2360 l
 7415 2357 l 7426 2353 l 7439 2348 l 7454 2342 l 7473 2336 l
 7495 2329 l 7517 2322 l 7536 2317 l 7552 2313 l 7566 2310 l
 7577 2308 l 7586 2306 l 7589 2305 l 7590 2305 l 7592 2307 l
 7595 2310 l 7600 2316 l 7606 2324 l 7615 2334 l 7624 2344 l
 7634 2356 l 7645 2369 l 7658 2384 l 7672 2401 l 7688 2420 l
 7704 2439 l 7718 2456 l 7731 2471 l 7742 2484 l 7752 2496 l
 7761 2506 l 7769 2516 l 7776 2524 l 7781 2530 l 7784 2533 l
 7785 2535 l 7783 2534 l 7779 2532 l 7772 2529 l 7763 2525 l
 7751 2520 l 7737 2514 l 7722 2507 l 7706 2499 l 7688 2491 l
 7668 2482 l 7646 2472 l 7621 2461 l
 cp gs col32 1.00 shd ef gr gs col-1 s gr 
% Polyline
n 7785 2410 m 7785 2434 l 7785 2456 l 7785 2474 l 7785 2490 l 7785 2504 l
 7785 2516 l 7785 2526 l 7785 2532 l 7785 2535 l 7784 2533 l
 7781 2530 l 7776 2524 l 7769 2516 l 7761 2506 l 7752 2496 l
 7742 2484 l 7731 2471 l 7718 2456 l 7704 2439 l 7688 2420 l
 7672 2401 l 7658 2384 l 7645 2369 l 7634 2356 l 7624 2344 l
 7615 2334 l 7606 2324 l 7600 2316 l 7595 2310 l 7592 2307 l
 7590 2305 l 7591 2305 l 7594 2304 l 7603 2302 l 7614 2300 l
 7628 2298 l 7644 2295 l 7664 2293 l 7687 2290 l 7710 2288 l
 7730 2287 l 7746 2286 l 7760 2285 l 7772 2285 l 7780 2285 l
 7784 2285 l 7785 2285 l 7785 2288 l 7785 2294 l 7785 2304 l
 7785 2316 l 7785 2330 l 7785 2346 l 7785 2364 l 7785 2386 l

 cp gs col32 1.00 shd ef gr gs col-1 s gr 
% Polyline
n 7785 2410 m 7785 2386 l 7785 2364 l 7785 2346 l 7785 2330 l 7785 2316 l
 7785 2304 l 7785 2294 l 7785 2288 l 7785 2285 l 7786 2285 l
 7790 2285 l 7798 2285 l 7810 2285 l 7824 2286 l 7840 2287 l
 7860 2288 l 7883 2290 l 7906 2293 l 7926 2295 l 7942 2298 l
 7956 2300 l 7967 2302 l 7976 2304 l 7979 2305 l 7980 2305 l
 7978 2307 l 7975 2310 l 7970 2316 l 7964 2324 l 7955 2334 l
 7946 2344 l 7936 2356 l 7925 2369 l 7912 2384 l 7898 2401 l
 7882 2420 l 7866 2439 l 7852 2456 l 7839 2471 l 7828 2484 l
 7818 2496 l 7809 2506 l 7801 2516 l 7794 2524 l 7789 2530 l
 7786 2533 l 7785 2535 l 7785 2532 l 7785 2526 l 7785 2516 l
 7785 2504 l 7785 2490 l 7785 2474 l 7785 2456 l 7785 2434 l

 cp gs col32 1.00 shd ef gr gs col-1 s gr 
% Polyline
n 7976 2449 m 7949 2461 l 7924 2472 l 7902 2482 l 7882 2491 l 7864 2499 l
 7848 2507 l 7833 2514 l 7819 2520 l 7807 2525 l 7798 2529 l
 7791 2532 l 7787 2534 l 7785 2535 l 7786 2533 l 7789 2530 l
 7794 2524 l 7801 2516 l 7809 2506 l 7818 2496 l 7828 2484 l
 7839 2471 l 7852 2456 l 7866 2439 l 7882 2420 l 7898 2401 l
 7912 2384 l 7925 2369 l 7936 2356 l 7946 2344 l 7955 2334 l
 7964 2324 l 7970 2316 l 7975 2310 l 7978 2307 l 7980 2305 l
 7981 2305 l 7984 2306 l 7993 2308 l 8004 2310 l 8018 2313 l
 8034 2317 l 8053 2322 l 8075 2329 l 8097 2336 l 8116 2342 l
 8131 2348 l 8144 2353 l 8155 2357 l 8163 2360 l 8166 2362 l
 8167 2362 l 8165 2363 l 8161 2365 l 8154 2368 l 8145 2372 l
 8133 2378 l 8119 2384 l 8104 2391 l 8088 2398 l 8070 2406 l
 8050 2416 l 8028 2426 l 8003 2437 l
 cp gs col32 1.00 shd ef gr gs col-1 s gr 
% Polyline
n 8153 2522 m 8155 2496 l 8157 2472 l 8159 2452 l 8161 2433 l 8162 2417 l
 8164 2402 l 8165 2389 l 8166 2378 l 8166 2369 l 8167 2364 l
 8167 2362 l 8168 2362 l 8171 2364 l 8179 2367 l 8190 2372 l
 8203 2378 l 8218 2385 l 8235 2393 l 8256 2404 l 8277 2415 l
 8294 2425 l 8308 2433 l 8319 2441 l 8329 2447 l 8336 2452 l
 8339 2454 l 8340 2454 l 8338 2456 l 8335 2459 l 8330 2465 l
 8323 2473 l 8315 2483 l 8305 2493 l 8295 2505 l 8283 2518 l
 8270 2533 l 8255 2549 l 8239 2568 l 8223 2587 l 8208 2603 l
 8195 2618 l 8183 2631 l 8173 2643 l 8163 2654 l 8155 2663 l
 8148 2671 l 8143 2677 l 8140 2680 l 8138 2682 l 8138 2680 l
 8139 2675 l 8140 2666 l 8141 2655 l 8142 2642 l 8143 2627 l
 8145 2611 l 8147 2592 l 8148 2572 l 8151 2548 l
 cp gs col32 1.00 shd ef gr gs col-1 s gr 
% Polyline
n 8315 2630 m 8286 2638 l 8260 2646 l 8237 2653 l 8217 2659 l 8199 2664 l
 8182 2669 l 8168 2673 l 8155 2677 l 8146 2680 l 8141 2681 l
 8138 2682 l 8140 2680 l 8143 2677 l 8148 2671 l 8155 2663 l
 8163 2653 l 8173 2643 l 8183 2631 l 8195 2618 l 8208 2603 l
 8223 2587 l 8239 2568 l 8255 2549 l 8270 2533 l 8283 2518 l
 8295 2505 l 8305 2493 l 8315 2482 l 8323 2473 l 8330 2465 l
 8335 2459 l 8338 2456 l 8340 2454 l 8341 2454 l 8344 2457 l
 8351 2461 l 8360 2468 l 8372 2476 l 8385 2485 l 8401 2497 l
 8419 2512 l 8437 2527 l 8452 2540 l 8464 2551 l 8474 2561 l
 8483 2569 l 8489 2575 l 8492 2578 l 8489 2579 l 8484 2580 l
 8475 2583 l 8462 2587 l 8448 2591 l 8431 2596 l 8413 2601 l
 8393 2607 l 8370 2614 l 8344 2622 l
 cp gs col32 1.00 shd ef gr gs col-1 s gr 
% Polyline
n 8440 2755 m 8448 2726 l 8456 2700 l 8463 2677 l 8469 2657 l 8474 2639 l
 8479 2622 l 8483 2608 l 8487 2595 l 8490 2586 l 8491 2581 l
 8492 2578 l 8495 2581 l 8501 2587 l 8509 2596 l 8519 2606 l
 8530 2618 l 8543 2633 l 8558 2651 l 8573 2669 l 8585 2685 l
 8594 2698 l 8602 2710 l 8609 2719 l 8613 2726 l 8616 2729 l
 8616 2730 l 8614 2732 l 8611 2735 l 8605 2740 l 8597 2747 l
 8587 2755 l 8577 2765 l 8565 2775 l 8552 2787 l 8537 2800 l
 8521 2815 l 8502 2831 l 8483 2847 l 8467 2862 l 8452 2875 l
 8439 2887 l 8427 2897 l 8416 2907 l 8407 2915 l 8399 2922 l
 8393 2927 l 8390 2930 l 8388 2932 l 8389 2929 l 8390 2924 l
 8393 2915 l 8397 2902 l 8401 2888 l 8406 2871 l 8411 2853 l
 8417 2833 l 8424 2810 l 8432 2784 l
 cp gs col32 1.00 shd ef gr gs col-1 s gr 
% Polyline
n 8548 2917 m 8522 2919 l 8498 2922 l 8478 2923 l 8459 2925 l 8443 2927 l
 8428 2928 l 8415 2929 l 8404 2930 l 8395 2931 l 8390 2932 l
 8388 2932 l 8390 2930 l 8393 2927 l 8399 2922 l 8407 2915 l
 8417 2907 l 8427 2897 l 8439 2887 l 8452 2875 l 8467 2862 l
 8483 2847 l 8502 2831 l 8521 2815 l 8537 2800 l 8552 2787 l
 8565 2775 l 8577 2765 l 8588 2755 l 8597 2747 l 8605 2740 l
 8611 2735 l 8614 2732 l 8616 2730 l 8616 2731 l 8618 2734 l
 8623 2741 l 8629 2751 l 8637 2762 l 8645 2776 l 8655 2793 l
 8666 2814 l 8677 2835 l 8685 2852 l 8692 2867 l 8698 2880 l
 8703 2891 l 8706 2899 l 8708 2902 l 8708 2903 l 8706 2903 l
 8701 2904 l 8692 2904 l 8681 2905 l 8668 2906 l 8653 2908 l
 8637 2909 l 8618 2911 l 8598 2913 l 8574 2915 l
 cp gs col32 1.00 shd ef gr gs col-1 s gr 
% Polyline
n 8621 3094 m 8633 3067 l 8644 3042 l 8654 3020 l 8664 3000 l 8672 2982 l
 8679 2966 l 8686 2951 l 8692 2937 l 8698 2925 l 8702 2916 l
 8705 2909 l 8707 2905 l 8708 2903 l 8708 2904 l 8710 2907 l
 8713 2915 l 8717 2926 l 8722 2939 l 8728 2954 l 8734 2973 l
 8741 2995 l 8748 3017 l 8753 3036 l 8757 3052 l 8760 3066 l
 8762 3077 l 8764 3086 l 8765 3089 l 8765 3090 l 8763 3092 l
 8760 3095 l 8754 3100 l 8746 3106 l 8736 3115 l 8726 3124 l
 8714 3134 l 8701 3145 l 8686 3158 l 8669 3172 l 8650 3188 l
 8631 3204 l 8614 3218 l 8599 3231 l 8586 3242 l 8574 3252 l
 8564 3261 l 8554 3269 l 8546 3276 l 8540 3281 l 8537 3284 l
 8535 3285 l 8536 3283 l 8538 3279 l 8541 3272 l 8545 3263 l
 8550 3251 l 8556 3237 l 8563 3222 l 8571 3206 l 8579 3188 l
 8588 3168 l 8598 3146 l 8609 3121 l
 cp gs col32 1.00 shd ef gr gs col-1 s gr 
% Polyline
n 8660 3285 m 8636 3285 l 8614 3285 l 8596 3285 l 8580 3285 l 8566 3285 l
 8554 3285 l 8544 3285 l 8538 3285 l 8535 3285 l 8537 3284 l
 8540 3281 l 8546 3276 l 8554 3269 l 8564 3261 l 8574 3252 l
 8586 3242 l 8599 3231 l 8614 3218 l 8631 3204 l 8650 3188 l
 8669 3172 l 8686 3158 l 8701 3145 l 8714 3134 l 8726 3124 l
 8736 3115 l 8746 3106 l 8754 3100 l 8760 3095 l 8763 3092 l
 8765 3090 l 8765 3091 l 8766 3094 l 8768 3103 l 8770 3114 l
 8772 3128 l 8775 3144 l 8777 3164 l 8780 3187 l 8782 3210 l
 8783 3230 l 8784 3246 l 8785 3260 l 8785 3272 l 8785 3280 l
 8785 3284 l 8785 3285 l 8782 3285 l 8776 3285 l 8766 3285 l
 8754 3285 l 8740 3285 l 8724 3285 l 8706 3285 l 8684 3285 l

 cp gs col32 1.00 shd ef gr gs col-1 s gr 
% here ends figure;
$F2psEnd
rs
showpage
%%Trailer
%EOF
