%!PS-Adobe-2.0 EPSF-2.0
%%Title: sm_dpv_2d.fig
%%Creator: fig2dev Version 3.2 Patchlevel 4
%%CreationDate: Thu Dec  7 14:51:03 2006
%%For: dani@sputnik (Daniel Koester)
%%BoundingBox: 0 0 513 152
%%Magnification: 1.0000
%%EndComments
/$F2psDict 200 dict def
$F2psDict begin
$F2psDict /mtrx matrix put
/col-1 {0 setgray} bind def
/col0 {0.000 0.000 0.000 srgb} bind def
/col1 {0.000 0.000 1.000 srgb} bind def
/col2 {0.000 1.000 0.000 srgb} bind def
/col3 {0.000 1.000 1.000 srgb} bind def
/col4 {1.000 0.000 0.000 srgb} bind def
/col5 {1.000 0.000 1.000 srgb} bind def
/col6 {1.000 1.000 0.000 srgb} bind def
/col7 {1.000 1.000 1.000 srgb} bind def
/col8 {0.000 0.000 0.560 srgb} bind def
/col9 {0.000 0.000 0.690 srgb} bind def
/col10 {0.000 0.000 0.820 srgb} bind def
/col11 {0.530 0.810 1.000 srgb} bind def
/col12 {0.000 0.560 0.000 srgb} bind def
/col13 {0.000 0.690 0.000 srgb} bind def
/col14 {0.000 0.820 0.000 srgb} bind def
/col15 {0.000 0.560 0.560 srgb} bind def
/col16 {0.000 0.690 0.690 srgb} bind def
/col17 {0.000 0.820 0.820 srgb} bind def
/col18 {0.560 0.000 0.000 srgb} bind def
/col19 {0.690 0.000 0.000 srgb} bind def
/col20 {0.820 0.000 0.000 srgb} bind def
/col21 {0.560 0.000 0.560 srgb} bind def
/col22 {0.690 0.000 0.690 srgb} bind def
/col23 {0.820 0.000 0.820 srgb} bind def
/col24 {0.500 0.190 0.000 srgb} bind def
/col25 {0.630 0.250 0.000 srgb} bind def
/col26 {0.750 0.380 0.000 srgb} bind def
/col27 {1.000 0.500 0.500 srgb} bind def
/col28 {1.000 0.630 0.630 srgb} bind def
/col29 {1.000 0.750 0.750 srgb} bind def
/col30 {1.000 0.880 0.880 srgb} bind def
/col31 {1.000 0.840 0.000 srgb} bind def

end
save
newpath 0 152 moveto 0 0 lineto 513 0 lineto 513 152 lineto closepath clip newpath
0.4 151.2 translate
1 -1 scale

/cp {closepath} bind def
/ef {eofill} bind def
/gr {grestore} bind def
/gs {gsave} bind def
/sa {save} bind def
/rs {restore} bind def
/l {lineto} bind def
/m {moveto} bind def
/rm {rmoveto} bind def
/n {newpath} bind def
/s {stroke} bind def
/sh {show} bind def
/slc {setlinecap} bind def
/slj {setlinejoin} bind def
/slw {setlinewidth} bind def
/srgb {setrgbcolor} bind def
/rot {rotate} bind def
/sc {scale} bind def
/sd {setdash} bind def
/ff {findfont} bind def
/sf {setfont} bind def
/scf {scalefont} bind def
/sw {stringwidth} bind def
/tr {translate} bind def
/tnt {dup dup currentrgbcolor
  4 -2 roll dup 1 exch sub 3 -1 roll mul add
  4 -2 roll dup 1 exch sub 3 -1 roll mul add
  4 -2 roll dup 1 exch sub 3 -1 roll mul add srgb}
  bind def
/shd {dup dup currentrgbcolor 4 -2 roll mul 4 -2 roll mul
  4 -2 roll mul srgb} bind def
 /DrawEllipse {
	/endangle exch def
	/startangle exch def
	/yrad exch def
	/xrad exch def
	/y exch def
	/x exch def
	/savematrix mtrx currentmatrix def
	x y tr xrad yrad sc 0 0 1 startangle endangle arc
	closepath
	savematrix setmatrix
	} def

/$F2psBegin {$F2psDict begin /$F2psEnteredState save def} def
/$F2psEnd {$F2psEnteredState restore end} def

$F2psBegin
10 setmiterlimit
0 slj 0 slc
 0.06299 0.06299 sc
%
% Fig objects follow
%
% 
% here starts figure with depth 50
% Arc
7.500 slw
gs  clippath
2364 509 m 2308 488 l 2254 629 l 2325 528 l 2310 650 l cp
eoclip
n 3109.5 880.5 860.9 172.5 -154.7 arc
gs col4 s gr
 gr

% arrowhead
n 2310 650 m 2325 528 l 2254 629 l 2310 650 l  cp gs col4 1.00 shd ef gr  col4 s
% Arc
gs  clippath
871 385 m 813 401 l 851 547 l 850 424 l 909 532 l cp
eoclip
n -1910.8 1191.2 2865.9 -3.1 -15.9 arcn
gs col4 s gr
 gr

% arrowhead
n 909 532 m 850 424 l 851 547 l 909 532 l  cp gs col4 1.00 shd ef gr  col4 s
% Arc
gs  clippath
1485 2279 m 1539 2253 l 1472 2117 l 1499 2238 l 1418 2143 l cp
eoclip
n 1039.7 2411.2 492.4 -73.9 -18.7 arc
gs col4 s gr
 gr

% arrowhead
n 1418 2143 m 1499 2238 l 1472 2117 l 1418 2143 l  cp gs col4 1.00 shd ef gr  col4 s
% Arc
gs  clippath
2889 2284 m 2933 2243 l 2828 2133 l 2890 2241 l 2785 2175 l cp
eoclip
n 2083.5 2943.0 1069.8 -72.5 -40.2 arc
gs col4 s gr
 gr

% arrowhead
n 2785 2175 m 2890 2241 l 2828 2133 l 2785 2175 l  cp gs col4 1.00 shd ef gr  col4 s
% Arc
gs  clippath
5696 1315 m 5754 1298 l 5710 1153 l 5716 1277 l 5653 1170 l cp
eoclip
n 5101.9 1406.5 629.4 -97.8 -10.4 arc
gs col4 s gr
 gr

% arrowhead
n 5653 1170 m 5716 1277 l 5710 1153 l 5653 1170 l  cp gs col4 1.00 shd ef gr  col4 s
% Arc
gs  clippath
5801 1371 m 5747 1397 l 5813 1534 l 5788 1413 l 5867 1507 l cp
eoclip
n 5259.3 1725.5 615.9 56.3 -32.1 arcn
gs col4 s gr
 gr

% arrowhead
n 5867 1507 m 5788 1413 l 5813 1534 l 5867 1507 l  cp gs col4 1.00 shd ef gr  col4 s
% Arc
gs  clippath
6626 1434 m 6646 1491 l 6789 1441 l 6666 1453 l 6769 1384 l cp
eoclip
n 6497.2 827.1 649.4 -2.6 76.3 arc
gs col4 s gr
 gr

% arrowhead
n 6769 1384 m 6666 1453 l 6789 1441 l 6769 1384 l  cp gs col4 1.00 shd ef gr  col4 s
% Arc
gs  clippath
6761 1544 m 6726 1593 l 6849 1680 l 6769 1587 l 6884 1631 l cp
eoclip
n 6533.3 2012.3 488.1 27.5 -62.8 arcn
gs col4 s gr
 gr

% arrowhead
n 6884 1631 m 6769 1587 l 6849 1680 l 6884 1631 l  cp gs col4 1.00 shd ef gr  col4 s
% Ellipse
n 2761 728 54 54 0 360 DrawEllipse gs col2 1.00 shd ef gr gs col0 s gr

% Ellipse
n 531 753 54 54 0 360 DrawEllipse gs col2 1.00 shd ef gr gs col0 s gr

% Ellipse
n 2556 2313 54 54 0 360 DrawEllipse gs col2 1.00 shd ef gr gs col0 s gr

% Ellipse
n 1191 2313 54 54 0 360 DrawEllipse gs col2 1.00 shd ef gr gs col0 s gr

% Ellipse
n 7171 728 54 54 0 360 DrawEllipse gs col2 1.00 shd ef gr gs col0 s gr

% Ellipse
n 4941 753 54 54 0 360 DrawEllipse gs col2 1.00 shd ef gr gs col0 s gr

% Ellipse
n 6966 2313 54 54 0 360 DrawEllipse gs col2 1.00 shd ef gr gs col0 s gr

% Ellipse
n 5601 2313 54 54 0 360 DrawEllipse gs col2 1.00 shd ef gr gs col0 s gr

% Polyline
n 1416 513 m
 3216 1863 l gs col0 s gr 
% Polyline
gs  clippath
3633 1482 m 3722 1361 l 3707 1350 l 3663 1411 l 3618 1471 l cp
1898 -6 m 1809 114 l 1824 125 l 1869 65 l 1913 4 l cp
eoclip
n 1866 63 m
 3666 1413 l gs col0 s gr gr

% arrowhead
n 1913 4 m 1869 65 l 1824 125 l  col0 s
% arrowhead
n 3618 1471 m 3663 1411 l 3707 1350 l  col0 s
% Polyline
n 516 1863 m
 1416 513 l gs col0 s gr 
% Polyline
n 3216 1863 m
 516 1863 l gs col0 s gr 
% Polyline
15.000 slw
n 2181 1068 m 2301 1068 l 2301 1188 l 2181 1188 l
 cp gs col1 1.00 shd ef gr gs col0 s gr 
% Polyline
n 906 1113 m 1026 1113 l 1026 1233 l 906 1233 l
 cp gs col1 1.00 shd ef gr gs col0 s gr 
% Polyline
7.500 slw
gs  clippath
1036 92 m 911 8 l 901 24 l 964 66 l 1026 107 l cp
-4 1383 m 120 1467 l 130 1451 l 68 1410 l 5 1368 l cp
eoclip
n 66 1413 m
 966 63 l gs col0 s gr gr

% arrowhead
n 5 1368 m 68 1410 l 130 1451 l  col0 s
% arrowhead
n 1026 107 m 964 66 l 901 24 l  col0 s
% Polyline
n 1416 513 m
 1866 1863 l gs col0 s gr 
% Polyline
15.000 slw
n 1131 1803 m 1251 1803 l 1251 1923 l 1131 1923 l
 cp gs col1 1.00 shd ef gr gs col0 s gr 
% Polyline
n 2256 1803 m 2376 1803 l 2376 1923 l 2256 1923 l
 cp gs col1 1.00 shd ef gr gs col0 s gr 
% Polyline
n 1596 1158 m 1716 1158 l 1716 1278 l 1596 1278 l
 cp gs col1 1.00 shd ef gr gs col0 s gr 
% Polyline
7.500 slw
gs  clippath
3231 2388 m 3231 2238 l 3212 2238 l 3212 2313 l 3212 2388 l cp
1851 2238 m 1851 2388 l 1870 2388 l 1870 2313 l 1870 2238 l cp
eoclip
n 1866 2313 m
 3216 2313 l gs col0 s gr gr

% arrowhead
n 1870 2238 m 1870 2313 l 1870 2388 l  col0 s
% arrowhead
n 3212 2388 m 3212 2313 l 3212 2238 l  col0 s
% Polyline
gs  clippath
1881 2388 m 1881 2238 l 1862 2238 l 1862 2313 l 1862 2388 l cp
501 2238 m 501 2388 l 520 2388 l 520 2313 l 520 2238 l cp
eoclip
n 516 2313 m
 1866 2313 l gs col0 s gr gr

% arrowhead
n 520 2238 m 520 2313 l 520 2388 l  col0 s
% arrowhead
n 1862 2388 m 1862 2313 l 1862 2238 l  col0 s
% Polyline
n 5826 513 m
 7626 1863 l gs col0 s gr 
% Polyline
gs  clippath
8043 1482 m 8132 1361 l 8117 1350 l 8073 1411 l 8028 1471 l cp
6308 -6 m 6219 114 l 6234 125 l 6279 65 l 6323 4 l cp
eoclip
n 6276 63 m
 8076 1413 l gs col0 s gr gr

% arrowhead
n 6323 4 m 6279 65 l 6234 125 l  col0 s
% arrowhead
n 8028 1471 m 8073 1411 l 8117 1350 l  col0 s
% Polyline
n 4926 1863 m
 5826 513 l gs col0 s gr 
% Polyline
n 7626 1863 m
 4926 1863 l gs col0 s gr 
% Polyline
15.000 slw
n 6591 1068 m 6711 1068 l 6711 1188 l 6591 1188 l
 cp gs col1 1.00 shd ef gr gs col0 s gr 
% Polyline
n 5316 1113 m 5436 1113 l 5436 1233 l 5316 1233 l
 cp gs col1 1.00 shd ef gr gs col0 s gr 
% Polyline
7.500 slw
gs  clippath
5446 92 m 5321 8 l 5311 24 l 5374 66 l 5436 107 l cp
4405 1383 m 4530 1467 l 4540 1451 l 4478 1410 l 4415 1368 l cp
eoclip
n 4476 1413 m
 5376 63 l gs col0 s gr gr

% arrowhead
n 4415 1368 m 4478 1410 l 4540 1451 l  col0 s
% arrowhead
n 5436 107 m 5374 66 l 5311 24 l  col0 s
% Polyline
n 5826 513 m
 6276 1863 l gs col0 s gr 
% Polyline
15.000 slw
n 5541 1803 m 5661 1803 l 5661 1923 l 5541 1923 l
 cp gs col1 1.00 shd ef gr gs col0 s gr 
% Polyline
n 6666 1803 m 6786 1803 l 6786 1923 l 6666 1923 l
 cp gs col1 1.00 shd ef gr gs col0 s gr 
% Polyline
n 6006 1158 m 6126 1158 l 6126 1278 l 6006 1278 l
 cp gs col1 1.00 shd ef gr gs col0 s gr 
% Polyline
7.500 slw
gs  clippath
7641 2388 m 7641 2238 l 7622 2238 l 7622 2313 l 7622 2388 l cp
6261 2238 m 6261 2388 l 6280 2388 l 6280 2313 l 6280 2238 l cp
eoclip
n 6276 2313 m
 7626 2313 l gs col0 s gr gr

% arrowhead
n 6280 2238 m 6280 2313 l 6280 2388 l  col0 s
% arrowhead
n 7622 2388 m 7622 2313 l 7622 2238 l  col0 s
% Polyline
gs  clippath
6291 2388 m 6291 2238 l 6272 2238 l 6272 2313 l 6272 2388 l cp
4911 2238 m 4911 2388 l 4930 2388 l 4930 2313 l 4930 2238 l cp
eoclip
n 4926 2313 m
 6276 2313 l gs col0 s gr gr

% arrowhead
n 4930 2238 m 4930 2313 l 4930 2388 l  col0 s
% arrowhead
n 6272 2388 m 6272 2313 l 6272 2238 l  col0 s
/Courier ff 180.00 scf sf
1260 1485 m
gs 1 -1 sc (nil) col4 sh gr
% here ends figure;
$F2psEnd
rs
showpage
