%!PS-Adobe-2.0 EPSF-2.0
%%Title: submesh_refinement.fig
%%Creator: fig2dev Version 3.2 Patchlevel 4
%%CreationDate: Fri Dec  8 18:20:37 2006
%%For: dani@sputnik (Daniel Koester)
%%BoundingBox: 0 0 495 219
%%Magnification: 1.0000
%%EndComments
/$F2psDict 200 dict def
$F2psDict begin
$F2psDict /mtrx matrix put
/col-1 {0 setgray} bind def
/col0 {0.000 0.000 0.000 srgb} bind def
/col1 {0.000 0.000 1.000 srgb} bind def
/col2 {0.000 1.000 0.000 srgb} bind def
/col3 {0.000 1.000 1.000 srgb} bind def
/col4 {1.000 0.000 0.000 srgb} bind def
/col5 {1.000 0.000 1.000 srgb} bind def
/col6 {1.000 1.000 0.000 srgb} bind def
/col7 {1.000 1.000 1.000 srgb} bind def
/col8 {0.000 0.000 0.560 srgb} bind def
/col9 {0.000 0.000 0.690 srgb} bind def
/col10 {0.000 0.000 0.820 srgb} bind def
/col11 {0.530 0.810 1.000 srgb} bind def
/col12 {0.000 0.560 0.000 srgb} bind def
/col13 {0.000 0.690 0.000 srgb} bind def
/col14 {0.000 0.820 0.000 srgb} bind def
/col15 {0.000 0.560 0.560 srgb} bind def
/col16 {0.000 0.690 0.690 srgb} bind def
/col17 {0.000 0.820 0.820 srgb} bind def
/col18 {0.560 0.000 0.000 srgb} bind def
/col19 {0.690 0.000 0.000 srgb} bind def
/col20 {0.820 0.000 0.000 srgb} bind def
/col21 {0.560 0.000 0.560 srgb} bind def
/col22 {0.690 0.000 0.690 srgb} bind def
/col23 {0.820 0.000 0.820 srgb} bind def
/col24 {0.500 0.190 0.000 srgb} bind def
/col25 {0.630 0.250 0.000 srgb} bind def
/col26 {0.750 0.380 0.000 srgb} bind def
/col27 {1.000 0.500 0.500 srgb} bind def
/col28 {1.000 0.630 0.630 srgb} bind def
/col29 {1.000 0.750 0.750 srgb} bind def
/col30 {1.000 0.880 0.880 srgb} bind def
/col31 {1.000 0.840 0.000 srgb} bind def

end
save
newpath 0 219 moveto 0 0 lineto 495 0 lineto 495 219 lineto closepath clip newpath
-118.3 433.5 translate
1 -1 scale

/cp {closepath} bind def
/ef {eofill} bind def
/gr {grestore} bind def
/gs {gsave} bind def
/sa {save} bind def
/rs {restore} bind def
/l {lineto} bind def
/m {moveto} bind def
/rm {rmoveto} bind def
/n {newpath} bind def
/s {stroke} bind def
/sh {show} bind def
/slc {setlinecap} bind def
/slj {setlinejoin} bind def
/slw {setlinewidth} bind def
/srgb {setrgbcolor} bind def
/rot {rotate} bind def
/sc {scale} bind def
/sd {setdash} bind def
/ff {findfont} bind def
/sf {setfont} bind def
/scf {scalefont} bind def
/sw {stringwidth} bind def
/tr {translate} bind def
/tnt {dup dup currentrgbcolor
  4 -2 roll dup 1 exch sub 3 -1 roll mul add
  4 -2 roll dup 1 exch sub 3 -1 roll mul add
  4 -2 roll dup 1 exch sub 3 -1 roll mul add srgb}
  bind def
/shd {dup dup currentrgbcolor 4 -2 roll mul 4 -2 roll mul
  4 -2 roll mul srgb} bind def
/$F2psBegin {$F2psDict begin /$F2psEnteredState save def} def
/$F2psEnd {$F2psEnteredState restore end} def

$F2psBegin
10 setmiterlimit
0 slj 0 slc
 0.06299 0.06299 sc
%
% Fig objects follow
%
% 
% here starts figure with depth 50
% Polyline
7.500 slw
n 2160 6210 m 4320 6210 l 4320 6750 l 2160 6750 l
 cp gs col0 s gr 
% Polyline
n 5760 4320 m 9630 4320 l 9630 5580 l 5760 5580 l
 cp gs col0 s gr 
% Polyline
n 2265 4320 m 2160 4320 2160 4485 105 arcto 4 {pop} repeat
  2160 4590 3855 4590 105 arcto 4 {pop} repeat
  3960 4590 3960 4425 105 arcto 4 {pop} repeat
  3960 4320 2265 4320 105 arcto 4 {pop} repeat
 cp gs col0 s gr 
% Polyline
n 5760 6120 m 7920 6120 l 7920 6570 l 5760 6570 l
 cp gs col2 1.00 shd ef gr gs col0 s gr 
% Polyline
n 2160 3420 m 3960 3420 l 3960 3870 l 2160 3870 l
 cp gs col1 1.00 shd ef gr gs col0 s gr 
% Polyline
gs  clippath
2850 4335 m 2910 4335 l 2910 4184 l 2880 4304 l 2850 4184 l cp
eoclip
n 2880 3870 m
 2880 4320 l gs col0 s gr gr

% arrowhead
n 2850 4184 m 2880 4304 l 2910 4184 l 2850 4184 l  cp gs 0.00 setgray ef gr  col0 s
% Polyline
gs  clippath
2850 5235 m 2910 5235 l 2910 5084 l 2880 5204 l 2850 5084 l cp
eoclip
n 2880 4590 m
 2880 5220 l gs col0 s gr gr

% arrowhead
n 2850 5084 m 2880 5204 l 2910 5084 l 2850 5084 l  cp gs 0.00 setgray ef gr  col0 s
% Polyline
gs  clippath
2850 6225 m 2910 6225 l 2910 6074 l 2880 6194 l 2850 6074 l cp
eoclip
n 2880 5850 m
 2880 6210 l gs col0 s gr gr

% arrowhead
n 2850 6074 m 2880 6194 l 2910 6074 l 2850 6074 l  cp gs 0.00 setgray ef gr  col0 s
% Polyline
gs  clippath
2175 4440 m 2175 4380 l 2024 4380 l 2144 4410 l 2024 4440 l cp
eoclip
n 2160 6480 m 1890 6480 l 1890 4410 l
 2160 4410 l gs col0 s gr gr

% arrowhead
n 2024 4440 m 2144 4410 l 2024 4380 l 2024 4440 l  cp gs 0.00 setgray ef gr  col0 s
% Polyline
gs  clippath
5785 3621 m 5761 3566 l 5623 3628 l 5745 3607 l 5647 3683 l cp
eoclip
n 3960 4410 m
 5760 3600 l gs col0 s gr gr

% arrowhead
n 5647 3683 m 5745 3607 l 5623 3628 l 5647 3683 l  cp gs 0.00 setgray ef gr  col0 s
% Polyline
gs  clippath
6630 4335 m 6690 4335 l 6690 4184 l 6660 4304 l 6630 4184 l cp
eoclip
n 6660 3915 m
 6660 4320 l gs col0 s gr gr

% arrowhead
n 6630 4184 m 6660 4304 l 6690 4184 l 6630 4184 l  cp gs 0.00 setgray ef gr  col0 s
% Polyline
gs  clippath
6630 6135 m 6690 6135 l 6690 5984 l 6660 6104 l 6630 5984 l cp
eoclip
n 6660 5580 m
 6660 6120 l gs col0 s gr gr

% arrowhead
n 6630 5984 m 6660 6104 l 6690 5984 l 6630 5984 l  cp gs 0.00 setgray ef gr  col0 s
% Polyline
gs  clippath
9735 6870 m 9735 6810 l 9584 6810 l 9704 6840 l 9584 6870 l cp
eoclip
n 1890 6840 m
 9720 6840 l gs col7 s gr gr

% arrowhead
n 9584 6870 m 9704 6840 l 9584 6810 l 9584 6870 l  cp gs col7 1.00 shd ef gr  col7 s
% Polyline
n 2160 5220 m 5220 5220 l 5220 5850 l 2160 5850 l
 cp gs col0 s gr 
% Polyline
n 5760 3420 m 7830 3420 l 7830 3915 l 5760 3915 l
 cp gs col0 s gr 
/Times-Roman ff 180.00 scf sf
2250 5790 m
gs 1 -1 sc (\(use master_binding!\)) col0 sh gr
/Times-Roman ff 180.00 scf sf
2250 3795 m
gs 1 -1 sc (refinement of A) col7 sh gr
/Times-Roman ff 180.00 scf sf
2250 6450 m
gs 1 -1 sc (pass control to) col0 sh gr
/Times-Roman ff 180.00 scf sf
2250 6645 m
gs 1 -1 sc (refine\(master\(A\)\)) col0 sh gr
/Times-Roman ff 180.00 scf sf
5850 5085 m
gs 1 -1 sc (The routine refines the slave mesh.) col0 sh gr
/Times-Roman ff 180.00 scf sf
2250 3600 m
gs 1 -1 sc (User asks for) col7 sh gr
/Times-Roman ff 180.00 scf sf
2250 4500 m
gs 1 -1 sc (Is A a submesh?) col0 sh gr
/Times-Roman ff 180.00 scf sf
4560 4305 m
gs 1 -1 sc (NO) col4 sh gr
/Times-Roman ff 180.00 scf sf
3000 4920 m
gs 1 -1 sc (YES) col4 sh gr
/Times-Roman ff 180.00 scf sf
2250 5400 m
gs 1 -1 sc (Transfer refinement marking of A) col0 sh gr
/Times-Roman ff 180.00 scf sf
2250 5595 m
gs 1 -1 sc (to corresponding master elements.) col0 sh gr
/Times-Roman ff 180.00 scf sf
5850 3600 m
gs 1 -1 sc (Perform normal) col0 sh gr
/Times-Roman ff 180.00 scf sf
5850 3795 m
gs 1 -1 sc (refinement loop.) col0 sh gr
/Times-Roman ff 180.00 scf sf
5850 4500 m
gs 1 -1 sc (Since slave_binding has an entry) col0 sh gr
/Times-Roman ff 180.00 scf sf
5850 4695 m
gs 1 -1 sc (for interpolation the interpolation) col0 sh gr
/Times-Roman ff 180.00 scf sf
5850 4890 m
gs 1 -1 sc (routine is called for each patch.) col0 sh gr
/Times-Roman ff 180.00 scf sf
5850 5475 m
gs 1 -1 sc (jumping down through the dimensions.) col0 sh gr
/Times-Roman ff 180.00 scf sf
5850 6300 m
gs 1 -1 sc (DONE, pass control) col0 sh gr
/Times-Roman ff 180.00 scf sf
5850 6495 m
gs 1 -1 sc (back to the user.) col0 sh gr
/Times-Roman ff 180.00 scf sf
5850 5280 m
gs 1 -1 sc (In a hierarchy this implies) col0 sh gr
% here ends figure;
$F2psEnd
rs
showpage
