#FIG 3.2
Portrait
Center
Metric
A4      
100.00
Single
-2
1200 2
2 2 0 1 0 0 50 0 -1 0.000 0 0 -1 0 0 5
	 2160 6210 4320 6210 4320 6750 2160 6750 2160 6210
2 2 0 1 0 0 50 0 -1 0.000 0 0 -1 0 0 5
	 5760 4320 9630 4320 9630 5580 5760 5580 5760 4320
2 4 0 1 0 0 50 0 -1 0.000 0 0 7 0 0 5
	 3960 4590 3960 4320 2160 4320 2160 4590 3960 4590
2 2 0 1 0 2 50 0 20 0.000 0 0 -1 0 0 5
	 5760 6120 7920 6120 7920 6570 5760 6570 5760 6120
2 2 0 1 0 1 50 0 20 0.000 0 0 -1 0 0 5
	 2160 3420 3960 3420 3960 3870 2160 3870 2160 3420
2 1 0 1 0 0 50 0 -1 0.000 0 0 -1 1 0 2
	1 1 1.00 60.00 120.00
	 2880 3870 2880 4320
2 1 0 1 0 0 50 0 -1 0.000 0 0 -1 1 0 2
	1 1 1.00 60.00 120.00
	 2880 4590 2880 5220
2 1 0 1 0 0 50 0 -1 0.000 0 0 -1 1 0 2
	1 1 1.00 60.00 120.00
	 2880 5850 2880 6210
2 1 0 1 0 0 50 0 -1 0.000 0 0 -1 1 0 4
	1 1 1.00 60.00 120.00
	 2160 6480 1890 6480 1890 4410 2160 4410
2 1 0 1 0 0 50 0 -1 0.000 0 0 -1 1 0 2
	1 1 1.00 60.00 120.00
	 3960 4410 5760 3600
2 1 0 1 0 0 50 0 -1 0.000 0 0 -1 1 0 2
	1 1 1.00 60.00 120.00
	 6660 3915 6660 4320
2 1 0 1 0 0 50 0 -1 0.000 0 0 -1 1 0 2
	1 1 1.00 60.00 120.00
	 6660 5580 6660 6120
2 1 0 1 7 0 50 0 -1 0.000 0 0 -1 1 0 2
	1 1 1.00 60.00 120.00
	 1890 6840 9720 6840
2 2 0 1 0 0 50 0 -1 0.000 0 0 -1 0 0 5
	 2160 5220 5220 5220 5220 5850 2160 5850 2160 5220
2 2 0 1 0 0 50 0 -1 0.000 0 0 -1 0 0 5
	 5760 3420 7830 3420 7830 3915 5760 3915 5760 3420
4 0 0 50 0 0 12 0.0000 0 165 1560 2250 5790 (use master_binding!)\001
4 0 7 50 0 0 12 0.0000 0 105 1125 2250 3795 refinement of A\001
4 0 0 50 0 0 12 0.0000 0 165 1035 2250 6450 pass control to\001
4 0 0 50 0 0 12 0.0000 0 150 1245 2250 6645 refine(master(A))\001
4 0 0 50 0 0 12 0.0000 0 120 2460 5850 5085 The routine refines the slave mesh.\001
4 0 7 50 0 0 12 0.0000 0 120 960 2250 3600 User asks for\001
4 0 0 50 0 0 12 0.0000 0 105 1185 2250 4500 Is A a submesh?\001
4 0 4 50 0 0 12 0.0000 0 105 270 4560 4305 NO\001
4 0 4 50 0 0 12 0.0000 0 105 345 3000 4920 YES\001
4 0 0 50 0 0 12 0.0000 0 165 2400 2250 5400 Transfer refinement marking of A\001
4 0 0 50 0 0 12 0.0000 0 165 2415 2250 5595 to corresponding master elements.\001
4 0 0 50 0 0 12 0.0000 0 120 1125 5850 3600 Perform normal\001
4 0 0 50 0 0 12 0.0000 0 165 1155 5850 3795 refinement loop.\001
4 0 0 50 0 0 12 0.0000 0 165 2325 5850 4500 Since slave_binding has an entry\001
4 0 0 50 0 0 12 0.0000 0 165 2325 5850 4695 for interpolation the interpolation\001
4 0 0 50 0 0 12 0.0000 0 165 2190 5850 4890 routine is called for each patch.\001
4 0 0 50 0 0 12 0.0000 0 150 2790 5850 5475 jumping down through the dimensions.\001
4 0 0 50 0 0 12 0.0000 0 165 1455 5850 6300 DONE, pass control\001
4 0 0 50 0 0 12 0.0000 0 120 1155 5850 6495 back to the user.\001
4 0 0 50 0 0 12 0.0000 0 165 1830 5850 5280 In a hierarchy this implies\001
