%!PS-Adobe-3.0 EPSF-3.0
%%BoundingBox: (atend)
%%LanguageLevel: 2
%%Creator: Grace-5.1.8
%%CreationDate: Wed Mar 26 11:14:49 2003
%%DocumentData: Clean8Bit
%%Orientation: Portrait
%%Title: tau-2d.agr
%%For: kgs
%%DocumentNeededResources: (atend)
%%EndComments
%%BeginProlog
/m {moveto} def
/l {lineto} def
/s {stroke} def
/n {newpath} def
/c {closepath} def
/RL {rlineto} def
/SLW {setlinewidth} def
/GS {gsave} def
/GR {grestore} def
/SC {setcolor} def
/SGRY {setgray} def
/SRGB {setrgbcolor} def
/SD {setdash} def
/SLC {setlinecap} def
/SLJ {setlinejoin} def
/SCS {setcolorspace} def
/FFSF {findfont setfont} def
/CC {concat} def
/PXL {n m 0 0 RL s} def
/Color0 {1.0000 1.0000 1.0000} def
/Color1 {0.0000 0.0000 0.0000} def
/Color2 {1.0000 0.0000 0.0000} def
/Color3 {0.0000 1.0000 0.0000} def
/Color4 {0.0000 0.0000 1.0000} def
/Color5 {1.0000 1.0000 0.0000} def
/Color6 {0.7373 0.5608 0.5608} def
/Color7 {0.8627 0.8627 0.8627} def
/Color8 {0.5804 0.0000 0.8275} def
/Color9 {0.0000 1.0000 1.0000} def
/Color10 {1.0000 0.0000 1.0000} def
/Color11 {1.0000 0.6471 0.0000} def
/Color12 {0.4471 0.1294 0.7373} def
/Color13 {0.4039 0.0275 0.2824} def
/Color14 {0.2510 0.8784 0.8157} def
/Color15 {0.0000 0.5451 0.0000} def
/Color16 {0.7529 0.7529 0.7529} def
/Color17 {0.5059 0.5059 0.5059} def
/Color18 {0.2588 0.2588 0.2588} def
/PTRN {
 /pat_bits exch def 
 <<
  /PaintType 2
  /PatternType 1 /TilingType 1
  /BBox[0 0 16 16]
  /XStep 16 /YStep 16
  /PaintProc {
   pop
   16 16 true [-1 0 0 -1 16 16] pat_bits imagemask
  }
 >>
 [0.0017 0 0 0.0017 0 0]
 makepattern
} def
/Pattern0 {<0000000000000000000000000000000000000000000000000000000000000000> PTRN} bind def
/Pattern1 {<ffffffffffffffffffffffffffffffffffffffffffffffffffffffffffffffff> PTRN} bind def
/Pattern2 {<eeeeffffbbbbffffeeeeffffbbbbffffeeeeffffbbbbffffeeeeffffbbbbffff> PTRN} bind def
/Pattern3 {<eeeebbbbeeeebbbbeeeebbbbeeeebbbbeeeebbbbeeeebbbbeeeebbbbeeeebbbb> PTRN} bind def
/Pattern4 {<5555aaaa5555aaaa5555aaaa5555aaaa5555aaaa5555aaaa5555aaaa5555aaaa> PTRN} bind def
/Pattern5 {<1111444411114444111144441111444411114444111144441111444411114444> PTRN} bind def
/Pattern6 {<1111000044440000111100004444000011110000444400001111000044440000> PTRN} bind def
/Pattern7 {<1010000000000000010100000000000010100000000000000101000000000000> PTRN} bind def
/Pattern8 {<0000000000000000000000000000000000000000000000000000000000000000> PTRN} bind def
/Pattern9 {<1e1e0f0f8787c3c3e1e1f0f078783c3c1e1e0f0f8787c3c3e1e1f0f078783c3c> PTRN} bind def
/Pattern10 {<7878f0f0e1e1c3c387870f0f1e1e3c3c7878f0f0e1e1c3c387870f0f1e1e3c3c> PTRN} bind def
/Pattern11 {<3333333333333333333333333333333333333333333333333333333333333333> PTRN} bind def
/Pattern12 {<ffffffff00000000ffffffff00000000ffffffff00000000ffffffff00000000> PTRN} bind def
/Pattern13 {<8181424224241818181824244242818181814242242418181818242442428181> PTRN} bind def
/Pattern14 {<8080404020201010080804040202010180804040202010100808040402020101> PTRN} bind def
/Pattern15 {<0101020204040808101020204040808001010202040408081010202040408080> PTRN} bind def
/Pattern16 {<2222222222222222222222222222222222222222222222222222222222222222> PTRN} bind def
/Pattern17 {<0000ffff000000000000ffff000000000000ffff000000000000ffff00000000> PTRN} bind def
/Pattern18 {<2222ffff222222222222ffff222222222222ffff222222222222ffff22222222> PTRN} bind def
/Pattern19 {<ffffffff33333333ffffffff33333333ffffffff33333333ffffffff33333333> PTRN} bind def
/Pattern20 {<0f0f0f0f0f0f0f0ff0f0f0f0f0f0f0f00f0f0f0f0f0f0f0ff0f0f0f0f0f0f0f0> PTRN} bind def
/Pattern21 {<ff00ff00ff00ff00ff00ff00ff00ff0000ff00ff00ff00ff00ff00ff00ff00ff> PTRN} bind def
/Pattern22 {<8001800180018001800180018001ffffffff8001800180018001800180018001> PTRN} bind def
/Pattern23 {<c003c003c003c003c003c003ffffffffffffffffc003c003c003c003c003c003> PTRN} bind def
/Pattern24 {<040404040404ffff404040404040ffff040404040404ffff404040404040ffff> PTRN} bind def
/Pattern25 {<180018001800180018001800ffffffff001800180018001800180018ffffffff> PTRN} bind def
/Pattern26 {<1111b8b87c7c3a3a1111a3a3c7c78b8b1111b8b87c7c3a3a1111a3a3c7c78b8b> PTRN} bind def
/Pattern27 {<101010102828c7c70101010182827c7c101010102828c7c70101010182827c7c> PTRN} bind def
/Pattern28 {<1c1c121211112121c1c12121111112121c1c121211112121c1c1212111111212> PTRN} bind def
/Pattern29 {<3e3e414180808080e3e31414080808083e3e414180808080e3e3141408080808> PTRN} bind def
/Pattern30 {<4848888884848383848488884848383848488888848483838484888848483838> PTRN} bind def
/Pattern31 {<03030404080808080c0c12122121c0c003030404080808080c0c12122121c0c0> PTRN} bind def
/ellipsedict 8 dict def
ellipsedict /mtrx matrix put
/EARC {
 ellipsedict begin
  /endangle exch def
  /startangle exch def
  /yrad exch def
  /xrad exch def
  /y exch def
  /x exch def
  /savematrix mtrx currentmatrix def
  x y translate
  xrad yrad scale
  0 0 1 startangle endangle arc
  savematrix setmatrix
 end
} def
/TL {
  /kcomp exch def
  /linewidth exch def
  /offset exch def
  GS
  0 offset rmoveto
  linewidth SLW
  dup stringwidth exch kcomp add exch RL s
  GR
} def
/KINIT
{
 /kvector exch def
 /kid 0 def
} def
/KPROC
{
 pop pop
 kvector kid get
 0 rmoveto
 /kid 1 kid add def
} def
/DefEncoding [
 /.notdef
 /.notdef
 /.notdef
 /.notdef
 /.notdef
 /.notdef
 /.notdef
 /.notdef
 /.notdef
 /.notdef
 /.notdef
 /.notdef
 /.notdef
 /.notdef
 /.notdef
 /.notdef
 /.notdef
 /.notdef
 /.notdef
 /.notdef
 /.notdef
 /.notdef
 /.notdef
 /.notdef
 /.notdef
 /.notdef
 /.notdef
 /.notdef
 /.notdef
 /.notdef
 /.notdef
 /.notdef
 /space
 /exclam
 /quotedbl
 /numbersign
 /dollar
 /percent
 /ampersand
 /quoteright
 /parenleft
 /parenright
 /asterisk
 /plus
 /comma
 /hyphen
 /period
 /slash
 /zero
 /one
 /two
 /three
 /four
 /five
 /six
 /seven
 /eight
 /nine
 /colon
 /semicolon
 /less
 /equal
 /greater
 /question
 /at
 /A
 /B
 /C
 /D
 /E
 /F
 /G
 /H
 /I
 /J
 /K
 /L
 /M
 /N
 /O
 /P
 /Q
 /R
 /S
 /T
 /U
 /V
 /W
 /X
 /Y
 /Z
 /bracketleft
 /backslash
 /bracketright
 /asciicircum
 /underscore
 /grave
 /a
 /b
 /c
 /d
 /e
 /f
 /g
 /h
 /i
 /j
 /k
 /l
 /m
 /n
 /o
 /p
 /q
 /r
 /s
 /t
 /u
 /v
 /w
 /x
 /y
 /z
 /braceleft
 /bar
 /braceright
 /asciitilde
 /.notdef
 /.notdef
 /.notdef
 /.notdef
 /.notdef
 /.notdef
 /.notdef
 /.notdef
 /.notdef
 /.notdef
 /.notdef
 /.notdef
 /.notdef
 /.notdef
 /.notdef
 /.notdef
 /.notdef
 /dotlessi
 /grave
 /acute
 /circumflex
 /tilde
 /macron
 /breve
 /dotaccent
 /dieresis
 /.notdef
 /ring
 /cedilla
 /.notdef
 /hungarumlaut
 /ogonek
 /caron
 /space
 /exclamdown
 /cent
 /sterling
 /currency
 /yen
 /brokenbar
 /section
 /dieresis
 /copyright
 /ordfeminine
 /guillemotleft
 /logicalnot
 /hyphen
 /registered
 /macron
 /degree
 /plusminus
 /twosuperior
 /threesuperior
 /acute
 /mu
 /paragraph
 /periodcentered
 /cedilla
 /onesuperior
 /ordmasculine
 /guillemotright
 /onequarter
 /onehalf
 /threequarters
 /questiondown
 /Agrave
 /Aacute
 /Acircumflex
 /Atilde
 /Adieresis
 /Aring
 /AE
 /Ccedilla
 /Egrave
 /Eacute
 /Ecircumflex
 /Edieresis
 /Igrave
 /Iacute
 /Icircumflex
 /Idieresis
 /Eth
 /Ntilde
 /Ograve
 /Oacute
 /Ocircumflex
 /Otilde
 /Odieresis
 /multiply
 /Oslash
 /Ugrave
 /Uacute
 /Ucircumflex
 /Udieresis
 /Yacute
 /Thorn
 /germandbls
 /agrave
 /aacute
 /acircumflex
 /atilde
 /adieresis
 /aring
 /ae
 /ccedilla
 /egrave
 /eacute
 /ecircumflex
 /edieresis
 /igrave
 /iacute
 /icircumflex
 /idieresis
 /eth
 /ntilde
 /ograve
 /oacute
 /ocircumflex
 /otilde
 /odieresis
 /divide
 /oslash
 /ugrave
 /uacute
 /ucircumflex
 /udieresis
 /yacute
 /thorn
 /ydieresis
] def
%%EndProlog
%%BeginSetup
592.80 592.80 scale
%%EndSetup
[/DeviceRGB] SCS
Color1 SC
[] 0 SD
0.0015 SLW
0 SLC
0 SLJ
n
0.1511 0.2354 m
0.1513 0.1651 l
0.1515 0.1651 l
0.1517 0.1651 l
0.1519 0.1651 l
0.1521 0.1651 l
0.1523 0.1651 l
0.1525 0.1651 l
0.1527 0.1651 l
0.1529 0.1651 l
0.1531 0.1651 l
0.1533 0.1651 l
0.1535 0.1651 l
0.1537 0.1651 l
0.1539 0.1651 l
0.1541 0.1651 l
0.1543 0.1651 l
0.1545 0.1651 l
0.1547 0.1651 l
0.1549 0.1651 l
0.1551 0.1651 l
0.1553 0.1651 l
0.1555 0.1651 l
0.1557 0.1651 l
0.1559 0.1651 l
0.1561 0.1651 l
0.1563 0.1651 l
0.1565 0.1651 l
0.1567 0.1651 l
0.1569 0.1651 l
0.1571 0.1651 l
0.1573 0.1651 l
0.1575 0.1651 l
0.1577 0.1651 l
0.1579 0.1651 l
0.1581 0.1651 l
0.1583 0.1651 l
0.1585 0.1651 l
0.1587 0.1651 l
0.1589 0.1651 l
0.1591 0.1651 l
0.1593 0.1651 l
0.1595 0.1651 l
0.1597 0.1651 l
0.1599 0.1651 l
0.1601 0.1651 l
0.1603 0.1651 l
0.1605 0.1651 l
0.1607 0.1651 l
0.1609 0.1651 l
0.1611 0.1651 l
0.1613 0.1651 l
0.1615 0.1651 l
0.1617 0.1651 l
0.1619 0.1651 l
0.1621 0.1651 l
0.1623 0.1651 l
0.1625 0.1651 l
0.1627 0.1651 l
0.1629 0.1651 l
0.1631 0.1651 l
0.1633 0.1651 l
0.1635 0.1651 l
0.1637 0.1651 l
0.1639 0.1651 l
0.1641 0.1651 l
0.1643 0.1651 l
0.1645 0.1651 l
0.1647 0.1651 l
0.1649 0.1651 l
0.1651 0.1651 l
0.1653 0.1651 l
0.1655 0.1651 l
0.1657 0.1651 l
0.1659 0.1651 l
0.1661 0.1651 l
0.1663 0.1651 l
0.1665 0.1651 l
0.1667 0.1651 l
0.1669 0.1651 l
0.1671 0.1651 l
0.1673 0.1651 l
0.1675 0.1651 l
0.1677 0.1651 l
0.1679 0.1651 l
0.1681 0.1651 l
0.1683 0.1651 l
0.1685 0.1651 l
0.1687 0.1651 l
0.1689 0.1651 l
0.1691 0.1651 l
0.1693 0.1651 l
0.1695 0.1651 l
0.1697 0.1651 l
0.1699 0.1651 l
0.1701 0.1651 l
0.1703 0.1651 l
0.1705 0.1651 l
0.1707 0.1651 l
0.1709 0.1651 l
0.1711 0.1651 l
0.1713 0.1651 l
0.1715 0.1651 l
0.1717 0.1651 l
0.1719 0.1651 l
0.1721 0.1651 l
0.1723 0.1651 l
0.1725 0.1651 l
0.1727 0.1651 l
0.1729 0.1651 l
0.1731 0.1651 l
0.1733 0.1651 l
0.1735 0.1651 l
0.1737 0.1651 l
0.1739 0.1651 l
0.1741 0.1651 l
0.1743 0.1651 l
0.1745 0.1651 l
0.1747 0.1651 l
0.1749 0.1651 l
0.1751 0.1651 l
0.1753 0.1651 l
0.1755 0.1651 l
0.1757 0.1651 l
0.1759 0.1651 l
0.1761 0.1651 l
0.1763 0.1651 l
0.1765 0.1651 l
0.1767 0.1651 l
0.1769 0.1651 l
0.1771 0.1651 l
0.1773 0.1651 l
0.1775 0.1651 l
0.1777 0.1651 l
0.1779 0.1651 l
0.1781 0.1651 l
0.1783 0.1651 l
0.1785 0.1651 l
0.1787 0.1651 l
0.1789 0.1651 l
0.1791 0.1651 l
0.1793 0.1651 l
0.1795 0.1651 l
0.1797 0.1651 l
0.1799 0.1651 l
0.1801 0.1651 l
0.1803 0.1651 l
0.1805 0.1651 l
0.1807 0.1651 l
0.1809 0.1651 l
0.1811 0.1651 l
0.1813 0.1651 l
0.1815 0.1651 l
0.1817 0.1651 l
0.1819 0.1651 l
0.1821 0.1651 l
0.1823 0.1651 l
0.1825 0.1651 l
0.1827 0.1651 l
0.1829 0.1651 l
0.1831 0.1651 l
0.1833 0.1651 l
0.1835 0.1651 l
0.1837 0.1651 l
0.1839 0.1651 l
0.1841 0.1651 l
0.1843 0.1651 l
0.1845 0.1651 l
0.1847 0.1651 l
0.1849 0.1651 l
0.1851 0.1651 l
0.1853 0.1651 l
0.1855 0.1651 l
0.1857 0.1651 l
0.1859 0.1651 l
0.1861 0.1651 l
0.1863 0.1651 l
0.1865 0.1651 l
0.1867 0.1651 l
0.1869 0.1651 l
0.1871 0.1651 l
0.1873 0.1651 l
0.1875 0.1651 l
0.1877 0.1651 l
0.1879 0.1651 l
0.1881 0.1651 l
0.1883 0.1651 l
0.1885 0.1651 l
0.1887 0.1651 l
0.1889 0.1651 l
0.1891 0.1651 l
0.1893 0.1651 l
0.1895 0.1651 l
0.1897 0.1651 l
0.1899 0.1651 l
0.1901 0.1651 l
0.1903 0.1651 l
0.1905 0.1651 l
0.1907 0.1651 l
0.1909 0.1651 l
0.1911 0.1651 l
0.1913 0.1651 l
0.1915 0.1651 l
0.1917 0.1651 l
0.1919 0.1651 l
0.1921 0.1651 l
0.1923 0.1651 l
0.1925 0.1651 l
0.1927 0.1651 l
0.1929 0.1651 l
0.1931 0.1651 l
0.1933 0.1651 l
0.1935 0.1651 l
0.1937 0.1651 l
0.1939 0.1651 l
0.1941 0.1651 l
0.1943 0.1651 l
0.1945 0.1651 l
0.1947 0.1651 l
0.1949 0.1651 l
0.1951 0.1651 l
0.1953 0.1651 l
0.1955 0.1651 l
0.1957 0.1651 l
0.1959 0.1651 l
0.1961 0.1651 l
0.1963 0.1651 l
0.1965 0.1651 l
0.1967 0.1651 l
0.1969 0.1651 l
0.1971 0.1651 l
0.1973 0.1651 l
0.1975 0.1651 l
0.1977 0.1651 l
0.1979 0.1651 l
0.1981 0.1651 l
0.1983 0.1651 l
0.1985 0.1651 l
0.1987 0.1651 l
0.1989 0.1651 l
0.1991 0.1651 l
0.1993 0.1651 l
0.1995 0.1651 l
0.1997 0.1651 l
0.1999 0.1651 l
0.2001 0.1651 l
0.2003 0.1651 l
0.2005 0.1651 l
0.2007 0.1651 l
0.2009 0.1651 l
0.2011 0.1651 l
0.2013 0.1651 l
0.2015 0.1651 l
0.2017 0.1651 l
0.2019 0.1651 l
0.2021 0.1651 l
0.2023 0.1651 l
0.2025 0.1651 l
0.2027 0.1651 l
0.2029 0.1651 l
0.2031 0.1651 l
0.2033 0.1651 l
0.2035 0.1651 l
0.2037 0.1651 l
0.2039 0.1651 l
0.2041 0.1651 l
0.2043 0.1651 l
0.2045 0.1651 l
0.2047 0.1651 l
0.2049 0.1651 l
0.2051 0.1651 l
0.2053 0.1651 l
0.2055 0.1651 l
0.2057 0.1651 l
0.2059 0.1651 l
0.2061 0.1651 l
0.2063 0.1651 l
0.2065 0.1651 l
0.2067 0.1651 l
0.2069 0.1651 l
0.2071 0.1651 l
0.2073 0.1651 l
0.2075 0.1651 l
0.2077 0.1651 l
0.2079 0.1651 l
0.2081 0.1651 l
0.2083 0.1651 l
0.2085 0.1651 l
0.2087 0.1651 l
0.2089 0.1651 l
0.2091 0.1651 l
0.2093 0.1651 l
0.2095 0.1651 l
0.2097 0.1651 l
0.2099 0.1651 l
0.2101 0.1651 l
0.2103 0.1651 l
0.2105 0.1651 l
0.2107 0.1651 l
0.2109 0.1651 l
0.2111 0.1651 l
0.2113 0.1651 l
0.2115 0.1651 l
0.2117 0.1651 l
0.2119 0.1651 l
0.2121 0.1651 l
0.2123 0.1651 l
0.2125 0.1651 l
0.2127 0.1651 l
0.2129 0.1651 l
0.2131 0.1651 l
0.2133 0.1651 l
0.2135 0.1651 l
0.2137 0.1651 l
0.2139 0.1651 l
0.2141 0.1651 l
0.2143 0.1651 l
0.2145 0.1651 l
0.2147 0.1651 l
0.2149 0.1651 l
0.2151 0.1651 l
0.2153 0.1651 l
0.2155 0.1651 l
0.2157 0.1651 l
0.2159 0.1651 l
0.2161 0.1651 l
0.2163 0.1651 l
0.2165 0.1651 l
0.2167 0.1651 l
0.2169 0.1651 l
0.2171 0.1651 l
0.2173 0.1651 l
0.2175 0.1651 l
0.2177 0.1651 l
0.2179 0.1651 l
0.2181 0.1651 l
0.2183 0.1651 l
0.2185 0.1651 l
0.2187 0.1651 l
0.2189 0.1651 l
0.2191 0.1651 l
0.2193 0.1651 l
0.2195 0.1651 l
0.2197 0.1651 l
0.2199 0.1651 l
0.2201 0.1651 l
0.2203 0.1651 l
0.2205 0.1651 l
0.2207 0.1651 l
0.2209 0.1651 l
0.2211 0.1651 l
0.2213 0.1651 l
0.2215 0.1651 l
0.2217 0.1651 l
0.2219 0.1651 l
0.2221 0.1651 l
0.2223 0.1651 l
0.2225 0.1651 l
0.2227 0.1651 l
0.2229 0.1651 l
0.2231 0.1651 l
0.2233 0.1651 l
0.2235 0.1651 l
0.2237 0.1651 l
0.2239 0.1651 l
0.2241 0.1651 l
0.2243 0.1651 l
0.2245 0.1651 l
0.2247 0.1651 l
0.2249 0.1651 l
0.2251 0.1651 l
0.2253 0.1651 l
0.2255 0.1651 l
0.2257 0.1651 l
0.2259 0.1651 l
0.2261 0.1651 l
0.2263 0.1651 l
0.2265 0.1651 l
0.2267 0.1651 l
0.2269 0.1651 l
0.2271 0.1651 l
0.2273 0.1651 l
0.2275 0.1651 l
0.2277 0.1651 l
0.2279 0.1651 l
0.2281 0.1651 l
0.2283 0.1651 l
0.2285 0.1651 l
0.2287 0.1651 l
0.2289 0.1651 l
0.2291 0.1651 l
0.2293 0.1651 l
0.2295 0.1651 l
0.2297 0.1651 l
0.2299 0.1651 l
0.2301 0.1651 l
0.2303 0.1651 l
0.2305 0.1651 l
0.2307 0.1651 l
0.2309 0.1651 l
0.2311 0.1651 l
0.2313 0.1651 l
0.2315 0.1651 l
0.2317 0.1651 l
0.2319 0.1651 l
0.2321 0.1651 l
0.2323 0.1651 l
0.2325 0.1651 l
0.2327 0.1651 l
0.2329 0.1651 l
0.2331 0.1714 l
0.2334 0.1714 l
0.2336 0.1714 l
0.2339 0.1714 l
0.2342 0.1714 l
0.2345 0.1714 l
0.2348 0.1714 l
0.2351 0.1714 l
0.2353 0.1714 l
0.2356 0.1714 l
0.2359 0.1714 l
0.2362 0.1714 l
0.2365 0.1714 l
0.2367 0.1714 l
0.2370 0.1714 l
0.2373 0.1714 l
0.2376 0.1714 l
0.2379 0.1714 l
0.2382 0.1714 l
0.2384 0.1714 l
0.2387 0.1714 l
0.2390 0.1714 l
0.2393 0.1714 l
0.2396 0.1714 l
0.2399 0.1714 l
0.2401 0.1714 l
0.2404 0.1714 l
0.2407 0.1714 l
0.2410 0.1714 l
0.2413 0.1714 l
0.2416 0.1714 l
0.2418 0.1714 l
0.2421 0.1714 l
0.2424 0.1714 l
0.2427 0.1714 l
0.2430 0.1802 l
0.2434 0.1802 l
0.2438 0.1802 l
0.2442 0.1802 l
0.2446 0.1802 l
0.2450 0.1802 l
0.2454 0.1802 l
0.2458 0.1802 l
0.2462 0.1802 l
0.2466 0.1802 l
0.2470 0.1802 l
0.2474 0.1802 l
0.2478 0.1802 l
0.2482 0.1802 l
0.2486 0.1802 l
0.2490 0.1802 l
0.2494 0.1802 l
0.2498 0.1802 l
0.2502 0.1927 l
0.2507 0.1927 l
0.2513 0.1927 l
0.2519 0.1927 l
0.2524 0.1927 l
0.2530 0.1927 l
0.2536 0.1927 l
0.2541 0.1927 l
0.2547 0.2104 l
0.2555 0.2104 l
0.2563 0.2104 l
0.2571 0.2104 l
0.2579 0.2104 l
0.2587 0.2354 l
0.2598 0.2354 l
0.2609 0.2708 l
0.2625 0.3209 l
0.2648 0.3916 l
0.2680 0.4917 l
0.2712 0.3916 l
0.2735 0.3209 l
0.2757 0.3209 l
0.2773 0.2708 l
0.2789 0.2708 l
0.2800 0.2354 l
0.2812 0.2354 l
0.2823 0.2354 l
0.2834 0.2354 l
0.2846 0.2354 l
0.2854 0.2104 l
0.2862 0.2104 l
0.2870 0.2104 l
0.2878 0.2104 l
0.2886 0.2104 l
0.2894 0.2104 l
0.2902 0.2104 l
0.2910 0.2104 l
0.2918 0.2104 l
0.2926 0.2104 l
0.2934 0.2104 l
0.2939 0.1927 l
0.2945 0.1927 l
0.2951 0.1927 l
0.2956 0.1927 l
0.2962 0.1927 l
0.2968 0.1927 l
0.2973 0.1927 l
0.2979 0.1927 l
0.2984 0.1927 l
0.2990 0.1927 l
0.2996 0.1927 l
0.3001 0.1927 l
0.3007 0.1927 l
0.3013 0.1927 l
0.3018 0.1927 l
0.3024 0.1927 l
0.3030 0.1927 l
0.3035 0.1927 l
0.3041 0.1927 l
0.3047 0.1927 l
0.3051 0.1802 l
0.3055 0.1802 l
0.3059 0.1802 l
0.3063 0.1802 l
0.3067 0.1802 l
0.3071 0.1802 l
0.3075 0.1802 l
0.3079 0.1802 l
0.3083 0.1802 l
0.3087 0.1802 l
0.3091 0.1802 l
0.3095 0.1802 l
0.3099 0.1802 l
0.3103 0.1802 l
0.3107 0.1802 l
0.3111 0.1802 l
0.3115 0.1802 l
0.3119 0.1802 l
0.3123 0.1802 l
0.3127 0.1802 l
0.3131 0.1802 l
0.3135 0.1802 l
0.3139 0.1802 l
0.3143 0.1802 l
0.3147 0.1802 l
0.3151 0.1802 l
0.3155 0.1802 l
0.3159 0.1802 l
0.3163 0.1802 l
0.3167 0.1802 l
0.3171 0.1802 l
0.3175 0.1802 l
0.3179 0.1802 l
0.3183 0.1802 l
0.3187 0.1802 l
0.3191 0.1802 l
0.3195 0.1802 l
0.3199 0.1802 l
0.3203 0.1802 l
0.3207 0.1802 l
0.3211 0.1802 l
0.3215 0.1802 l
0.3219 0.1802 l
0.3223 0.1802 l
0.3227 0.1802 l
0.3231 0.1802 l
0.3233 0.1714 l
0.3236 0.1714 l
0.3239 0.1714 l
0.3242 0.1714 l
0.3245 0.1714 l
0.3247 0.1714 l
0.3250 0.1714 l
0.3253 0.1714 l
0.3256 0.1714 l
0.3259 0.1714 l
0.3262 0.1714 l
0.3264 0.1714 l
0.3267 0.1714 l
0.3270 0.1714 l
0.3273 0.1714 l
0.3276 0.1714 l
0.3279 0.1714 l
0.3281 0.1714 l
0.3284 0.1714 l
0.3287 0.1714 l
0.3290 0.1714 l
0.3293 0.1714 l
0.3296 0.1714 l
0.3298 0.1714 l
0.3301 0.1714 l
0.3304 0.1714 l
0.3307 0.1714 l
0.3310 0.1714 l
0.3312 0.1714 l
0.3315 0.1714 l
0.3318 0.1714 l
0.3321 0.1714 l
0.3324 0.1714 l
0.3327 0.1714 l
0.3329 0.1714 l
0.3332 0.1714 l
0.3335 0.1714 l
0.3338 0.1714 l
0.3341 0.1714 l
0.3344 0.1714 l
0.3346 0.1714 l
0.3349 0.1714 l
0.3352 0.1714 l
0.3355 0.1714 l
0.3358 0.1714 l
0.3361 0.1714 l
0.3363 0.1714 l
0.3366 0.1714 l
0.3369 0.1714 l
0.3372 0.1714 l
0.3375 0.1714 l
0.3377 0.1714 l
0.3380 0.1714 l
0.3383 0.1714 l
0.3386 0.1714 l
0.3389 0.1714 l
0.3392 0.1714 l
0.3394 0.1714 l
0.3397 0.1714 l
0.3400 0.1714 l
0.3403 0.1714 l
0.3406 0.1714 l
0.3409 0.1714 l
0.3411 0.1714 l
0.3414 0.1714 l
0.3417 0.1714 l
0.3420 0.1714 l
0.3423 0.1714 l
0.3425 0.1714 l
0.3428 0.1714 l
0.3431 0.1714 l
0.3434 0.1714 l
0.3437 0.1714 l
0.3440 0.1714 l
0.3442 0.1714 l
0.3445 0.1714 l
0.3448 0.1714 l
0.3451 0.1714 l
0.3454 0.1714 l
0.3457 0.1714 l
0.3459 0.1714 l
0.3462 0.1714 l
0.3465 0.1714 l
0.3468 0.1714 l
0.3471 0.1714 l
0.3474 0.1714 l
0.3476 0.1714 l
0.3479 0.1714 l
0.3482 0.1714 l
0.3485 0.1714 l
0.3488 0.1714 l
0.3490 0.1714 l
0.3493 0.1714 l
0.3496 0.1714 l
0.3499 0.1714 l
0.3502 0.1714 l
0.3505 0.1714 l
0.3507 0.1714 l
0.3510 0.1714 l
0.3513 0.1714 l
0.3516 0.1714 l
0.3519 0.1714 l
0.3522 0.1714 l
0.3524 0.1714 l
0.3527 0.1714 l
0.3530 0.1714 l
0.3533 0.1714 l
0.3536 0.1714 l
0.3539 0.1714 l
0.3541 0.1714 l
0.3544 0.1714 l
0.3547 0.1714 l
0.3549 0.1651 l
0.3551 0.1651 l
0.3553 0.1651 l
0.3555 0.1651 l
0.3557 0.1651 l
0.3559 0.1651 l
0.3561 0.1651 l
0.3563 0.1651 l
0.3565 0.1651 l
0.3567 0.1651 l
0.3569 0.1651 l
0.3571 0.1651 l
0.3573 0.1651 l
0.3575 0.1651 l
0.3577 0.1651 l
0.3579 0.1651 l
0.3581 0.1651 l
0.3583 0.1651 l
0.3585 0.1651 l
0.3587 0.1651 l
0.3589 0.1651 l
0.3591 0.1651 l
0.3593 0.1651 l
0.3595 0.1651 l
0.3597 0.1651 l
0.3599 0.1651 l
0.3601 0.1651 l
0.3603 0.1651 l
0.3605 0.1651 l
0.3607 0.1651 l
0.3609 0.1651 l
0.3611 0.1651 l
0.3613 0.1651 l
0.3615 0.1651 l
0.3617 0.1651 l
0.3619 0.1651 l
0.3621 0.1651 l
0.3623 0.1651 l
0.3625 0.1651 l
0.3627 0.1651 l
0.3629 0.1651 l
0.3631 0.1651 l
0.3633 0.1651 l
0.3635 0.1651 l
0.3637 0.1651 l
0.3639 0.1651 l
0.3641 0.1651 l
0.3643 0.1651 l
0.3645 0.1651 l
0.3647 0.1651 l
0.3649 0.1651 l
0.3651 0.1651 l
0.3653 0.1651 l
0.3655 0.1651 l
0.3657 0.1651 l
0.3659 0.1651 l
0.3661 0.1651 l
0.3663 0.1651 l
0.3665 0.1651 l
0.3667 0.1651 l
0.3669 0.1651 l
0.3671 0.1651 l
0.3673 0.1651 l
0.3675 0.1651 l
0.3677 0.1651 l
0.3679 0.1651 l
0.3681 0.1651 l
0.3683 0.1651 l
0.3685 0.1651 l
0.3687 0.1651 l
0.3689 0.1651 l
0.3691 0.1651 l
0.3693 0.1651 l
0.3695 0.1651 l
0.3697 0.1651 l
0.3699 0.1651 l
0.3701 0.1651 l
0.3703 0.1651 l
0.3705 0.1651 l
0.3707 0.1651 l
0.3709 0.1651 l
0.3711 0.1651 l
0.3713 0.1651 l
0.3715 0.1651 l
0.3717 0.1651 l
0.3719 0.1651 l
0.3721 0.1651 l
0.3723 0.1651 l
0.3725 0.1651 l
0.3727 0.1651 l
0.3729 0.1651 l
0.3731 0.1651 l
0.3733 0.1651 l
0.3735 0.1651 l
0.3737 0.1651 l
0.3739 0.1651 l
0.3741 0.1651 l
0.3743 0.1651 l
0.3745 0.1651 l
0.3747 0.1651 l
0.3749 0.1651 l
0.3751 0.1651 l
0.3753 0.1651 l
0.3755 0.1651 l
0.3757 0.1651 l
0.3759 0.1651 l
0.3761 0.1651 l
0.3763 0.1651 l
0.3765 0.1651 l
0.3767 0.1651 l
0.3769 0.1651 l
0.3771 0.1651 l
0.3773 0.1651 l
0.3775 0.1651 l
0.3777 0.1651 l
0.3779 0.1651 l
0.3781 0.1651 l
0.3783 0.1651 l
0.3785 0.1651 l
0.3787 0.1651 l
0.3789 0.1651 l
0.3791 0.1651 l
0.3793 0.1651 l
0.3795 0.1651 l
0.3797 0.1651 l
0.3799 0.1651 l
0.3801 0.1651 l
0.3803 0.1651 l
0.3805 0.1651 l
0.3807 0.1651 l
0.3809 0.1651 l
0.3811 0.1651 l
0.3813 0.1651 l
0.3815 0.1651 l
0.3817 0.1651 l
0.3819 0.1651 l
0.3821 0.1651 l
0.3823 0.1651 l
0.3825 0.1651 l
0.3827 0.1651 l
0.3829 0.1651 l
0.3831 0.1651 l
0.3833 0.1651 l
0.3835 0.1651 l
0.3837 0.1651 l
0.3839 0.1651 l
0.3841 0.1651 l
0.3843 0.1651 l
0.3845 0.1651 l
0.3847 0.1651 l
0.3849 0.1651 l
0.3851 0.1651 l
0.3853 0.1651 l
0.3855 0.1651 l
0.3857 0.1651 l
0.3859 0.1651 l
0.3861 0.1651 l
0.3863 0.1651 l
0.3865 0.1651 l
0.3867 0.1651 l
0.3869 0.1651 l
0.3871 0.1651 l
0.3873 0.1651 l
0.3875 0.1651 l
0.3877 0.1651 l
0.3879 0.1651 l
0.3881 0.1651 l
0.3883 0.1651 l
0.3885 0.1651 l
0.3887 0.1651 l
0.3889 0.1651 l
0.3891 0.1651 l
0.3893 0.1651 l
0.3895 0.1651 l
0.3897 0.1651 l
0.3899 0.1651 l
0.3901 0.1651 l
0.3903 0.1651 l
0.3905 0.1651 l
0.3907 0.1651 l
0.3909 0.1651 l
0.3911 0.1651 l
0.3913 0.1651 l
0.3915 0.1651 l
0.3917 0.1651 l
0.3919 0.1651 l
0.3921 0.1651 l
0.3923 0.1651 l
0.3925 0.1651 l
0.3927 0.1651 l
0.3929 0.1651 l
0.3931 0.1651 l
0.3933 0.1651 l
0.3935 0.1651 l
0.3937 0.1651 l
0.3939 0.1651 l
0.3941 0.1651 l
0.3943 0.1651 l
0.3945 0.1651 l
0.3947 0.1651 l
0.3949 0.1651 l
0.3951 0.1651 l
0.3953 0.1651 l
0.3955 0.1651 l
0.3957 0.1651 l
0.3959 0.1651 l
0.3961 0.1651 l
0.3963 0.1651 l
0.3965 0.1651 l
0.3967 0.1651 l
0.3969 0.1651 l
0.3971 0.1651 l
0.3973 0.1651 l
0.3975 0.1651 l
0.3977 0.1651 l
0.3979 0.1651 l
0.3981 0.1651 l
0.3983 0.1651 l
0.3985 0.1651 l
0.3987 0.1651 l
0.3989 0.1651 l
0.3991 0.1651 l
0.3993 0.1651 l
0.3995 0.1651 l
0.3997 0.1651 l
0.3999 0.1651 l
0.4001 0.1651 l
0.4003 0.1651 l
0.4005 0.1651 l
0.4007 0.1651 l
0.4009 0.1651 l
0.4011 0.1651 l
0.4013 0.1651 l
0.4015 0.1651 l
0.4017 0.1651 l
0.4019 0.1651 l
0.4021 0.1651 l
0.4023 0.1651 l
0.4025 0.1651 l
0.4027 0.1651 l
0.4029 0.1651 l
0.4031 0.1651 l
0.4033 0.1651 l
0.4035 0.1651 l
0.4037 0.1651 l
0.4039 0.1651 l
0.4041 0.1651 l
0.4043 0.1651 l
0.4045 0.1651 l
0.4047 0.1651 l
0.4049 0.1651 l
0.4051 0.1651 l
0.4053 0.1651 l
0.4055 0.1651 l
0.4057 0.1651 l
0.4059 0.1651 l
0.4061 0.1651 l
0.4063 0.1651 l
0.4065 0.1651 l
0.4067 0.1651 l
0.4069 0.1651 l
0.4071 0.1651 l
0.4073 0.1651 l
0.4075 0.1651 l
0.4077 0.1651 l
0.4079 0.1651 l
0.4081 0.1651 l
0.4083 0.1651 l
0.4085 0.1651 l
0.4087 0.1651 l
0.4089 0.1651 l
0.4091 0.1651 l
0.4093 0.1651 l
0.4095 0.1651 l
0.4097 0.1651 l
0.4099 0.1651 l
0.4101 0.1651 l
0.4103 0.1651 l
0.4105 0.1651 l
0.4107 0.1651 l
0.4109 0.1651 l
0.4111 0.1651 l
0.4113 0.1651 l
0.4115 0.1651 l
0.4117 0.1651 l
0.4119 0.1651 l
0.4121 0.1651 l
0.4123 0.1651 l
0.4125 0.1651 l
0.4127 0.1651 l
0.4129 0.1651 l
0.4131 0.1651 l
0.4133 0.1651 l
0.4135 0.1651 l
0.4137 0.1651 l
0.4139 0.1651 l
0.4141 0.1651 l
0.4143 0.1651 l
0.4145 0.1651 l
0.4147 0.1651 l
0.4149 0.1651 l
0.4150 0.1651 l
0.4152 0.1651 l
0.4154 0.1651 l
0.4156 0.1651 l
0.4158 0.1651 l
0.4160 0.1651 l
0.4162 0.1651 l
0.4164 0.1651 l
0.4166 0.1651 l
0.4168 0.1651 l
0.4170 0.1651 l
0.4172 0.1651 l
0.4174 0.1651 l
0.4176 0.1651 l
0.4178 0.1651 l
0.4180 0.1651 l
0.4182 0.1651 l
0.4184 0.1651 l
0.4186 0.1651 l
0.4188 0.1651 l
0.4190 0.1651 l
0.4192 0.1651 l
0.4194 0.1651 l
0.4196 0.1651 l
0.4198 0.1651 l
0.4200 0.1651 l
0.4202 0.1651 l
0.4204 0.1651 l
0.4206 0.1651 l
0.4208 0.1651 l
0.4210 0.1651 l
0.4212 0.1651 l
0.4214 0.1651 l
0.4216 0.1651 l
0.4218 0.1651 l
0.4220 0.1651 l
0.4222 0.1651 l
0.4224 0.1651 l
0.4226 0.1651 l
0.4228 0.1651 l
0.4230 0.1651 l
0.4232 0.1651 l
0.4234 0.1651 l
0.4236 0.1651 l
0.4238 0.1651 l
0.4240 0.1651 l
0.4242 0.1651 l
0.4244 0.1651 l
0.4246 0.1651 l
0.4248 0.1651 l
0.4250 0.1651 l
0.4252 0.1651 l
0.4254 0.1651 l
0.4256 0.1651 l
0.4258 0.1651 l
0.4260 0.1651 l
0.4262 0.1651 l
0.4264 0.1651 l
0.4266 0.1651 l
0.4268 0.1651 l
0.4270 0.1651 l
0.4272 0.1651 l
0.4274 0.1651 l
0.4276 0.1651 l
0.4278 0.1651 l
0.4280 0.1651 l
0.4282 0.1651 l
0.4284 0.1651 l
0.4286 0.1651 l
0.4288 0.1651 l
0.4290 0.1651 l
0.4292 0.1651 l
0.4294 0.1651 l
0.4296 0.1651 l
0.4298 0.1651 l
0.4300 0.1651 l
0.4302 0.1651 l
0.4304 0.1651 l
0.4306 0.1651 l
0.4308 0.1651 l
0.4310 0.1651 l
0.4312 0.1651 l
0.4314 0.1651 l
0.4316 0.1651 l
0.4318 0.1651 l
0.4320 0.1651 l
0.4322 0.1651 l
0.4324 0.1651 l
0.4326 0.1651 l
0.4328 0.1651 l
0.4330 0.1651 l
0.4332 0.1651 l
0.4334 0.1651 l
0.4336 0.1651 l
0.4338 0.1651 l
0.4340 0.1651 l
0.4342 0.1651 l
0.4344 0.1651 l
0.4346 0.1651 l
0.4348 0.1651 l
0.4350 0.1651 l
0.4352 0.1651 l
0.4354 0.1651 l
0.4356 0.1651 l
0.4358 0.1651 l
0.4360 0.1651 l
0.4362 0.1651 l
0.4364 0.1651 l
0.4366 0.1651 l
0.4368 0.1651 l
0.4370 0.1651 l
0.4372 0.1651 l
0.4374 0.1651 l
0.4376 0.1651 l
0.4378 0.1651 l
0.4380 0.1651 l
0.4382 0.1651 l
0.4384 0.1651 l
0.4386 0.1651 l
0.4388 0.1651 l
0.4390 0.1651 l
0.4392 0.1651 l
0.4394 0.1651 l
0.4396 0.1651 l
0.4398 0.1651 l
0.4400 0.1651 l
0.4402 0.1651 l
0.4404 0.1651 l
0.4406 0.1651 l
0.4408 0.1651 l
0.4410 0.1651 l
0.4412 0.1651 l
0.4414 0.1651 l
0.4416 0.1651 l
0.4418 0.1651 l
0.4420 0.1651 l
0.4422 0.1651 l
0.4424 0.1651 l
0.4426 0.1651 l
0.4428 0.1651 l
0.4430 0.1651 l
0.4432 0.1651 l
0.4434 0.1651 l
0.4436 0.1651 l
0.4438 0.1651 l
0.4440 0.1651 l
0.4442 0.1651 l
0.4444 0.1651 l
0.4446 0.1651 l
0.4448 0.1651 l
0.4450 0.1651 l
0.4452 0.1651 l
0.4454 0.1651 l
0.4456 0.1651 l
0.4458 0.1651 l
0.4460 0.1651 l
0.4462 0.1651 l
0.4464 0.1651 l
0.4466 0.1651 l
0.4468 0.1651 l
0.4470 0.1651 l
0.4472 0.1651 l
0.4474 0.1651 l
0.4476 0.1651 l
0.4478 0.1651 l
0.4480 0.1651 l
0.4482 0.1651 l
0.4484 0.1651 l
0.4486 0.1651 l
0.4488 0.1651 l
0.4490 0.1651 l
0.4492 0.1651 l
0.4494 0.1651 l
0.4496 0.1651 l
0.4498 0.1651 l
0.4500 0.1651 l
0.4502 0.1651 l
0.4504 0.1651 l
0.4506 0.1651 l
0.4508 0.1651 l
0.4510 0.1651 l
0.4512 0.1651 l
0.4514 0.1651 l
0.4516 0.1651 l
0.4518 0.1651 l
0.4520 0.1651 l
0.4522 0.1651 l
0.4524 0.1651 l
0.4526 0.1651 l
0.4528 0.1651 l
0.4530 0.1651 l
0.4532 0.1651 l
0.4534 0.1651 l
0.4536 0.1651 l
0.4538 0.1651 l
0.4540 0.1651 l
0.4542 0.1651 l
0.4544 0.1651 l
0.4546 0.1651 l
0.4548 0.1651 l
0.4550 0.1651 l
0.4552 0.1651 l
0.4554 0.1651 l
0.4556 0.1651 l
0.4558 0.1651 l
0.4560 0.1651 l
0.4562 0.1651 l
0.4564 0.1651 l
0.4566 0.1651 l
0.4568 0.1651 l
0.4570 0.1651 l
0.4572 0.1651 l
0.4574 0.1651 l
0.4576 0.1651 l
0.4578 0.1651 l
0.4580 0.1651 l
0.4582 0.1651 l
0.4584 0.1651 l
0.4586 0.1651 l
0.4588 0.1651 l
0.4590 0.1651 l
0.4592 0.1651 l
0.4594 0.1651 l
0.4596 0.1651 l
0.4598 0.1651 l
0.4600 0.1651 l
0.4602 0.1651 l
0.4604 0.1651 l
0.4606 0.1651 l
0.4608 0.1651 l
0.4610 0.1651 l
0.4612 0.1651 l
0.4614 0.1651 l
0.4616 0.1651 l
0.4618 0.1651 l
0.4620 0.1651 l
0.4622 0.1651 l
0.4624 0.1651 l
0.4626 0.1651 l
0.4628 0.1651 l
0.4630 0.1651 l
0.4632 0.1651 l
0.4634 0.1651 l
0.4636 0.1651 l
0.4638 0.1651 l
0.4640 0.1651 l
0.4642 0.1651 l
0.4644 0.1651 l
0.4646 0.1651 l
0.4648 0.1651 l
0.4650 0.1651 l
0.4652 0.1651 l
0.4654 0.1651 l
0.4656 0.1651 l
0.4658 0.1651 l
0.4660 0.1651 l
0.4662 0.1651 l
0.4664 0.1651 l
0.4666 0.1651 l
0.4668 0.1651 l
0.4670 0.1651 l
0.4672 0.1651 l
0.4674 0.1651 l
0.4676 0.1651 l
0.4678 0.1651 l
0.4680 0.1651 l
0.4682 0.1651 l
0.4684 0.1651 l
0.4686 0.1651 l
0.4688 0.1651 l
0.4690 0.1651 l
0.4692 0.1651 l
0.4694 0.1651 l
0.4696 0.1651 l
0.4698 0.1651 l
0.4700 0.1651 l
0.4702 0.1651 l
0.4704 0.1651 l
0.4706 0.1651 l
0.4708 0.1651 l
0.4710 0.1651 l
0.4712 0.1651 l
0.4714 0.1651 l
0.4716 0.1651 l
0.4718 0.1651 l
0.4720 0.1651 l
0.4722 0.1651 l
0.4724 0.1651 l
0.4726 0.1651 l
0.4728 0.1651 l
0.4730 0.1651 l
0.4732 0.1651 l
0.4734 0.1651 l
0.4736 0.1651 l
0.4738 0.1651 l
0.4740 0.1651 l
0.4742 0.1651 l
0.4744 0.1651 l
0.4746 0.1651 l
0.4748 0.1651 l
0.4750 0.1651 l
0.4752 0.1651 l
0.4754 0.1651 l
0.4756 0.1651 l
0.4758 0.1651 l
0.4760 0.1651 l
0.4762 0.1651 l
0.4764 0.1651 l
0.4766 0.1651 l
0.4768 0.1651 l
0.4770 0.1651 l
0.4772 0.1651 l
0.4774 0.1651 l
0.4776 0.1651 l
0.4778 0.1651 l
0.4780 0.1651 l
0.4782 0.1651 l
0.4784 0.1651 l
0.4786 0.1651 l
0.4788 0.1651 l
0.4790 0.1651 l
0.4792 0.1651 l
0.4794 0.1651 l
0.4796 0.1651 l
0.4798 0.1651 l
0.4800 0.1651 l
0.4802 0.1651 l
0.4804 0.1651 l
0.4806 0.1651 l
0.4808 0.1651 l
0.4810 0.1651 l
0.4812 0.1651 l
0.4814 0.1651 l
0.4816 0.1651 l
0.4818 0.1651 l
0.4820 0.1651 l
0.4822 0.1651 l
0.4824 0.1651 l
0.4826 0.1651 l
0.4828 0.1651 l
0.4830 0.1651 l
0.4832 0.1651 l
0.4834 0.1651 l
0.4836 0.1651 l
0.4838 0.1651 l
0.4840 0.1651 l
0.4842 0.1651 l
0.4844 0.1651 l
0.4846 0.1651 l
0.4848 0.1651 l
0.4850 0.1651 l
0.4852 0.1651 l
0.4854 0.1651 l
0.4856 0.1651 l
0.4858 0.1651 l
0.4860 0.1651 l
0.4862 0.1651 l
0.4864 0.1651 l
0.4866 0.1651 l
0.4868 0.1651 l
0.4870 0.1651 l
0.4872 0.1651 l
0.4874 0.1651 l
0.4876 0.1651 l
0.4878 0.1651 l
0.4880 0.1651 l
0.4882 0.1651 l
0.4884 0.1651 l
0.4886 0.1651 l
0.4888 0.1651 l
0.4890 0.1651 l
0.4892 0.1651 l
0.4894 0.1651 l
0.4896 0.1651 l
0.4898 0.1651 l
0.4900 0.1651 l
0.4902 0.1651 l
0.4904 0.1651 l
0.4906 0.1651 l
0.4908 0.1651 l
0.4910 0.1651 l
0.4912 0.1651 l
0.4914 0.1651 l
0.4916 0.1651 l
0.4918 0.1651 l
0.4920 0.1651 l
0.4922 0.1651 l
0.4924 0.1651 l
0.4926 0.1651 l
0.4928 0.1651 l
0.4930 0.1651 l
0.4932 0.1651 l
0.4934 0.1651 l
0.4936 0.1651 l
0.4938 0.1651 l
0.4940 0.1651 l
0.4942 0.1651 l
0.4944 0.1651 l
0.4946 0.1651 l
0.4948 0.1651 l
0.4950 0.1651 l
0.4952 0.1651 l
0.4954 0.1651 l
0.4956 0.1651 l
0.4958 0.1651 l
0.4960 0.1651 l
0.4962 0.1651 l
0.4964 0.1651 l
0.4966 0.1651 l
0.4968 0.1651 l
0.4970 0.1651 l
0.4972 0.1651 l
0.4974 0.1651 l
0.4976 0.1651 l
0.4978 0.1651 l
0.4980 0.1651 l
0.4982 0.1651 l
0.4984 0.1651 l
0.4986 0.1651 l
0.4988 0.1651 l
0.4990 0.1651 l
0.4992 0.1651 l
0.4994 0.1651 l
0.4996 0.1651 l
0.4998 0.1651 l
0.5000 0.1651 l
0.5002 0.1651 l
0.5004 0.1651 l
0.5006 0.1651 l
0.5008 0.1651 l
0.5010 0.1651 l
0.5012 0.1651 l
0.5014 0.1651 l
0.5016 0.1651 l
0.5018 0.1651 l
0.5020 0.1651 l
0.5022 0.1651 l
0.5024 0.1651 l
0.5026 0.1651 l
0.5028 0.1651 l
0.5030 0.1651 l
0.5032 0.1651 l
0.5034 0.1651 l
0.5036 0.1651 l
0.5038 0.1651 l
0.5040 0.1651 l
0.5042 0.1651 l
0.5044 0.1651 l
0.5046 0.1651 l
0.5048 0.1651 l
0.5050 0.1651 l
0.5052 0.1651 l
0.5054 0.1651 l
0.5056 0.1651 l
0.5058 0.1651 l
0.5060 0.1651 l
0.5062 0.1651 l
0.5064 0.1651 l
0.5066 0.1651 l
0.5068 0.1651 l
0.5070 0.1651 l
0.5072 0.1651 l
0.5074 0.1651 l
0.5076 0.1651 l
0.5078 0.1651 l
0.5080 0.1651 l
0.5082 0.1651 l
0.5084 0.1651 l
0.5086 0.1651 l
0.5088 0.1651 l
0.5090 0.1651 l
0.5092 0.1651 l
0.5094 0.1651 l
0.5096 0.1651 l
0.5098 0.1651 l
0.5100 0.1651 l
0.5102 0.1651 l
0.5104 0.1651 l
0.5106 0.1651 l
0.5108 0.1651 l
0.5110 0.1651 l
0.5112 0.1651 l
0.5114 0.1651 l
0.5116 0.1651 l
0.5118 0.1651 l
0.5120 0.1651 l
0.5122 0.1651 l
0.5124 0.1651 l
0.5126 0.1651 l
0.5128 0.1651 l
0.5130 0.1651 l
0.5132 0.1651 l
0.5134 0.1651 l
0.5136 0.1651 l
0.5138 0.1651 l
0.5140 0.1651 l
0.5142 0.1651 l
0.5144 0.1651 l
0.5146 0.1651 l
0.5148 0.1651 l
0.5150 0.1651 l
0.5152 0.1651 l
0.5154 0.1651 l
0.5156 0.1651 l
0.5158 0.1651 l
0.5160 0.1651 l
0.5162 0.1651 l
0.5164 0.1651 l
0.5166 0.1651 l
0.5168 0.1651 l
0.5170 0.1651 l
0.5172 0.1651 l
0.5174 0.1651 l
0.5176 0.1651 l
0.5178 0.1651 l
0.5180 0.1651 l
0.5182 0.1651 l
0.5184 0.1651 l
0.5186 0.1651 l
0.5188 0.1651 l
0.5190 0.1651 l
0.5192 0.1651 l
0.5194 0.1651 l
0.5196 0.1651 l
0.5198 0.1651 l
0.5200 0.1651 l
0.5202 0.1651 l
0.5204 0.1651 l
0.5206 0.1651 l
0.5208 0.1651 l
0.5210 0.1651 l
0.5212 0.1651 l
0.5214 0.1651 l
0.5216 0.1651 l
0.5218 0.1651 l
0.5220 0.1651 l
0.5222 0.1651 l
0.5224 0.1651 l
0.5226 0.1714 l
0.5228 0.1714 l
0.5231 0.1714 l
0.5234 0.1714 l
0.5237 0.1714 l
0.5240 0.1714 l
0.5243 0.1714 l
0.5245 0.1714 l
0.5248 0.1714 l
0.5251 0.1714 l
0.5254 0.1714 l
0.5257 0.1714 l
0.5259 0.1714 l
0.5262 0.1714 l
0.5265 0.1714 l
0.5268 0.1714 l
0.5271 0.1714 l
0.5274 0.1714 l
0.5276 0.1714 l
0.5279 0.1714 l
0.5282 0.1714 l
0.5285 0.1714 l
0.5288 0.1714 l
0.5291 0.1714 l
0.5293 0.1714 l
0.5296 0.1714 l
0.5299 0.1714 l
0.5302 0.1714 l
0.5305 0.1714 l
0.5308 0.1714 l
0.5310 0.1714 l
0.5313 0.1714 l
0.5316 0.1714 l
0.5319 0.1714 l
0.5322 0.1714 l
0.5324 0.1802 l
0.5328 0.1802 l
0.5332 0.1802 l
0.5336 0.1802 l
0.5340 0.1802 l
0.5344 0.1802 l
0.5348 0.1802 l
0.5352 0.1802 l
0.5356 0.1802 l
0.5360 0.1802 l
0.5364 0.1802 l
0.5368 0.1802 l
0.5372 0.1802 l
0.5376 0.1802 l
0.5380 0.1802 l
0.5384 0.1802 l
0.5388 0.1802 l
0.5392 0.1802 l
0.5396 0.1927 l
0.5402 0.1927 l
0.5408 0.1927 l
0.5413 0.1927 l
0.5419 0.1927 l
0.5425 0.1927 l
0.5430 0.1927 l
0.5436 0.1927 l
0.5442 0.2104 l
0.5450 0.2104 l
0.5458 0.2104 l
0.5466 0.2104 l
0.5474 0.2104 l
0.5482 0.2354 l
0.5493 0.2354 l
0.5504 0.2708 l
0.5520 0.3208 l
0.5543 0.3916 l
0.5575 0.4917 l
0.5607 0.3916 l
0.5629 0.3208 l
0.5652 0.3208 l
0.5668 0.2708 l
0.5684 0.2708 l
0.5695 0.2354 l
0.5707 0.2354 l
0.5718 0.2354 l
0.5729 0.2354 l
0.5740 0.2354 l
0.5748 0.2104 l
0.5756 0.2104 l
0.5764 0.2104 l
0.5772 0.2104 l
0.5780 0.2104 l
0.5788 0.2104 l
0.5796 0.2104 l
0.5804 0.2104 l
0.5812 0.2104 l
0.5820 0.2104 l
0.5828 0.2104 l
0.5834 0.1927 l
0.5840 0.1927 l
0.5845 0.1927 l
0.5851 0.1927 l
0.5857 0.1927 l
0.5862 0.1927 l
0.5868 0.1927 l
0.5874 0.1927 l
0.5879 0.1927 l
0.5885 0.1927 l
0.5891 0.1927 l
0.5896 0.1927 l
0.5902 0.1927 l
0.5907 0.1927 l
0.5913 0.1927 l
0.5919 0.1927 l
0.5924 0.1927 l
0.5930 0.1927 l
0.5936 0.1927 l
0.5941 0.1927 l
0.5945 0.1802 l
0.5949 0.1802 l
0.5953 0.1802 l
0.5957 0.1802 l
0.5961 0.1802 l
0.5965 0.1802 l
0.5969 0.1802 l
0.5973 0.1802 l
0.5977 0.1802 l
0.5981 0.1802 l
0.5985 0.1802 l
0.5989 0.1802 l
0.5993 0.1802 l
0.5997 0.1802 l
0.6001 0.1802 l
0.6005 0.1802 l
0.6009 0.1802 l
0.6013 0.1802 l
0.6017 0.1802 l
0.6021 0.1802 l
0.6025 0.1802 l
0.6029 0.1802 l
0.6033 0.1802 l
0.6037 0.1802 l
0.6041 0.1802 l
0.6045 0.1802 l
0.6049 0.1802 l
0.6053 0.1802 l
0.6057 0.1802 l
0.6061 0.1802 l
0.6065 0.1802 l
0.6069 0.1802 l
0.6073 0.1802 l
0.6077 0.1802 l
0.6081 0.1802 l
0.6085 0.1802 l
0.6089 0.1802 l
0.6093 0.1802 l
0.6097 0.1802 l
0.6101 0.1802 l
0.6105 0.1802 l
0.6109 0.1802 l
0.6113 0.1802 l
0.6117 0.1802 l
0.6121 0.1802 l
0.6125 0.1802 l
0.6128 0.1714 l
0.6131 0.1714 l
0.6134 0.1714 l
0.6136 0.1714 l
0.6139 0.1714 l
0.6142 0.1714 l
0.6145 0.1714 l
0.6148 0.1714 l
0.6151 0.1714 l
0.6153 0.1714 l
0.6156 0.1714 l
0.6159 0.1714 l
0.6162 0.1714 l
0.6165 0.1714 l
0.6168 0.1714 l
0.6170 0.1714 l
0.6173 0.1714 l
0.6176 0.1714 l
0.6179 0.1714 l
0.6182 0.1714 l
0.6185 0.1714 l
0.6187 0.1714 l
0.6190 0.1714 l
0.6193 0.1714 l
0.6196 0.1714 l
0.6199 0.1714 l
0.6201 0.1714 l
0.6204 0.1714 l
0.6207 0.1714 l
0.6210 0.1714 l
0.6213 0.1714 l
0.6216 0.1714 l
0.6218 0.1714 l
0.6221 0.1714 l
0.6224 0.1714 l
0.6227 0.1714 l
0.6230 0.1714 l
0.6233 0.1714 l
0.6235 0.1714 l
0.6238 0.1714 l
0.6241 0.1714 l
0.6244 0.1714 l
0.6247 0.1714 l
0.6250 0.1714 l
0.6252 0.1714 l
0.6255 0.1714 l
0.6258 0.1714 l
0.6261 0.1714 l
0.6264 0.1714 l
0.6266 0.1714 l
0.6269 0.1714 l
0.6272 0.1714 l
0.6275 0.1714 l
0.6278 0.1714 l
0.6281 0.1714 l
0.6283 0.1714 l
0.6286 0.1714 l
0.6289 0.1714 l
0.6292 0.1714 l
0.6295 0.1714 l
0.6298 0.1714 l
0.6300 0.1714 l
0.6303 0.1714 l
0.6306 0.1714 l
0.6309 0.1714 l
0.6312 0.1714 l
0.6314 0.1714 l
0.6317 0.1714 l
0.6320 0.1714 l
0.6323 0.1714 l
0.6326 0.1714 l
0.6329 0.1714 l
0.6331 0.1714 l
0.6334 0.1714 l
0.6337 0.1714 l
0.6340 0.1714 l
0.6343 0.1714 l
0.6346 0.1714 l
0.6348 0.1714 l
0.6351 0.1714 l
0.6354 0.1714 l
0.6357 0.1714 l
0.6360 0.1714 l
0.6363 0.1714 l
0.6365 0.1714 l
0.6368 0.1714 l
0.6371 0.1714 l
0.6374 0.1714 l
0.6377 0.1714 l
0.6379 0.1714 l
0.6382 0.1714 l
0.6385 0.1714 l
0.6388 0.1714 l
0.6391 0.1714 l
0.6394 0.1714 l
0.6396 0.1714 l
0.6399 0.1714 l
0.6402 0.1714 l
0.6405 0.1714 l
0.6408 0.1714 l
0.6411 0.1714 l
0.6413 0.1714 l
0.6416 0.1714 l
0.6419 0.1714 l
0.6422 0.1714 l
0.6425 0.1714 l
0.6428 0.1714 l
0.6430 0.1714 l
0.6433 0.1714 l
0.6436 0.1714 l
0.6439 0.1714 l
0.6442 0.1714 l
0.6444 0.1714 l
0.6446 0.1651 l
0.6448 0.1651 l
0.6450 0.1651 l
0.6452 0.1651 l
0.6454 0.1651 l
0.6456 0.1651 l
0.6458 0.1651 l
0.6460 0.1651 l
0.6462 0.1651 l
0.6464 0.1651 l
0.6466 0.1651 l
0.6468 0.1651 l
0.6470 0.1651 l
0.6472 0.1651 l
0.6474 0.1651 l
0.6476 0.1651 l
0.6478 0.1651 l
0.6480 0.1651 l
0.6482 0.1651 l
0.6484 0.1651 l
0.6486 0.1651 l
0.6488 0.1651 l
0.6490 0.1651 l
0.6492 0.1651 l
0.6494 0.1651 l
0.6496 0.1651 l
0.6498 0.1651 l
0.6500 0.1651 l
0.6502 0.1651 l
0.6504 0.1651 l
0.6506 0.1651 l
0.6508 0.1651 l
0.6510 0.1651 l
0.6512 0.1651 l
0.6514 0.1651 l
0.6516 0.1651 l
0.6518 0.1651 l
0.6520 0.1651 l
0.6522 0.1651 l
0.6524 0.1651 l
0.6526 0.1651 l
0.6528 0.1651 l
0.6530 0.1651 l
0.6532 0.1651 l
0.6534 0.1651 l
0.6536 0.1651 l
0.6538 0.1651 l
0.6540 0.1651 l
0.6542 0.1651 l
0.6544 0.1651 l
0.6546 0.1651 l
0.6548 0.1651 l
0.6550 0.1651 l
0.6552 0.1651 l
0.6554 0.1651 l
0.6556 0.1651 l
0.6558 0.1651 l
0.6560 0.1651 l
0.6562 0.1651 l
0.6564 0.1651 l
0.6566 0.1651 l
0.6568 0.1651 l
0.6570 0.1651 l
0.6572 0.1651 l
0.6574 0.1651 l
0.6576 0.1651 l
0.6578 0.1651 l
0.6580 0.1651 l
0.6582 0.1651 l
0.6584 0.1651 l
0.6586 0.1651 l
0.6588 0.1651 l
0.6590 0.1651 l
0.6592 0.1651 l
0.6594 0.1651 l
0.6596 0.1651 l
0.6598 0.1651 l
0.6600 0.1651 l
0.6602 0.1651 l
0.6604 0.1651 l
0.6606 0.1651 l
0.6608 0.1651 l
0.6610 0.1651 l
0.6612 0.1651 l
0.6614 0.1651 l
0.6616 0.1651 l
0.6618 0.1651 l
0.6620 0.1651 l
0.6622 0.1651 l
0.6624 0.1651 l
0.6626 0.1651 l
0.6628 0.1651 l
0.6630 0.1651 l
0.6632 0.1651 l
0.6634 0.1651 l
0.6636 0.1651 l
0.6638 0.1651 l
0.6640 0.1651 l
0.6642 0.1651 l
0.6644 0.1651 l
0.6646 0.1651 l
0.6648 0.1651 l
0.6650 0.1651 l
0.6652 0.1651 l
0.6654 0.1651 l
0.6656 0.1651 l
0.6658 0.1651 l
0.6660 0.1651 l
0.6662 0.1651 l
0.6664 0.1651 l
0.6666 0.1651 l
0.6668 0.1651 l
0.6670 0.1651 l
0.6672 0.1651 l
0.6674 0.1651 l
0.6676 0.1651 l
0.6678 0.1651 l
0.6680 0.1651 l
0.6682 0.1651 l
0.6684 0.1651 l
0.6686 0.1651 l
0.6688 0.1651 l
0.6690 0.1651 l
0.6692 0.1651 l
0.6694 0.1651 l
0.6696 0.1651 l
0.6698 0.1651 l
0.6700 0.1651 l
0.6702 0.1651 l
0.6704 0.1651 l
0.6706 0.1651 l
0.6708 0.1651 l
0.6710 0.1651 l
0.6712 0.1651 l
0.6714 0.1651 l
0.6716 0.1651 l
0.6718 0.1651 l
0.6720 0.1651 l
0.6722 0.1651 l
0.6724 0.1651 l
0.6726 0.1651 l
0.6728 0.1651 l
0.6730 0.1651 l
0.6732 0.1651 l
0.6734 0.1651 l
0.6736 0.1651 l
0.6738 0.1651 l
0.6740 0.1651 l
0.6742 0.1651 l
0.6744 0.1651 l
0.6746 0.1651 l
0.6748 0.1651 l
0.6750 0.1651 l
0.6752 0.1651 l
0.6754 0.1651 l
0.6756 0.1651 l
0.6758 0.1651 l
0.6760 0.1651 l
0.6762 0.1651 l
0.6764 0.1651 l
0.6766 0.1651 l
0.6768 0.1651 l
0.6770 0.1651 l
0.6772 0.1651 l
0.6774 0.1651 l
0.6776 0.1651 l
0.6778 0.1651 l
0.6780 0.1651 l
0.6782 0.1651 l
0.6784 0.1651 l
0.6786 0.1651 l
0.6788 0.1651 l
0.6790 0.1651 l
0.6792 0.1651 l
0.6794 0.1651 l
0.6796 0.1651 l
0.6798 0.1651 l
0.6800 0.1651 l
0.6802 0.1651 l
0.6804 0.1651 l
0.6806 0.1651 l
0.6808 0.1651 l
0.6810 0.1651 l
0.6812 0.1651 l
0.6814 0.1651 l
0.6816 0.1651 l
0.6818 0.1651 l
0.6820 0.1651 l
0.6822 0.1651 l
0.6824 0.1651 l
0.6826 0.1651 l
0.6828 0.1651 l
0.6830 0.1651 l
0.6832 0.1651 l
0.6834 0.1651 l
0.6836 0.1651 l
0.6838 0.1651 l
0.6840 0.1651 l
0.6842 0.1651 l
0.6844 0.1651 l
0.6846 0.1651 l
0.6848 0.1651 l
0.6850 0.1651 l
0.6852 0.1651 l
0.6854 0.1651 l
0.6856 0.1651 l
0.6858 0.1651 l
0.6860 0.1651 l
0.6862 0.1651 l
0.6864 0.1651 l
0.6866 0.1651 l
0.6868 0.1651 l
0.6870 0.1651 l
0.6872 0.1651 l
0.6874 0.1651 l
0.6876 0.1651 l
0.6878 0.1651 l
0.6880 0.1651 l
0.6882 0.1651 l
0.6884 0.1651 l
0.6886 0.1651 l
0.6888 0.1651 l
0.6890 0.1651 l
0.6892 0.1651 l
0.6894 0.1651 l
0.6896 0.1651 l
0.6898 0.1651 l
0.6900 0.1651 l
0.6902 0.1651 l
0.6904 0.1651 l
0.6906 0.1651 l
0.6908 0.1651 l
0.6910 0.1651 l
0.6912 0.1651 l
0.6914 0.1651 l
0.6916 0.1651 l
0.6918 0.1651 l
0.6920 0.1651 l
0.6922 0.1651 l
0.6924 0.1651 l
0.6926 0.1651 l
0.6928 0.1651 l
0.6930 0.1651 l
0.6932 0.1651 l
0.6934 0.1651 l
0.6936 0.1651 l
0.6938 0.1651 l
0.6940 0.1651 l
0.6942 0.1651 l
0.6944 0.1651 l
0.6946 0.1651 l
0.6948 0.1651 l
0.6950 0.1651 l
0.6952 0.1651 l
0.6954 0.1651 l
0.6956 0.1651 l
0.6958 0.1651 l
0.6960 0.1651 l
0.6962 0.1651 l
0.6964 0.1651 l
0.6966 0.1651 l
0.6968 0.1651 l
0.6970 0.1651 l
0.6972 0.1651 l
0.6974 0.1651 l
0.6976 0.1651 l
0.6978 0.1651 l
0.6980 0.1651 l
0.6982 0.1651 l
0.6984 0.1651 l
0.6986 0.1651 l
0.6988 0.1651 l
0.6990 0.1651 l
0.6992 0.1651 l
0.6994 0.1651 l
0.6996 0.1651 l
0.6998 0.1651 l
0.7000 0.1651 l
0.7001 0.1651 l
s
n
0.1500 0.1500 m
0.7000 0.1500 l
s
n
0.1500 0.5000 m
0.7000 0.5000 l
s
n
0.1934 0.1500 m
0.1934 0.1600 l
s
n
0.1934 0.5000 m
0.1934 0.4900 l
s
n
0.3382 0.1500 m
0.3382 0.1600 l
s
n
0.3382 0.5000 m
0.3382 0.4900 l
s
n
0.4829 0.1500 m
0.4829 0.1600 l
s
n
0.4829 0.5000 m
0.4829 0.4900 l
s
n
0.6276 0.1500 m
0.6276 0.1600 l
s
n
0.6276 0.5000 m
0.6276 0.4900 l
s
n
0.2658 0.1500 m
0.2658 0.1700 l
s
n
0.2658 0.5000 m
0.2658 0.4800 l
s
n
0.4105 0.1500 m
0.4105 0.1700 l
s
n
0.4105 0.5000 m
0.4105 0.4800 l
s
n
0.5553 0.1500 m
0.5553 0.1700 l
s
n
0.5553 0.5000 m
0.5553 0.4800 l
s
n
0.7000 0.1500 m
0.7000 0.1700 l
s
n
0.7000 0.5000 m
0.7000 0.4800 l
s
/Times-Roman findfont
dup length dict begin
 {1 index /FID ne {def} {pop pop} ifelse} forall
 /Encoding DefEncoding def
 currentdict
end
/Font0 exch definefont pop
/Font0 FFSF
0.2492 0.1206 m
GS
[0.0280 0.0000 0.0000 0.0280 0 0] CC
(0.5) show
GR
/Font0 FFSF
0.3933 0.1210 m
GS
[0.0280 0.0000 0.0000 0.0280 0 0] CC
(1.0) show
GR
/Font0 FFSF
0.5387 0.1206 m
GS
[0.0280 0.0000 0.0000 0.0280 0 0] CC
(1.5) show
GR
/Font0 FFSF
0.6828 0.1210 m
GS
[0.0280 0.0000 0.0000 0.0280 0 0] CC
(2.0) show
GR
/Font0 FFSF
0.4005 0.0911 m
GS
[0.0280 0.0000 0.0000 0.0280 0 0] CC
(time) show
GR
n
0.1500 0.1500 m
0.1500 0.5000 l
s
n
0.7000 0.1500 m
0.7000 0.5000 l
s
n
0.1500 0.2047 m
0.1600 0.2047 l
s
n
0.7000 0.2047 m
0.6900 0.2047 l
s
n
0.1500 0.3141 m
0.1600 0.3141 l
s
n
0.7000 0.3141 m
0.6900 0.3141 l
s
n
0.1500 0.4234 m
0.1600 0.4234 l
s
n
0.7000 0.4234 m
0.6900 0.4234 l
s
n
0.1500 0.1500 m
0.1700 0.1500 l
s
n
0.7000 0.1500 m
0.6800 0.1500 l
s
n
0.1500 0.2594 m
0.1700 0.2594 l
s
n
0.7000 0.2594 m
0.6800 0.2594 l
s
n
0.1500 0.3688 m
0.1700 0.3688 l
s
n
0.7000 0.3688 m
0.6800 0.3688 l
s
n
0.1500 0.4781 m
0.1700 0.4781 l
s
n
0.7000 0.4781 m
0.6800 0.4781 l
s
/Font0 FFSF
0.0777 0.1407 m
GS
[0.0280 0.0000 0.0000 0.0280 0 0] CC
(0.000) show
GR
/Font0 FFSF
0.0789 0.2499 m
GS
[0.0280 0.0000 0.0000 0.0280 0 0] CC
(0.005) show
GR
/Font0 FFSF
0.0777 0.3594 m
GS
[0.0280 0.0000 0.0000 0.0280 0 0] CC
(0.010) show
GR
/Font0 FFSF
0.0789 0.4686 m
GS
[0.0280 0.0000 0.0000 0.0280 0 0] CC
(0.015) show
GR
/Font0 FFSF
0.0616 0.2525 m
GS
[0.0000 0.0280 -0.0280 0.0000 0 0] CC
(timestep size) show
GR
n
0.1500 0.1500 m
0.1500 0.5000 l
0.7000 0.5000 l
0.7000 0.1500 l
0.1500 0.1500 l
c
s
%%Trailer
%%BoundingBox: 24 52 427 298
%%DocumentNeededResources: font Times-Roman
%%EOF
