%!PS-Adobe-2.0 EPSF-2.0
% %BoundingBox: 31.0 319.0 815.0 563.0
%%BoundingBox: 15.5 159.5 407.5 281.5
%%Title: /tmp_mnt/hosts/xtreme/mnt2/ALBERTA/DOC/tria_dof.eps
%%CreationDate: 4:02 PM December 13, 1997
%%Pages: 1
%%EndComments
%%BeginProlog
%%BeginResource ShowcaseResource
1 setlinejoin
/M  { moveto } bind def /S { show  } bind def
/R { rmoveto } bind def /L { lineto } bind def
/B { newpath 0 0 M 0 1 L 1 1 L 1 0 L closepath } bind def
/CS { closepath stroke } bind def
/S {
    /fixwidth exch def
    dup length /nchars exch def
    dup stringwidth pop
    fixwidth exch sub nchars div
    exch 0 exch ashow
} def
/bwproc {
	rgbproc
	dup length 3 idiv string 0 3 0
	5 -1 roll {
	add 2 1 roll 1 sub dup 0 eq
	{ pop 3 idiv 3 -1 roll dup 4 -1 roll dup
	  3 1 roll 5 -1 roll put 1 add 3 0 }
	{ 2 1 roll } ifelse
	} forall
	pop pop pop
} def
systemdict /colorimage known not {
	/colorimage {
		pop
		pop
		/rgbproc exch def
		{ bwproc } image
	} def
} if
0.500000 0.500000 scale
0 setlinewidth
/drawtri {
/y3 exch def
/x3 exch def
/y2 exch def
/x2 exch def
/y1 exch def
/x1 exch def
0 setgray
newpath
x1 y1 moveto
x2 y2 lineto
x3 y3 lineto
closepath
stroke
} bind def
/filltri {
/y3 exch def
/x3 exch def
/y2 exch def
/x2 exch def
/y1 exch def
/x1 exch def
newpath
x1 y1 moveto
x2 y2 lineto
x3 y3 lineto
closepath
fill
} bind def
/cliptri {
/y3 exch def
/x3 exch def
/y2 exch def
/x2 exch def
/y1 exch def
/x1 exch def
0 setgray
newpath
x1 y1 moveto
x2 y2 lineto
x3 y3 lineto
closepath
clip
} bind def
/imgscanrgb {
gsave
translate
/scandy exch def
/scandx exch def
/istr scandx 3 mul string def
scandx scandy scale
0.500000 0.500000 scale
scandx scandy 8
[scandx 0 0 scandy neg 0 scandy]
{currentfile istr readhexstring pop}
false 3
colorimage
grestore
} bind def
/imgscanbw {
gsave
translate
/scandy exch def
/scandx exch def
/istr scandx string def
scandx scandy scale
0.500000 0.500000 scale
scandx scandy 8
[scandx 0 0 scandy neg 0 scandy]
{currentfile istr readhexstring pop}
image
grestore
} bind def
/showcaseisoencoding [
/.notdef /.notdef /.notdef /.notdef
/.notdef /.notdef /.notdef /.notdef
/.notdef /.notdef /.notdef /.notdef
/.notdef /.notdef /.notdef /.notdef
/.notdef /.notdef /.notdef /.notdef
/.notdef /.notdef /.notdef /.notdef
/.notdef /.notdef /.notdef /.notdef
/.notdef /.notdef /.notdef /.notdef
/space /exclam /quotedbl /numbersign
/dollar /percent /ampersand /quoteright
/parenleft /parenright /asterisk /plus
/comma /minus /period /slash
/zero /one /two /three /four /five /six /seven
/eight /nine /colon /semicolon
/less /equal /greater /question
/at /A /B /C /D /E /F /G
/H /I /J /K /L /M /N /O
/P /Q /R /S /T /U /V /W
/X /Y /Z /bracketleft
/backslash /bracketright /asciicircum /underscore
/quoteleft /a /b /c /d /e /f /g
/h /i /j /k /l /m /n /o
/p /q /r /s /t /u /v /w
/x /y /z /braceleft
/bar /braceright /asciitilde /guilsinglright
/fraction /florin /quotesingle /quotedblleft
/guilsinglleft /fi /fl /endash
/dagger /daggerdbl /bullet /quotesinglbase
/quotedblbase /quotedblright /ellipsis /trademark
/dotlessi /grave /acute /circumflex
/tilde /macron /breve /dotaccent
/dieresis /perthousand /ring /cedilla
/Ydieresis /hungarumlaut /ogonek /caron
/emdash /exclamdown /cent /sterling
/currency /yen /brokenbar /section
/dieresis /copyright /ordfeminine /guillemotleft
/logicalnot /hyphen /registered /macron
/degree /plusminus /twosuperior /threesuperior
/acute /mu /paragraph /periodcentered
/cedilla /onesuperior /ordmasculine /guillemotright
/onequarter /onehalf /threequarters /questiondown
/Agrave /Aacute /Acircumflex /Atilde
/Adieresis /Aring /AE /Ccedilla
/Egrave /Eacute /Ecircumflex /Edieresis
/Igrave /Iacute /Icircumflex /Idieresis
/Eth /Ntilde /Ograve /Oacute
/Ocircumflex /Otilde /Odieresis /multiply
/Oslash /Ugrave /Uacute /Ucircumflex
/Udieresis /Yacute /Thorn /germandbls
/agrave /aacute /acircumflex /atilde
/adieresis /aring /ae /ccedilla
/egrave /eacute /ecircumflex /edieresis
/igrave /iacute /icircumflex /idieresis
/eth /ntilde /ograve /oacute
/ocircumflex /otilde /odieresis /divide
/oslash /ugrave /uacute /ucircumflex
/udieresis /yacute /thorn /ydieresis ] def
/showcasedingbatencoding [
/.notdef /.notdef /.notdef /.notdef
/.notdef /.notdef /.notdef /.notdef
/.notdef /.notdef /.notdef /.notdef
/.notdef /.notdef /.notdef /.notdef
/.notdef /.notdef /.notdef /.notdef
/.notdef /.notdef /.notdef /.notdef
/.notdef /.notdef /.notdef /.notdef
/.notdef /.notdef /.notdef /.notdef
/.notdef /a1 /a2 /a202 /a3 /a4 /a5 /a119 /a118 /a117
/a11 /a12 /a13 /a14 /a15 /a16 /a105 /a17 /a18 /a19
/a20 /a21 /a22 /a23 /a24 /a25 /a26 /a27 /a28 /a6 /a7
/a8 /a9 /a10 /a29
/a30 /a31 /a32 /a33 /a34 /a35 /a36 /a37 /a38 /a39
/a40 /a41 /a42 /a43 /a44 /a45 /a46 /a47 /a48 /a49
/a50 /a51 /a52 /a53 /a54 /a55 /a56 /a57 /a58 /a59
/a60 /a61 /a62 /a63 /a64 /a65 /a66 /a67 /a68 /a69
/a70 /a71 /a72 /a73 /a74 /a203 /a75 /a204 /a76 /a77 /a78
/a79 /a81 /a82 /a83 /a84 /a97 /a98 /a99 /a100 /.notdef
/a205 /a85 /a206 /a86 /a87 /a88 /a89 /a90 /a91 /a92 /a93
/a94 /a95 /a96
/.notdef /.notdef /.notdef /.notdef /.notdef /.notdef
/.notdef /.notdef /.notdef /.notdef /.notdef /.notdef
/.notdef /.notdef /.notdef /.notdef /.notdef /.notdef
/.notdef /a101 /a102 /a103 /a104 /a106 /a107 /a108
/a112 /a111 /a110 /a109
/a120 /a121 /a122 /a123 /a124 /a125 /a126 /a127 /a128 /a129
/a130 /a131 /a132 /a133 /a134 /a135 /a136 /a137 /a138 /a139
/a140 /a141 /a142 /a143 /a144 /a145 /a146 /a147 /a148 /a149
/a150 /a151 /a152 /a153 /a154 /a155 /a156 /a157 /a158 /a159
/a160 /a161 /a163 /a164 /a196 /a165 /a192 /a166 /a167 /a168
/a169 /a170 /a171 /a172 /a173 /a162 /a174 /a175 /a176 /a177
/a178 /a179 /a193 /a180 /a199 /a181 /a200 /a182 /.notdef
/a201 /a183 /a184 /a197 /a185 /a194 /a198 /a186 /a195 /a187
/a188 /a189 /a190 /a191 /.notdef
] def
/newfont 10 dict def
newfont begin

 /FontType 3 def
 /FontMatrix [1 0 0 1 0 0] def
 /FontBBox [0 0 1 1] def
 /Encoding 256 array def
 0 1 255 {Encoding exch /.notdef put} for

 /CharProcs 1 dict def
 CharProcs begin
 /.notdef {} def

end

 /BuildChar {
  1 0
  0 0 1 1
  setcachedevice
  exch begin
  Encoding exch get
  CharProcs exch get
  end
  exec
 } def
end
/PatternFont newfont definefont pop

%%EndResource
%%EndProlog
%%BeginSetup
%%EndSetup
%%Page: label 1
gsave
/saveit save def
gsave
gsave
0 0 0 setrgbcolor
1.000000 setlinewidth
newpath
108 522 M
54 342 L
216 342 L
closepath
stroke
grestore
gsave
matrix currentmatrix
[18 0 0 -18 99 544.5] concat
B
setmatrix
0 0 0 setrgbcolor
1.000000 setlinewidth
gsave stroke grestore
grestore
gsave
2.000000 setlinewidth
matrix currentmatrix
[4.5 0 0 4.5 108 535.5] concat
newpath
0 0 1 0 360 arc
0 0 0 setrgbcolor
closepath setmatrix stroke
grestore
gsave
matrix currentmatrix
[18 0 0 -18 220.5 351] concat
B
setmatrix
0 0 0 setrgbcolor
1.000000 setlinewidth
gsave stroke grestore
grestore
gsave
2.000000 setlinewidth
matrix currentmatrix
[4.5 0 0 4.5 229.5 342] concat
newpath
0 0 1 0 360 arc
0 0 0 setrgbcolor
closepath setmatrix stroke
grestore
gsave
matrix currentmatrix
[18 0 0 -18 31.5 351] concat
B
setmatrix
0 0 0 setrgbcolor
1.000000 setlinewidth
gsave stroke grestore
grestore
gsave
2.000000 setlinewidth
matrix currentmatrix
[4.5 0 0 4.5 40.5 342] concat
newpath
0 0 1 0 360 arc
0 0 0 setrgbcolor
closepath setmatrix stroke
grestore
gsave
matrix currentmatrix
[18 0 0 -18 126 337.5] concat
B
setmatrix
0 0 0 setrgbcolor
1.000000 setlinewidth
gsave stroke grestore
grestore
gsave
2.000000 setlinewidth
matrix currentmatrix
[4.5 0 0 4.5 135 328.5] concat
newpath
0 0 1 0 360 arc
0 0 0 setrgbcolor
closepath setmatrix stroke
grestore
gsave
matrix currentmatrix
[18 0 0 -18 166.5 450] concat
B
setmatrix
0 0 0 setrgbcolor
1.000000 setlinewidth
gsave stroke grestore
grestore
gsave
2.000000 setlinewidth
matrix currentmatrix
[4.5 0 0 4.5 175.5 441] concat
newpath
0 0 1 0 360 arc
0 0 0 setrgbcolor
closepath setmatrix stroke
grestore
gsave
matrix currentmatrix
[18 0 0 -18 58.5 450] concat
B
setmatrix
0 0 0 setrgbcolor
1.000000 setlinewidth
gsave stroke grestore
grestore
gsave
2.000000 setlinewidth
matrix currentmatrix
[4.5 0 0 4.5 67.5 441] concat
newpath
0 0 1 0 360 arc
0 0 0 setrgbcolor
closepath setmatrix stroke
grestore
gsave
0 0 0 setrgbcolor
1.000000 setlinewidth
newpath
684 522 M
630 342 L
792 342 L
closepath
stroke
grestore
gsave
matrix currentmatrix
[18 0 0 -18 607.5 369] concat
B
setmatrix
0 0 0 setrgbcolor
1.000000 setlinewidth
gsave stroke grestore
grestore
gsave
2.000000 setlinewidth
matrix currentmatrix
[4.5 0 0 4.5 616.5 360] concat
newpath
0 0 1 0 360 arc
0 0 0 setrgbcolor
closepath setmatrix stroke
grestore
gsave
matrix currentmatrix
[18 0 0 -18 693 337.5] concat
B
setmatrix
0 0 0 setrgbcolor
1.000000 setlinewidth
gsave stroke grestore
grestore
gsave
2.000000 setlinewidth
matrix currentmatrix
[4.5 0 0 4.5 702 328.5] concat
newpath
0 0 1 0 360 arc
0 0 0 setrgbcolor
closepath setmatrix stroke
grestore
gsave
matrix currentmatrix
[18 0 0 -18 675 337.5] concat
B
setmatrix
0 0 0 setrgbcolor
1.000000 setlinewidth
gsave stroke grestore
grestore
gsave
2.000000 setlinewidth
matrix currentmatrix
[4.5 0 0 4.5 684 328.5] concat
newpath
0 0 1 0 360 arc
0 0 0 setrgbcolor
closepath setmatrix stroke
grestore
gsave
matrix currentmatrix
[18 0 0 -18 657 337.5] concat
B
setmatrix
0 0 0 setrgbcolor
1.000000 setlinewidth
gsave stroke grestore
grestore
gsave
2.000000 setlinewidth
matrix currentmatrix
[4.5 0 0 4.5 666 328.5] concat
newpath
0 0 1 0 360 arc
0 0 0 setrgbcolor
closepath setmatrix stroke
grestore
gsave
matrix currentmatrix
[18 0 0 -18 796.5 369] concat
B
setmatrix
0 0 0 setrgbcolor
1.000000 setlinewidth
gsave stroke grestore
grestore
gsave
2.000000 setlinewidth
matrix currentmatrix
[4.5 0 0 4.5 805.5 360] concat
newpath
0 0 1 0 360 arc
0 0 0 setrgbcolor
closepath setmatrix stroke
grestore
gsave
matrix currentmatrix
[18 0 0 -18 675 562.5] concat
B
setmatrix
0 0 0 setrgbcolor
1.000000 setlinewidth
gsave stroke grestore
grestore
gsave
2.000000 setlinewidth
matrix currentmatrix
[4.5 0 0 4.5 684 553.5] concat
newpath
0 0 1 0 360 arc
0 0 0 setrgbcolor
closepath setmatrix stroke
grestore
gsave
matrix currentmatrix
[18 0 0 -18 684 414] concat
B
setmatrix
0 0 0 setrgbcolor
1.000000 setlinewidth
gsave stroke grestore
grestore
gsave
2.000000 setlinewidth
matrix currentmatrix
[4.5 0 0 4.5 693 405] concat
newpath
0 0 1 0 360 arc
0 0 0 setrgbcolor
closepath setmatrix stroke
grestore
gsave
matrix currentmatrix
[18 0 0 -18 684 432] concat
B
setmatrix
0 0 0 setrgbcolor
1.000000 setlinewidth
gsave stroke grestore
grestore
gsave
2.000000 setlinewidth
matrix currentmatrix
[4.5 0 0 4.5 693 423] concat
newpath
0 0 1 0 360 arc
0 0 0 setrgbcolor
closepath setmatrix stroke
grestore
gsave
matrix currentmatrix
[18 0 0 -18 684 450] concat
B
setmatrix
0 0 0 setrgbcolor
1.000000 setlinewidth
gsave stroke grestore
grestore
gsave
2.000000 setlinewidth
matrix currentmatrix
[4.5 0 0 4.5 693 441] concat
newpath
0 0 1 0 360 arc
0 0 0 setrgbcolor
closepath setmatrix stroke
grestore
gsave
matrix currentmatrix
[18 0 0 -18 751.5 468] concat
B
setmatrix
0 0 0 setrgbcolor
1.000000 setlinewidth
gsave stroke grestore
grestore
gsave
2.000000 setlinewidth
matrix currentmatrix
[4.5 0 0 4.5 760.5 459] concat
newpath
0 0 1 0 360 arc
0 0 0 setrgbcolor
closepath setmatrix stroke
grestore
gsave
matrix currentmatrix
[18 0 0 -18 751.5 486] concat
B
setmatrix
0 0 0 setrgbcolor
1.000000 setlinewidth
gsave stroke grestore
grestore
gsave
2.000000 setlinewidth
matrix currentmatrix
[4.5 0 0 4.5 760.5 477] concat
newpath
0 0 1 0 360 arc
0 0 0 setrgbcolor
closepath setmatrix stroke
grestore
gsave
matrix currentmatrix
[18 0 0 -18 751.5 504] concat
B
setmatrix
0 0 0 setrgbcolor
1.000000 setlinewidth
gsave stroke grestore
grestore
gsave
2.000000 setlinewidth
matrix currentmatrix
[4.5 0 0 4.5 760.5 495] concat
newpath
0 0 1 0 360 arc
0 0 0 setrgbcolor
closepath setmatrix stroke
grestore
gsave
matrix currentmatrix
[18 0 0 -18 630 468] concat
B
setmatrix
0 0 0 setrgbcolor
1.000000 setlinewidth
gsave stroke grestore
grestore
gsave
2.000000 setlinewidth
matrix currentmatrix
[4.5 0 0 4.5 639 459] concat
newpath
0 0 1 0 360 arc
0 0 0 setrgbcolor
closepath setmatrix stroke
grestore
gsave
matrix currentmatrix
[18 0 0 -18 630 486] concat
B
setmatrix
0 0 0 setrgbcolor
1.000000 setlinewidth
gsave stroke grestore
grestore
gsave
2.000000 setlinewidth
matrix currentmatrix
[4.5 0 0 4.5 639 477] concat
newpath
0 0 1 0 360 arc
0 0 0 setrgbcolor
closepath setmatrix stroke
grestore
gsave
matrix currentmatrix
[18 0 0 -18 630 504] concat
B
setmatrix
0 0 0 setrgbcolor
1.000000 setlinewidth
gsave stroke grestore
grestore
gsave
2.000000 setlinewidth
matrix currentmatrix
[4.5 0 0 4.5 639 495] concat
newpath
0 0 1 0 360 arc
0 0 0 setrgbcolor
closepath setmatrix stroke
grestore
gsave
matrix currentmatrix
[18 0 0 -18 607.5 351] concat
B
setmatrix
0 0 0 setrgbcolor
1.000000 setlinewidth
gsave stroke grestore
grestore
gsave
0 0 0 setrgbcolor
2.000000 setlinewidth
newpath
616.5 346.5 M
616.5 337.5 L
stroke
grestore
gsave
0 0 0 setrgbcolor
2.000000 setlinewidth
newpath
612 342 M
621 342 L
stroke
grestore
gsave
matrix currentmatrix
[18 0 0 -18 675 544.5] concat
B
setmatrix
0 0 0 setrgbcolor
1.000000 setlinewidth
gsave stroke grestore
grestore
gsave
0 0 0 setrgbcolor
2.000000 setlinewidth
newpath
684 540 M
684 531 L
stroke
grestore
gsave
0 0 0 setrgbcolor
2.000000 setlinewidth
newpath
679.5 535.5 M
688.5 535.5 L
stroke
grestore
gsave
matrix currentmatrix
[18 0 0 -18 684 396] concat
B
setmatrix
0 0 0 setrgbcolor
1.000000 setlinewidth
gsave stroke grestore
grestore
gsave
0 0 0 setrgbcolor
2.000000 setlinewidth
newpath
693 391.5 M
693 382.5 L
stroke
grestore
gsave
0 0 0 setrgbcolor
2.000000 setlinewidth
newpath
688.5 387 M
697.5 387 L
stroke
grestore
gsave
matrix currentmatrix
[18 0 0 -18 630 450] concat
B
setmatrix
0 0 0 setrgbcolor
1.000000 setlinewidth
gsave stroke grestore
grestore
gsave
0 0 0 setrgbcolor
2.000000 setlinewidth
newpath
639 445.5 M
639 436.5 L
stroke
grestore
gsave
0 0 0 setrgbcolor
2.000000 setlinewidth
newpath
634.5 441 M
643.5 441 L
stroke
grestore
gsave
matrix currentmatrix
[18 0 0 -18 630 432] concat
B
setmatrix
0 0 0 setrgbcolor
1.000000 setlinewidth
gsave stroke grestore
grestore
gsave
0 0 0 setrgbcolor
2.000000 setlinewidth
newpath
639 427.5 M
639 418.5 L
stroke
grestore
gsave
0 0 0 setrgbcolor
2.000000 setlinewidth
newpath
634.5 423 M
643.5 423 L
stroke
grestore
gsave
matrix currentmatrix
[18 0 0 -18 751.5 450] concat
B
setmatrix
0 0 0 setrgbcolor
1.000000 setlinewidth
gsave stroke grestore
grestore
gsave
0 0 0 setrgbcolor
2.000000 setlinewidth
newpath
760.5 445.5 M
760.5 436.5 L
stroke
grestore
gsave
0 0 0 setrgbcolor
2.000000 setlinewidth
newpath
756 441 M
765 441 L
stroke
grestore
gsave
matrix currentmatrix
[18 0 0 -18 751.5 432] concat
B
setmatrix
0 0 0 setrgbcolor
1.000000 setlinewidth
gsave stroke grestore
grestore
gsave
0 0 0 setrgbcolor
2.000000 setlinewidth
newpath
760.5 427.5 M
760.5 418.5 L
stroke
grestore
gsave
0 0 0 setrgbcolor
2.000000 setlinewidth
newpath
756 423 M
765 423 L
stroke
grestore
gsave
matrix currentmatrix
[18 0 0 -18 796.5 351] concat
B
setmatrix
0 0 0 setrgbcolor
1.000000 setlinewidth
gsave stroke grestore
grestore
gsave
0 0 0 setrgbcolor
2.000000 setlinewidth
newpath
805.5 346.5 M
805.5 337.5 L
stroke
grestore
gsave
0 0 0 setrgbcolor
2.000000 setlinewidth
newpath
801 342 M
810 342 L
stroke
grestore
gsave
matrix currentmatrix
[18 0 0 -18 711 337.5] concat
B
setmatrix
0 0 0 setrgbcolor
1.000000 setlinewidth
gsave stroke grestore
grestore
gsave
0 0 0 setrgbcolor
2.000000 setlinewidth
newpath
720 333 M
720 324 L
stroke
grestore
gsave
0 0 0 setrgbcolor
2.000000 setlinewidth
newpath
715.5 328.5 M
724.5 328.5 L
stroke
grestore
gsave
matrix currentmatrix
[18 0 0 -18 729 337.5] concat
B
setmatrix
0 0 0 setrgbcolor
1.000000 setlinewidth
gsave stroke grestore
grestore
gsave
0 0 0 setrgbcolor
2.000000 setlinewidth
newpath
738 333 M
738 324 L
stroke
grestore
gsave
0 0 0 setrgbcolor
2.000000 setlinewidth
newpath
733.5 328.5 M
742.5 328.5 L
stroke
grestore
gsave
0 0 0 setrgbcolor
1.000000 setlinewidth
newpath
396 522 M
342 342 L
504 342 L
closepath
stroke
grestore
gsave
matrix currentmatrix
[18 0 0 -18 454.5 450] concat
B
setmatrix
0 0 0 setrgbcolor
1.000000 setlinewidth
gsave stroke grestore
grestore
gsave
2.000000 setlinewidth
matrix currentmatrix
[4.5 0 0 4.5 463.5 441] concat
newpath
0 0 1 0 360 arc
0 0 0 setrgbcolor
closepath setmatrix stroke
grestore
gsave
matrix currentmatrix
[18 0 0 -18 346.5 450] concat
B
setmatrix
0 0 0 setrgbcolor
1.000000 setlinewidth
gsave stroke grestore
grestore
gsave
2.000000 setlinewidth
matrix currentmatrix
[4.5 0 0 4.5 355.5 441] concat
newpath
0 0 1 0 360 arc
0 0 0 setrgbcolor
closepath setmatrix stroke
grestore
gsave
matrix currentmatrix
[18 0 0 -18 414 337.5] concat
B
setmatrix
0 0 0 setrgbcolor
1.000000 setlinewidth
gsave stroke grestore
grestore
gsave
2.000000 setlinewidth
matrix currentmatrix
[4.5 0 0 4.5 423 328.5] concat
newpath
0 0 1 0 360 arc
0 0 0 setrgbcolor
closepath setmatrix stroke
grestore
gsave
matrix currentmatrix
[18 0 0 -18 319.5 351] concat
B
setmatrix
0 0 0 setrgbcolor
1.000000 setlinewidth
gsave stroke grestore
grestore
gsave
2.000000 setlinewidth
matrix currentmatrix
[4.5 0 0 4.5 328.5 342] concat
newpath
0 0 1 0 360 arc
0 0 0 setrgbcolor
closepath setmatrix stroke
grestore
gsave
matrix currentmatrix
[18 0 0 -18 508.5 351] concat
B
setmatrix
0 0 0 setrgbcolor
1.000000 setlinewidth
gsave stroke grestore
grestore
gsave
2.000000 setlinewidth
matrix currentmatrix
[4.5 0 0 4.5 517.5 342] concat
newpath
0 0 1 0 360 arc
0 0 0 setrgbcolor
closepath setmatrix stroke
grestore
gsave
matrix currentmatrix
[18 0 0 -18 387 544.5] concat
B
setmatrix
0 0 0 setrgbcolor
1.000000 setlinewidth
gsave stroke grestore
grestore
gsave
2.000000 setlinewidth
matrix currentmatrix
[4.5 0 0 4.5 396 535.5] concat
newpath
0 0 1 0 360 arc
0 0 0 setrgbcolor
closepath setmatrix stroke
grestore
gsave
matrix currentmatrix
[18 0 0 -18 387 562.5] concat
B
setmatrix
0 0 0 setrgbcolor
1.000000 setlinewidth
gsave stroke grestore
grestore
gsave
0 0 0 setrgbcolor
2.000000 setlinewidth
newpath
396 558 M
396 549 L
stroke
grestore
gsave
0 0 0 setrgbcolor
2.000000 setlinewidth
newpath
391.5 553.5 M
400.5 553.5 L
stroke
grestore
gsave
matrix currentmatrix
[18 0 0 -18 319.5 369] concat
B
setmatrix
0 0 0 setrgbcolor
1.000000 setlinewidth
gsave stroke grestore
grestore
gsave
0 0 0 setrgbcolor
2.000000 setlinewidth
newpath
328.5 364.5 M
328.5 355.5 L
stroke
grestore
gsave
0 0 0 setrgbcolor
2.000000 setlinewidth
newpath
324 360 M
333 360 L
stroke
grestore
gsave
matrix currentmatrix
[18 0 0 -18 508.5 369] concat
B
setmatrix
0 0 0 setrgbcolor
1.000000 setlinewidth
gsave stroke grestore
grestore
gsave
0 0 0 setrgbcolor
2.000000 setlinewidth
newpath
517.5 364.5 M
517.5 355.5 L
stroke
grestore
gsave
0 0 0 setrgbcolor
2.000000 setlinewidth
newpath
513 360 M
522 360 L
stroke
grestore
grestore
showpage
saveit restore
grestore
%%EOF
